<?xml version="1.0" encoding="UTF-8" standalone="no"?>
<!-- Created with Inkscape (http://www.inkscape.org/) -->

<svg xmlns:dc="http://purl.org/dc/elements/1.1/" xmlns:cc="http://creativecommons.org/ns#" xmlns:rdf="http://www.w3.org/1999/02/22-rdf-syntax-ns#" xmlns:svg="http://www.w3.org/2000/svg" xmlns="http://www.w3.org/2000/svg" xmlns:xlink="http://www.w3.org/1999/xlink" xmlns:sodipodi="http://sodipodi.sourceforge.net/DTD/sodipodi-0.dtd" xmlns:inkscape="http://www.inkscape.org/namespaces/inkscape" width="718.96497" height="773.30035" id="svg3613" version="1.1" inkscape:version="0.48.5 r" sodipodi:docname="Fluttershy Pondering.svg" inkscape:export-filename="/home/parclytaxel/Pictures/Fluttershy Pondering.png" inkscape:export-xdpi="801.15167" inkscape:export-ydpi="801.15167">
  <defs id="defs3615">
    <inkscape:path-effect effect="skeletal" id="path-effect5914" is_visible="true" pattern="m 396.06306,-709.93521 0,9 70.18694,0 c 50.26843,0 95.48157,-2.24961 136.75,-2.24961 l 46.06306,0 0,-4.5 -46.06306,0 c -41.26844,0 -86.48156,-2.25039 -136.75,-2.25039 z" copytype="single_stretched" prop_scale="1" scale_y_rel="false" spacing="0" normal_offset="0" tang_offset="0" prop_units="false" vertical_pattern="false" fuse_tolerance="0" pattern-nodetypes="ccssccssc" />
    <inkscape:path-effect effect="skeletal" id="path-effect9504" is_visible="true" pattern="m 565.60186,-564.32917 -4,9 369,0 c 14.08013,0 27.85786,-1.31802 42,-4.5 -14.14214,-3.53553 -27.91987,-4.5 -42,-4.5 z" copytype="single_stretched" prop_scale="1" scale_y_rel="false" spacing="0" normal_offset="0" tang_offset="0" prop_units="false" vertical_pattern="false" fuse_tolerance="0" pattern-nodetypes="ccscsc" />
    <clipPath clipPathUnits="userSpaceOnUse" id="clipPath9369">
      <use x="0" y="0" xlink:href="#path3848" id="use9371" width="1" height="1" />
    </clipPath>
    <clipPath clipPathUnits="userSpaceOnUse" id="clipPath9354">
      <use x="0" y="0" xlink:href="#path4612" id="use9356" width="1" height="1" />
    </clipPath>
    <linearGradient inkscape:collect="always" id="linearGradient3865">
      <stop style="stop-color:#035350;stop-opacity:1;" offset="0" id="stop3867" />
      <stop style="stop-color:#00ada8;stop-opacity:1" offset="1" id="stop3869" />
    </linearGradient>
    <inkscape:path-effect effect="skeletal" id="path-effect9397" is_visible="true" pattern="m -35.216154,-360.51084 c -14.08013,0 -27.15076,0.96447 -42,4.5 14.84924,3.18198 27.91987,4.5 42,4.5 l 428.000004,0 c 13.83013,0 22.35786,-0.81802 28,-4.5 -5.64214,-3.28553 -13.91987,-4.5 -28,-4.5 z" copytype="single_stretched" prop_scale="1" scale_y_rel="false" spacing="0" normal_offset="0" tang_offset="0" prop_units="false" vertical_pattern="false" fuse_tolerance="0" pattern-nodetypes="scsscss" />
    <clipPath clipPathUnits="userSpaceOnUse" id="clipPath4320">
      <path style="fill:none;stroke:yellow;stroke-width:0.60282934;stroke-linejoin:miter;stroke-miterlimit:4;stroke-dasharray:none" d="m 162.37838,412.90019 c 10.44677,-1.03148 21.34554,0.66933 32.36669,2.78098 8.21705,1.67559 17.09011,3.35535 26.46352,2.6536 L 183.20768,278.54046 c 2.1354,-18.96892 -1.48387,-37.78831 -7.06557,-55.28632 L 182.02084,208.41182 49.905595,99.130814 -71.352307,276.39903 z" id="path4322" inkscape:connector-curvature="0" sodipodi:nodetypes="ccccc" />
    </clipPath>
    <inkscape:path-effect effect="skeletal" id="path-effect4258" is_visible="true" pattern="m 166,-600 c -14.08013,0 -27.15076,0.96447 -42,4.5 14.84924,3.18198 27.91987,4.5 42,4.5 l 336,0 c 14.08013,0 27.85786,-1.31802 42,-4.5 -14.14214,-3.53553 -27.91987,-4.5 -42,-4.5 z" copytype="single_stretched" prop_scale="1" scale_y_rel="false" spacing="0" normal_offset="0" tang_offset="0" prop_units="false" vertical_pattern="false" fuse_tolerance="0" pattern-nodetypes="scsscss" />
    <clipPath clipPathUnits="userSpaceOnUse" id="clipPath4316">
      <path style="font-size:medium;font-style:normal;font-variant:normal;font-weight:normal;font-stretch:normal;text-indent:0;text-align:start;text-decoration:none;line-height:normal;letter-spacing:normal;word-spacing:normal;text-transform:none;direction:ltr;block-progression:tb;writing-mode:lr-tb;text-anchor:start;baseline-shift:baseline;color:black;fill:none;stroke:yellow;stroke-width:0.5;stroke-linejoin:miter;stroke-miterlimit:4;stroke-dasharray:none;marker:none;visibility:visible;display:inline;overflow:visible;enable-background:accumulate;font-family:Sans;-inkscape-font-specification:Sans" d="m 212.98708,-566.21306 16.51292,57.57524 237.5,7 -56.5,-224 -264.5,-61.5 2,90.5 18.37663,4.46295 c 30.82921,4.03599 68.00007,16.49029 93.28919,36.18183 L 380,-581.13782 l -12.5,18.5 -33.97858,-0.62698 c -56.43323,3.83079 -95.53137,1.86717 -120.53434,-2.94826 z" clip-path="none" id="path4318" inkscape:connector-curvature="0" sodipodi:nodetypes="cccccccccccc" />
    </clipPath>
    <clipPath clipPathUnits="userSpaceOnUse" id="clipPath4335">
      <use x="0" y="0" xlink:href="#path4326" id="use4337" transform="matrix(1.0210994,0.64106858,-0.64106858,1.0210994,-499.05613,779.65175)" width="1" height="1" />
    </clipPath>
    <inkscape:path-effect effect="skeletal" id="path-effect9455" is_visible="true" pattern="m 226.97057,-439.63782 c -14.08013,0 -27.15076,0.96447 -42,4.5 14.84924,3.18198 27.91987,4.5 42,4.5 l 49,0 c 14.08013,0 27.85786,-1.31802 42,-4.5 -14.14214,-3.53553 -27.91987,-4.5 -42,-4.5 z" copytype="single_stretched" prop_scale="1" scale_y_rel="false" spacing="0" normal_offset="0" tang_offset="0" prop_units="false" vertical_pattern="false" fuse_tolerance="0" pattern-nodetypes="scsscss" />
    <inkscape:path-effect effect="skeletal" id="path-effect9417" is_visible="true" pattern="m 276.75945,-543.05801 c -14.08013,0 -27.15076,0.96447 -42,4.5 14.84924,3.18198 27.91987,4.5 42,4.5 l 275,0 c 14.08013,0 27.85786,-1.31802 42,-4.5 -14.14214,-3.53553 -27.91987,-4.5 -42,-4.5 z" copytype="single_stretched" prop_scale="1" scale_y_rel="false" spacing="0" normal_offset="0" tang_offset="0" prop_units="false" vertical_pattern="false" fuse_tolerance="0" pattern-nodetypes="scsscss" />
    <inkscape:path-effect effect="skeletal" id="path-effect9289" is_visible="true" pattern="m 277.5,-872 c -14.08013,0 -27.15076,0.96447 -42,4.5 14.84924,3.18198 27.91987,4.5 42,4.5 l 163,0 c 14.08013,0 27.85786,-1.31802 42,-4.5 -14.14214,-3.53553 -27.91987,-4.5 -42,-4.5 z" copytype="single_stretched" prop_scale="1" scale_y_rel="false" spacing="0" normal_offset="0" tang_offset="0" prop_units="false" vertical_pattern="false" fuse_tolerance="0" pattern-nodetypes="scsscss" />
    <clipPath clipPathUnits="userSpaceOnUse" id="clipPath6075">
      <path style="fill:none;stroke:black" d="m 331.68431,-447.54977 c -4.76317,10.82268 -8.18575,22.46248 -9.04369,34.54017 -0.86582,12.92624 1.35358,25.85223 5.75793,37.84173 2.14095,5.81985 5.02823,11.32259 8.53302,16.39264 L 561,-413.63782 l 287,84 -30,175 -664,-6 21,-295 z" id="path6077" inkscape:connector-curvature="0" sodipodi:nodetypes="cccc" />
    </clipPath>
    <linearGradient inkscape:collect="always" xlink:href="#linearGradient3865" id="linearGradient3864" gradientUnits="userSpaceOnUse" x1="770.18829" y1="190.90392" x2="841.31946" y2="191.28877" />
  </defs>
  <sodipodi:namedview id="base" pagecolor="#ffffff" bordercolor="#666666" borderopacity="1.0" inkscape:pageopacity="0.0" inkscape:pageshadow="2" inkscape:zoom="0.69830564" inkscape:cx="359.48248" inkscape:cy="386.65018" inkscape:document-units="px" inkscape:current-layer="layer1" showgrid="false" fit-margin-top="0" fit-margin-left="0" fit-margin-right="0" fit-margin-bottom="0" inkscape:window-width="1364" inkscape:window-height="698" inkscape:window-x="0" inkscape:window-y="0" inkscape:window-maximized="1" />
  <metadata id="metadata3618">
    <rdf:RDF>
      <cc:Work rdf:about="">
        <dc:format>image/svg+xml</dc:format>
        <dc:type rdf:resource="http://purl.org/dc/dcmitype/StillImage" />
        <dc:title></dc:title>
      </cc:Work>
    </rdf:RDF>
  </metadata>
  <g inkscape:label="Layer 1" inkscape:groupmode="layer" id="layer1" transform="translate(81.283605,-136.73903)">
    <g transform="translate(-127.33901,1055.7397)" id="g6317">
      <path style="fill:#fee785;fill-opacity:1;stroke:#ead463;stroke-width:9;stroke-linecap:butt;stroke-linejoin:miter;stroke-miterlimit:4;stroke-opacity:1;stroke-dasharray:none" d="m 375.39197,-317.99854 c -16.05349,22.48204 -16.6399,53.64463 -4.14286,52.28212 60.92857,-6.64285 119.32767,-7.65234 177.62168,1.3715 24.8763,3.85082 95.6207,-84.96224 65.45011,-90.58579 -54.31596,-10.12405 -115.78572,-2.35714 -168.71429,20.00001 z" id="path8764" inkscape:connector-curvature="0" sodipodi:nodetypes="cssscc" />
      <path clip-path="none" sodipodi:nodetypes="csscscccc" inkscape:connector-curvature="0" id="path4349" d="m 374.14285,-544.17802 c -57.10479,-7.57744 -93.73916,-43.05803 -127.6506,-75.31599 -28.61299,-27.21788 -129.43305,-87.06803 -147.395754,-61.41644 -20.44792,29.20059 39.412914,38.93907 79.038004,68.95773 -57.00349,-18.60253 -128.279614,-11.44756 -127.563544,11.09227 1.056061,33.24302 93.106124,28.95373 157.226804,49.37123 -95.80864,5.29807 -134.910134,82.51548 57.82625,46.03618 -50.51772,39.36791 54.68008,49.1269 117.38316,-11.38656 z" style="fill:#fee785;fill-opacity:1;stroke:#ead463;stroke-width:9;stroke-miterlimit:20;stroke-opacity:1;stroke-dasharray:none" />
      <g transform="translate(-41.029434,30)" id="g5922">
        <path sodipodi:nodetypes="scsscss" inkscape:connector-curvature="0" id="path5881" d="m 710.06778,-627.44928 c 13.06989,76.22578 100.91012,52.34983 50.07665,-8.64535 60.37214,1.30772 53.14503,103.63159 -28.93611,102.12728 -56.99076,-1.04448 -131.22474,-96.5958 -116.56779,-183.36365 20.86331,-123.50897 -157.12899,-50.43317 -179.80374,-167.24231 96.25189,-92.24241 236.47183,-68.99301 277.14917,9.90485 46.80107,90.77547 -12.10733,187.79439 -1.91818,247.21918 z" style="fill:#f3b9d8;fill-opacity:1;stroke:#eb81b4;stroke-width:9;stroke-linecap:butt;stroke-linejoin:miter;stroke-miterlimit:20;stroke-opacity:1;stroke-dasharray:none" />
        <path sodipodi:nodetypes="csc" inkscape:connector-curvature="0" id="path5883" d="m 583.61013,-857.14202 6.90734,5.76962 c 7.37557,-8.84134 17.4073,-15.51886 28.40758,-18.9437 10.58803,-3.30623 22.1208,-3.72193 32.93381,-1.21558 0,0 10e-6,0 10e-6,0 10.85256,2.51865 21.05958,8.04819 28.82298,15.93549 0,0 10e-6,10e-6 10e-6,10e-6 1.9187,1.93061 3.68545,4.01121 5.29791,6.21423 5.71747,7.81147 9.4554,17.02996 11.2584,26.44764 2.27455,11.96274 3.24622,23.97693 3.19694,35.8546 -0.0493,11.87768 -1.12021,23.61874 -2.97558,35.0542 -1.82205,11.23614 -4.34969,22.21641 -7.12093,33.02019 -2.77123,10.80379 -5.78658,21.43025 -8.65891,31.94591 -2.64459,9.65104 -5.15787,19.26117 -7.24395,28.83436 -2.08607,9.57318 -3.74535,19.10903 -4.73111,28.62596 -0.24124,2.32903 -0.44063,4.66472 -0.59388,7.0073 -0.73178,11.28444 -0.35496,22.66273 1.32838,33.8731 0,0 0,1e-5 0,1e-5 1.85371,12.32105 5.27548,24.37667 9.97044,35.89031 l 4.16706,-1.69869 c -4.56683,-11.20643 -7.89428,-22.91877 -9.68749,-34.8605 0,0 0,0 0,0 -1.63463,-10.86393 -1.99792,-21.92236 -1.28779,-32.91355 0,0 0,0 0,0 0.14615,-2.28276 0.33858,-4.56142 0.57298,-6.83619 0.95783,-9.29524 2.67452,-18.64104 4.87732,-28.04453 2.2028,-9.40349 4.89216,-18.86503 7.7487,-28.41014 3.12232,-10.4026 6.44273,-20.95687 9.55379,-31.77697 3.11106,-10.8201 6.01358,-21.90659 8.22631,-33.3921 2.25655,-11.72056 3.6897,-23.83876 4.01227,-36.1935 0.32256,-12.35475 -0.46551,-24.94678 -2.68914,-37.56547 -1.86998,-10.65416 -6.07174,-21.13961 -12.68058,-30.16479 -1.86385,-2.54532 -3.91001,-4.96586 -6.13617,-7.23406 0,-10e-6 0,-10e-6 0,-10e-6 -9.05793,-9.15297 -20.72314,-15.49761 -33.19756,-18.38079 -12.39084,-2.86698 -25.49349,-2.3926 -37.64346,1.39161 -12.67311,3.95728 -24.11421,11.57558 -32.63568,21.76603 z" style="fill:#eb81b4;fill-opacity:1;stroke:none" inkscape:path-effect="#path-effect5914" inkscape:original-d="m 587.0638,-854.25721 c 33.49734,-40.10268 103.82768,-27.8299 114.50709,30.53005 19.02948,103.99068 -58.88517,172.39703 -19.07743,270.0493" />
        <path sodipodi:nodetypes="cccccccccc" d="m 495.1732,-925.82425 c -5.43102,14.7693 -6.79686,36.88231 -1.39846,55.8151 m 14.34115,-60.86459 c -7.98507,16.37458 -11.9816,38.76981 -7.11152,60.00584 m 36.07693,-11.23388 c 10.10376,-31.20459 40.91099,-52.73175 71.93733,-59.76275 m -39.26569,63.99613 c 28.5707,-26.5707 75.88722,-37.23855 120.55445,-25.84654 m 22.47499,222.85688 c -22.69259,58.57242 -5.74823,130.63626 31.97025,146.58254" style="fill:none;stroke:#eb81b4;stroke-width:4.5;stroke-linecap:butt;stroke-linejoin:miter;stroke-miterlimit:4;stroke-opacity:1;stroke-dasharray:none;stroke-dashoffset:0" id="path5885" inkscape:connector-curvature="0" />
      </g>
      <g transform="translate(-41.029434,30)" id="g9514">
        <path style="fill:#fee785;fill-opacity:1;stroke:none" d="m 516.70711,-519.84493 c -40.65353,14.95359 -37.69062,43.26477 -16.41866,43.64935 41.54042,0.75101 77.26947,-5.59997 105.98025,-17.84474 32.30329,-13.77693 48.27787,-92.91117 48.94111,-161.60353 0.36681,-37.99083 -93.54984,6.54989 -87.74621,45.84925 3.32355,22.50549 5.00995,40.96098 4.76093,61.89511 -17.67437,11.17543 -36.38091,21.01558 -55.51742,28.05456 z" id="path9512" inkscape:connector-curvature="0" sodipodi:nodetypes="ssssscs" />
        <path sodipodi:nodetypes="csssssc" inkscape:connector-curvature="0" id="path9478" d="m 572.33266,-542.95597 c 0.0972,-3.6285 0.13846,-7.24225 0.12801,-10.8401 -18.00904,11.99798 -37.13061,22.31567 -57.30704,29.72779 -8.59466,3.11005 -17.12898,7.46525 -24.22332,14.00723 -4.63649,4.16294 -8.64007,9.78759 -10.07792,16.67705 0,1e-5 0,1e-5 0,2e-5 -1.03663,5.24073 0.22995,10.92747 3.95784,15.31045 4.2493,4.45262 9.99274,6.41044 15.39688,6.37721 36.49471,0.70451 73.81808,-3.75621 107.82693,-18.20473 4.98579,-2.16451 9.2558,-5.399 12.80538,-9.07811 0,-1e-5 10e-6,-1e-5 10e-6,-2e-5 4.1986,-4.32464 7.61335,-9.19551 10.5034,-14.20582 7.26163,-12.57169 11.95334,-26.25045 15.60625,-39.89221 4.40615,-16.35584 7.32387,-33.02926 9.34385,-49.73254 2.12272,-17.51909 3.24669,-35.15315 3.41667,-52.79065 0,-10e-6 0,-3e-5 0,-4e-5 0.0521,-2.5026 -0.30894,-5.17022 -1.28272,-7.8213 -0.85557,-2.26686 -2.22776,-4.35048 -4.05832,-6.06921 -1.84864,-1.68217 -3.94397,-2.87937 -6.09512,-3.63147 -2.40959,-0.84801 -4.82885,-1.26969 -7.14882,-1.40221 -5.68171,-0.32472 -11.14842,0.58872 -16.21443,1.98443 -6.15058,1.65829 -12.03004,4.02138 -17.61692,6.80832 -11.87019,5.87747 -22.98599,13.75033 -31.90038,23.88549 -10e-6,0 -10e-6,1e-5 -2e-5,2e-5 -3.99161,4.51692 -7.54104,9.67518 -9.97351,15.53249 -2.19845,5.25036 -3.23531,11.18503 -2.40748,17.1767 0.61689,4.18103 1.18213,8.36892 1.69107,12.56203 1.26889,10.45431 2.50459,20.78476 3.7294,31.17016 1.22481,10.3854 2.44014,20.82484 3.61704,31.55509 2.17935,-10.60036 3.21524,-21.25189 3.3911,-31.89002 0.17586,-10.63813 -0.50879,-21.26582 -1.8017,-31.91974 -0.51857,-4.27315 -1.09462,-8.53783 -1.72347,-12.79236 -0.64729,-3.99708 0.19732,-8.35497 1.83075,-12.44633 1.88262,-4.66245 4.91264,-8.98192 8.41528,-13.0161 7.93199,-9.0869 18.12806,-16.25119 29.14117,-21.75977 5.16885,-2.56477 10.48997,-4.71641 15.9419,-6.17395 4.55232,-1.18728 9.04991,-2.00416 13.30711,-1.69472 1.70036,0.124 3.2957,0.37486 4.67706,0.88976 1.19221,0.4499 2.26129,1.02252 3.01633,1.75772 0.75948,0.686 1.369,1.63801 1.77033,2.67436 0.51812,1.26973 0.68317,2.84149 0.69477,4.53373 0,10e-6 0,2e-5 0,2e-5 -0.16748,17.31326 -1.2698,34.6154 -3.35173,51.79488 -1.99009,16.38943 -4.82614,32.64268 -9.09883,48.47203 -3.59779,13.24725 -7.98789,26.20164 -14.70143,37.71909 -2.66262,4.56088 -5.62939,8.84179 -9.15944,12.43598 -2.98083,3.012 -6.28079,5.58236 -9.89523,7.08573 -32.3768,13.86408 -68.46905,18.0848 -104.13357,17.48475 -3.56039,-0.1953 -7.12297,-1.15471 -8.8543,-3.38199 -10e-6,0 -10e-6,0 -10e-6,-1e-5 -1.73132,-1.71455 -2.28409,-4.84878 -1.81642,-7.65292 0,-10e-6 0,-2e-5 0,-2e-5 0.63968,-4.221 3.74057,-8.20319 7.36986,-11.74967 5.76243,-5.44943 13.2862,-9.18293 21.19167,-12.14213 19.04672,-7.01446 37.08514,-16.43184 54.07207,-27.33439 z" style="fill:#ead463;fill-opacity:1;stroke:none" inkscape:path-effect="#path-effect9504" inkscape:original-d="m 574.95711,-550.05203 c -18.36092,12.24264 -38.0663,22.78293 -58.25,30.2071 -40.65353,14.9536 -37.69062,43.26477 -16.41866,43.64935 41.54042,0.75101 77.26947,-5.59997 105.98025,-17.84474 32.30329,-13.77693 48.27787,-92.91117 48.94111,-161.60353 0.36681,-37.99083 -93.54984,6.54989 -87.74621,45.84925 4.02201,27.23511 5.64645,48.5391 4.58579,75.9447" />
      </g>
      <path style="fill:#fdf6af;fill-opacity:1;stroke:none" d="m 492.53425,-619.06221 c 76.42208,17.42368 139.78149,-31.13965 141.57918,-69.43276 0.62514,-13.31628 -30.25416,-8.65821 -28.28572,-18.99999 36.06617,-189.4839 -230.87167,-202.2341 -212.71427,-13.71429 22.43514,232.93352 -139.05381,271.92467 -101.5184,374.49491 10.64663,29.09325 40.3802,48.42794 70.82457,45.85284 -14.80858,22.0616 -15.08092,51.26846 -2.87761,49.93797 60.92857,-6.64284 124.27742,-6.23813 182.57143,2.78571 24.8763,3.85082 97.75516,-85.9474 67.57143,-91.5 -52.03246,-9.5719 -109.65762,-3.91919 -166.6893,18.72493 12.08126,-19.99158 12.9353,-43.57879 3.98871,-62.22063 38.05594,-76.3209 51.51056,-156.14355 45.54998,-235.92869 z" id="path9524" inkscape:connector-curvature="0" sodipodi:nodetypes="csssscsssccc" />
      <g transform="matrix(1.0218476,0.06153897,-0.05518905,0.91640811,-280.02588,-954.02126)" id="g3861">
        <path sodipodi:nodetypes="cccccccccccc" inkscape:connector-curvature="0" id="path3844" style="fill:black;stroke:none" d="m 773.02428,253.67261 c -5.15725,-9.20283 -3.87606,-17.94938 1.61149,-23.95468 l 3.50784,2.54281 c -4.74394,5.7079 -6.47819,13.21013 -5.11933,21.41187 z m -12.54658,-4.06894 c -2.39022,-11.6362 1.45037,-19.02344 10.42139,-23.617 l 3.04593,3.70723 c -8.91552,4.71427 -11.91299,9.83734 -13.46732,19.90977 z m -13.04768,-15.60232 c 3.2697,-10.06186 10.59472,-13.68059 21.27228,-12.65041 l 1.81147,4.13056 c -12.19318,-0.17419 -16.94021,1.83773 -23.08375,8.51985 z" />
        <path style="fill:white;stroke:none" d="m 753.93068,193.25692 c 19.54475,72.94199 82.52492,68.07637 81.3704,2.06496 -0.86032,-49.19061 -25.50702,-107.838758 -81.3704,-2.06496 z" id="path3848" inkscape:connector-curvature="0" sodipodi:nodetypes="csc" />
        <g clip-path="url(#clipPath9369)" id="g9358">
          <g id="g9346" clip-path="url(#clipPath9354)">
            <path transform="matrix(0.12694487,0.99119501,-0.99182891,0.13316136,882.68125,-630.04628)" sodipodi:type="arc" sodipodi:ry="32.684559" sodipodi:rx="52.324898" sodipodi:cy="178.20731" sodipodi:cx="805.63" inkscape:connector-curvature="0" id="path4612" d="m 857.9549,178.20731 c 0,18.05118 -23.42665,32.68455 -52.3249,32.68455 -28.89824,0 -52.32489,-14.63337 -52.32489,-32.68455 0,-18.05119 23.42665,-32.68456 52.32489,-32.68456 28.89825,0 52.3249,14.63337 52.3249,32.68456 z" style="fill:url(#linearGradient3864);fill-opacity:1;stroke:none" />
            <path sodipodi:nodetypes="ccccc" inkscape:connector-curvature="0" id="path4754" d="m 772.75117,213.13392 24.56056,-2.787 2.26444,7.49008 -18.46395,17.94141 z" style="fill:#9ed8d5;fill-opacity:1;stroke:none" />
            <path style="fill:#68c8c6;fill-opacity:1;stroke:none" d="m 766.56432,205.03733 32.39903,3.1354 0.52256,4.70307 -28.2185,8.01267 z" id="path4752" inkscape:connector-curvature="0" sodipodi:nodetypes="ccccc" />
            <path style="fill:black;stroke:none" d="m 852.62325,179.11551 c 0,13.23845 -18.33114,23.97034 -40.94375,23.97034 -22.6126,0 -40.94374,-10.73189 -40.94374,-23.97034 0,-13.23845 18.33114,-23.97034 40.94374,-23.97034 22.61261,0 40.94375,10.73189 40.94375,23.97034 z" id="path4474" inkscape:connector-curvature="0" sodipodi:cx="811.6795" sodipodi:cy="179.11551" sodipodi:rx="40.943745" sodipodi:ry="23.970339" sodipodi:type="arc" transform="matrix(0.10792917,0.99347332,-0.9940464,0.11527381,903.33158,-634.62739)" />
            <path transform="matrix(0.27470621,-0.9615282,0.9615282,0.27470621,415.73727,892.65795)" sodipodi:type="arc" sodipodi:ry="13.533173" sodipodi:rx="22.301111" sodipodi:cy="168.48653" sodipodi:cx="794.31909" inkscape:connector-curvature="0" id="path3568" d="m 816.6202,168.48653 c 0,7.47416 -9.98454,13.53317 -22.30111,13.53317 -12.31656,0 -22.30111,-6.05901 -22.30111,-13.53317 0,-7.47417 9.98455,-13.53318 22.30111,-13.53318 12.31657,0 22.30111,6.05901 22.30111,13.53318 z" style="fill:white;stroke:none" />
            <path style="fill:white;stroke:none" d="m 800.9839,168.48653 c 0,2.82634 -2.98393,5.11755 -6.66481,5.11755 -3.68087,0 -6.66481,-2.29121 -6.66481,-5.11755 0,-2.82635 2.98394,-5.11756 6.66481,-5.11756 3.68088,0 6.66481,2.29121 6.66481,5.11756 z" id="path4470" inkscape:connector-curvature="0" sodipodi:cx="794.31909" sodipodi:cy="168.48653" sodipodi:rx="6.6648116" sodipodi:ry="5.1175551" sodipodi:type="arc" transform="matrix(0.34108225,-0.95105469,0.93826039,0.31565117,379.17297,902.2629)" />
          </g>
        </g>
        <path id="path3837" style="fill:black;stroke:none" d="m 757.4963,188.05461 3.86986,-6.45854 c -9.77303,2.13113 -18.96737,1.43276 -28.44124,-3.31276 7.06033,7.73446 14.78058,10.77502 24.57138,9.7713 z m -8.31239,10.26231 5.05146,-6.70625 c -10.68981,2.71982 -21.77355,1.56769 -32.22484,-3.65796 7.74785,8.31954 15.83767,11.3541 27.17338,10.36421 z m -33.26996,5.92239 c 9.91216,7.25152 34.38303,5.94274 44.28246,-14.33858 7.97062,-16.3297 19.65807,-34.9272 35.72031,-45.46493 25.96468,-17.03429 32.83872,17.27806 39.38436,50.88608 -1.6e-4,-81.80946 -35.02181,-67.31965 -41.64427,-62.40451 -44.45575,32.99476 -27.97047,75.68923 -77.74286,71.32194 z" inkscape:connector-curvature="0" sodipodi:nodetypes="cccccccccsscsc" />
      </g>
      <g id="FS" transform="matrix(-0.15521978,0.12933011,0.10268245,0.18049587,462.44628,-679.94502)">
        <path id="path4502" d="m 1499.1017,861.3441 c -8.0862,26.3532 -39.9397,46.9724 -64.9391,52.6864 21.7715,11.6046 30.0202,71.1482 -3.0632,77.1918 -30.1047,5.4995 -35.1223,-18.701 -44.1096,-55.7496 -21.2578,11.593 -69.2114,33.7432 -78.417,-0.6126 -9.5544,-35.6576 32.3882,-59.2879 62.4886,-55.137 -25.109,-16.3301 -23.2274,-80.86762 6.7389,-80.86762 33.3286,0 34.8351,66.51442 34.9201,93.12022 42.7951,-36.9881 94.6666,-57.6335 86.3813,-30.6316 z m -37.3706,-236.47649 c -11.1834,32.55753 -53.9526,56.85619 -81.4802,60.6507 25.9242,12.82421 34.0672,87.49935 -6.739,93.7329 -37.6395,5.7498 -41.8708,-24.86575 -51.4612,-69.8402 -38.8111,20.31325 -86.9237,33.47421 -94.3455,-3.6758 -10.004,-50.07492 52.4194,-69.48102 77.8044,-64.3265 -28.0893,-17.77702 -26.1251,-97.4087 11.64,-97.4087 38.1185,0 39.5837,77.75299 37.9833,114.56244 45.4989,-38.71084 117.9285,-66.68007 106.5982,-33.69484 z m -272.6218,122.52667 c 22.7738,21.93001 28.0196,66.30202 18.9916,93.73292 10.0385,-13.9945 88.006,-1.7554 77.1918,42.8843 -8.392,34.6412 -42.5506,25.4084 -79.6423,15.3158 1.2462,31.0833 -2.9747,86.4282 -41.6591,80.255 -41.6079,-6.6397 -41.7256,-68.9813 -23.2801,-92.5076 -24.5719,16.2243 -94.0892,-14.9133 -78.417,-49.0107 14.8422,-32.29154 81.9182,-3.2729 112.7245,12.8653 -15.2001,-57.33661 -9.826,-126.56553 14.0906,-103.53502 z" inkscape:connector-curvature="0" style="fill:#f3b9d8" />
        <path id="path4504" style="fill:none;stroke:#68c8c6;stroke-width:5.27844858" d="m 1418.1893,820.2991 c -4.5695,-4.5695 -5.6092,-15.81199 5.6819,-15.81199 17.6754,0 2.2414,53.95879 -12.2865,82.28089 l 3.9503,1.8632 c 16.0494,-39.1418 50.9318,-80.056 61.7548,-61.3099 3.0645,5.3078 -2.0261,10.4177 -11.5666,10.4177 M 1365.6273,571.79984 c -6.7181,-6.71811 -4.9802,-21.60784 8.3112,-18.04645 24.4448,6.54999 -14.0546,87.05011 -14.0546,87.05011 l 4.4638,1.83319 c 20.2057,-37.16714 59.0013,-82.14892 71.7992,-59.98219 2.5388,4.39735 -1.6385,13.12449 -14.3413,13.12449 M 1104.3628,807.6437 c -6.1993,3.5791 -21.3187,-6.33481 -13.067,-14.58654 17.6596,-17.65963 72.7805,49.68524 72.7805,49.68524 l 2.735,-2.735 c -25.8964,-33.45203 -49.3286,-87.67087 -23.7031,-87.67087 6.129,0 9.4354,12.50913 4.7102,16.56175" inkscape:connector-curvature="0" />
        <path id="path4506" d="m 1428.0363,868.083 c 1.0444,16.7873 -26.5975,58.6222 -46.5602,79.0297 15.5201,-42.4759 27.5936,-68.9796 36.758,-79.0297 4.405,-4.8306 9.518,-4.5676 9.8022,0 z m -52.6865,-237.70169 c -1.5255,22.4225 -38.6096,75.30855 -60.6507,93.12027 21.0231,-51.89096 37.9408,-82.33822 49.0107,-93.7329 8.4451,-8.69291 11.8729,-2.81088 11.64,0.61263 z M 1158.4776,822.7482 c 19.8439,11.7987 44.8138,56.9381 55.7496,89.4444 -35.1243,-37.5748 -55.7474,-63.9892 -60.6507,-79.6423 -3.2619,-10.4134 2.0919,-11.4724 4.9011,-9.8021 z" inkscape:connector-curvature="0" style="fill:#68c8c6" />
      </g>
      <path inkscape:original-d="m 441.53185,-639.06639 c 97.28643,58.81653 190.39683,-2.8905 192.58158,-49.42858 0.62514,-13.31628 -30.25416,-8.65821 -28.28572,-18.99999 36.06617,-189.4839 -230.87167,-202.2341 -212.71427,-13.71429 22.43514,232.93352 -139.0538,271.92467 -101.5184,374.49491 13.29716,36.33617 56.36785,57.45006 93.10152,40.14723" inkscape:path-effect="#path-effect9397" sodipodi:nodetypes="cssssc" inkscape:connector-curvature="0" id="path8144" d="m 536.87241,-620.16124 c -8.13694,0.80241 -16.19554,0.92705 -24.17887,0.45022 -11.90428,-0.70062 -23.637,-2.75786 -35.435,-5.98555 -11.798,-3.22768 -23.67409,-7.63024 -35.72669,-13.36982 10.75118,7.89222 22.10768,14.18901 33.8883,18.86312 11.78062,4.67412 23.99495,7.73839 36.60663,9.00044 8.45429,0.8392 17.05562,0.85658 25.72991,-5.7e-4 12.77086,-1.26195 25.37556,-4.21804 37.36051,-8.87544 16.79555,-6.50481 32.55029,-16.35347 44.96776,-29.73262 5.16333,-5.56162 9.73275,-11.8304 13.1595,-18.80985 2.96717,-6.0064 5.00252,-12.67314 5.36402,-19.66264 0.12992,-2.35564 -0.4851,-4.76766 -1.87122,-6.92823 -1.41733,-1.99697 -3.11918,-3.40476 -4.8122,-4.3154 -10e-6,0 -2e-5,-1e-5 -3e-5,-1e-5 -3.9315,-2.17463 -7.90498,-3.16546 -11.39808,-3.95616 -3.52635,-0.89196 -6.69767,-1.42638 -9.1083,-2.62488 -0.80622,-0.48797 -1.3547,-0.69366 -1.2926,-0.81668 0.0933,0.30041 0.14556,0.26414 0.1223,0.27177 4.04649,-21.11131 4.90961,-43.15628 0.45305,-64.49223 -3.61353,-17.23375 -10.93145,-33.79503 -21.91734,-47.7309 -9.9781,-12.61877 -22.81192,-22.8748 -37.20883,-29.97039 -1e-5,0 -2e-5,-10e-6 -2e-5,-10e-6 -14.06532,-6.92893 -29.52049,-10.89024 -45.14094,-11.74959 -1e-5,0 -2e-5,0 -3e-5,0 -15.57101,-0.86219 -31.32353,1.35812 -46.02224,6.68972 -14.94309,5.42277 -28.69912,14.13138 -39.86419,25.51283 -12.21858,12.49454 -21.08843,27.97855 -26.31785,44.51685 -6.4399,20.42944 -7.64858,42.08581 -5.59579,63.09943 2.49385,25.93731 2.95182,52.06338 0.53836,77.91306 0,2e-5 0,3e-5 0,5e-5 -1.98228,21.25261 -5.92484,42.31806 -12.04534,62.72276 -5.22752,17.4405 -12.06273,34.40852 -20.20003,50.73619 -7.16098,14.37301 -15.35767,28.27219 -24.03247,41.91501 -1e-5,1e-5 -1e-5,3e-5 -2e-5,4e-5 -7.67786,12.07178 -15.78282,23.98009 -23.55632,36.21384 -10e-6,2e-5 -2e-5,3e-5 -3e-5,5e-5 -6.82703,10.72608 -13.45077,21.80953 -18.68344,33.72706 -4.76317,10.82268 -8.18575,22.46248 -9.04369,34.54017 -0.86582,12.92624 1.35358,25.85223 5.75793,37.84173 5.76177,15.6625 16.92892,29.02822 30.99076,37.8445 3.05009,1.9123 6.11988,3.52783 9.16249,4.87557 5.23224,2.32014 10.37175,3.84646 15.24053,4.75793 4.86878,0.91146 9.46958,1.20884 13.71346,1.05652 6.55647,-0.24093 12.20443,-1.55568 16.89449,-3.35961 4.69007,-1.80392 8.4329,-4.10338 11.32571,-6.57415 -3.72545,0.7595 -7.80993,1.51956 -12.44798,2.04759 -4.63806,0.52804 -9.84073,0.83343 -15.68171,0.41211 -3.74521,-0.26609 -7.75806,-0.83362 -12.01127,-1.85813 -4.25321,-1.02451 -8.75032,-2.50645 -13.36785,-4.62974 -2.65323,-1.22153 -5.34651,-2.66211 -8.04355,-4.35497 -12.4066,-7.78728 -22.35124,-19.64168 -27.32324,-33.31056 -3.99896,-10.97361 -6.04272,-22.6628 -5.23098,-34.13135 0.71249,-10.75929 3.89021,-21.40154 8.30911,-31.5475 4.90355,-11.23007 11.31137,-21.90808 18.03566,-32.51075 10e-6,-1e-5 2e-5,-3e-5 2e-5,-4e-5 7.67082,-12.07443 15.77495,-23.98145 23.55385,-36.20996 8.78832,-13.81176 17.13862,-27.98271 24.49331,-42.73031 8.35324,-16.7548 15.37713,-34.19956 20.76608,-52.16639 6.29966,-21.01817 10.35568,-42.6669 12.3857,-64.47258 0,-2e-5 0,-4e-5 0,-5e-5 2.46565,-26.51097 2.00681,-53.203 -0.541,-79.61093 -1.90763,-20.10565 -0.82535,-40.56794 5.21658,-59.51721 4.85996,-15.29251 13.01262,-29.58314 24.16629,-40.93673 10.16708,-10.38504 22.80443,-18.37362 36.50817,-23.35276 1e-5,-10e-6 3e-5,-10e-6 4e-5,-2e-5 13.50375,-4.90896 28.06706,-6.95369 42.45462,-6.16294 1e-5,0 3e-5,0 5e-5,0 14.43239,0.79879 28.72628,4.45543 41.6571,10.83558 10e-6,1e-5 3e-5,2e-5 4e-5,2e-5 13.21403,6.51659 25.02045,15.94166 34.12662,27.47753 10.05896,12.70026 16.79512,28.01949 20.17207,44.00476 4.21102,19.85271 3.33651,40.71894 -0.48722,60.95606 -0.44856,2.2421 0.0313,4.61915 1.47401,6.75058 2e-5,3e-5 4e-5,6e-5 6e-5,9e-5 1.55346,1.9005 3.24103,3.04149 4.70987,3.62259 3.86393,1.74997 7.60439,2.48478 10.8157,3.22606 3.52133,0.90964 6.70534,1.58517 9.02967,3.01023 10e-6,10e-6 2e-5,2e-5 3e-5,2e-5 0.88149,0.57077 1.58589,1.04613 1.81988,1.51813 0.25894,0.29904 0.37093,0.90254 0.36209,1.50269 -0.22274,5.45559 -1.95673,10.94578 -4.45996,16.13296 -2.93207,6.03203 -7.00828,11.58073 -11.67984,16.64964 -11.27085,12.22554 -25.9111,21.3156 -41.62424,27.45683 -11.19037,4.35792 -23.00221,7.12398 -34.98193,8.30532 z" style="fill:#ead463;fill-opacity:1;stroke:none" />
      <g transform="translate(-41.029434,30)" id="g4339">
        <path clip-path="none" sodipodi:nodetypes="csscscccc" inkscape:connector-curvature="0" id="path4326" d="m 420.34213,-579.92869 c -55.38247,-15.84792 -86.4336,-56.30508 -115.26238,-93.17593 -24.3245,-31.11005 -115.30683,-105.06232 -136.82815,-82.31375 -24.49888,25.89593 33.29395,44.2848 68.1025,79.77613 -53.66978,-26.73972 -125.22587,-30.08636 -127.81414,-7.68415 -3.81732,33.04 87.87021,42.25987 148.31512,71.83595 -95.55323,-8.77162 -145.52781,61.8965 50.47136,53.99862 -55.73233,31.556 46.90688,56.59606 117.78621,5.90406 z" style="fill:#fdf6af;fill-opacity:1;stroke:none" />
        <path sodipodi:nodetypes="cscc" inkscape:connector-curvature="0" id="path3930" d="M 191.73004,274.41543 C 164.34469,199.06087 69.82503,126.54579 49.833037,151.48914 24.754262,182.7791 112.46578,250.9715 155.22574,319.92095 59.333156,246.69444 -41.330024,293.47758 200.02227,423.09636" style="fill:none;stroke:#ead463;stroke-width:10.85092831;stroke-miterlimit:20;stroke-opacity:1;stroke-dasharray:none" clip-path="url(#clipPath4320)" transform="matrix(0.7024562,-0.44101739,0.44101739,0.7024562,6.7250924,-767.76364)" />
        <path style="fill:#ead463;fill-opacity:1;stroke:none" d="m 351.03124,-519.0873 c 4.77095,-0.52501 9.45036,-1.28764 14.04234,-2.26598 10.99785,-2.33514 21.57176,-5.912 31.6462,-10.87537 10.07444,-4.96338 19.66594,-11.31983 28.39287,-19.35911 -10.34326,5.77927 -20.56405,10.13694 -30.78661,13.62628 -10.22257,3.48934 -20.45776,6.10402 -30.96002,7.99121 -4.38761,0.78515 -8.82072,1.44033 -13.32041,1.93669 -4.80594,0.53014 -9.62923,0.82618 -14.44866,0.8614 -7.66172,0.046 -15.25804,-0.48988 -22.52148,-2.14484 -2.88198,-0.65749 -5.66699,-1.46423 -8.26805,-2.5459 -10e-6,0 -10e-6,0 -2e-5,-10e-6 -2.114,-0.89278 -4.06212,-1.87685 -5.65006,-3.11713 -10e-6,-10e-6 -2e-5,-10e-6 -2e-5,-2e-5 -1.22753,-0.99872 -2.25757,-1.98017 -2.72628,-3.0026 -0.4063,-0.78287 -0.59748,-1.72677 -0.4732,-2.52665 0,0 0,0 0,-10e-6 0.0611,-1.06889 0.75686,-2.3164 1.64083,-3.64854 1.30381,-1.86536 3.18619,-3.53005 5.28629,-5.17315 6.88349,-5.33178 15.28949,-8.94358 23.96263,-12.32075 10e-6,-10e-6 10e-6,-10e-6 2e-5,-10e-6 6.51107,-2.44683 13.48481,-5.18005 19.75974,-9.80683 1.70299,-1.1833 3.5239,-2.89555 4.99559,-5.34401 0.54706,-0.94336 0.9616,-2.0694 1.18483,-3.35523 0.18409,-1.20182 0.13266,-2.40406 -0.14713,-3.56077 -0.74127,-2.53033 -2.00492,-4.39583 -3.35134,-5.61848 -1e-5,-10e-6 -3e-5,-2e-5 -4e-5,-3e-5 -1.74849,-1.73794 -3.60234,-3.06212 -5.36173,-4.14254 -4.9907,-3.11737 -10.17457,-5.45649 -15.13563,-7.70251 -10e-6,0 -10e-6,0 -2e-5,0 -6.46371,-2.94472 -12.90217,-5.77218 -19.17064,-8.79169 -6.97985,-3.3645 -13.79575,-6.9436 -20.24257,-11.00703 -6.55836,-4.14021 -12.75238,-8.74206 -18.13177,-14.07284 -10e-6,-10e-6 -2e-5,-2e-5 -3e-5,-3e-5 -5.31183,-5.27006 -9.86751,-11.2496 -12.98522,-17.84516 -6.8656,-14.26658 -17.70766,-25.89022 -29.34548,-35.72018 -11.42086,-9.7037 -23.72695,-17.9415 -35.61487,-26.3462 -1e-5,0 -2e-5,-10e-6 -2e-5,-10e-6 -5.05817,-3.58444 -10.01055,-7.15151 -14.57199,-11.03278 -1e-5,0 -2e-5,-10e-6 -2e-5,-2e-5 -3.63092,-3.13037 -7.00064,-6.25186 -9.30827,-9.82312 -0.91432,-1.41266 -1.66489,-2.8178 -2.07835,-4.21039 0,0 0,-10e-6 -1e-5,-2e-5 -0.37733,-1.24817 -0.55202,-2.52641 -0.43798,-3.70906 0.0875,-1.26358 0.52915,-2.59562 1.17168,-3.89141 0,-1e-5 1e-5,-1e-5 1e-5,-2e-5 0.80168,-1.62066 2.02769,-3.16945 3.44419,-4.69364 0.81468,-0.88252 1.92617,-1.58384 3.13695,-2.04901 0,0 1e-5,0 2e-5,0 1.36529,-0.54308 2.99996,-0.75686 4.74693,-0.81492 1e-5,0 2e-5,0 3e-5,0 4.59584,-0.15564 9.44148,1.21171 14.38519,2.9036 6.36258,2.23989 12.52994,5.28828 18.61985,8.64965 7.07094,3.91183 13.93061,8.27542 20.65948,12.88885 10e-6,10e-6 2e-5,10e-6 3e-5,2e-5 14.12752,9.68932 27.58031,20.39008 40.40148,31.817 10e-6,10e-6 2e-5,2e-5 3e-5,2e-5 5.6479,5.0357 11.15068,10.20303 16.41544,15.57429 4.13816,4.22787 8.11848,8.49999 11.64876,13.02347 14.47543,18.53982 29.194,37.35308 46.75238,53.70102 0.4753,0.44252 0.95293,0.88248 1.43295,1.31982 0,0 0,0 0,0 9.96273,9.06875 21.01475,16.81915 32.88958,22.85972 11.87484,6.04057 24.57952,10.3756 37.73249,12.52357 -12.25074,-5.30094 -23.55721,-11.49629 -34.26363,-18.50475 -10.70642,-7.00845 -20.80704,-14.83867 -30.29155,-23.52111 0,0 0,-10e-6 -10e-6,-10e-6 -0.45963,-0.42037 -0.91799,-0.84262 -1.37511,-1.26674 -16.88733,-15.66814 -31.28412,-34.13277 -45.78706,-52.65512 -3.85503,-4.92203 -8.05646,-9.44647 -12.31207,-13.78044 -5.43912,-5.54694 -11.0879,-10.8535 -16.85343,-15.99197 -13.07111,-11.65397 -26.82318,-22.58923 -41.29932,-32.52052 -1e-5,-10e-6 -1e-5,-10e-6 -1e-5,-10e-6 -6.89968,-4.73503 -14.00346,-9.24943 -21.39183,-13.34129 -6.33337,-3.5153 -12.95359,-6.7674 -19.97842,-9.26073 -5.34639,-1.94625 -11.25354,-3.48455 -17.56972,-3.41645 0,0 -1e-5,0 -1e-5,0 -2.50026,0.029 -5.13336,0.43566 -7.74222,1.39346 -2.4152,0.90422 -4.64606,2.35034 -6.49508,4.28342 -1.85104,1.92968 -3.57124,4.17911 -4.92671,6.79552 0,10e-6 -1e-5,10e-6 -1e-5,2e-5 -1.11996,2.1661 -1.87734,4.60507 -2.11892,7.21224 -0.19619,2.46615 0.10224,4.88684 0.80921,7.13641 0,10e-6 0,10e-6 1e-5,2e-5 0.76781,2.41798 1.88032,4.58778 3.16414,6.50438 3.147,4.6902 7.07813,8.44524 10.99248,11.72375 4.93039,4.18101 10.09197,7.91043 15.1996,11.51986 0,0 0,0 1e-5,10e-6 12.01106,8.50751 24.10568,16.58103 34.98046,25.85332 11.04424,9.47491 21.12164,20.10276 27.05152,32.73282 3.68263,7.69906 8.83867,14.52368 14.7863,20.3804 10e-6,0 10e-6,10e-6 2e-5,2e-5 5.99007,5.90468 12.69442,10.91143 19.66281,15.28751 6.84672,4.30602 13.95951,8.04937 21.13322,11.49976 6.45776,3.10811 12.95411,5.96268 19.3443,8.87303 10e-6,1e-5 2e-5,1e-5 3e-5,2e-5 4.98422,2.28414 9.81508,4.43301 14.0766,7.13175 1e-5,10e-6 2e-5,10e-6 3e-5,2e-5 1.48582,0.95958 2.8,1.85016 3.74271,2.84176 10e-6,10e-6 10e-6,10e-6 2e-5,2e-5 0.61374,0.76544 1.0975,1.22895 1.01166,1.4125 0.005,0.0222 0.009,0.0545 0.005,0.0508 0.0178,0.0218 -0.052,0.1502 -0.15064,0.36235 -0.31331,0.74614 -1.31567,1.52198 -2.53993,2.53479 -4.85816,3.72556 -11.10798,6.05829 -17.58798,8.60534 -10e-6,1e-5 -2e-5,1e-5 -3e-5,1e-5 -8.94906,3.39696 -18.10304,7.42749 -26.20658,13.57698 -2.52692,1.90158 -5.02046,4.1962 -7.11977,7.06294 -1.55915,2.06505 -2.79536,4.68563 -3.26219,7.76776 0,2e-5 0,4e-5 0,5e-5 -0.32471,2.73063 0.18035,5.43611 1.41484,7.81138 1.3934,2.56169 3.26163,4.54188 5.24083,5.99881 10e-6,10e-6 2e-5,10e-6 3e-5,2e-5 2.46002,1.85957 5.08612,3.2343 7.68402,4.2891 1e-5,10e-6 3e-5,10e-6 4e-5,2e-5 3.20548,1.31837 6.47488,2.27876 9.72123,3.00683 8.15171,1.83028 16.43234,2.43991 24.5744,2.36615 5.14135,-0.0403 10.27045,-0.35412 15.3661,-0.91486 z" id="path4249" inkscape:path-effect="#path-effect4258" inkscape:original-d="m 425.11265,-551.58776 c -76.90864,55.00409 -191.21025,20.84391 -99.87971,-14.26437 71.74586,-27.57975 -43.55136,-27.34209 -71.03489,-85.11364 -25.14938,-52.86506 -115.52491,-73.18743 -85.94645,-104.4526 21.52132,-22.74857 112.50365,51.2037 136.82815,82.31375 28.82878,36.87085 59.87991,77.32801 115.26238,93.17593" inkscape:connector-curvature="0" sodipodi:nodetypes="cssssc" clip-path="url(#clipPath4316)" />
        <path sodipodi:nodetypes="ccc" transform="translate(0,-995.63782)" inkscape:connector-curvature="0" id="path4345" d="m 272.94322,404.33028 c -3.33849,-13.79589 3.23933,-22.6084 15.9099,-23.33452 3.5,13.75 -1.85355,23.08452 -15.9099,23.33452 z" style="fill:#fdf6af;fill-opacity:1;fill-rule:evenodd;stroke:none" />
        <path style="fill:none;stroke:#ead463;stroke-width:10.85092831;stroke-linecap:butt;stroke-linejoin:miter;stroke-miterlimit:20;stroke-opacity:1;stroke-dasharray:none;stroke-dashoffset:0" d="m 263.89528,498.095 c -69.39174,-16.29743 -81.85438,-58.68102 -37.20067,-64.13074 -97.1491,-36.07981 -80.64238,-158.94146 -6.72467,-66.74445 -43.5121,-98.8618 -7.90509,-119.2167 35.72099,-68.23743" id="path4225" inkscape:connector-curvature="0" sodipodi:nodetypes="cccc" clip-path="url(#clipPath4335)" transform="matrix(0.7024562,-0.44101739,0.44101739,0.7024562,6.7250924,-767.76364)" />
      </g>
      <path inkscape:original-d="m 368.08235,-415.69404 c 93.96521,-19.14214 117.23644,96.20196 32.80205,128.83143" inkscape:path-effect="#path-effect9455" sodipodi:nodetypes="cc" inkscape:connector-curvature="0" id="path8756" d="m 434.65839,-406.59515 c -2.40616,-2.02345 -4.95184,-3.8363 -7.61046,-5.42488 -8.23114,-4.89812 -17.35717,-7.63353 -26.61556,-8.38154 -10.82239,-0.86838 -21.75351,0.8552 -32.35002,4.70753 5.61297,-0.3813 11.04138,-0.42185 16.2692,-0.10472 5.22782,0.31714 10.25678,0.99112 15.10285,2.0766 4.13359,0.92433 8.13779,2.14539 11.97667,3.67885 3.83888,1.53347 7.51348,3.37929 10.97476,5.59364 2.23929,1.42602 4.39743,3.00756 6.46039,4.74233 3.58786,3.01707 6.78479,6.50119 9.46176,10.33728 0,1e-5 0,1e-5 0,1e-5 4.11781,5.88684 7.04801,12.63886 8.6694,19.68455 0,0 10e-6,0 10e-6,0 2.77902,11.98187 1.62219,24.87553 -2.83633,36.4596 -1.00973,2.62347 -2.16369,5.18067 -3.45657,7.65825 -3.92601,7.53051 -9.12247,14.41073 -15.26579,20.5347 -7.02123,7.00598 -15.32892,13.02845 -24.5543,18.17034 10.34461,-2.24569 20.29377,-6.62358 28.91108,-13.10028 7.54009,-5.67338 13.98213,-12.95044 18.70178,-21.36152 1.55791,-2.77897 2.91705,-5.67721 4.06828,-8.66462 5.08329,-13.19106 6.36252,-27.83513 3.20352,-41.71083 0,0 0,0 0,0 -1.86557,-8.13856 -5.26005,-15.93677 -10.06223,-22.82312 0,0 0,0 0,0 -3.13788,-4.49061 -6.8637,-8.55303 -11.04844,-12.07217 z" style="fill:#ead463;fill-opacity:1;stroke:none" />
      <path sodipodi:nodetypes="csssc" inkscape:connector-curvature="0" id="path8758" d="m 362.57849,-301.10735 c -14.96746,22.30745 -15.2398,51.51431 -3.03649,50.18382 60.92857,-6.64284 124.27742,-6.23813 182.57143,2.78571 24.8763,3.85082 97.75516,-85.9474 67.57143,-91.5 -52.03246,-9.5719 -109.65762,-3.91919 -166.78064,18.62993" style="fill:none;stroke:#ead463;stroke-width:9;stroke-linecap:butt;stroke-linejoin:miter;stroke-miterlimit:4;stroke-opacity:1;stroke-dasharray:none" />
      <path sodipodi:nodetypes="cc" inkscape:connector-curvature="0" id="path8754" d="m 492.70472,-619.72456 c 5.79011,80.44749 -7.66451,160.27014 -45.71192,236.84778" style="fill:none;stroke:#ead463;stroke-width:9;stroke-linecap:butt;stroke-linejoin:miter;stroke-miterlimit:4;stroke-opacity:1;stroke-dasharray:none" />
      <g transform="translate(-41.029434,30)" id="g9427">
        <path sodipodi:nodetypes="csscc" inkscape:connector-curvature="0" id="path9425" d="m 482.77097,-546.00372 c -0.71429,85.65991 10.44309,166.36265 40.04861,254.47578 8.8489,26.33646 124.50548,20.39844 111.11678,-1.01015 -57.3372,-91.6824 -91.27996,-170.61282 -114.85138,-255.96455 z" style="fill:#fdf6af;fill-opacity:1;stroke:none" />
        <path style="fill:#ead463;fill-opacity:1;stroke:none" d="m 490.16365,-468.51987 c -1.1078,-12.94056 -2.09866,-25.42515 -3.2568,-38.11256 -1.15813,-12.68741 -2.48307,-25.57795 -4.13588,-39.37129 -1.70583,13.76534 -2.63204,26.78576 -2.87903,39.63374 -0.24699,12.84799 0.18403,25.52557 1.30544,38.61789 1.3963,16.30172 3.30805,32.56162 5.77958,48.74589 6.69494,43.8096 17.47367,86.94185 31.57696,128.9115 0.86674,2.46847 2.23247,4.56376 3.85853,6.23234 0,1e-5 10e-6,1e-5 2e-5,2e-5 1.86033,1.92515 3.92612,3.43093 6.00926,4.6206 5.26432,3.01834 10.88683,4.79915 16.33893,6.05617 10e-6,0 2e-5,0 3e-5,0 6.72563,1.5869 13.52488,2.50352 20.27453,3.04197 7.26821,0.5848 14.55663,0.73616 21.81966,0.51287 6.92921,-0.21049 13.88196,-0.76076 20.79994,-1.78409 5.72716,-0.83638 11.56102,-2.00632 17.28693,-3.9786 2.20272,-0.75454 4.45887,-1.68721 6.67539,-2.92212 1.70747,-0.91569 3.49934,-2.19134 5.13152,-3.98142 10e-6,0 2e-5,-10e-6 3e-5,-2e-5 1.36226,-1.43481 2.3803,-3.47342 2.72371,-5.99212 0.12806,-2.66111 -0.56036,-4.93985 -1.72072,-6.63505 -26.08918,-41.72211 -49.84929,-84.90644 -69.79081,-129.79735 -7.47549,-16.8241 -14.39907,-33.89283 -20.7849,-51.16394 -9.01574,-24.38393 -18.03709,-48.1654 -28.09099,-72.6172 3.57878,26.24002 10.54216,51.10666 19.64999,75.73827 6.45108,17.44655 13.44674,34.69301 21.00116,51.69713 20.15439,45.35404 44.11253,88.91099 70.38491,130.91521 0.26939,0.59098 0.51448,0.99883 0.3907,1.02238 0.10248,0.0498 -0.18196,0.38803 -0.52288,0.89089 0,0 0,0 0,0 -0.57137,0.71685 -1.58008,1.358 -2.78209,2.07792 -1.5575,0.88672 -3.32662,1.60014 -5.21432,2.26438 -4.93323,1.72487 -10.22372,2.76155 -15.65681,3.57885 -6.51122,0.96654 -13.11613,1.48583 -19.75638,1.6911 -6.95509,0.21234 -13.91077,0.0693 -20.82144,-0.48804 -6.43184,-0.52331 -12.78075,-1.36891 -18.92352,-2.82888 -10e-6,0 -2e-5,0 -3e-5,-1e-5 -5.03267,-1.22547 -9.83828,-2.68038 -13.88825,-5.07845 -1.56452,-0.9315 -2.96482,-1.91163 -4.01281,-3.04367 -10e-6,0 -10e-6,-10e-6 -2e-5,-10e-6 -0.86709,-0.95219 -1.56262,-1.93524 -1.84795,-2.89561 -13.94841,-41.51893 -24.60532,-84.14876 -31.21151,-127.4042 -2.44212,-15.97896 -4.33071,-32.04173 -5.71008,-48.15449 z" id="path8752" inkscape:connector-curvature="0" sodipodi:nodetypes="cssc" inkscape:path-effect="#path-effect9417" inkscape:original-d="m 482.77097,-546.00372 c -0.71429,85.65991 10.44309,166.36265 40.04861,254.47578 8.8489,26.33646 124.50548,20.39844 111.11678,-1.01015 -57.3372,-91.6824 -91.27996,-170.61282 -114.85138,-255.96455" />
      </g>
      <path d="m 621.73673,-657.93117 -5.61396,5.71752 c -10.64645,-9.24999 -25.9693,-12.23529 -43.24011,-8.64645 17.14392,-8.30115 34.41473,-6.76041 48.85407,2.92893 z m -9.94384,-30.71284 c 1.63153,4.08886 4.27556,5.03997 8.10216,2.07582 -2.90883,8.40735 -9.78498,6.00402 -8.10216,-2.07582 z" style="fill:#ead463;fill-opacity:1;fill-rule:evenodd;stroke:none" id="path9463" inkscape:connector-curvature="0" />
      <g inkscape:transform-center-y="187.35617" inkscape:transform-center-x="-43.669001" transform="matrix(0.92848389,0.19923876,-0.19923876,0.92848389,162.14317,-1073.4792)" id="g4591">
        <path style="fill:#f3b9d8;fill-opacity:1;stroke:#eb81b4;stroke-width:9.47747421;stroke-linecap:butt;stroke-linejoin:miter;stroke-miterlimit:20;stroke-opacity:1;stroke-dasharray:none" d="m 297.81229,247.57663 c 5.31763,116.20786 169.38588,152.53671 186.34662,299.94779 12.42578,107.99633 -120.27528,151.08201 -135.00369,81.57748 22.78896,23.07606 55.69963,3.95431 49.38404,-29.33906 C 385.71437,532.15502 223.29085,427.53242 274.85904,201.65438 z" id="path4579" inkscape:connector-curvature="0" sodipodi:nodetypes="cscscc" />
        <path id="path4588" style="fill:none;stroke:#eb81b4;stroke-width:4.73873711;stroke-linecap:butt;stroke-linejoin:miter;stroke-miterlimit:4;stroke-opacity:1;stroke-dasharray:none" d="M 485.09742,567.25639 C 456.95828,423.43641 292.71589,436.09453 264.81301,277.82735 M 448.62454,641.15823 C 501.26278,497.287 314.29138,450.69167 269.15206,343.6631" inkscape:connector-curvature="0" sodipodi:nodetypes="cccc" />
      </g>
      <g transform="translate(-41.029434,30)" id="g9301">
        <path sodipodi:nodetypes="cscc" inkscape:connector-curvature="0" id="path9299" d="m 446.46712,-754.32246 c -62.73242,-85.51743 -11.69391,-160.33385 -2.7346,-162.27598 7.99599,-1.73332 45.58363,34.15243 49.91033,86.25108 z" style="fill:#fdf6af;fill-opacity:1;stroke:none" />
        <path style="fill:#ead463;fill-opacity:1;stroke:none" d="m 419.55424,-794.65209 c 2.80232,7.74595 6.34468,14.90638 10.7649,21.61159 4.42022,6.7052 9.72967,12.95724 16.14798,18.71804 -3.71009,-7.74745 -6.94642,-14.98478 -9.97426,-22.07401 -3.02784,-7.08924 -5.85057,-14.03397 -8.49023,-21.31516 -2.21022,-6.09661 -3.9923,-12.33032 -5.27904,-18.67194 -3.32723,-16.28909 -3.41646,-33.25757 -0.0987,-49.51926 0,0 0,0 0,-10e-6 2.46993,-12.06324 6.63864,-23.7753 12.81378,-34.26761 2.0209,-3.41687 4.15236,-6.64543 6.63058,-9.41679 0.81833,-0.90471 1.57143,-1.69958 2.32689,-2.28427 0,0 0,0 10e-6,0 0.66219,-0.36105 0.73308,-0.58647 0.28976,-0.32907 -0.47365,0.004 -0.52779,0.0829 -0.22235,0.0763 0,0 0,0 0,0 0.3738,0.0753 0.8666,0.30877 1.49027,0.60763 1.82101,0.90246 3.59957,2.26721 5.45924,3.7926 5.65788,4.69739 10.53211,10.48953 14.9925,16.68481 3.86191,5.3947 7.29995,11.10194 10.26796,17.04191 3.45641,6.91744 6.54208,13.91911 9.35692,21.13227 2.81485,7.21316 5.36155,14.63753 7.61245,22.51767 1.09633,-8.15812 0.71278,-16.41784 -0.86443,-24.44237 -1.57721,-8.02453 -4.34499,-15.81983 -8.04826,-23.2328 -3.17999,-6.36549 -6.86481,-12.4781 -11.00834,-18.25803 -4.71383,-6.61086 -10.10493,-12.95942 -16.54309,-18.35407 -2.06657,-1.75038 -4.40599,-3.48507 -7.14178,-4.90245 -0.93314,-0.49371 -2.05388,-0.96271 -3.37406,-1.3143 -0.89033,-0.3079 -2.20487,-0.40991 -3.88369,-0.14492 -10e-6,0 -10e-6,0 -2e-5,0 -2.05215,0.60615 -3.35317,1.41416 -3.98011,2.07686 0,0 -10e-6,10e-6 -10e-6,10e-6 -1.35612,1.09221 -2.48653,2.24417 -3.45884,3.35549 -3.01704,3.41558 -5.49236,7.1171 -7.66215,10.83565 -6.73238,11.48512 -11.25384,24.11756 -13.87207,37.02875 0,0 0,10e-6 0,10e-6 -3.5588,17.49063 -3.46923,35.65863 0.0998,53.11783 1.39681,6.79091 3.30202,13.44384 5.64844,19.92961 z" id="path8142" inkscape:connector-curvature="0" sodipodi:nodetypes="csc" inkscape:path-effect="#path-effect9289" inkscape:original-d="m 446.46712,-754.32246 c -62.73242,-85.51743 -11.69391,-160.33385 -2.7346,-162.27598 7.99599,-1.73332 45.58363,34.15243 49.91033,86.25108" />
        <path style="fill:#ead463;fill-opacity:1;fill-rule:evenodd;stroke:none" d="m 448.12121,-876.05202 c -6.26383,26.27792 -4.41306,52.32991 6.77567,79.68195 -16.03856,-24.30454 -18.35193,-55.18515 -6.77567,-79.68195 z" id="path9251" inkscape:connector-curvature="0" sodipodi:nodetypes="ccc" />
      </g>
      <g transform="translate(-41.029434,30)" clip-path="url(#clipPath6075)" id="g6068">
        <path style="fill:#f3b9d8;fill-opacity:1;stroke:#eb81b4;stroke-width:9;stroke-linecap:butt;stroke-linejoin:miter;stroke-miterlimit:4;stroke-opacity:1;stroke-dasharray:none" d="M 738.41335,667.97525 C 639.95029,613.52189 490.01889,610.48723 360.51494,647.25807 326.6132,656.884 318.30162,616.92955 342.23968,604.08795 L 333.7544,571.56104 C 148.24724,592.1104 166.78174,819.57805 321.62446,806.03117 467.04867,793.3083 583.35749,642.58179 718.42049,725.71032 c 37.79723,23.26343 39.04334,51.01576 -5.43462,35.42186 -176.0417,-61.71992 -185.03619,37.72796 -116.88118,51.57309 -38.8873,-41.18377 -19.29153,-72.63254 107.14928,-23.76956 96.97284,37.4751 145.29552,-60.05149 35.15938,-120.96046 z" id="path6055" inkscape:connector-curvature="0" transform="translate(0,-995.63782)" sodipodi:nodetypes="ssccssscss" />
        <path id="path6065" transform="translate(0,-995.63782)" style="fill:none;stroke:#eb81b4;stroke-width:4.5;stroke-linecap:butt;stroke-linejoin:miter;stroke-miterlimit:4;stroke-opacity:1;stroke-dasharray:none" d="m 203,725 c 30.5673,40.47859 104.51216,46.47313 151.33005,25.9451 C 583.69474,650.37658 732.5383,673.57425 800,749 M 337,585.70711 c -72.92382,26.913 -81.99557,99.04756 -29,120.29289 84.18258,33.74786 299.52069,-126.96305 479.58579,3" inkscape:connector-curvature="0" sodipodi:nodetypes="csccsc" />
      </g>
    </g>
  </g>
</svg>
