<svg xmlns="http://www.w3.org/2000/svg" xmlns:inkscape="http://www.inkscape.org/namespaces/inkscape" xmlns:xlink="http://www.w3.org/1999/xlink" height="815.00006" viewBox="0 0 729 815.00003" width="729">
  <defs>
    <inkscape:path-effect bendpath1="M -24.923989,-24.7 H 24.923989" bendpath2="M 23.990776,-25.674377 C 18.684217,-9.4056808 17.285284,10.003897 21.216841,26.471564" bendpath3="M -24.923989,24.700001 H 24.923989" bendpath4="m -23.314414,-29.929125 c -4.25312,18.967487 -5.232482,36.9227092 -0.989624,54.615892" effect="envelope" id="path-effect109" yy="false" />
    <linearGradient id="linearGradient4339">
      <stop offset="0" stop-color="#fff" stop-opacity=".8" />
      <stop offset="1" stop-color="#fff" stop-opacity=".35" />
    </linearGradient>
    <inkscape:path-effect effect="powerstroke" id="path-effect5084" interpolator_type="CubicBezierSmooth" offset_points="0.25,3" start_linecap_type="zerowidth" />
    <inkscape:path-effect effect="powerstroke" id="path-effect5082" interpolator_type="CubicBezierSmooth" offset_points="0.33,3" start_linecap_type="zerowidth" />
    <inkscape:path-effect effect="powerstroke" end_linecap_type="zerowidth" id="path-effect4314" interpolator_type="CubicBezierSmooth" offset_points="0.29,2 | 1.6,2" start_linecap_type="zerowidth" />
    <linearGradient id="linearGradient4299">
      <stop offset="0" stop-color="#183881" />
      <stop offset="0.55402756" stop-color="#6d9ff2" />
      <stop offset="1" stop-color="#b1e1f9" />
    </linearGradient>
    <inkscape:path-effect effect="powerstroke" end_linecap_type="zerowidth" id="path-effect4273" interpolator_type="CubicBezierSmooth" offset_points="0.33,3 | 2.68,3" start_linecap_type="zerowidth" />
    <inkscape:path-effect effect="powerstroke" end_linecap_type="zerowidth" id="path-effect4321" interpolator_type="CubicBezierSmooth" offset_points="0.4,3 | 0.6,3" start_linecap_type="zerowidth" />
    <inkscape:path-effect effect="powerstroke" end_linecap_type="zerowidth" id="path-effect4313" interpolator_type="CubicBezierSmooth" offset_points="0.17,3 | 1.55,3" start_linecap_type="zerowidth" />
    <linearGradient gradientUnits="userSpaceOnUse" id="linearGradient4301" x1="416.11542" x2="405.92911" y1="396.46579" y2="469.6351" xlink:href="#linearGradient4299" />
    <clipPath id="clipPath4325">
      <use xlink:href="#path4310" />
    </clipPath>
    <linearGradient gradientUnits="userSpaceOnUse" id="linearGradient4975" x1="573.68622" x2="576.06403" y1="285.80927" y2="313.12308" xlink:href="#linearGradient4339" />
    <linearGradient gradientTransform="translate(80.76777,-11.701899)" gradientUnits="userSpaceOnUse" id="linearGradient4989" x1="573.68622" x2="576.06403" y1="285.80927" y2="313.12308" xlink:href="#linearGradient4339" />
    <clipPath id="clipPath5100">
      <path d="M 666.8677,297.07542 C 646.19336,281.96607 633.45377,258.70173 626.9095,236.73855 L 691.7392,110.65529 H 374.26721 v 297.77708 h 290.78858 l 24.34469,-126.57402 z" />
    </clipPath>
    <clipPath id="clipPath5239">
      <path d="m 447.24565,672.17074 c 6.79781,-0.0991 12.5266,-4.88293 15.98059,-16.26888 6.48517,25.21328 24.73366,29.11585 33.08242,2.69948 12.5957,24.49512 29.38373,24.87042 32.36284,-2.44735 13.26983,23.24059 36.76664,21.16076 32.12708,-9.96616 l 39.94339,66.66941 -151.73495,19.4131 z" />
    </clipPath>
    <clipPath id="clipPath5277">
      <path d="m 472.86595,466.72709 -2.21727,-0.0648 -0.7117,2.10094 c -24.2594,71.61295 -25.89198,144.86362 -13.41049,220.42805 0.93758,5.67618 3.86435,10.39004 8.05074,14.1858 4.15512,3.76739 9.56492,6.64998 15.61512,8.79233 12.08749,4.28013 27.25011,5.78839 41.66701,5.11094 7.2303,-0.33974 14.33018,-1.23165 20.82973,-2.62589 6.48776,-1.39171 12.4468,-3.29876 17.36102,-5.70156 2.46086,-1.20323 4.69451,-2.54765 6.61282,-4.04038 1.91613,-1.49103 3.55857,-3.16196 4.78744,-5.02779 1.23674,-1.87778 2.05353,-3.95365 2.28978,-6.20147 0.23665,-2.25157 -0.12335,-4.54293 -1.05665,-6.82581 -15.89838,-38.8881 -27.20048,-74.5769 -34.02596,-109.60429 -6.82371,-35.01836 -9.18151,-69.41865 -7.15833,-105.73299 l 0.17136,-3.07567 -3.07913,-0.0899 z" />
    </clipPath>
    <clipPath id="clipPath5311">
      <path d="m 449.71078,744.71381 c 6.59279,-1.6599 13.3574,-7.98534 14.10006,-19.86045 11.22961,22.16515 32.14966,19.61414 33.84672,-7.30973 14.54532,21.29378 36.29787,17.98179 34.49934,-8.76043 19.84447,18.68491 39.18346,11.964 31.63578,-17.1858 l 36.79818,73.61914 -143.59822,15.72102 z" />
    </clipPath>
    <clipPath id="clipPath5353">
      <path d="m 452.96429,740.13212 c 1.52684,1.47629 2.52762,3.07838 3.16663,4.73551 1.62638,4.21763 4.63278,8.41677 9.60134,12.17651 4.00571,3.03115 9.14574,5.66636 15.44345,7.75145 10.70823,3.54536 24.53927,5.38118 39.34557,4.75078 13.01159,-0.55399 26.53299,-3.04804 36.9427,-7.79756 4.97541,-2.27008 9.344,-5.10807 12.49186,-8.58344 3.14834,-3.4759 5.1015,-7.63036 5.1015,-12.37972 0,-13.26329 -3.03058,-27.72522 -9.86365,-41.2167 -7.20746,-14.23068 -18.31191,-26.75252 -33.53392,-36.04164 -87.17419,-71.53081 -300.10455,-8.39039 -259.33605,95.58057 z" />
    </clipPath>
    <clipPath id="clipPath5397">
      <path d="m 509.5419,661.55082 c 2.21202,1.01914 4.01173,2.21735 5.42239,3.5813 1.42356,1.37643 2.47621,2.94508 3.16663,4.73551 1.92587,4.99429 5.41024,9.00507 9.60134,12.17651 4.50355,3.40787 9.9147,5.92095 15.44347,7.75146 14.21219,4.70547 29.64214,5.1639 39.34554,4.75077 9.75221,-0.41521 24.63707,-2.18301 36.94271,-7.79756 4.76061,-2.17208 9.23476,-4.98746 12.49186,-8.58344 3.05753,-3.37565 5.1015,-7.51905 5.1015,-12.37971 0,-12.78902 -2.83131,-27.33178 -9.86365,-41.21671 C 650.25321,552.83318 405.82713,494.99912 338.75293,691.271 Z" />
    </clipPath>
    <clipPath id="clipPath5421">
      <path d="m 497.33565,687.30982 c 2.19259,7.84809 4.63531,15.9724 7.35437,24.38123 0.75031,2.32038 0.9602,4.64001 0.61037,6.9127 -0.34369,2.23278 -1.2113,4.31557 -2.48573,6.2272 -2.47772,3.71653 -6.50481,6.80956 -11.39023,9.32759 -9.60077,4.94841 -23.26339,8.05173 -37.4658,8.91373 -14.236,0.86404 -29.02489,-0.52334 -40.88662,-4.62799 -6.05611,-2.09565 -11.41042,-4.91909 -15.57822,-8.57187 -4.30861,-3.77618 -7.31398,-8.41237 -8.50993,-13.91104 -1.69118,-7.77562 -2.89692,-15.70933 -3.69924,-23.68617 -30.81231,-58.87128 -15.09087,-185.3036 30.60877,-212.93916 l 77.68088,3.10679 z" />
    </clipPath>
  </defs>
  <g inkscape:groupmode="layer" inkscape:label="Drawing">
    <g>
      <path d="m 273.11,614.84923 c -34.08907,-2.0253 -49.63897,21.76674 -45.27097,61.3522 7.32408,66.37167 -21.50082,98.75433 -69.30452,79.97044 20.38942,-20.057 11.50189,-33.23908 -2.1352,-65.49989 -52.61762,-124.47575 48.71791,-188.74995 132.68785,-122.9953 z" fill="#1652aa" stroke="#0d356d" stroke-width="6" />
      <path d="m 276.07636,607.64146 c -34.64559,-32.56145 -103.45326,-9.20841 -76.62352,68.40652 13.87764,40.1462 17.18539,59.58168 -11.78322,85.30285 m 90.37155,-174.09716 c -42.01142,-38.52336 -127.40312,-24.19557 -99.91049,93.55978 8.00492,34.28638 15.67134,71.30031 -18.58533,74.53842 m 124.9664,-172.8375 C 272.61627,565.7561 252.85758,550.78541 231.40418,540.92621" fill="none" stroke="#0d356d" stroke-width="3" />
    </g>
    <g clip-path="url(#clipPath5397)">
      <path d="m 357.95223,676.05814 c 20.20178,-0.22793 149.1907,-43.02345 162.97779,-7.26988 13.06664,33.88527 113.12732,27.81113 113.12732,-3.00261 0,-50.63333 -45.81257,-123.05629 -198.2447,-76.51116 z" fill="#5b8fbd" stroke="#255d81" stroke-width="6" />
      <path d="m 602.05426,623.27928 c 3.21445,28.01449 -10.91067,33.22878 -30.75513,14.54387 1.79853,26.74222 -21.89143,27.58842 -36.43675,6.29464 -1.09755,11.87265 -7.75937,20.13918 -15.42037,21.81271 0.59819,0.86326 1.09089,1.82793 1.48801,2.85776 13.06665,33.88527 113.12732,27.81113 113.12732,-3.00261 0,-10.81071 -2.08843,-22.61474 -6.81936,-33.97603 -7.27217,2.33124 -15.73694,-0.10187 -25.18372,-8.53034 z" fill="#2f5e9f" />
      <path d="m 509.67932,664.5096 c 10.94263,5.98258 23.63043,-3.59635 25.18306,-20.39181 14.54532,21.29378 38.23528,20.44758 36.43675,-6.29464 19.84446,18.68491 33.96958,13.47062 30.75513,-14.54387 13.32222,11.88616 24.69143,11.8489 33.62301,3.52597" fill="none" stroke="#122a4e" stroke-width="3" />
      <path d="m 519.45728,665.89137 c 0.58292,0.90239 1.07562,1.86706 1.47274,2.89689 13.06665,33.88527 113.12732,27.81113 113.12732,-3.00261 0,-10.81071 -2.08843,-22.61474 -6.85714,-34.04206" fill="none" stroke="#122a4e" stroke-width="6" />
    </g>
    <g>
      <path d="m 412.76826,189.71917 c -8.07755,16.96276 -26.12332,37.61563 -46.52408,32.6632 2.25898,16.76184 14.17792,35.74824 27.24769,49.95035 -7.4015,-0.90489 -13.41365,-3.42776 -19.84238,-8.18371 -4.93403,57.07227 34.55187,83.47148 26.2963,164.38769 44.87654,-63.35804 37.2632,-191.75883 12.82247,-238.81753 z" style="stroke-width:6;fill:#1652aa;stroke-miterlimit:20;stroke:#0d356d" />
      <path d="m 376.84167,302.93531 c 14.28635,23.19962 41.53394,44.06974 47.74285,69.11845 M 372.671,280.82607 c 14.46914,21.16648 44.92707,37.49973 57.3877,61.06838 M 369.48218,234.95781 c 21.13129,2.78572 39.06722,-0.68989 54.30442,-14.89547" style="stroke-width:3;fill:none;stroke-miterlimit:20;stroke:#0d356d" />
    </g>
    <g>
      <path d="m 587.58207,271.0614 c 9.48334,67.37768 87.85829,63.67262 81.35979,-6.57661" style="stroke-width:2.5;fill:url(#linearGradient4989);stroke-miterlimit:20;stroke:#353535" />
      <path d="m 581.80573,267.441 2.77664,8.5585 86.43309,-7.23822 0.26777,-8.53706 z" style="stroke-width:4;fill:#707070;stroke-miterlimit:20;stroke:#353535" />
    </g>
    <g clip-path="url(#clipPath5277)">
      <path d="m 472.77837,469.72581 c -24.06362,71.03503 -25.71471,143.76801 -13.29198,218.97666 6.47429,39.19607 122.67138,29.25712 110.42021,-0.70972 -31.90574,-78.04272 -45.47647,-143.51949 -41.40274,-216.63942 z" fill="#5b8fbd" stroke="#255d81" stroke-width="6" />
      <path d="m 453.39224,639.065 c 1.27993,16.42992 3.34155,32.97292 6.09415,49.63747 6.47428,39.19607 122.67138,29.25712 110.42021,-0.70972 -7.19521,-17.59977 -13.45796,-34.56048 -18.79617,-51.1139" style="stroke-width:6;fill:#2f5e9f;clip-path:url(#clipPath5239);stroke:#122a4e" />
      <path d="m 447.24565,672.17074 c 6.79781,-0.0991 12.5266,-4.88293 15.98059,-16.26888 6.48517,25.21328 24.73366,29.11585 33.08242,2.69948 12.5957,24.49512 29.38373,24.87042 32.36284,-2.44735 13.26983,23.24059 36.76664,21.16076 32.12708,-9.96616" fill="none" stroke="#122a4e" stroke-width="3" />
    </g>
    <path d="m 295.95223,751.05814 c -21.07798,0.23781 -21.96286,-31.03417 -7.02477,-52.77582 -43.7626,-53.06769 -29.13126,-138.30231 47.18917,-200.92082 70.69983,-58.00698 84.649,-117.68565 76.87086,-243.41288 -7.78499,-125.8379 174.71459,-138.28817 211.04693,-16.3534 8.31542,27.90735 23.48036,49.05235 41.06314,61.90231 l -24.76514,67.53853 c -38.44502,7.69654 -73.06131,11.80277 -102.61913,10.78433 22.86155,143.88564 -70.65309,257.84116 -165.23406,290.47362 z" fill="#5b8fbd" />
    <g>
      <g clip-path="url(#clipPath4325)">
        <ellipse cx="299.89691" cy="507.79718" fill="#fff" id="path4310" rx="42.502796" ry="52.68914" transform="rotate(328.29609)" />
        <ellipse cx="425.61459" cy="434.12152" fill="url(#linearGradient4301)" rx="38.727722" ry="49.257046" transform="rotate(341.88946)" />
        <ellipse cx="429.12225" cy="436.4585" rx="30.155331" ry="40.362541" transform="rotate(341.88946)" />
        <ellipse cx="545.00793" cy="206.25392" fill="#fff" rx="15.070666" ry="20.598854" transform="rotate(6.4191557)" />
        <ellipse cx="568.87958" cy="229.48051" fill="#fff" rx="5.2257128" ry="7.14259" transform="rotate(6.4191692)" />
      </g>
      <path transform="rotate(328.29609)" inkscape:original-d="m 268.93649,543.89565 c -24.89777,-32.7609 -7.12262,-88.59996 30.96042,-88.78761 27.27907,-0.13441 46.29523,30.64781 41.87389,61.77016" inkscape:path-effect="#path-effect4314" />
    </g>
    <path fill="#255d81" inkscape:original-d="M 298.75008,708.63495 C 243.44094,657.07214 254.5356,564.29616 336.11663,497.3615 c 70.69983,-58.00697 84.649,-117.68565 76.87086,-243.41288" inkscape:path-effect="#path-effect5084" />
    <path d="M 537.56062,377.0869 C 560.88748,521.32482 467.21831,635.607 372.47923,668.29401" fill="none" stroke="#255d81" stroke-width="6" />
    <g clip-path="url(#clipPath5100)">
      <path fill="#255d81" inkscape:original-d="m 458.23683,351.93171 c 34.71963,31.60338 99.59103,31.62143 182.09559,15.10435 l 24.76514,-67.53853 C 647.51478,286.64757 632.34984,265.50257 624.03442,237.59522 587.70208,115.66045 405.2025,128.11072 412.98749,253.94862" inkscape:path-effect="#path-effect5082" />
      <path d="m 593.14039,276.83022 c 15.67511,-17.10498 32.4253,-17.84795 50.7631,-10.14418" style="stroke-width:4;fill:none;stroke-miterlimit:20;stroke:#353535" />
    </g>
    <path d="m 594.74384,319.91778 c 9.80427,18.06256 24.66079,21.71931 57.45427,15.40984 l -2.58397,6.13719 c -33.06919,4.24422 -49.96322,1.28237 -54.8703,-21.54703 z m 21.24582,-16.5849 c -0.17308,5.67752 1.90985,7.93226 6.30402,8.56621 -6.87941,5.05698 -11.3222,-1.31655 -6.30402,-8.56621 z" fill="#255d81" />
    <path d="m 642.11136,373.58647 c -3.4421,-2.31423 -5.90843,-5.51554 -7.51737,-9.49628 3.155,2.41705 6.02996,5.91125 7.51737,9.49628 z m -9.71789,4.82515 c -3.36635,-3.62583 -6.09793,-7.79575 -7.14226,-13.41188 3.39683,4.06419 5.45501,8.31385 7.14226,13.41188 z m -11.31711,0.52514 c -0.008,-4.29318 -0.33708,-8.55955 -2.323,-12.68788 -0.60673,4.70598 0.30255,8.61708 2.323,12.68788 z m -15.66276,1.33259 c 0.41225,-5.04917 2.09332,-8.34591 4.57341,-12.07572 -0.38036,4.52802 -1.90445,8.57546 -4.57341,12.07572 z m 55.44354,-45.77934 c -4.249,-1.30574 -7.35686,-3.88625 -9.83636,-7.35708 4.14896,1.58219 7.35338,4.10891 9.83636,7.35708 z m -8.90179,5.1742 c -3.36157,-2.68416 -5.06884,-6.25908 -6.27859,-10.10191 2.96372,2.71416 5.30814,5.8928 6.27859,10.10191 z m -12.3809,3.46448 c -1.55318,-3.98014 -2.05846,-8.03513 -1.27886,-12.1819 1.92506,3.87329 2.01123,7.97643 1.27886,12.1819 z m -16.74932,-0.1214 c 0.58132,-4.49651 2.08729,-8.56161 5.32979,-11.72808 -0.53633,4.48815 -2.29349,8.40658 -5.32979,11.72808 z m -3.17058,-12.04544 c -5.12613,1.95954 -8.59099,5.44984 -11.09687,10.0115 5.10671,-2.96233 8.13978,-6.07271 11.09687,-10.0115 z" fill="#0d356d" />
    <g>
      <path d="m 523.07532,164.10278 c 30.70628,8.38983 59.47599,29.13801 75.45661,52.28684 4.98267,-19.56645 13.76863,-23.28173 22.97394,-37.71757 -0.83393,9.63663 -0.29015,17.33229 0.30715,24.37411 10.81642,-24.68081 29.95935,-28.50506 29.95935,-60.40253 0,-48.729208 -62.74706,-48.817298 -122.14671,-0.21084 z" style="stroke-width:6;fill:#1652aa;stroke-miterlimit:20;stroke:#0d356d" />
      <path d="m 544.22181,131.59285 c 46.05529,-15.52782 63.01054,-2.65164 63.01054,23.50006 0,19.73018 -12.6576,30.4372 -19.60815,47.73687 m -25.80823,-81.60355 c 47.38405,-15.4363 79.89212,4.49258 59.60067,57.54381" style="stroke-width:3;fill:none;stroke-miterlimit:20;stroke:#0d356d" />
      <path d="m 447.02038,208.25188 c 17.99036,10.42963 2.28848,18.51594 0.70066,33.77662 30.5617,-25.42574 68.34595,-18.75863 96.77983,-54.95417 -1.65798,9.75275 -1.74878,17.33368 -0.75523,25.84801 12.52811,-23.09732 50.5105,-46.20994 50.5105,-75.58438 0,-57.356654 -102.66677,-62.533769 -178.45305,53.80978 z" style="stroke-width:6;fill:#1652aa;stroke-miterlimit:20;stroke:#0d356d" />
      <path d="m 530.34351,99.673527 c 30.14601,6.551473 40.72374,23.085693 40.72374,40.901543 0,27.89272 -21.49078,42.411 -27.84084,61.57009 M 432.44413,167.6793 c 35.20271,-28.76097 69.23446,-23.38332 69.23446,5.13491 0,24.85821 -26.02582,33.31425 -44.97279,62.64613 m 52.62262,-129.37739 c 26.92959,7.91096 56.06677,52.6473 -12.96654,112.23057" style="stroke-width:3;fill:none;stroke-miterlimit:20;stroke:#0d356d" />
      <path d="m 429.83452,305.72232 c -78.26457,-104.41197 -15.7793,-175.27854 -3.82331,-175.27854 9.99096,0 27.54376,37.12806 23.51261,85.35823 z" fill="#5b8fbd" />
      <path fill="#255d81" inkscape:original-d="m 429.83452,305.72232 c -78.26457,-104.41197 -15.7793,-175.27854 -3.82331,-175.27854 9.99096,0 27.54376,37.12806 23.51261,85.35823" inkscape:path-effect="#path-effect4313" />
      <path d="m 412.64014,190.90329 c -1.28761,23.35119 2.2708,44.9645 16.38832,63.84469 -16.78126,-15.40721 -21.3958,-41.42956 -16.38832,-63.84469 z" fill="#255d81" />
    </g>
    <g>
      <path d="m 506.8143,283.11685 c 9.48334,67.37768 89.78507,63.69407 81.53657,-6.93016" style="stroke-width:2.5;fill:url(#linearGradient4975);stroke-miterlimit:20;stroke:#353535" />
      <path d="m 501.03796,279.3929 2.65164,8.3085 88.80809,-7.36322 1.76777,-8.66206 z" style="stroke-width:4;fill:#707070;stroke-miterlimit:20;stroke:#353535" />
    </g>
    <g transform="translate(0-.1)">
      <path d="m 427.77837,488.5187 c -26.21007,54.82792 -51.78577,153.59644 -35.86304,226.80509 8.44318,38.8196 119.88091,28.09428 109.92021,-2.70972 -24.19863,-74.83561 -32.67317,-144.95883 -19.74589,-218.93231 z" fill="#5b8fbd" />
      <path d="m 475.74765,678.48476 c -1.8915,27.41458 -18.79588,30.00005 -32.35473,6.02465 -7.07478,27.77611 -26.35084,24.46056 -33.16353,-1.38312 -3.70216,14.36083 -11.79106,17.76171 -21.14858,15.85774 0.73011,5.51023 1.67164,10.99316 2.83452,16.33976 8.44318,38.8196 119.8809,28.09428 109.92021,-2.70972 -1.70462,-5.27163 -3.35275,-10.51986 -4.87875,-15.74411 -7.25992,-0.24484 -14.0867,-5.49354 -21.20914,-18.3852 z" fill="#2f5e9f" />
      <g clip-path="url(#clipPath5421)">
        <path fill="#255d81" inkscape:original-d="m 427.77837,488.5187 c -26.21007,54.82792 -51.78577,153.59644 -35.86304,226.80509 8.44318,38.8196 119.88091,28.09428 109.92021,-2.70972 -24.19863,-74.83561 -32.67317,-144.95883 -19.74589,-218.93231" inkscape:path-effect="#path-effect4273" />
        <path d="m 389.07481,698.90207 c 0.73611,5.59219 1.67764,11.07512 2.84052,16.42172 8.44318,38.8196 119.8809,28.09428 109.92021,-2.70972 -1.72328,-5.32934 -3.36681,-10.63477 -4.92856,-15.91941" fill="none" stroke="#122a4e" stroke-width="6" />
        <path d="m 377.99526,695.01329 c 13.62559,6.87387 27.11823,7.95778 32.23413,-11.887 6.81269,25.84368 26.08875,29.15923 33.16353,1.38312 13.55885,23.9754 30.46323,21.38993 32.35473,-6.02465 9.80333,17.74409 19.04655,21.00875 29.62844,16.68501" fill="none" stroke="#122a4e" stroke-width="3" />
      </g>
    </g>
    <g>
      <path d="m 295.95223,751.05814 c 20.20178,-0.22793 149.1907,-43.02345 162.97779,-7.26988 13.06664,33.88527 113.12732,27.81113 113.12732,-3.00261 0,-50.61076 -45.77174,-122.99173 -198.03879,-76.56012 8.6407,-29.65954 3.54123,-62.40302 -11.70458,-88.62172 z" fill="#5b8fbd" />
      <path fill="#255d81" inkscape:original-d="m 362.31397,575.60381 c 19.48471,33.50846 22.3966,77.67437 1.23795,112.4669" inkscape:path-effect="#path-effect4321" />
      <g clip-path="url(#clipPath5353)">
        <path d="m 288.97493,698.40061 c -14.98556,21.62336 -14.10068,52.89534 6.9773,52.65753 20.20178,-0.22793 149.1907,-43.02345 162.97779,-7.26988 13.06664,33.88527 113.12732,27.81113 113.12732,-3.00261 0,-50.63333 -45.81257,-123.05629 -198.2447,-76.51116" fill="none" stroke="#255d81" stroke-width="6" />
        <path d="m 443.16198,731.81012 c 7.82333,2.14066 13.43918,5.9388 15.76804,11.97814 13.06665,33.88527 113.12732,27.81113 113.12732,-3.00261 0,-18.29584 -5.98159,-39.43668 -20.81357,-56.78172 -44.45761,-8.01473 -91.37403,10.96224 -108.08179,47.80619 z" style="stroke-width:6;fill:#2f5e9f;clip-path:url(#clipPath5311);stroke:#122a4e" />
        <path d="m 449.71078,744.71381 c 6.59279,-1.6599 13.3574,-7.98534 14.10006,-19.86045 11.22961,22.16515 32.14966,19.61414 33.84672,-7.30973 14.54532,21.29378 36.29787,17.98179 34.49934,-8.76043 19.84447,18.68491 39.18346,11.964 31.63578,-17.1858" fill="none" stroke="#122a4e" stroke-width="3" />
      </g>
    </g>
    <g transform="matrix(1.2137717-.36173878.26649049 1.4852777 311.23251 639.86952)" inkscape:path-effect="#path-effect109">
      <path fill="#5d5d5d" inkscape:original-d="M 2.8,1.1 C 8.8,0.8 17,-6.2 11,-24.7 24.1,-19.3 28.4,-7.4 22,7.9 23.7,-5.2 12.2,-2.5 13.4,9.1 10.8,4.5 4.6,6.2 2.8,11.1 Z" />
      <path fill="#5d5d5d" inkscape:original-d="m -2.8,1.1 c -6,-0.3 -14.2,-7.3 -8.2,-25.8 -13.1,5.4 -17.4,17.3 -11,32.6 -1.7,-13.1 9.8,-10.4 8.6,1.2 2.6,-4.6 8.8,-2.9 10.6,2 z" />
      <path inkscape:original-d="m -0.69999999,20.700001 h 1.39999998 v 4 h -1.39999998 z" />
      <path fill="#f18a67" inkscape:original-d="m 0,-13.4 -4,-0.8 v -6.5 c 2.5,-1.3 5.5,-1.3 8,0 v 6.5 z" />
      <path fill="#e4bbae" inkscape:original-d="M 0.7,21 H -0.7 L -4,13.5 4,-8.8 v -5.4 h -8 v 5.4 l 8,22.3 z" />
      <path fill="#f5c45d" inkscape:original-d="M -2,-6.1 4,-8.8 V 13.5 L 0,15.3 Z" />
      <path fill="#f5ad12" inkscape:original-d="M -4,13.5 V -8.8 L 0,-7 v 22.3 z" />
    </g>
  </g>
</svg>