<?xml version="1.0" encoding="UTF-8" standalone="no"?>
<!-- Created with Inkscape (http://www.inkscape.org/) -->

<svg
   xmlns:dc="http://purl.org/dc/elements/1.1/"
   xmlns:cc="http://creativecommons.org/ns#"
   xmlns:rdf="http://www.w3.org/1999/02/22-rdf-syntax-ns#"
   xmlns:svg="http://www.w3.org/2000/svg"
   xmlns="http://www.w3.org/2000/svg"
   xmlns:xlink="http://www.w3.org/1999/xlink"
   xmlns:sodipodi="http://sodipodi.sourceforge.net/DTD/sodipodi-0.dtd"
   xmlns:inkscape="http://www.inkscape.org/namespaces/inkscape"
   width="1792"
   height="1024"
   id="svg2"
   version="1.1"
   inkscape:version="0.48.3.1 r9886"
   sodipodi:docname="Summer CERN Celebration.svg"
   inkscape:export-filename="/home/parclytaxel/Pictures/Summer CERN Celebration.png"
   inkscape:export-xdpi="562.5"
   inkscape:export-ydpi="562.5">
  <defs
     id="defs4">
    <linearGradient
       id="linearGradient4219"
       inkscape:collect="always">
      <stop
         id="stop4221"
         offset="0"
         style="stop-color:#877aef;stop-opacity:1" />
      <stop
         offset="0.5"
         id="stop4225"
         style="stop-color:#ffffff;stop-opacity:1" />
      <stop
         id="stop4223"
         offset="1"
         style="stop-color:#ef7979;stop-opacity:1" />
    </linearGradient>
    <linearGradient
       inkscape:collect="always"
       id="linearGradient3942">
      <stop
         style="stop-color:#409fc5;stop-opacity:1"
         offset="0"
         id="stop3944" />
      <stop
         id="stop3950"
         offset="0.32641813"
         style="stop-color:#4abcac;stop-opacity:1" />
      <stop
         style="stop-color:#4abcac;stop-opacity:1"
         offset="0.62552118"
         id="stop3952" />
      <stop
         id="stop3954"
         offset="0.83470911"
         style="stop-color:#7b9ce0;stop-opacity:1" />
      <stop
         style="stop-color:#d285d2;stop-opacity:1"
         offset="1"
         id="stop3946" />
    </linearGradient>
    <linearGradient
       inkscape:collect="always"
       id="linearGradient3908">
      <stop
         style="stop-color:#82a5f0;stop-opacity:1"
         offset="0"
         id="stop3910" />
      <stop
         id="stop3916"
         offset="0.34074354"
         style="stop-color:#92b6f5;stop-opacity:1" />
      <stop
         style="stop-color:#a2ccf9;stop-opacity:1"
         offset="0.61750287"
         id="stop3918" />
      <stop
         style="stop-color:#b1defd;stop-opacity:1"
         offset="1"
         id="stop3912" />
    </linearGradient>
    <linearGradient
       inkscape:collect="always"
       id="linearGradient3892">
      <stop
         style="stop-color:#e69af4;stop-opacity:1"
         offset="0"
         id="stop3894" />
      <stop
         id="stop3900"
         offset="0.26655731"
         style="stop-color:#eaadf8;stop-opacity:1" />
      <stop
         style="stop-color:#edbafa;stop-opacity:1"
         offset="0.51552838"
         id="stop3902" />
      <stop
         style="stop-color:#f0c5fd;stop-opacity:1"
         offset="1"
         id="stop3896" />
    </linearGradient>
    <linearGradient
       inkscape:collect="always"
       id="linearGradient3872">
      <stop
         style="stop-color:#57cba7;stop-opacity:1"
         offset="0"
         id="stop3874" />
      <stop
         id="stop3880"
         offset="0.15451054"
         style="stop-color:#89deb2;stop-opacity:1" />
      <stop
         style="stop-color:#8bdeb3;stop-opacity:1"
         offset="0.47304651"
         id="stop3882" />
      <stop
         style="stop-color:#ccf5c2;stop-opacity:1"
         offset="1"
         id="stop3876" />
    </linearGradient>
    <linearGradient
       inkscape:collect="always"
       id="linearGradient3858">
      <stop
         style="stop-color:#4bb0cf;stop-opacity:1"
         offset="0"
         id="stop3860" />
      <stop
         id="stop3866"
         offset="0.35919505"
         style="stop-color:#68c2d9;stop-opacity:1" />
      <stop
         style="stop-color:#71cbdd;stop-opacity:1"
         offset="0.4356181"
         id="stop3868" />
      <stop
         id="stop3870"
         offset="0.85530549"
         style="stop-color:#8fe1e8;stop-opacity:1" />
      <stop
         style="stop-color:#ccf5c2;stop-opacity:1"
         offset="1"
         id="stop3862" />
    </linearGradient>
    <inkscape:path-effect
       effect="skeletal"
       id="path-effect4594"
       is_visible="true"
       pattern="m 287.32866,524.67322 c -18.10528,0 -36.48343,1.25 -53.98343,6 17.5,4.5 35.87815,6 53.98343,6 l 76.99999,0 c 14.14761,0 28.94809,-1.72978 42.01658,-6 -13,-4.5 -27.86897,-6 -42.01658,-6 z"
       copytype="single_stretched"
       prop_scale="1"
       scale_y_rel="false"
       spacing="0"
       normal_offset="0"
       tang_offset="0"
       prop_units="false"
       vertical_pattern="false"
       fuse_tolerance="0"
       pattern-nodetypes="scsscss" />
    <inkscape:path-effect
       effect="skeletal"
       id="path-effect4546"
       is_visible="true"
       pattern="m 104.48342,1047.5 c -18.105272,0 -36.483421,1.25 -53.983422,6 17.500001,4.5 35.87815,6 53.983422,6 l 17,0 0,-12 z"
       copytype="single_stretched"
       prop_scale="1"
       scale_y_rel="false"
       spacing="0"
       normal_offset="0"
       tang_offset="0"
       prop_units="false"
       vertical_pattern="false"
       fuse_tolerance="0"
       pattern-nodetypes="scsccs" />
    <inkscape:path-effect
       effect="skeletal"
       id="path-effect3835"
       is_visible="true"
       pattern="m -131.98565,484.36813 c -12.60528,0 -26.48343,1.25 -43.98343,6 17.25,4.75 31.37815,6 43.98343,6 l 598.99999,0 c 14.14761,0 68.94809,-1.72978 82.01658,-6 -13,-4.5 -67.86897,-6 -82.01658,-6 z"
       copytype="single_stretched"
       prop_scale="1"
       scale_y_rel="false"
       spacing="0"
       normal_offset="0"
       tang_offset="0"
       prop_units="false"
       vertical_pattern="false"
       fuse_tolerance="0"
       pattern-nodetypes="scsscss" />
    <inkscape:path-effect
       effect="skeletal"
       id="path-effect3511"
       is_visible="true"
       pattern="m 285.32085,464.06306 c -23.57495,0 -61.20621,0.7019 -78.70711,3 17.67768,2.47487 55.48571,3 78.70711,3 l 31,0 c 11.37737,0 39.28985,-0.92158 50,-3 -10.53338,-2.24632 -38.62263,-3 -50,-3 z"
       copytype="single_stretched"
       prop_scale="1"
       scale_y_rel="false"
       spacing="0"
       normal_offset="0"
       tang_offset="0"
       prop_units="false"
       vertical_pattern="false"
       fuse_tolerance="0"
       pattern-nodetypes="scsscss" />
    <inkscape:path-effect
       effect="skeletal"
       id="path-effect3461"
       is_visible="true"
       pattern="m 297.04372,485.07525 c -14.02901,0 -28.2114,0.87868 -42.53033,3 14.31893,2.29809 28.6781,3 42.53033,3 l 12,0 c 14.02902,0 29.34531,-0.56802 42.17677,-3 -12.65469,-2.06953 -27.97097,-3 -42.17677,-3 z"
       copytype="single_stretched"
       prop_scale="1"
       scale_y_rel="false"
       spacing="0"
       normal_offset="0"
       tang_offset="0"
       prop_units="false"
       vertical_pattern="false"
       fuse_tolerance="0"
       pattern-nodetypes="scsscss" />
    <inkscape:path-effect
       effect="skeletal"
       id="path-effect3439"
       is_visible="true"
       pattern="m 298,480 c -11.37736,0 -21.27207,0.52512 -34,3 12.72793,2.29809 22.62264,3 34,3 l 120,0 c 11.37737,0 23.28985,-0.92158 34,-3 -10.53338,-2.24632 -22.62263,-3 -34,-3 z"
       copytype="single_stretched"
       prop_scale="1"
       scale_y_rel="false"
       spacing="0"
       normal_offset="0"
       tang_offset="0"
       prop_units="false"
       vertical_pattern="false"
       fuse_tolerance="0"
       pattern-nodetypes="scsscss" />
    <inkscape:path-effect
       effect="skeletal"
       id="path-effect3417"
       is_visible="true"
       pattern="m 291.73001,438.40621 c -11.37736,0 -21.27207,0.52512 -34,3 12.72793,2.29809 22.62264,3 34,3 l 10,0 c 15.62001,0 49.93109,-1.27513 64.17677,-3 -14.06891,-2.06954 -48.55676,-3 -64.17677,-3 z"
       copytype="single_stretched"
       prop_scale="1"
       scale_y_rel="false"
       spacing="0"
       normal_offset="0"
       tang_offset="0"
       prop_units="false"
       vertical_pattern="false"
       fuse_tolerance="0"
       pattern-nodetypes="scsscss" />
    <inkscape:path-effect
       effect="skeletal"
       id="path-effect3950"
       is_visible="true"
       pattern="m -482.01658,804 c -18.10527,0 -36.48342,1.25 -53.98342,6 17.5,4.5 35.87815,6 53.98342,6 l 913,0 0,-12 z"
       copytype="single_stretched"
       prop_scale="1"
       scale_y_rel="false"
       spacing="0"
       normal_offset="0"
       tang_offset="0"
       prop_units="false"
       vertical_pattern="false"
       fuse_tolerance="0"
       pattern-nodetypes="scsccs" />
    <inkscape:path-effect
       effect="skeletal"
       id="path-effect3882"
       is_visible="true"
       pattern="m 113,446.5 c -18.105279,0 -36.483425,1.25 -53.983425,6 17.5,4.5 35.878146,6 53.983425,6 l 119,0 c 14.14761,0 28.94808,-1.72978 42.01657,-6 -13,-4.5 -27.86896,-6 -42.01657,-6 z"
       copytype="single_stretched"
       prop_scale="1"
       scale_y_rel="false"
       spacing="0"
       normal_offset="0"
       tang_offset="0"
       prop_units="false"
       vertical_pattern="false"
       fuse_tolerance="0"
       pattern-nodetypes="scsscss" />
    <linearGradient
       inkscape:collect="always"
       id="linearGradient3792">
      <stop
         style="stop-color:#603082;stop-opacity:1"
         offset="0"
         id="stop3794" />
      <stop
         style="stop-color:#ea88e5;stop-opacity:1"
         offset="1"
         id="stop3796" />
    </linearGradient>
    <clipPath
       clipPathUnits="userSpaceOnUse"
       id="clipPath3810">
      <path
         sodipodi:type="arc"
         style="fill:none;stroke:#000000"
         id="path3812"
         sodipodi:cx="307.76822"
         sodipodi:cy="696.4328"
         sodipodi:rx="38.671444"
         sodipodi:ry="56.82185"
         d="m 346.43966,696.4328 a 38.671444,56.82185 0 1 1 -77.34288,0 38.671444,56.82185 0 1 1 77.34288,0 z"
         transform="matrix(1.4648767,0.12733678,-0.12733678,1.4648767,-71.453325,-364.69529)" />
    </clipPath>
    <linearGradient
       inkscape:collect="always"
       xlink:href="#linearGradient3792"
       id="linearGradient3823"
       gradientUnits="userSpaceOnUse"
       x1="287.8577"
       y1="660.26923"
       x2="299.90515"
       y2="739.37219" />
    <clipPath
       clipPathUnits="userSpaceOnUse"
       id="clipPath3847">
      <path
         sodipodi:nodetypes="cccc"
         inkscape:connector-curvature="0"
         id="path3849"
         d="m 188.20132,617.06005 c -14.49569,130.4612 62.22539,112.248 102.53048,165.28101 33.94113,-29.69849 51.38656,-77.59977 34.416,-129.21857 -31.1127,-36.416 -87.09545,-37.12311 -136.94648,-36.06244 z"
         style="fill:none;stroke:#ff00ff;stroke-width:1;stroke-linecap:butt;stroke-linejoin:miter;stroke-miterlimit:4;stroke-opacity:1;stroke-dasharray:none" />
    </clipPath>
    <clipPath
       clipPathUnits="userSpaceOnUse"
       id="clipPath4780">
      <path
         sodipodi:nodetypes="ccccc"
         inkscape:connector-curvature="0"
         id="path4782"
         d="m 372.82205,419.1308 c 18.51346,-22.94542 27.99138,-42.34061 41.12831,-69.77133 15.05724,26.63657 24.02387,51.48885 27.54164,80.83073 -14.96194,25.71931 -31.56245,44.62312 -58.47236,67.13657 -2.2981,-30.22881 -5.24784,-51.85623 -10.19759,-78.19597 z"
         style="fill:none;stroke:#000000" />
    </clipPath>
    <clipPath
       clipPathUnits="userSpaceOnUse"
       id="clipPath3871">
      <path
         id="path3873"
         style="fill:none;stroke:#ff00ff"
         d="m 449.20988,463.14957 c 7.33297,-16.62829 14.93544,-33.10708 23.05892,-49.29305 5.82428,-11.59953 11.84792,-23.02376 18.49262,-33.99368 78.37989,-136.18408 0.55919,-231.78903 -28.83215,-237.22942 -31.97843,-5.91928 -129.33881,64.90849 -124.20354,227.53071 2.81391,13.33442 4.97399,26.83927 6.72116,40.42835 1.80892,14.09184 3.15715,28.21674 3.82022,42.34701 l -307.254918,20.93145 -0.707107,108.18733 495.681845,-24.74873 -9.8995,-125.1579 z"
         inkscape:connector-curvature="0"
         sodipodi:nodetypes="cccscccccccc" />
    </clipPath>
    <clipPath
       clipPathUnits="userSpaceOnUse"
       id="clipPath3875">
      <path
         style="font-size:medium;font-style:normal;font-variant:normal;font-weight:normal;font-stretch:normal;text-indent:0;text-align:start;text-decoration:none;line-height:normal;letter-spacing:normal;word-spacing:normal;text-transform:none;direction:ltr;block-progression:tb;writing-mode:lr-tb;text-anchor:start;baseline-shift:baseline;color:#000000;fill:none;stroke:#ffff00;stroke-width:1;stroke-miterlimit:4;stroke-dasharray:none;marker:none;visibility:visible;display:inline;overflow:visible;enable-background:accumulate;font-family:Sans;-inkscape-font-specification:Sans"
         d="m 461.84375,261.40625 c 3.70269,44.47668 5.40586,106.42223 5.15625,176.5625 l -13.03746,59.94382 -111.01576,-10.6066 -2.72803,-44.52472 c 15.60871,-50.54248 41.93737,-114.20029 65.59375,-164.8125 L 1.9999999,324.00002 56.999998,584.00001 l 481.999992,-32 15,-292.99999 z"
         id="path3877"
         inkscape:connector-curvature="0"
         sodipodi:nodetypes="cccccc" />
    </clipPath>
    <clipPath
       clipPathUnits="userSpaceOnUse"
       id="clipPath4567">
      <path
         style="fill:none;stroke:#ffff00"
         d="m 93.219722,759.06139 c -3.083994,53.78855 -3.704893,107.57969 -4.647911,161.24063 -10e-7,3e-5 -2e-6,7e-5 -2e-6,10e-5 -0.450763,25.5929 -0.955524,51.15546 -1.911926,76.67226 C 107,1021.25 135.75,1044 164.25,1060.75 L 21.92031,1129.3589 -6.3639609,865.60809 z"
         id="path4569"
         inkscape:connector-curvature="0"
         sodipodi:nodetypes="cccccccc" />
    </clipPath>
    <clipPath
       clipPathUnits="userSpaceOnUse"
       id="clipPath4609">
      <path
         style="fill:none;stroke:#ff0000"
         d="m 398.78234,621.17178 c -8.40494,-14.57119 -16.75373,-29.54682 -24.47562,-44.85149 -7.56384,-14.97719 -14.42929,-30.33596 -20.51225,-45.72201 -4.54448,-11.49466 -8.62972,-23.17834 -12.27011,-35.00127 l 297.70015,-516.700804 86.26703,38.183765 z"
         id="path4611"
         inkscape:connector-curvature="0" />
    </clipPath>
    <linearGradient
       inkscape:collect="always"
       xlink:href="#linearGradient3942"
       id="linearGradient5201"
       gradientUnits="userSpaceOnUse"
       x1="960.21082"
       y1="573.72632"
       x2="621.40125"
       y2="1415.4706" />
    <linearGradient
       inkscape:collect="always"
       xlink:href="#linearGradient3892"
       id="linearGradient5204"
       gradientUnits="userSpaceOnUse"
       x1="600.71802"
       y1="978.83435"
       x2="948.66833"
       y2="1373.8915" />
    <linearGradient
       inkscape:collect="always"
       xlink:href="#linearGradient3858"
       id="linearGradient5207"
       gradientUnits="userSpaceOnUse"
       x1="864.0509"
       y1="419.42596"
       x2="1399.0232"
       y2="1002.3901" />
    <linearGradient
       inkscape:collect="always"
       xlink:href="#linearGradient3872"
       id="linearGradient5210"
       gradientUnits="userSpaceOnUse"
       x1="676.60175"
       y1="414.703"
       x2="1333.8708"
       y2="1142.582" />
    <linearGradient
       inkscape:collect="always"
       xlink:href="#linearGradient3908"
       id="linearGradient5213"
       gradientUnits="userSpaceOnUse"
       x1="619.70197"
       y1="596.99835"
       x2="1312.8087"
       y2="1393.7299" />
    <clipPath
       clipPathUnits="userSpaceOnUse"
       id="clipPath5359">
      <path
         sodipodi:nodetypes="cc"
         inkscape:connector-curvature="0"
         d="M 493.92448,753.471 C 389.59501,698.58013 316.75746,599.09556 287.49956,500.82678 L 312.54119,261.73891 -8.4852811,338.10644 -28.28427,1171.0782 391.73715,1244.6173 586.89861,777.92685 z"
         style="fill:none;stroke:#000000"
         id="path5361" />
    </clipPath>
    <filter
       inkscape:collect="always"
       id="filter8433">
      <feGaussianBlur
         inkscape:collect="always"
         stdDeviation="9.4292429"
         id="feGaussianBlur8435" />
    </filter>
    <linearGradient
       inkscape:collect="always"
       xlink:href="#linearGradient4219"
       id="linearGradient4258"
       gradientUnits="userSpaceOnUse"
       gradientTransform="translate(-3.5216118,105.95363)"
       x1="1168"
       y1="672"
       x2="1648"
       y2="672" />
  </defs>
  <sodipodi:namedview
     id="base"
     pagecolor="#ffffff"
     bordercolor="#666666"
     borderopacity="1.0"
     inkscape:pageopacity="0.0"
     inkscape:pageshadow="2"
     inkscape:zoom="0.52148438"
     inkscape:cx="896"
     inkscape:cy="512"
     inkscape:document-units="px"
     inkscape:current-layer="layer2"
     showgrid="true"
     inkscape:window-width="1364"
     inkscape:window-height="698"
     inkscape:window-x="0"
     inkscape:window-y="0"
     inkscape:window-maximized="1"
     showguides="true"
     inkscape:guide-bbox="true"
     inkscape:object-nodes="false">
    <inkscape:grid
       type="xygrid"
       id="grid2985"
       empspacing="8"
       visible="true"
       enabled="false"
       snapvisiblegridlinesonly="true"
       spacingx="16px"
       spacingy="16px" />
  </sodipodi:namedview>
  <metadata
     id="metadata7">
    <rdf:RDF>
      <cc:Work
         rdf:about="">
        <dc:format>image/svg+xml</dc:format>
        <dc:type
           rdf:resource="http://purl.org/dc/dcmitype/StillImage" />
        <dc:title></dc:title>
      </cc:Work>
    </rdf:RDF>
  </metadata>
  <g
     inkscape:groupmode="layer"
     id="layer2"
     inkscape:label="Drawing"
     style="display:inline">
    <g
       id="g3934"
       style="filter:url(#filter8433)">
      <rect
         y="-144.65651"
         x="-127.96537"
         height="1274.3669"
         width="2053.4946"
         id="rect3930"
         style="fill:#833177;fill-opacity:1;fill-rule:nonzero;stroke:none" />
      <rect
         y="448"
         x="-196.12949"
         height="160"
         width="2291.3862"
         id="rect3152"
         style="fill:#ea7387;fill-opacity:1;fill-rule:nonzero;stroke:#54194c;stroke-width:12;stroke-miterlimit:4;stroke-opacity:1;stroke-dasharray:none" />
      <rect
         transform="matrix(0,1,-1,0,0,0)"
         style="fill:#922ad5;fill-opacity:1;fill-rule:nonzero;stroke:#54194c;stroke-width:12;stroke-miterlimit:4;stroke-opacity:1;stroke-dasharray:none"
         id="rect3928"
         width="1480.3109"
         height="160"
         x="-217.00208"
         y="-1392" />
      <rect
         y="448"
         x="1232"
         height="160"
         width="160"
         id="rect3932"
         style="fill:#be4fae;fill-opacity:1;fill-rule:nonzero;stroke:#54194c;stroke-width:12;stroke-linecap:butt;stroke-linejoin:miter;stroke-miterlimit:4;stroke-opacity:1;stroke-dasharray:none" />
    </g>
    <g
       id="g4380">
      <path
         sodipodi:nodetypes="ccccc"
         inkscape:connector-curvature="0"
         id="path5462"
         d="m 1119.9628,1328 c 48,-144 64,-288 32,-432 l 288,-160 c 444.2869,70.13362 620.9353,329.2179 473.7283,670.7382 z"
         style="fill:#4d1745;stroke:none;stroke-width:8;stroke-linecap:butt;stroke-linejoin:miter;stroke-miterlimit:20;stroke-opacity:1;stroke-dasharray:none;fill-opacity:1" />
      <g
         id="g8166">
        <path
           style="fill:#121212;fill-opacity:1;fill-rule:nonzero;stroke:#afafaf;stroke-width:5;stroke-miterlimit:4;stroke-opacity:1;stroke-dasharray:none"
           d="m 1225.1195,934.81187 259.1859,-114.86279 c 84.1511,67.46001 141.9996,137.04571 204.9289,241.68832 l -427.2756,47.3575 c 1.6994,-62.7076 -9.1724,-121.76763 -36.8392,-174.18303 z"
           id="path3966"
           inkscape:connector-curvature="0"
           sodipodi:nodetypes="ccccc" />
        <path
           id="path8163"
           style="fill:none;stroke:#9e9e9e;stroke-width:1;stroke-linecap:butt;stroke-linejoin:miter;stroke-miterlimit:4;stroke-opacity:1;stroke-dasharray:none"
           d="m 1501.146,977.40175 -2.1883,10.92473 7.3024,4.37552 3.2314,-16.18295 z m 24.0835,-50.39618 4.3642,10.45219 6.6756,-1.22649 -5.6407,-13.32748 z m -30.7334,-35.17374 -3.7867,5.54617 13.8718,11.20362 5.6741,-3.94463 z m -23.5599,-34.49946 -1.2036,6.60691 13.6808,3.39194 3.5791,-5.91145 z m 14.8222,48.25358 -3.7867,5.54617 8.6845,7.10177 5.6741,-3.94463 z m -16.314,-40.0077 -1.2036,6.60691 10.6808,2.63782 3.5791,-5.91145 z" />
        <path
           id="path5848"
           style="fill:none;stroke:#ffffff;stroke-width:2.29999995;stroke-linecap:round;stroke-linejoin:round;stroke-miterlimit:4;stroke-opacity:1;stroke-dasharray:none"
           d="m 1478.5564,858.47958 -34.7732,111.27423 c 65.1582,-59.96914 111.7538,40.39559 54.7101,41.54039 -57.0437,1.1448 -34.3908,-62.76314 24.4992,-62.23572 58.8899,0.52742 72.8668,58.60272 28.1833,60.99682 -44.6835,2.3941 -40.1386,-56.15161 10.6609,-59.91855 50.7996,-3.76693 72.5831,46.39838 26.0697,57.92905 m -96.0723,-98.93419 -48.0509,60.6222 c 59.2329,-99.4025 -92.713,-120.49237 -77.5343,-8.14859" />
      </g>
      <path
         sodipodi:nodetypes="ccc"
         inkscape:connector-curvature="0"
         id="path5460"
         d="m 1439.9628,-48 0,784 C 1646,869.88828 1780.1862,1044.2234 1846.149,1294.0372 L 1850.8828,-48 z"
         style="fill:#732267;stroke:none;stroke-width:8;stroke-linecap:butt;stroke-linejoin:miter;stroke-miterlimit:20;stroke-opacity:1;stroke-dasharray:none;fill-opacity:1" />
      <g
         id="g3954">
        <path
           sodipodi:nodetypes="ccc"
           inkscape:connector-curvature="0"
           id="path3154"
           d="m 1389.8884,820.74933 c 19.7051,9.43409 61.545,-11.52514 65.1746,-33.32097 -25.3414,-36.65614 -78.6004,-9.30809 -65.1746,33.32097 z"
           style="fill:#9fda45;stroke:none;fill-opacity:1" />
        <path
           style="fill:#c5e78c;fill-opacity:1;stroke:none"
           d="m 1389.8884,820.74933 c 19.7051,9.43409 61.545,-11.52514 65.1746,-33.32097 -1.0976,-1.58774 -2.2477,-3.05539 -3.4424,-4.40693 -4.1462,20.50632 -41.7424,41.2307 -63.1671,31.96726 0.3443,1.88498 0.8195,3.80676 1.4349,5.76064 z"
           id="path3952"
           inkscape:connector-curvature="0"
           sodipodi:nodetypes="ccccc" />
      </g>
      <g
         transform="matrix(0.45003041,-0.89301326,0.89301326,0.45003041,134.72366,1617.3679)"
         id="g4011">
        <path
           style="fill:#45a5da;fill-opacity:1;stroke:none"
           d="m 1389.8884,820.74933 c 19.7051,9.43409 61.545,-11.52514 65.1746,-33.32097 -25.3414,-36.65614 -78.6004,-9.30809 -65.1746,33.32097 z"
           id="path4013"
           inkscape:connector-curvature="0"
           sodipodi:nodetypes="ccc" />
        <path
           sodipodi:nodetypes="ccccc"
           inkscape:connector-curvature="0"
           id="path4015"
           d="m 1389.8884,820.74933 c 19.7051,9.43409 61.545,-11.52514 65.1746,-33.32097 -1.0976,-1.58774 -2.2477,-3.05539 -3.4424,-4.40693 -4.1462,20.50632 -41.7424,41.2307 -63.1671,31.96726 0.3443,1.88498 0.8195,3.80676 1.4349,5.76064 z"
           style="fill:#8cc7e8;fill-opacity:1;stroke:none" />
      </g>
      <path
         d="m 1467.4375,244.375 0,384 c 29.0581,20.03822 56.5957,40.97758 82.625,62.90625 l 0,-384 c -26.0293,-21.92867 -53.5669,-42.86803 -82.625,-62.90625 z m 295.9063,279.71088 C 1709.1073,451.66285 1652.9995,395.16759 1578.4375,332.1875 l 0,384 c 64.8255,51.1572 126.497,115.99803 184.9063,191.89838 z m -295.9063,-554.291022 0,238.580142 c 128.0446,90.7535 254.9924,208.92623 355.9063,345.27459 l 0,-583.854732 z"
         style="fill:#4d1745;fill-opacity:1;stroke:#da83cd;stroke-width:4;stroke-miterlimit:4;stroke-opacity:1;stroke-dasharray:none"
         id="path8174" />
      <g
         id="g4265">
        <path
           style="fill:#330f2d;fill-opacity:1;stroke:none"
           d="m 1501.8652,319.71773 0,285.99451 13.7696,10.83535 0,-286.1427 z"
           id="path8179"
           inkscape:connector-curvature="0"
           sodipodi:nodetypes="ccccc" />
        <path
           sodipodi:nodetypes="ccccc"
           inkscape:connector-curvature="0"
           id="path8191"
           d="m 1501.8652,417.7342 0,187.97804 13.7696,10.83535 0,-189.12623 z"
           style="fill:#d9d9d9;fill-opacity:1;stroke:none" />
        <path
           style="fill:#ffffff;fill-opacity:1;fill-rule:evenodd;stroke:none"
           d="m 1484.8156,391.21417 0,36.85959 10.1361,-15.12561 z"
           id="path8193"
           inkscape:connector-curvature="0"
           sodipodi:nodetypes="cccc" />
        <path
           id="path8241"
           style="fill:none;stroke:#ffffff;stroke-width:0.75;stroke-linecap:round;stroke-linejoin:round;stroke-miterlimit:4;stroke-opacity:1;stroke-dasharray:none"
           d="m 1481.6276,373.49683 c 6.6187,-11.66483 6.8058,24.10128 11.4309,0.62128 m -11.4309,5.37872 c 4.7931,-20.39498 6.2842,22.52596 11.4309,0.62128 m -11.4309,5.03098 c 3.7837,-20.25588 5.5749,15.0017 11.4309,0.49061"
           inkscape:connector-curvature="0"
           sodipodi:nodetypes="cccccc" />
      </g>
      <g
         transform="matrix(0.22082258,0.23089493,0,0.54107343,1349.2368,0.36783217)"
         id="g4240">
        <rect
           style="fill:#000000;stroke:none"
           id="rect3290-6"
           width="512"
           height="512"
           x="1148.4784"
           y="233.95363" />
        <g
           id="g4098-7"
           transform="translate(-3.5216118,105.95363)">
          <path
             d="m 1152,128 512,512 m -512,0 512,-512"
             style="fill:none;stroke:#ffffff;stroke-width:8;stroke-linecap:butt;stroke-linejoin:miter;stroke-miterlimit:20;stroke-opacity:1;stroke-dasharray:none"
             id="path4084-9"
             inkscape:connector-curvature="0" />
          <path
             d="m 1487.123,128.5882 c -70.6247,68.54906 -87.6213,68.54906 -158.246,1e-5 m 0,510.82359 c 70.6247,-68.54906 87.6213,-68.54906 158.246,-10e-6"
             style="fill:none;stroke:#ef7979;stroke-width:8;stroke-linecap:butt;stroke-linejoin:miter;stroke-miterlimit:20;stroke-opacity:1;stroke-dasharray:none"
             id="path4070-7"
             inkscape:connector-curvature="0" />
          <path
             d="m 1551.8208,128.08262 c -134.5165,133.22317 -153.1251,133.22317 -287.6416,1e-5 m 0,511.83475 c 134.5165,-133.22317 153.1251,-133.22317 287.6416,-10e-6"
             style="fill:none;stroke:#f4a5a5;stroke-width:8;stroke-linecap:butt;stroke-linejoin:miter;stroke-miterlimit:20;stroke-opacity:1;stroke-dasharray:none"
             id="path4068-9"
             inkscape:connector-curvature="0" />
          <path
             d="m 1615.4342,128.51465 c -197.6236,196.64714 -217.2448,196.64714 -414.8684,-2e-5 m 0,510.97072 c 197.6236,-196.64714 217.2448,-196.64714 414.8684,2e-5"
             style="fill:none;stroke:#f9d2d2;stroke-width:8;stroke-linecap:butt;stroke-linejoin:miter;stroke-miterlimit:20;stroke-opacity:1;stroke-dasharray:none"
             id="path4066-0"
             inkscape:connector-curvature="0" />
          <path
             d="m 1152.5882,304.87696 c 68.5491,70.62476 68.5491,87.62132 0,158.24607 m 510.8236,10e-6 c -68.5491,-70.62476 -68.5491,-87.62132 0,-158.24607"
             style="fill:none;stroke:#877aef;stroke-width:8;stroke-linecap:butt;stroke-linejoin:miter;stroke-miterlimit:20;stroke-opacity:1;stroke-dasharray:none"
             id="path4064-5"
             inkscape:connector-curvature="0" />
          <path
             d="m 1152.0826,240.17923 c 133.2232,134.5165 133.2232,153.12504 0,287.64154 m 511.8348,0 c -133.2232,-134.5165 -133.2232,-153.12504 0,-287.64154"
             style="fill:none;stroke:#afa6f4;stroke-width:8;stroke-linecap:butt;stroke-linejoin:miter;stroke-miterlimit:20;stroke-opacity:1;stroke-dasharray:none"
             id="path4062-7"
             inkscape:connector-curvature="0" />
          <path
             d="m 1152.5146,176.56579 c 196.6472,197.62361 196.6472,217.24482 0,414.86844 m 510.9708,-2e-5 c -196.6472,-197.62361 -196.6472,-217.24482 0,-414.86844"
             style="fill:none;stroke:#d7d2f9;stroke-width:8;stroke-linecap:butt;stroke-linejoin:miter;stroke-miterlimit:20;stroke-opacity:1;stroke-dasharray:none"
             id="path3286-7"
             inkscape:connector-curvature="0" />
        </g>
        <rect
           y="233.95363"
           x="1148.4784"
           height="512"
           width="512"
           id="rect4093-1"
           style="fill:none;stroke:#ffffff;stroke-width:8;stroke-linecap:butt;stroke-linejoin:miter;stroke-miterlimit:20;stroke-opacity:1;stroke-dasharray:none" />
        <rect
           style="fill:url(#linearGradient4258);fill-opacity:1;stroke:none"
           id="rect4107-4"
           width="512"
           height="32"
           x="1148.4784"
           y="761.95361" />
        <path
           sodipodi:type="arc"
           style="fill:#e6e613;fill-opacity:1;stroke:#e6e613;stroke-width:8;stroke-linecap:butt;stroke-linejoin:miter;stroke-miterlimit:20;stroke-opacity:1;stroke-dasharray:none"
           id="path4209"
           sodipodi:cx="1725.1361"
           sodipodi:cy="291.19882"
           sodipodi:rx="41.636429"
           sodipodi:ry="41.636429"
           d="m 1766.7725,291.19882 c 0,22.99517 -18.6412,41.63643 -41.6364,41.63643 -22.9952,0 -41.6364,-18.64126 -41.6364,-41.63643 0,-22.99516 18.6412,-41.63643 41.6364,-41.63643 22.9952,0 41.6364,18.64127 41.6364,41.63643 z"
           transform="translate(4,113.16364)" />
        <path
           transform="translate(4,223.16364)"
           d="m 1766.7725,291.19882 c 0,22.99517 -18.6412,41.63643 -41.6364,41.63643 -22.9952,0 -41.6364,-18.64126 -41.6364,-41.63643 0,-22.99516 18.6412,-41.63643 41.6364,-41.63643 22.9952,0 41.6364,18.64127 41.6364,41.63643 z"
           sodipodi:ry="41.636429"
           sodipodi:rx="41.636429"
           sodipodi:cy="291.19882"
           sodipodi:cx="1725.1361"
           id="path4211"
           style="fill:none;stroke:#92920c;stroke-width:8;stroke-linecap:butt;stroke-linejoin:miter;stroke-miterlimit:20;stroke-opacity:1;stroke-dasharray:none"
           sodipodi:type="arc" />
        <path
           sodipodi:type="arc"
           style="fill:none;stroke:#8098ec;stroke-width:8;stroke-linecap:butt;stroke-linejoin:miter;stroke-miterlimit:20;stroke-opacity:1;stroke-dasharray:none"
           id="path4213"
           sodipodi:cx="1725.1361"
           sodipodi:cy="291.19882"
           sodipodi:rx="41.636429"
           sodipodi:ry="41.636429"
           d="m 1766.7725,291.19882 c 0,22.99517 -18.6412,41.63643 -41.6364,41.63643 -22.9952,0 -41.6364,-18.64126 -41.6364,-41.63643 0,-22.99516 18.6412,-41.63643 41.6364,-41.63643 22.9952,0 41.6364,18.64127 41.6364,41.63643 z"
           transform="translate(5,333.16364)" />
        <path
           transform="translate(4,443.16364)"
           d="m 1766.7725,291.19882 c 0,22.99517 -18.6412,41.63643 -41.6364,41.63643 -22.9952,0 -41.6364,-18.64126 -41.6364,-41.63643 0,-22.99516 18.6412,-41.63643 41.6364,-41.63643 22.9952,0 41.6364,18.64127 41.6364,41.63643 z"
           sodipodi:ry="41.636429"
           sodipodi:rx="41.636429"
           sodipodi:cy="291.19882"
           sodipodi:cx="1725.1361"
           id="path4215"
           style="fill:none;stroke:#c426a8;stroke-width:8;stroke-linecap:butt;stroke-linejoin:miter;stroke-miterlimit:20;stroke-opacity:1;stroke-dasharray:none"
           sodipodi:type="arc" />
        <path
           transform="translate(4,3.163643)"
           d="m 1766.7725,291.19882 c 0,22.99517 -18.6412,41.63643 -41.6364,41.63643 -22.9952,0 -41.6364,-18.64126 -41.6364,-41.63643 0,-22.99516 18.6412,-41.63643 41.6364,-41.63643 22.9952,0 41.6364,18.64127 41.6364,41.63643 z"
           sodipodi:ry="41.636429"
           sodipodi:rx="41.636429"
           sodipodi:cy="291.19882"
           sodipodi:cx="1725.1361"
           id="path4217"
           style="fill:none;stroke:#cc0e0e;stroke-width:8;stroke-linecap:butt;stroke-linejoin:miter;stroke-miterlimit:20;stroke-opacity:1;stroke-dasharray:none"
           sodipodi:type="arc" />
      </g>
      <g
         transform="matrix(0.59495314,0.48521726,0,1,918.09364,-893.89498)"
         id="g4289">
        <rect
           style="fill:#f6a067;fill-opacity:1;stroke:none"
           id="rect4285"
           width="44.737526"
           height="32.86055"
           x="1067.556"
           y="-405.27512"
           transform="matrix(0.6614637,0.74997718,-0.74997718,0.6614637,0,0)" />
        <path
           transform="matrix(0.71021483,0,0,0.71021483,486.49297,260.81313)"
           d="m 1343.4688,353.65347 c 0,95.81319 -77.672,173.48513 -173.4852,173.48513 -95.8131,0 -173.48508,-77.67194 -173.48508,-173.48513 0,-95.81318 77.67198,-173.48512 173.48508,-173.48512 95.8132,0 173.4852,77.67194 173.4852,173.48512 z"
           sodipodi:ry="173.48512"
           sodipodi:rx="173.48512"
           sodipodi:cy="353.65347"
           sodipodi:cx="1169.9836"
           id="path4276"
           style="fill:none;stroke:#ffffff;stroke-width:7.3017822;stroke-linecap:butt;stroke-linejoin:miter;stroke-miterlimit:20;stroke-opacity:1;stroke-dasharray:none"
           sodipodi:type="arc" />
        <path
           id="path4281"
           transform="matrix(1.3211551,0,0,1.3211551,-350.47787,-69.777042)"
           style="fill:none;stroke:#ffffff;stroke-width:3.92522725;stroke-linecap:butt;stroke-linejoin:miter;stroke-miterlimit:20;stroke-opacity:1;stroke-dasharray:none"
           d="m 1083.8751,504.29437 c 36.8463,21.1073 85.3282,-16.64178 85.3282,-63.9524"
           inkscape:connector-curvature="0"
           sodipodi:nodetypes="cc" />
        <rect
           transform="matrix(0.91183418,-0.41055867,0.41055867,0.91183418,0,0)"
           y="1081.078"
           x="902.30664"
           height="32.86055"
           width="44.737526"
           id="rect4287"
           style="fill:#81f661;fill-opacity:1;stroke:none" />
        <path
           sodipodi:type="arc"
           style="fill:none;stroke:#ffffff;stroke-width:3.92522725;stroke-linecap:butt;stroke-linejoin:miter;stroke-miterlimit:20;stroke-opacity:1;stroke-dasharray:none"
           id="path4274"
           sodipodi:cx="1169.9836"
           sodipodi:cy="353.65347"
           sodipodi:rx="173.48512"
           sodipodi:ry="173.48512"
           d="m 1343.4688,353.65347 c 0,95.81319 -77.672,173.48513 -173.4852,173.48513 -95.8131,0 -173.48508,-77.67194 -173.48508,-173.48513 0,-95.81318 77.67198,-173.48512 173.48508,-173.48512 95.8132,0 173.4852,77.67194 173.4852,173.48512 z"
           transform="matrix(1.3211551,0,0,1.3211551,-350.47787,-69.777042)" />
      </g>
    </g>
    <g
       id="g5363">
      <g
         id="g5215">
        <path
           style="fill:url(#linearGradient5213);fill-opacity:1;stroke:none"
           d="M 511.49491,1238.4211 C 404.97292,1088.7657 181.18737,1117.9016 75.742673,868.97871 -121.1711,404.12514 410.31924,166.07039 559.02592,356.59708 c 126.30373,161.82347 204.64917,2.15667 429.52519,48.02194 433.08809,88.33181 9.68471,399.34485 158.10969,472.94677 152.9357,75.83873 519.1621,33.01443 337.6114,317.62061 -88.6013,138.8949 209.9492,153.6113 261.8663,271.416 82.1252,186.3495 -179.9222,253.9265 -30.085,353.6636 -167.1629,27.7371 -116.4696,-117.2062 -240.187,-229.7798 -238.9817,-217.4555 -541.03747,242.6876 -964.37159,-352.0651 z"
           id="path3073"
           inkscape:connector-curvature="0"
           sodipodi:nodetypes="ssssssscss" />
        <path
           style="fill:url(#linearGradient5210);fill-opacity:1;stroke:none"
           d="m 654.9375,429.8125 c -133.84316,0.7601 -275.29923,22.05486 -422.78125,68.65625 -41.35581,232.21923 116.21431,378.37252 344.375,344.28125 344.38992,-51.45798 519.99735,128.21057 454.24995,249.5312 -95.86097,176.8883 470.1498,108.1647 423.9376,240.6876 -29.3854,84.2682 -62.399,255.4031 137.5624,245.0312 103.0565,-5.3455 25.1214,157.7001 67.625,244.625 15.4677,1.9521 33.8784,1.3528 56.1563,-2.3438 -149.8372,-99.7371 112.1877,-167.3379 30.0625,-353.6874 -51.9171,-117.8047 -350.4451,-132.5114 -261.8438,-271.4063 181.5507,-284.60618 -184.6893,-241.78627 -337.625,-317.625 -100.8161,-49.99334 62.1821,-209.52885 41.4063,-334.40625 C 1041.6993,476.80546 877.17315,435.25391 698.375,430.3125 c -10.92224,0.92026 -21.60337,0.9024 -32.1875,-0.5 -3.74061,-0.0109 -7.49739,-0.0213 -11.25,0 z"
           id="path3847"
           inkscape:connector-curvature="0" />
        <path
           sodipodi:nodetypes="scsscssscscc"
           style="fill:url(#linearGradient5207);fill-opacity:1;stroke:none"
           d="M 405.6875,290.65625 C 268.82275,290.2907 99.860468,390.0659 48.25,562.78125 189.53798,547.8978 371.73273,401.71878 378.18172,463.4032 395.64514,630.44037 570.46328,687.51899 617.84375,675.40625 828.29922,621.60367 1052.7139,658.76617 1126.2812,766.8125 1170.4624,644.17478 1297.7001,467.67611 988.5625,404.625 763.68648,358.75973 685.33498,518.41722 559.03125,356.59375 524.17811,311.93906 468.2884,290.82345 405.6875,290.65625 z m 742.5,587.65625 c -2.6339,13.92636 -7.0287,28.43051 -13.3437,43.5 -61.1453,145.9088 257.1866,104.0625 383.375,209.875 88.7862,-214.11937 -228.8253,-184.70358 -370.0313,-253.375 z"
           id="path3850"
           inkscape:connector-curvature="0" />
        <path
           style="fill:url(#linearGradient5204);fill-opacity:1;stroke:none"
           d="M 574.96875,951.3125 C 465.949,950.97387 327.78236,983.979 228.6875,1053.6875 c 101.47692,66.9878 215.53091,90.1932 282.8125,184.7187 375.83971,528.0267 656.0834,224.6271 881.4688,302.0626 C 1398.5524,1271.9636 1024.2497,1416.9514 889,1323 759.02156,1232.7102 1026.2917,1028.0177 650.3125,957.78125 c -22.57233,-4.21673 -48.0453,-6.38396 -75.34375,-6.46875 z"
           id="path3077"
           inkscape:connector-curvature="0" />
        <path
           sodipodi:nodetypes="ssssssscss"
           inkscape:connector-curvature="0"
           id="path3906"
           d="M 511.49491,1238.4211 C 404.9729,1088.7657 181.1874,1117.9016 75.7427,868.97871 -121.1711,404.12514 410.3192,166.07039 559.02592,356.59708 c 126.30373,161.82347 204.64917,2.15667 429.52519,48.02194 433.08809,88.33181 9.68469,399.34485 158.10969,472.94677 152.9357,75.83873 519.1621,33.01443 337.6114,317.62061 -88.6013,138.8949 209.9492,153.6113 261.8663,271.416 82.1252,186.3495 -179.9222,253.9265 -30.085,353.6636 -167.1629,27.7371 -116.4696,-117.2062 -240.187,-229.7798 -238.9817,-217.4555 -541.03747,242.6876 -964.37159,-352.0651 z"
           style="fill:none;stroke:url(#linearGradient5201);stroke-width:12;stroke-linecap:butt;stroke-linejoin:miter;stroke-miterlimit:20;stroke-opacity:1;stroke-dasharray:none" />
        <path
           sodipodi:type="star"
           style="fill:#ffffff;fill-opacity:1;fill-rule:nonzero;stroke:none"
           id="path4851"
           sodipodi:sides="8"
           sodipodi:cx="1113"
           sodipodi:cy="849"
           sodipodi:r1="45.002777"
           sodipodi:r2="5.6253471"
           sodipodi:arg1="1.581907"
           sodipodi:arg2="1.9746061"
           inkscape:flatsided="false"
           inkscape:rounded="0"
           inkscape:randomized="0"
           d="m 1112.5,894 -1.7103,-39.8271 -29.9631,26.29335 26.9527,-29.3714 L 1068,848.5 l 39.8271,-1.71034 -26.2934,-29.96302 29.3714,26.95262 L 1113.5,804 l 1.7103,39.8271 29.9631,-26.29335 -26.9527,29.3714 L 1158,849.5 l -39.8271,1.71034 26.2934,29.96302 -29.3714,-26.95262 z"
           transform="matrix(0.67321712,0.00452439,-0.00642171,0.95553399,368.86848,33.216004)" />
        <use
           height="1024"
           width="1792"
           transform="matrix(0.47438354,0.11771689,0.00168557,0.70021345,354.67533,-211.81559)"
           id="use4867"
           xlink:href="#path4851"
           y="0"
           x="0" />
        <g
           id="g4873">
          <path
             sodipodi:type="star"
             style="fill:#ffffff;fill-opacity:1;fill-rule:nonzero;stroke:none"
             id="path4871"
             sodipodi:sides="4"
             sodipodi:cx="1169.9081"
             sodipodi:cy="839.09155"
             sodipodi:r1="73.493195"
             sodipodi:r2="5.5119896"
             sodipodi:arg1="1.6623273"
             sodipodi:arg2="2.4477255"
             inkscape:flatsided="false"
             inkscape:rounded="0"
             inkscape:randomized="0"
             d="m 1163.1906,912.2771 2.48,-69.66055 -68.9481,-10.24251 69.6606,2.48001 10.2425,-68.94805 -2.48,69.66055 68.948,10.24252 -69.6605,-2.48002 z"
             transform="matrix(0.42203007,0.40956073,-0.40956073,0.42203007,1019.1233,6.528611)" />
          <path
             transform="matrix(0.58142417,-0.04354748,-0.02546483,1.0159043,510.0019,38.662187)"
             d="m 1163.1906,912.2771 3.8925,-70.83555 -70.3606,-9.06751 70.8356,3.89251 9.0675,-70.36055 -3.8925,70.83555 70.3605,9.06752 -70.8355,-3.89252 z"
             inkscape:randomized="0"
             inkscape:rounded="0"
             inkscape:flatsided="false"
             sodipodi:arg2="2.4477255"
             sodipodi:arg1="1.6623273"
             sodipodi:r2="3.6746597"
             sodipodi:r1="73.493195"
             sodipodi:cy="839.09155"
             sodipodi:cx="1169.9081"
             sodipodi:sides="4"
             id="path4869"
             style="fill:#ffffff;fill-opacity:1;fill-rule:nonzero;stroke:none"
             sodipodi:type="star" />
        </g>
        <use
           x="0"
           y="0"
           xlink:href="#g4873"
           id="use4883"
           transform="matrix(0.46419288,-0.03032667,0.01288049,0.78499194,315.6623,-194.12031)"
           width="1792"
           height="1024" />
        <path
           style="fill:#ffffff;fill-opacity:1;fill-rule:nonzero;stroke:none"
           d="m 844.85449,705.15686 0.76073,-102.87338 -20.31175,21.53531 18.32917,-24.13892 -26.58487,-2.66659 26.66063,-0.92106 -17.28491,-25.30644 19.37465,22.83634 2.1403,-33.12213 0.73927,33.21652 20.31175,-21.5353 -18.32917,24.13891 26.58486,2.6666 -26.66063,0.92106 17.28492,25.30644 -19.37466,-22.83634 z"
           id="path4885"
           inkscape:connector-curvature="0"
           sodipodi:nodetypes="ccccccccccccccccc" />
        <use
           x="0"
           y="0"
           xlink:href="#path4885"
           id="use4888"
           transform="matrix(-0.41523199,-0.02289435,-0.02289435,0.41523199,1302.3778,250.43391)"
           width="1792"
           height="1024" />
        <use
           height="1024"
           width="1792"
           transform="matrix(-0.97477882,-0.05252454,-0.03305286,0.86190703,1849.2439,289.96365)"
           id="use4892"
           xlink:href="#path4885"
           y="0"
           x="0" />
        <path
           sodipodi:type="star"
           style="fill:#ffffff;fill-opacity:1;fill-rule:nonzero;stroke:none"
           id="path4894"
           sodipodi:sides="4"
           sodipodi:cx="1238.5"
           sodipodi:cy="681"
           sodipodi:r1="10.049875"
           sodipodi:r2="1.2562344"
           sodipodi:arg1="1.670465"
           sodipodi:arg2="2.4558631"
           inkscape:flatsided="false"
           inkscape:rounded="0"
           inkscape:randomized="0"
           d="m 1237.5,691 0.028,-9.2045 L 1228.5,680 l 9.2045,0.0277 L 1239.5,671 l -0.028,9.2045 9.0277,1.7955 -9.2045,-0.0277 z"
           transform="matrix(0.96979763,0.05225274,-0.05225274,0.96979763,-31.406726,-142.94009)" />
        <use
           x="0"
           y="0"
           xlink:href="#path4894"
           id="use4898"
           transform="matrix(0.94825772,0.31750171,-0.31750171,0.94825772,155.59352,-187.89442)"
           width="1792"
           height="1024" />
        <use
           height="1024"
           width="1792"
           transform="matrix(0.92553436,-0.07433579,0.07433579,0.92553436,-151.62093,398.96925)"
           id="use4920"
           xlink:href="#path4894"
           y="0"
           x="0" />
        <use
           height="1024"
           width="1792"
           transform="matrix(0.78534669,-0.12264476,0.12264476,0.78534669,275.59508,362.62519)"
           id="use4952"
           xlink:href="#path4894"
           y="0"
           x="0" />
        <use
           x="0"
           y="0"
           xlink:href="#path4894"
           id="use4954"
           transform="matrix(0.58031116,-0.73253686,0.73253686,0.58031116,133.54305,1271.1791)"
           width="1792"
           height="1024" />
        <use
           height="1024"
           width="1792"
           transform="matrix(0.0010216,-0.62344459,0.62344459,0.0010216,955.03168,1448.2236)"
           id="use4956"
           xlink:href="#path4894"
           y="0"
           x="0" />
        <use
           x="0"
           y="0"
           xlink:href="#path4894"
           id="use4922"
           transform="matrix(0.45131493,0.2534134,-0.2534134,0.45131493,563.01096,653.3617)"
           width="1792"
           height="1024" />
        <use
           height="1024"
           width="1792"
           transform="matrix(0.84568962,0.12329086,-0.12329086,0.84568962,148.99098,562.32638)"
           id="use4924"
           xlink:href="#path4894"
           y="0"
           x="0" />
        <use
           x="0"
           y="0"
           xlink:href="#path4894"
           id="use4926"
           transform="matrix(0.44413148,0.59573016,-0.59573016,0.44413148,957.95702,310.82128)"
           width="1792"
           height="1024" />
        <use
           height="1024"
           width="1792"
           transform="matrix(0.03126851,0.92282149,-0.92282149,0.03126851,1695.6214,234.73758)"
           id="use4928"
           xlink:href="#path4894"
           y="0"
           x="0" />
        <use
           x="0"
           y="0"
           xlink:href="#path4894"
           id="use4944"
           transform="matrix(1.4392497,1.1364295,-1.1364295,1.4392497,-136.31135,-998.25288)"
           width="1792"
           height="1024" />
        <use
           x="0"
           y="0"
           xlink:href="#path4894"
           id="use4948"
           transform="matrix(1.6124395,-0.1895731,0.1895731,1.6124395,-860.23449,320.73931)"
           width="1792"
           height="1024" />
        <use
           height="1024"
           width="1792"
           transform="matrix(1.219322,0.96277481,-0.96277481,1.219322,134.0066,-765.76667)"
           id="use4950"
           xlink:href="#path4894"
           y="0"
           x="0" />
        <use
           height="1024"
           width="1792"
           transform="matrix(0.65668647,-0.14648896,0.14648896,0.65668647,106.27237,1147.3236)"
           id="use4958"
           xlink:href="#path4894"
           y="0"
           x="0" />
        <use
           height="1024"
           width="1792"
           transform="matrix(0.62988218,0.03215109,-0.02411275,0.47239981,-54.93349,186.17172)"
           id="use4861"
           xlink:href="#path4851"
           y="0"
           x="0" />
        <use
           height="1024"
           width="1792"
           transform="matrix(1.1132013,0.22990277,-0.22990277,1.1132013,-573.72023,-299.57944)"
           id="use4900"
           xlink:href="#path4894"
           y="0"
           x="0" />
        <use
           x="0"
           y="0"
           xlink:href="#path4894"
           id="use4902"
           transform="matrix(0.66834917,-0.09782031,0.09782031,0.66834917,-323.76467,307.08844)"
           width="1792"
           height="1024" />
        <use
           height="1024"
           width="1792"
           transform="matrix(0.90972205,0.32916064,-0.32916064,0.90972205,-325.66523,-357.43119)"
           id="use4904"
           xlink:href="#path4894"
           y="0"
           x="0" />
        <use
           x="0"
           y="0"
           xlink:href="#path4894"
           id="use4906"
           transform="matrix(0.50818943,0.18387589,-0.18387589,0.50818943,44.628542,72.86191)"
           width="1792"
           height="1024" />
        <use
           height="1024"
           width="1792"
           transform="matrix(0.59875456,0.05828175,-0.05828175,0.59875456,-55.953507,15.320992)"
           id="use4908"
           xlink:href="#path4894"
           y="0"
           x="0" />
        <use
           x="0"
           y="0"
           xlink:href="#path4851"
           id="use4930"
           transform="matrix(0.44795873,0.01919532,-0.00889607,0.28203938,184.86031,239.41496)"
           width="1792"
           height="1024" />
        <use
           height="1024"
           width="1792"
           transform="matrix(1.0498922,0.27720345,-0.17441091,0.71995953,-651.44439,-653.27673)"
           id="use4936"
           xlink:href="#path4851"
           y="0"
           x="0" />
        <use
           height="1024"
           width="1792"
           transform="matrix(0.97248107,-0.14233341,0.14233341,0.97248107,-769.59755,229.50314)"
           id="use4962"
           xlink:href="#path4894"
           y="0"
           x="0" />
        <use
           x="0"
           y="0"
           xlink:href="#path4851"
           id="use4964"
           transform="matrix(0.45966963,0.10102415,-0.07364905,0.36318854,-429.2234,210.20758)"
           width="1792"
           height="1024" />
        <use
           x="0"
           y="0"
           xlink:href="#path4851"
           id="use4855"
           transform="matrix(0.83485579,0.2464156,-0.18480707,0.62612614,-235.74926,71.167461)"
           width="1792"
           height="1024" />
        <use
           height="1024"
           width="1792"
           transform="matrix(0.5319701,0.08487459,-0.00596257,0.6926709,-0.279626,71.385587)"
           id="use4857"
           xlink:href="#path4851"
           y="0"
           x="0" />
        <use
           x="0"
           y="0"
           xlink:href="#path4894"
           id="use4910"
           transform="matrix(1.0825408,0.10537269,-0.10537269,1.0825408,-568.2006,49.897631)"
           width="1792"
           height="1024" />
        <use
           height="1024"
           width="1792"
           transform="matrix(0.76676671,0.07463577,-0.07463577,0.76676671,-179.68244,388.6024)"
           id="use4912"
           xlink:href="#path4894"
           y="0"
           x="0" />
        <use
           x="0"
           y="0"
           xlink:href="#path4894"
           id="use4914"
           transform="matrix(0.75035726,0.53640235,-0.53640235,0.75035726,121.12494,-91.181466)"
           width="1792"
           height="1024" />
        <use
           height="1024"
           width="1792"
           transform="matrix(0.62573919,0.44939086,-0.44939086,0.62573919,55.795994,57.052113)"
           id="use4916"
           xlink:href="#path4894"
           y="0"
           x="0" />
        <use
           x="0"
           y="0"
           xlink:href="#path4894"
           id="use4918"
           transform="matrix(0.39886618,1.0002148,-1.0002148,0.39886618,645.78705,-377.55215)"
           width="1792"
           height="1024" />
        <use
           height="1024"
           width="1792"
           transform="matrix(0.51777849,0.01251503,-0.00979203,0.37222618,15.389559,582.20392)"
           id="use4942"
           xlink:href="#path4851"
           y="0"
           x="0" />
        <use
           height="1024"
           width="1792"
           transform="matrix(1.9651803,1.2431505,-1.2431505,1.9651803,-781.13768,-1555.9862)"
           id="use4946"
           xlink:href="#path4894"
           y="0"
           x="0" />
        <use
           height="1024"
           width="1792"
           transform="matrix(0.870781,-0.14478837,0.14478837,0.870781,-363.68858,483.89428)"
           id="use4960"
           xlink:href="#path4894"
           y="0"
           x="0" />
        <use
           height="1024"
           width="1792"
           transform="matrix(0.61404904,0.1162036,-0.1162036,0.61404904,-224.18011,605.97705)"
           id="use4966"
           xlink:href="#path4894"
           y="0"
           x="0" />
      </g>
      <g
         clip-path="url(#clipPath5359)"
         id="g3985">
        <path
           sodipodi:nodetypes="sssssscs"
           inkscape:connector-curvature="0"
           id="path4575"
           d="m 368.98842,895.135 c 12.21193,11.237 105.30298,5.3117 133.14318,-47.6188 4.2918,-8.1597 -59.92641,-35.4863 1.15686,-157.63813 C 573.00045,550.47091 293.2913,373.99719 166.7767,508.29733 74.85282,605.87808 104.65181,894.1939 88.38835,1066.7279 c -9.86503,104.6551 239.12742,151.0897 240.24474,44.9447 0.7071,-67.1751 -47.96195,-154.6762 -41.88496,-254.27891 29.7626,8.02815 58.14862,15.57299 82.24029,37.74131 z"
           style="fill:#fbf6fa;fill-opacity:1;stroke:none" />
        <path
           style="fill:#f2cce3;fill-opacity:1;stroke:none"
           d="m 270.16185,847.77008 c -8.96482,-2.35242 -17.87854,-4.8868 -26.55981,-7.8587 -8.68127,-2.97189 -17.12833,-6.38185 -25.21072,-10.49877 -8.99515,-4.56148 -17.58172,-9.95022 -25.6253,-16.06537 -9.37754,-7.12449 -18.04116,-15.24271 -26.09593,-23.89954 5.86041,10.26041 13.09453,20.06985 21.75657,28.82618 7.43835,7.51425 15.90756,14.20108 25.11428,19.82471 8.3032,5.05219 17.11025,9.19189 26.13254,12.65357 9.02229,3.46167 18.25961,6.24694 27.46052,8.63087 0.12297,0.0319 0.24594,0.0637 0.36891,0.0954 17.73607,4.61769 35.39093,8.25777 52.0171,14.05014 8.23292,2.86411 16.2217,6.24174 23.69952,10.40471 2e-5,10e-6 5e-5,3e-5 8e-5,4e-5 7.82515,4.34968 15.15007,9.5802 21.70607,15.61688 1.77042,1.53046 3.49331,2.48603 4.976,3.02969 2.04714,0.8297 4.03861,1.38283 5.91105,1.7722 4e-5,10e-6 8e-5,10e-6 1.1e-4,2e-5 5.14138,1.08616 10.22233,1.45402 15.10709,1.5254 13.61156,0.23553 27.11283,-1.54819 40.16136,-4.65042 15.06515,-3.54326 29.87616,-9.05491 43.34203,-17.23712 6.70393,-4.07736 13.05508,-8.88766 18.72622,-14.51592 5.63896,-5.59737 10.5296,-12.03264 14.29231,-19.16481 6e-5,-1.5e-4 1.2e-4,-3e-4 1.8e-4,-4.6e-4 1.06069,-2.7059 1.14672,-4.90946 0.44676,-6.41456 -0.67153,-1.82703 -1.42304,-3.10815 -2.05117,-3.90473 -1.94367,-2.77029 -3.95418,-5.03109 -5.60631,-7.10094 -2.49983,-3.15365 -4.8153,-6.37097 -6.80392,-9.707 -10e-6,-3e-5 -3e-5,-6e-5 -5e-5,-8e-5 -2.58279,-4.31923 -4.7125,-8.91278 -6.3351,-13.67349 -4.74259,-13.68816 -5.12369,-28.90793 -3.20267,-43.82422 1e-5,-3e-5 1e-5,-7e-5 2e-5,-10e-5 3.2977,-25.29875 13.10531,-49.68972 24.7653,-73.12207 10e-6,-2e-5 2e-5,-3e-5 3e-5,-5e-5 4.42236,-8.83721 7.70361,-18.27017 9.62019,-28.01647 1.83353,-9.35913 2.39366,-18.93374 1.74394,-28.41195 -1.37519,-19.51427 -7.66738,-38.28808 -16.83086,-55.17741 -10.02077,-18.5079 -23.2658,-35.01395 -38.19822,-49.50702 -16.03872,-15.58607 -34.08769,-28.99772 -53.35804,-40.18907 -1e-5,-10e-6 -3e-5,-2e-5 -5e-5,-3e-5 -19.71488,-11.45843 -40.78976,-20.63663 -62.72029,-27.04474 -21.47599,-6.28383 -43.86792,-9.88136 -66.40116,-9.80751 -21.82974,0.0665 -43.80572,3.758 -64.29691,11.83561 -3e-5,2e-5 -7e-5,3e-5 -10e-5,4e-5 -21.1137,8.35339 -40.25525,21.43508 -55.80402,37.94012 -2e-5,10e-6 -3e-5,3e-5 -4e-5,4e-5 -12.85612,13.69974 -22.58133,29.82403 -30.18441,46.55772 -8.85335,19.43 -15.13392,39.80805 -20.02531,60.32037 -11.61074,48.65697 -16.157638,98.50106 -18.979918,148.00015 -3.083994,53.78855 -3.704893,107.57969 -4.647911,161.24063 -10e-7,3e-5 -2e-6,7e-5 -2e-6,10e-5 -0.450763,25.5929 -0.955524,51.15546 -1.911926,76.67226 -0.868648,23.1466 -2.079665,46.2355 -4.245053,69.1904 -1.26398,13.7407 1.711788,27.6243 8.11594,39.7033 6.732627,12.6024 16.48568,23.1104 27.35052,31.663 2e-5,0 5e-5,0 8e-5,10e-5 12.086,9.5559 25.57565,17.0365 39.5581,22.9234 4e-5,0 7e-5,0 1e-4,0 14.74603,6.2238 30.16203,10.7659 45.85115,13.6937 3e-5,0 7e-5,0 1e-4,0 15.24972,2.8557 30.86674,4.2033 46.49304,3.5383 13.9751,-0.5707 28.15916,-2.8267 41.59763,-7.9362 5.97441,-2.2776 11.79804,-5.1951 17.2115,-8.8919 5.08876,-3.4744 9.7598,-7.6873 13.69042,-12.6182 3.91654,-4.9345 6.97865,-10.5203 9.03194,-16.4763 2e-5,0 3e-5,-10e-5 4e-5,-10e-5 2.22976,-6.5222 3.26014,-13.3178 3.31737,-20.0281 0.16278,-18.9773 -3.14165,-37.5309 -7.25669,-55.4715 -4.71978,-20.7154 -10.57998,-40.9857 -15.95267,-61.21153 -5.86888,-22.12056 -11.26021,-44.27868 -14.8483,-66.64683 -3.8001,-23.70474 -5.60735,-47.69793 -4.25661,-71.48115 l -11.981,-0.67498 c -1.38828,24.83432 0.46331,49.68718 4.38964,74.06018 3.70143,22.99095 9.17607,45.541 15.09824,67.82264 5.4147,20.39687 11.24069,40.52847 15.85003,60.79517 3.97396,17.5939 7.17883,35.2175 6.95802,52.6816 -0.0723,5.5968 -0.88481,11.1316 -2.6637,16.2461 -10e-6,0 -2e-5,0 -3e-5,1e-4 -1.60425,4.6613 -4.01696,9.0625 -7.08378,12.9223 -3.07337,3.8893 -6.87271,7.2898 -11.07531,10.1812 -4.4899,3.0882 -9.48291,5.5699 -14.71967,7.5846 -11.83483,4.5665 -24.76061,6.5618 -37.82277,7.154 -14.58649,0.6346 -29.29722,-0.6488 -43.77415,-3.3454 -1e-5,0 -3e-5,0 -5e-5,0 -14.88489,-2.7828 -29.47937,-7.078 -43.38661,-12.9526 -1e-5,0 -3e-5,0 -4e-5,0 -13.18491,-5.5841 -25.74629,-12.5147 -36.77328,-21.2737 -9.85619,-7.8671 -18.55854,-17.112 -24.19841,-27.8737 -5.335619,-10.0904 -7.86399,-21.7268 -6.77375,-32.9613 2.193389,-23.286 3.419255,-46.6005 4.289599,-69.86731 0.961,-25.65827 1.467951,-51.30021 1.918481,-76.91035 0,-4e-5 0,-7e-5 0,-1.1e-4 0.94696,-53.70966 1.56191,-107.34204 4.63006,-160.76435 2.84316,-49.23009 7.28699,-98.37324 18.67072,-145.89736 4.79619,-20.00884 10.82529,-39.65613 19.27092,-58.1281 7.28083,-15.8769 16.2787,-30.91925 28.00239,-43.31193 2e-5,-2e-5 5e-5,-5e-5 7e-5,-7e-5 14.34704,-15.2305 32.0474,-27.335 51.48047,-35.00858 3e-5,-1e-5 6e-5,-3e-5 9e-5,-4e-5 18.89223,-7.48947 39.41305,-10.90092 59.93142,-10.99553 21.21646,-0.0926 42.47174,3.34456 62.99122,9.32635 20.95464,6.11738 41.14134,14.91454 60.05577,25.90162 3e-5,10e-6 6e-5,3e-5 9e-5,5e-5 18.48324,10.74533 35.7535,23.56643 51.02192,38.41742 14.1993,13.82902 26.71341,29.36839 36.00543,46.60702 8.44496,15.70253 14.26567,32.84776 15.41646,50.29166 0.57653,8.46351 0.0819,16.99516 -1.54731,25.28307 -1.68969,8.63196 -4.62341,17.0461 -8.5776,24.95998 -1e-5,3e-5 -3e-5,6e-5 -4e-5,9e-5 -12.05528,23.99247 -22.25051,49.64626 -25.92816,76.91054 0,3e-5 -1e-5,7e-5 -1e-5,1e-4 -2.20937,16.20858 -1.64903,33.24534 3.74036,49.2752 1e-5,4e-5 2e-5,7e-5 3e-5,1.1e-4 1.8969,5.56227 4.37951,10.91774 7.39378,15.95927 2e-5,3e-5 4e-5,6e-5 6e-5,9e-5 2.3418,3.9063 4.95824,7.55879 7.70685,11.01253 1.93928,2.45146 3.79561,4.50472 5.14376,6.47831 0.38532,0.66393 0.61779,0.89727 0.49406,0.76143 -0.32522,-0.34822 -0.14617,-1.23908 0.3485,-2.8687 3e-5,-9e-5 6e-5,-1.8e-4 9e-5,-2.7e-4 -3.11966,5.95277 -7.29092,11.41405 -12.13422,16.24284 -2e-5,2e-5 -4e-5,4e-5 -7e-5,6e-5 -4.88671,4.87307 -10.49912,9.10398 -16.50998,12.77776 -3e-5,1e-5 -6e-5,3e-5 -9e-5,5e-5 -12.11754,7.41382 -25.76768,12.44839 -39.85946,15.80586 -12.27007,2.89007 -24.77742,4.56691 -37.17961,4.3298 -4.47725,-0.0987 -8.79029,-0.37792 -12.80338,-1.25943 -3e-5,-10e-6 -6e-5,-10e-6 -9e-5,-2e-5 -1.45257,-0.32532 -2.75888,-0.66536 -3.85556,-1.1329 -0.82275,-0.40764 -1.36289,-0.60911 -1.42773,-0.76738 -7.2901,-6.70402 -15.38085,-12.48764 -24.00358,-17.27619 -4e-5,-10e-6 -7e-5,-3e-5 -10e-5,-5e-5 -8.22998,-4.56405 -16.8499,-8.22398 -25.59295,-11.25159 -17.62222,-6.09397 -35.58244,-9.82655 -52.93318,-14.32767 -0.11985,-0.0314 -0.23969,-0.0628 -0.3595,-0.0942 z"
           id="path3936"
           inkscape:connector-curvature="0"
           sodipodi:nodetypes="cssssssc"
           inkscape:path-effect="#path-effect3950"
           inkscape:original-d="m 166.67009,789.4477 c 61.2254,83.7817 144.24726,52.2523 202.31833,105.6873 12.21193,11.237 105.30298,5.3117 133.14318,-47.6188 4.2918,-8.1597 -59.92641,-35.4863 1.15686,-157.63813 C 573.00045,550.47091 293.2913,373.99719 166.7767,508.29733 74.85282,605.87808 104.65181,894.1939 88.38835,1066.7279 c -9.86503,104.6551 239.12742,151.0897 240.24474,44.9447 0.7071,-67.1751 -47.96195,-154.6762 -42.3051,-255.0853" />
        <path
           id="path3962"
           style="fill:#f2cce3;fill-opacity:1;fill-rule:nonzero;stroke:none"
           d="m 443.00004,820.5 c -5.19458,13.13389 -1.84991,19.35355 8.49996,21.875 -17.35718,5.5456 -22.10926,-7.19838 -8.49996,-21.875 z m -50.03801,15.51835 c -0.89644,25.8094 4.94455,45.24443 19.76346,62.90954 l 10.1703,-1.92678 c -17.11701,-18.81155 -24.21625,-34.59493 -29.93376,-60.98276 z"
           inkscape:connector-curvature="0" />
        <path
           style="fill:#4eafcf;fill-opacity:1;stroke:#3f9fbf;stroke-width:12;stroke-miterlimit:20;stroke-opacity:1;stroke-dasharray:none"
           d="M 98.5,540.5858 C 74.227778,624.61955 36.289825,679.26645 53.172861,742.27479 72.350087,813.84517 175.41777,789.18624 158.5,675.00001 c -9.7624,33.12452 -39.28057,38.05507 -44.52685,10.01408 -6.33239,-33.84625 35.4571,-86.14691 30.52685,-153.51408 z"
           id="path3898"
           inkscape:connector-curvature="0"
           sodipodi:nodetypes="cscscc" />
        <g
           id="g3896">
          <path
             style="fill:#fbf6fa;fill-opacity:1;stroke:none"
             d="m 149.90664,578.88669 c -19.38625,-157.96508 59.00114,-226.66959 91.13649,-239.2817 22.69673,-8.90775 20.24057,94.67585 8.47978,142.90807 z"
             id="path3894"
             inkscape:connector-curvature="0"
             sodipodi:nodetypes="cscc" />
          <path
             inkscape:original-d="m 149.90664,578.88669 c -19.38625,-157.96508 59.00114,-226.66959 91.13649,-239.2817 22.69673,-8.90775 20.24057,94.67585 8.47978,142.90807"
             inkscape:path-effect="#path-effect3882"
             sodipodi:nodetypes="csc"
             inkscape:connector-curvature="0"
             id="path3863"
             d="m 146.26041,471.68511 c -0.24898,1.29683 -0.48698,2.5961 -0.71391,3.89744 -3.0239,17.34494 -4.13217,35.04873 -3.36017,52.48141 0.772,17.43268 3.42107,34.5839 7.72031,50.82273 0.1254,-16.78184 0.46987,-33.79034 1.54449,-50.74872 1.07462,-16.95839 2.88734,-33.86721 5.89965,-50.45872 0.22577,-1.24378 0.45818,-2.48577 0.69737,-3.72572 4.47568,-23.20169 12.04514,-45.79563 23.36248,-66.32182 8.83922,-16.02816 19.86294,-30.84464 33.18035,-43.12466 0,0 0,0 0,0 4.97551,-4.58985 10.22899,-8.81354 15.80261,-12.45952 4.19694,-2.73152 8.45035,-5.1506 12.84157,-6.85729 0.39218,-0.0797 0.60917,-0.19373 0.4316,-0.12998 -0.0922,-0.12486 0.1006,0.10301 0.50503,0.40028 0,0 1e-5,0 1e-5,1e-5 0.57066,0.50003 1.10004,1.43513 1.7338,2.59595 0.76653,1.49086 1.37415,3.20886 1.94701,5.06943 1.50696,4.93578 2.32956,10.25483 2.98928,15.76054 0.80617,6.87353 1.18976,13.85248 1.36449,20.89165 0.0853,3.47241 0.1184,6.94764 0.10262,10.42465 -0.0566,12.48356 -0.39949,25.25651 -0.789,37.92846 -0.24024,7.61808 -0.46027,15.16943 -0.76531,22.58277 -0.30503,7.41335 -0.69707,14.68893 -1.23178,21.79906 2.85313,-6.514 5.22139,-13.54823 7.1497,-20.86881 1.9283,-7.32058 3.41835,-14.92611 4.58993,-22.60189 1.95825,-12.77745 2.98726,-25.91535 3.04524,-38.78535 0.0162,-3.58891 -0.0177,-7.17994 -0.10498,-10.77205 -0.17535,-7.28645 -0.58478,-14.632 -1.44204,-21.99147 -0.66518,-5.83064 -1.63105,-11.84014 -3.41909,-17.83189 -0.6753,-2.27883 -1.54189,-4.64485 -2.72394,-7.01347 -0.88427,-1.84587 -2.16134,-3.81201 -3.9769,-5.68908 0,0 0,0 0,-10e-6 -1.48226,-1.58221 -3.60395,-2.87505 -6.29184,-3.59517 -2.80671,-0.53916 -5.37914,-0.24986 -7.49789,0.65587 -5.42529,2.14599 -10.40933,4.94265 -15.03347,7.99002 -6.21587,4.07757 -11.99151,8.70893 -17.36909,13.68249 -14.38849,13.31263 -26.20229,29.13855 -35.5506,46.15299 -11.98407,21.80716 -19.97854,45.57378 -24.63753,69.83987 z"
             style="fill:#f2cce3;fill-opacity:1;stroke:none" />
          <path
             sodipodi:nodetypes="ccc"
             inkscape:connector-curvature="0"
             id="path3892"
             d="M 216.64645,400.85355 C 191.26777,430.43934 179.35355,474.92284 181,517.5 c 5.55025,-40.23223 17.30761,-82.97918 35.64645,-116.64645 z"
             style="fill:#f2cce3;fill-opacity:1;fill-rule:nonzero;stroke:none" />
        </g>
        <g
           id="g3851">
          <path
             sodipodi:nodetypes="cccc"
             inkscape:connector-curvature="0"
             id="path3827"
             d="m 188.20132,617.06005 c -14.49569,130.4612 62.22539,112.248 102.53048,165.28101 33.94113,-29.69849 51.38656,-77.59977 34.416,-129.21857 -31.1127,-36.416 -87.09545,-37.12311 -136.94648,-36.06244 z"
             style="fill:#ffffff;stroke:none" />
          <g
             clip-path="url(#clipPath3847)"
             id="g3814">
            <path
               transform="matrix(1.4648767,0.12733678,-0.12733678,1.4648767,-71.453325,-364.69529)"
               d="m 346.43966,696.4328 a 38.671444,56.82185 0 1 1 -77.34288,0 38.671444,56.82185 0 1 1 77.34288,0 z"
               sodipodi:ry="56.82185"
               sodipodi:rx="38.671444"
               sodipodi:cy="696.4328"
               sodipodi:cx="307.76822"
               id="path3790"
               style="fill:url(#linearGradient3823);fill-opacity:1;stroke:none"
               sodipodi:type="arc" />
            <g
               id="g3804"
               clip-path="url(#clipPath3810)">
              <path
                 style="fill:#e9aae8;fill-opacity:1;stroke:none"
                 d="m 276.75,707.5 -21,71 -36,-53.25 z"
                 id="path3802"
                 inkscape:connector-curvature="0"
                 sodipodi:nodetypes="cccc" />
              <path
                 sodipodi:nodetypes="cccc"
                 inkscape:connector-curvature="0"
                 id="path3800"
                 d="m 276.75,707.5 -50,41.75 -19.5,-38.75 z"
                 style="fill:#d58fdb;fill-opacity:1;stroke:none" />
            </g>
            <path
               sodipodi:type="arc"
               style="fill:#000000;stroke:none"
               id="path3788"
               sodipodi:cx="307.76822"
               sodipodi:cy="696.4328"
               sodipodi:rx="39.179371"
               sodipodi:ry="57.452427"
               d="m 346.94759,696.4328 a 39.179371,57.452427 0 1 1 -78.35874,0 39.179371,57.452427 0 1 1 78.35874,0 z"
               transform="matrix(1.071889,0.05420474,-0.05420474,1.071889,4.271192,-69.33422)" />
            <path
               sodipodi:type="arc"
               style="fill:#ffffff;stroke:none"
               id="path3765"
               sodipodi:cx="270.47202"
               sodipodi:cy="654.55981"
               sodipodi:rx="18.149971"
               sodipodi:ry="34.000866"
               d="m 288.62199,654.55981 a 18.149971,34.000866 0 1 1 -36.29995,0 18.149971,34.000866 0 1 1 36.29995,0 z"
               transform="matrix(0.79990306,0.60012927,-0.60012927,0.79990306,442.69522,-28.080394)" />
            <path
               transform="matrix(0.36473022,0.28170714,-0.28170714,0.36473022,381.97096,354.56727)"
               d="m 286.60868,654.55981 a 16.136662,34.000866 0 1 1 -32.27333,0 16.136662,34.000866 0 1 1 32.27333,0 z"
               sodipodi:ry="34.000866"
               sodipodi:rx="16.136662"
               sodipodi:cy="654.55981"
               sodipodi:cx="270.47202"
               id="path3767"
               style="fill:#ffffff;stroke:none"
               sodipodi:type="arc" />
          </g>
          <path
             sodipodi:nodetypes="cccccccccccccscscscccc"
             inkscape:connector-curvature="0"
             d="m 183.59375,616.53125 c -15.68415,132.67801 65.6466,117.34082 106.09911,170.28661 l 6.00981,-6.10983 C 251.39592,723.38643 179.18408,744.72168 192.8125,617.5625 z m 60.73035,1.73858 30.68122,1.13777 c -33.86335,-17.33733 -43.63263,-31.67986 -49.20538,-71.05535 -6.60279,33.47623 -0.37602,54.97635 18.52416,69.91758 z M 203.25,618.25 l 30.7019,0.15901 C 199.03984,602.70711 191.06586,588.96536 183.5,548.75 c -4.78033,35.06066 -1.20711,55.21967 19.75,69.5 z m 35.93038,5.91589 c 50.77516,-1.15203 86.74662,33.11961 117.90855,73.03466 -14.00783,-60.81804 -76.93492,-89.11515 -118.08015,-87.66304 -46.0663,1.62578 -76.56852,1.94111 -107.77981,-24.94892 13.95232,38.76057 60.67978,40.64983 107.95141,39.5773 z m 45.07655,168.54954 c 40.19113,-29.44849 63.56854,-83.51703 45.59798,-134.88583 l -10.41145,-11.38962 c 22.86727,65.17272 -7.22077,106.84236 -35.18653,146.27545 z"
             style="font-size:medium;font-style:normal;font-variant:normal;font-weight:normal;font-stretch:normal;text-indent:0;text-align:start;text-decoration:none;line-height:normal;letter-spacing:normal;word-spacing:normal;text-transform:none;direction:ltr;block-progression:tb;writing-mode:lr-tb;text-anchor:start;baseline-shift:baseline;color:#000000;fill:#000000;stroke:none;stroke-width:1;marker:none;visibility:visible;display:inline;overflow:visible;enable-background:accumulate;font-family:Sans;-inkscape-font-specification:Sans"
             id="path3838" />
        </g>
        <g
           id="g4571">
          <path
             clip-path="url(#clipPath4567)"
             id="path4532"
             d="M 110.70711,918.70711 C 29.06066,931.5 23.593825,1032.2575 53.499999,1088 L 112,1059.5"
             style="fill:#ffe292;fill-opacity:1;stroke:#eabd6f;stroke-width:12;stroke-linecap:butt;stroke-linejoin:miter;stroke-miterlimit:20;stroke-opacity:1;stroke-dasharray:none"
             inkscape:connector-curvature="0" />
          <path
             sodipodi:nodetypes="cc"
             inkscape:connector-curvature="0"
             inkscape:original-d="M 73.353552,980.73224 C 103.53122,1020.5 129.91421,1040.818 173.64645,1066.8536"
             inkscape:path-effect="#path-effect4546"
             id="path3902"
             d="m 149.93798,1044.9247 c -9.58406,-6.4059 -18.9762,-13.074 -28.0057,-20.1658 -17.20196,-13.4724 -33.076382,-28.75184 -48.578728,-44.02666 5.334595,9.47122 11.474745,18.72903 18.415312,27.53416 6.940566,8.8052 14.681456,17.1559 23.170396,24.8151 8.90101,8.0118 18.47367,15.224 28.32593,21.819 8.96169,5.9989 18.11908,11.6434 27.31196,17.1086 l 6.1386,-10.311 c -9.0807,-5.4138 -18.06002,-10.9465 -26.77777,-16.7734 z"
             style="fill:#eabd6f;fill-opacity:1;stroke:none" />
        </g>
      </g>
      <path
         inkscape:original-d="M 493.92448,753.471 C 389.59501,698.58013 316.75746,599.09556 287.49956,500.82678 c -13.17432,-44.24871 31.85154,-56.86438 48.29037,-3.46446 18.22529,59.20306 42.38477,102.80255 87.76702,166.20562"
         inkscape:path-effect="#path-effect4594"
         sodipodi:nodetypes="cssc"
         inkscape:connector-curvature="0"
         d="m 344.53649,629.48717 c 4.29169,5.98571 8.74858,11.86637 13.36153,17.62586 18.39627,22.98571 39.42487,44.05331 62.39186,62.10651 22.967,18.05321 47.86829,33.07973 73.6346,44.25146 -23.85272,-14.80883 -46.67953,-31.90073 -67.97345,-51.00052 -21.29392,-19.09979 -41.04814,-40.20139 -58.73516,-62.74715 -4.43421,-5.6566 -8.74485,-11.40317 -12.92208,-17.231 -26.88792,-37.51244 -47.91352,-79.24434 -61.0437,-123.37768 -2.18664,-8.037 -3.34759,-16.32723 -0.50307,-22.77978 0,-1e-5 0,-1e-5 10e-6,-1e-5 1.71354,-3.99955 5.17682,-7.61436 8.81168,-7.94569 4.25831,-1.1071 9.52256,1.666 13.90746,5.24441 0,0 0,1e-5 1e-5,1e-5 7.09338,6.10408 11.39877,15.58551 14.58932,25.49404 3.72789,12.11221 7.91652,24.08977 12.58029,35.88292 6.24922,15.80223 13.63312,31.4423 22.08194,46.42525 8.59901,15.23371 18.1387,29.77974 28.1125,43.5027 9.97379,13.72296 20.37452,26.62693 30.72672,38.62944 -7.91647,-13.6542 -16.36967,-27.82496 -24.77461,-42.39616 -8.40494,-14.57119 -16.75373,-29.54682 -24.47562,-44.85149 -7.56384,-14.97719 -14.42929,-30.33596 -20.51225,-45.72201 -4.54448,-11.49466 -8.62972,-23.17834 -12.27011,-35.00127 -3.27988,-11.11003 -8.74782,-22.40159 -18.07695,-30.92444 -5.94658,-5.62345 -14.5505,-9.35145 -23.92649,-8.10911 -8.5462,1.76769 -15.04469,7.84027 -17.91733,15.319 0,1e-5 0,1e-5 0,1e-5 -3.88588,10.39225 -2.84414,21.30804 0.14544,30.65644 13.5559,45.49745 35.16277,88.41954 62.78746,126.94826 z"
         style="fill:#4abcac;fill-opacity:1;stroke:none"
         id="path4579" />
      <g
         id="g3879">
        <path
           sodipodi:nodetypes="sccsscsscs"
           inkscape:connector-curvature="0"
           d="m 450.49999,187.50002 c 14.20672,2.02953 21.55469,90.74115 22.3498,212.0944 44.06448,-83.93051 53.66441,-55.14834 4.68827,64.73329 27.03793,6.42576 23.37042,65.00721 -20.67767,54.83257 -183.66704,-42.42514 -348.19031,54.8496 -382.760387,29.14802 -46.915758,-34.88015 38.662537,-95.88537 26.343097,-16.471 38.58463,-5.32823 116.1892,-44.17428 158.60062,-83.54352 46.94543,-43.57802 50.14391,-114.06601 67.82158,-119.72287 7.32084,-2.34267 16.31476,31.46077 21.93955,70.5295 35.34599,-97.23699 92.55886,-212.90557 101.69514,-211.60039 z"
           style="fill:#ffe292;fill-opacity:1;stroke:none"
           id="path3869" />
        <path
           id="path3816"
           style="fill:#eabd6f;fill-opacity:1;stroke:none"
           d="m 114.38662,522.73584 c -2.06609,0.56567 -4.15992,1.12049 -6.29294,1.66161 -3.06593,0.74634 -6.12982,1.53039 -9.217554,2.16528 -3.08773,0.63488 -6.196659,1.12369 -9.419822,1.18177 -1.96691,0.0117 -3.816302,0.0141 -5.41369,-0.50059 -1.122773,-0.34176 -2.273961,-0.88976 -2.979193,-1.78832 -0.899241,-0.97483 -1.346158,-2.68329 -1.507592,-4.60514 -0.185494,-2.68125 0.303708,-5.67058 1.043935,-8.73509 -1.94581,2.47036 -3.642682,5.14219 -4.634018,8.23727 -0.743034,2.26083 -0.958164,4.87253 -0.112963,7.57607 0.911759,2.50641 2.658322,4.56431 4.769377,5.90104 2.607729,1.66685 5.410368,2.56253 7.96213,3.00575 4.036819,0.75025 7.969157,0.85319 11.68152,0.61554 3.71237,-0.23765 7.20787,-0.81756 10.45702,-1.51013 2.34261,-0.47854 4.61721,-1.02936 6.83005,-1.63463 7.2984,-1.99628 14.40584,-4.44044 21.35452,-7.08506 22.69953,-8.62451 44.41653,-19.53638 65.20007,-31.81793 1e-5,-10e-6 2e-5,-2e-5 3e-5,-2e-5 10.82107,-6.38927 21.41405,-13.21699 31.65687,-20.57841 10e-6,-1e-5 3e-5,-1e-5 4e-5,-2e-5 9.47899,-6.80851 18.7051,-14.10425 27.3613,-22.13363 11.77231,-10.95767 21.35553,-23.9416 29.07006,-37.76276 6.95757,-12.45563 12.47129,-25.51033 17.35511,-38.61777 0,-1e-5 10e-6,-2e-5 10e-6,-3e-5 3.89437,-10.41857 7.15878,-20.75391 11.36259,-30.37993 1.48982,-3.34236 2.90677,-6.4116 4.72783,-8.83286 0.67971,-0.89385 1.29354,-1.63885 1.90425,-2.11815 0,-10e-6 0,-10e-6 0,-10e-6 0.49757,-0.37317 0.8883,-0.65149 1.14839,-0.69424 -1.24716,0.2178 -2.04073,0.20672 -2.57897,-0.16584 -0.29168,-0.27996 -0.2615,-0.1011 0.18114,0.30375 1.30629,1.51696 2.23862,3.90153 3.40574,6.65895 10e-6,10e-6 10e-6,3e-5 2e-5,4e-5 1.58138,3.96508 2.85368,8.16552 4.05149,12.49433 1.50046,5.44568 2.78994,10.9869 3.97236,16.58745 2.81391,13.33442 4.97399,26.83927 6.72116,40.42835 1.80892,14.09184 3.15715,28.21674 3.82022,42.34701 0.25394,5.18752 1.886,10.22112 4.70935,14.56548 1e-5,10e-6 2e-5,2e-5 3e-5,4e-5 2.8881,4.35289 6.63728,7.82526 10.71243,10.45134 2e-5,1e-5 3e-5,2e-5 4e-5,3e-5 9.26546,5.9638 19.90199,8.73929 30.24088,9.47922 10e-6,0 2e-5,10e-6 4e-5,10e-6 10.77231,0.89206 21.92762,-0.28499 32.34535,-4.24298 4.75679,-1.80124 9.39874,-4.33489 13.54054,-7.76835 2e-5,-1e-5 3e-5,-2e-5 4e-5,-3e-5 3.9193,-3.2501 7.21094,-7.40613 9.39407,-12.27468 7.33297,-16.62829 14.93544,-33.10708 23.05892,-49.29305 5.82428,-11.59953 11.84792,-23.02376 18.49262,-33.99368 0,-1e-5 1e-5,-2e-5 1e-5,-3e-5 2.35389,-3.88518 4.76338,-7.68189 7.31762,-11.31952 1.88705,-2.67805 3.77451,-5.21913 5.80568,-7.48021 1.41403,-1.50703 2.55809,-2.77358 3.66101,-3.41357 0.34383,-0.17138 0.4215,-0.26263 0.24546,-0.16577 -0.19685,0.14492 -0.73024,0.0911 -1.67684,-0.0632 -2e-5,-10e-6 -5e-5,-2e-5 -7e-5,-3e-5 -0.92649,-0.35573 -1.52414,-0.72275 -1.83794,-1.19672 -10e-6,-1e-5 -2e-5,-3e-5 -3e-5,-4e-5 -0.25718,-0.44241 -0.36634,-0.52931 -0.2478,-0.35331 0.31913,0.7575 0.23004,2.1379 0.23166,3.97839 0,1e-5 0,2e-5 0,3e-5 -0.10161,2.70438 -0.52079,5.53168 -1.03322,8.47886 0,10e-6 0,2e-5 0,3e-5 -0.71068,4.02725 -1.64317,8.06985 -2.67766,12.14172 -2.9316,11.53116 -6.62815,22.94306 -10.58709,34.34136 -0.85952,2.4728 -1.73287,4.94156 -2.61903,7.40655 -1.276,3.54939 -3.29358,9.30645 -5.791,16.30133 -2.49743,6.99488 -5.47914,15.22688 -8.58488,23.75255 -1.35851,3.68251 -2.40323,7.53339 -3.07875,11.42216 -0.67551,3.88877 -0.98129,7.814 -0.91443,11.6373 0.0208,3.16273 0.38322,6.52537 1.46314,9.71937 0.41165,1.25679 1.0545,2.57906 1.98775,3.8214 0,0 0,0 0,0 0.80062,1.0974 1.98254,2.02299 3.44597,2.6092 2.06292,0.7931 4.40436,0.53261 6.36334,-0.69349 1.99422,-1.55877 2.89555,-3.46349 3.26358,-5.13285 0.89083,-3.55877 0.65604,-6.7097 0.12717,-9.29991 -0.52888,-2.59022 -1.35608,-4.62802 -2.10529,-6.10181 -0.0908,1.65132 -0.0998,3.81283 -0.32522,6.2478 -0.22543,2.43497 -0.6597,5.14634 -1.95815,7.61301 -0.62496,1.05808 -1.22323,2.01753 -1.86801,2.10699 -0.19576,0.1292 -0.75336,-0.0918 -1.1749,-0.33012 -0.1151,-0.0685 -0.26577,-0.36818 -0.47831,-0.71805 0,0 0,-1e-5 -1e-5,-1e-5 -0.2756,-0.48563 -0.44251,-1.18598 -0.63091,-2.02387 -0.4689,-2.21596 -0.34849,-4.75691 -0.11874,-7.53242 0.31922,-3.31918 0.93504,-6.67669 1.82938,-9.96905 0.89434,-3.29235 2.06648,-6.51838 3.4581,-9.57959 3.76734,-8.32761 7.24021,-16.46375 10.06916,-23.42947 2.82895,-6.96572 5.01783,-12.7584 6.31299,-16.36092 0.89992,-2.50313 1.78748,-5.01158 2.66164,-7.52565 4.02233,-11.55958 7.81705,-23.29816 10.88161,-35.32143 1.08394,-4.24987 2.07883,-8.58208 2.86486,-13.01053 10e-6,-2e-5 10e-6,-3e-5 10e-6,-4e-5 0.57416,-3.19152 1.05116,-6.55102 1.20669,-10.07545 0,-2e-5 0,-3e-5 0,-5e-5 0.1657,-2.13416 0.0947,-4.8116 -0.71206,-7.8695 -0.23713,-1.02936 -0.83602,-2.30299 -1.87633,-3.7283 -3e-5,-3e-5 -5e-5,-6e-5 -7e-5,-9e-5 -0.92618,-1.24253 -2.34706,-2.22581 -4.21766,-2.8542 -4e-5,-2e-5 -9e-5,-3e-5 -1.4e-4,-5e-5 -1.95748,-0.44619 -3.58073,-0.40998 -4.79309,0.0103 -1.54747,0.46874 -2.74077,1.05551 -3.59235,1.65233 -2.62039,1.75272 -4.58404,3.7184 -6.11976,5.51092 -2.49213,2.79858 -4.67198,5.70823 -6.68285,8.58595 -2.7626,3.94052 -5.31945,7.96308 -7.75969,11.99709 -6.88341,11.3765 -13.06033,23.07816 -18.95243,34.82598 -8.23982,16.42136 -15.92718,33.08039 -23.31362,49.83376 -1.27145,2.96597 -3.4707,5.66869 -6.11691,7.91475 0,10e-6 -10e-6,2e-5 -2e-5,2e-5 -2.86103,2.42878 -6.36884,4.29526 -10.13814,5.76685 -8.38532,3.25974 -17.79097,4.18363 -27.09638,3.48351 -8.94038,-0.78894 -17.70157,-2.92315 -24.61485,-7.5554 0,-10e-6 -10e-6,-10e-6 -2e-5,-2e-5 -2.94819,-1.97378 -5.5378,-4.28395 -7.2337,-6.96475 -10e-6,-10e-6 -10e-6,-2e-5 -2e-5,-3e-5 -1.65701,-2.53033 -2.64463,-5.56776 -2.77601,-8.57697 -0.68352,-14.5147 -2.05994,-28.96142 -3.90478,-43.31246 -1.77574,-13.83523 -3.98932,-27.65595 -6.8817,-41.37595 -1.21484,-5.7652 -2.56169,-11.54264 -4.14447,-17.29611 -1.24367,-4.53932 -2.65488,-9.15429 -4.46821,-13.73793 -1e-5,-2e-5 -1e-5,-3e-5 -1e-5,-4e-5 -1.11115,-2.9798 -2.62867,-6.37565 -5.16131,-9.69281 -0.73454,-1.07749 -2.04069,-2.31191 -4.00906,-3.47039 -1.7816,-1.02404 -4.06359,-1.27955 -6.64768,-0.63393 -2.06233,0.70043 -3.79354,1.7146 -5.16982,2.90176 -1.60249,1.36362 -2.88351,2.81859 -3.90581,4.24804 -2.65757,3.69216 -4.51533,7.52876 -6.05027,11.13498 -4.51289,10.39826 -7.85704,20.93096 -11.6018,30.97202 -10e-6,2e-5 -10e-6,3e-5 -10e-6,4e-5 -4.78513,12.78858 -10.04204,25.28888 -16.58467,36.95455 -7.25569,12.92672 -16.06974,24.9326 -26.76254,34.8286 -8.18377,7.60266 -17.02323,14.58205 -26.20138,21.18459 -10e-6,1e-5 -2e-5,1e-5 -3e-5,2e-5 -9.91147,7.12581 -20.2038,13.75726 -30.75491,19.9896 -1e-5,1e-5 -2e-5,1e-5 -3e-5,2e-5 -20.32312,11.99447 -41.42591,22.61104 -63.35745,30.93202 -6.71967,2.54497 -13.4627,4.87185 -20.26131,6.73323 z"
           inkscape:connector-curvature="0"
           sodipodi:nodetypes="cssssssc"
           inkscape:path-effect="#path-effect3835"
           inkscape:original-d="m 80.599764,512.11536 c -25.134776,51.95458 115.461196,-5.35659 178.443956,-63.82158 46.94543,-43.57802 50.14391,-114.06602 67.82158,-119.72287 10.64843,-3.4075 24.83653,69.65841 27.39519,124.08683 1.62679,34.60554 75.60318,39.49515 89.45941,8.07106 67.3587,-152.7606 92.18025,-139.24206 33.85623,3.42662 -5.44692,13.32392 -6.7839,31.99331 -0.56359,34.57754 5.75804,2.39217 9.13212,-6.45505 6.50724,-18.48029"
           clip-path="url(#clipPath3875)" />
        <path
           id="path3819"
           style="fill:none;stroke:#eabd6f;stroke-width:12;stroke-linecap:butt;stroke-linejoin:miter;stroke-miterlimit:4;stroke-opacity:1;stroke-dasharray:none"
           d="m 334.49999,441.00002 c 31.5,-102 105.5,-255 116,-253.5 15.67471,2.23924 23,110 22.5,250.5 M 100.35355,531.85355 C 112.76254,452.42293 27.184245,513.42815 74.100003,548.3083 108.67008,574.00988 273.19335,476.73514 456.86039,519.16028 500.90848,529.33492 504.57599,470.75347 477.5,464.5"
           inkscape:connector-curvature="0"
           sodipodi:nodetypes="csccssc"
           clip-path="url(#clipPath3871)" />
        <g
           id="g4784"
           transform="matrix(0.99999406,0.00343964,-0.00343964,0.99999406,1.4647276,-2.3989915)">
          <path
             sodipodi:nodetypes="ccccc"
             inkscape:connector-curvature="0"
             id="path3965"
             d="m 372.82205,419.1308 c 18.51346,-22.94542 27.99138,-42.34061 41.12831,-69.77133 15.05724,26.63657 24.02387,51.48885 27.54164,80.83073 -14.96194,25.71931 -31.56245,44.62312 -58.47236,67.13657 -2.2981,-30.22881 -5.24784,-51.85623 -10.19759,-78.19597 z"
             style="fill:#9f5bbb;fill-opacity:1;stroke:none" />
          <g
             clip-path="url(#clipPath4780)"
             id="g4772">
            <path
               sodipodi:nodetypes="ssccccs"
               inkscape:connector-curvature="0"
               id="path4763"
               d="m 408.46967,448.20711 c 11.84099,2.39644 22.0795,-37.62291 10.92678,-39.41422 -6.63005,-1.06489 -13.42348,12.21855 -15.13659,23.68572 -13.43028,-6.38126 -22.72794,-10.20571 -38.55023,-15.81451 l 4.4628,45.86983 c 12.26851,-7.89809 21.85441,-13.78787 33.97966,-19.99997 0.41155,3.10805 1.85892,5.17555 4.31758,5.67315 z"
               style="fill:#ce70db;fill-opacity:1;stroke:none" />
            <path
               style="fill:#814b99;fill-opacity:1;stroke:none"
               d="M 378.53033,504.35355 C 391.08883,485.86827 401.06282,467.47792 409,447.75 c 2.63454,0.87363 5.22788,-1.11835 6.75474,-3.94888 2.20971,10.42982 3.07475,21.708 2.98636,33.02171 z"
               id="path4761"
               inkscape:connector-curvature="0" />
            <path
               style="fill:#e6a3ee;fill-opacity:1;stroke:none"
               d="m 392.57969,372.3146 c 7.74632,15.21967 12.30267,26.40552 17.70064,43.65767 2.41385,-3.76155 4.90868,-5.85855 8.46967,-6.97227 0.13388,-22.67157 -1.16421,-43.06282 -5.07322,-65.14645 z"
               id="path4755"
               inkscape:connector-curvature="0" />
            <path
               id="path4750"
               style="fill:none;stroke:#683777;stroke-width:4;stroke-linecap:butt;stroke-linejoin:miter;stroke-miterlimit:4;stroke-opacity:1;stroke-dasharray:none"
               d="m 415.75474,443.80112 c 2.20971,10.42982 3.07475,21.708 2.98636,33.02171 m 5.36828,-57.21346 c 7,-14.375 11.89062,-30.66115 15.51562,-46.53615 m -18.49113,61.11762 c 9.01561,-2.74005 19.24721,-4.39277 28.79315,-5.09988 M 409,447.75 c -7.93718,19.72792 -17.91117,38.11827 -30.46967,56.60355 m 25.86042,-61.97966 c -12.36391,6.37217 -21.94981,12.26195 -34.21832,20.16004 m 34.30612,-30.04021 C 390.82958,426.09735 381.53192,422.2729 365.70963,416.6641 m 44.5707,-0.69183 c -5.39797,-17.25215 -9.95432,-28.438 -17.70064,-43.65767 M 418.75,409 c 0.13388,-22.67157 -1.16421,-43.06282 -5.07322,-65.14645 m 5.71967,64.93934 c -11.15273,-1.79131 -22.76777,37.01777 -10.92678,39.41422 11.84099,2.39644 22.0795,-37.62291 10.92678,-39.41422 z"
               inkscape:connector-curvature="0" />
          </g>
        </g>
        <path
           id="path3032"
           style="fill:#ffce76;fill-opacity:1;stroke:none"
           d="m 451.71664,346.12112 c 17.56325,-7.97999 15.12235,33.72284 -3.76169,30.18457 -15.32731,-2.87185 -10.89161,-45.79246 1.16604,-113.55568 -6.97302,68.7041 -10.73345,105.72905 0.49975,108.60428 10.71279,2.74203 14.631,-26.79695 2.0959,-25.23317 z m -49.36308,-2.15146 c -19.04446,-7.92942 -33.31744,28.88477 -14.93957,30.80341 15.50876,1.61911 38.03591,-50.06189 45.75758,-113.68728 -14.10957,62.32607 -33.83733,110.02364 -44.8812,108.57682 -11.20677,-1.46816 -0.62655,-25.63945 14.06319,-25.69295 z"
           inkscape:connector-curvature="0"
           sodipodi:nodetypes="cscsccscsc" />
        <g
           id="g4287">
          <path
             inkscape:original-d="m 354,457.78033 c 6.8033,16.14429 -17.17678,14.53068 -17.17678,-1.67678 0,-23.59969 41.97272,-28.07106 22.10356,35.61612"
             inkscape:path-effect="#path-effect3417"
             sodipodi:nodetypes="csc"
             inkscape:connector-curvature="0"
             id="path3415"
             d="m 333.92914,453.90327 c -0.0753,0.73577 -0.1089,1.47051 -0.1016,2.20028 -0.007,4.24512 1.63175,8.36217 4.66621,11.30698 2.48718,2.3743 5.81598,3.81605 9.29378,3.85628 1.46748,0.0229 2.99996,-0.26273 4.42043,-0.93517 1.303,-0.61769 2.42798,-1.6266 3.15317,-2.91007 0.75971,-1.42617 0.94975,-2.97683 0.74773,-4.41055 -0.27042,-1.92375 -1.08376,-3.65248 -2.10886,-5.23069 0.43546,1.82668 0.64341,3.63253 0.37491,5.22525 -0.20043,1.15443 -0.63842,2.189 -1.30375,2.83096 -0.57463,0.59969 -1.36229,0.96529 -2.14138,1.14098 -0.89345,0.20911 -1.85549,0.1508 -2.79757,-0.0221 -2.26787,-0.42635 -4.2763,-1.74001 -5.72712,-3.3909 -1.72889,-1.92469 -2.58515,-4.67524 -2.58751,-7.46093 0.008,-0.51937 0.0408,-1.04365 0.0984,-1.56981 0.32972,-3.01118 1.52644,-5.96209 3.47731,-8.0629 0.43179,-0.46497 0.9229,-0.91694 1.48292,-1.32889 1.25467,-0.95241 2.83658,-1.78087 4.58269,-2.04818 1.47824,-0.24051 3.16224,-0.0897 4.65116,0.58679 1.63245,0.68871 3.14308,2.12818 4.35367,3.90702 1.61797,2.39229 2.57697,5.46257 3.18482,8.68857 0,0 0,0 0,0 0.61344,3.29765 0.84945,6.66563 0.82105,9.98725 -0.0284,3.32161 -0.31766,6.59585 -0.72369,9.70247 -0.40603,3.10662 -0.92631,6.04488 -1.43248,8.7045 -0.50618,2.65963 -0.99749,5.04044 -1.38664,7.0493 0.85929,-1.83914 1.80605,-4.07297 2.7491,-6.63136 0.94306,-2.55839 1.88147,-5.44199 2.67816,-8.5692 0.79668,-3.12721 1.44885,-6.49823 1.80198,-10.01373 0.35312,-3.5155 0.40338,-7.17519 0.0296,-10.86293 0,0 0,0 0,0 -0.36568,-3.66125 -1.33063,-7.43142 -3.25058,-10.79176 -1.47379,-2.58618 -3.66889,-4.80833 -6.37243,-6.21597 -2.55693,-1.27872 -5.34674,-1.66285 -7.91267,-1.33066 -2.94353,0.39691 -5.45195,1.60083 -7.38548,3.06512 -0.85427,0.66011 -1.5982,1.35714 -2.24528,2.05967 -2.92496,3.17563 -4.65925,7.26371 -5.09005,11.47442 z"
             style="fill:#ffce76;fill-opacity:1;stroke:none" />
          <path
             inkscape:original-d="m 278.85355,478.17678 c -9.34099,-6.12868 -22.94408,-4.9289 -23.72271,7.25951 -1.12024,17.53588 39.77329,19.44172 42.61046,-33.29323 2.63449,-48.96788 35.18358,-48.21203 34.90515,-20.56984 -0.24298,24.12311 -23.92898,23.8656 -23.89652,8.35536 0.0164,-7.83678 6.52318,-11.88605 14.10362,-9.82503"
             inkscape:path-effect="#path-effect3439"
             sodipodi:nodetypes="cssssc"
             inkscape:connector-curvature="0"
             id="path3437"
             d="m 263.68038,492.96139 c -0.50336,-0.16452 -0.98634,-0.36558 -1.44608,-0.605 -1.34655,-0.67387 -2.51695,-1.59816 -3.21711,-2.7105 -0.75689,-1.10084 -1.11723,-2.56671 -1.10275,-4.03178 0.0887,-2.10713 0.55403,-4.20097 1.74924,-5.71397 0.98405,-1.37632 2.63229,-2.45049 4.53638,-3.1148 2.08213,-0.726 4.43176,-0.96228 6.92857,-0.73114 2.49682,0.23114 5.14562,0.92988 7.72492,2.12258 -2.13738,-1.86626 -4.63099,-3.32333 -7.27056,-4.20223 -2.63957,-0.8789 -5.42719,-1.18381 -8.20307,-0.80801 -2.66046,0.37067 -5.25922,1.55199 -7.28872,3.5739 -2.26149,2.38103 -3.45474,5.47101 -3.70678,8.5204 -0.24857,2.52492 0.27804,5.16029 1.65798,7.49252 1.35886,2.19617 3.31655,3.90114 5.55804,4.98536 0.7392,0.34804 1.49637,0.6431 2.26742,0.88641 4.72382,1.49066 9.78065,1.03652 14.13972,-0.67572 7.05925,-2.72838 12.59551,-8.1377 16.28776,-14.33715 5.71896,-9.56033 7.9154,-20.61125 8.44163,-31.30802 0,-10e-6 0,-10e-6 0,-10e-6 0.55009,-9.35137 1.99884,-18.67234 6.25363,-26.50471 2.56971,-4.49819 5.8778,-8.73639 10.14112,-9.79177 0,0 0,0 0,0 2.80411,-0.90238 6.33981,0.10885 8.38061,2.3053 3.12508,3.03833 4.06435,8.18712 4.13427,13.22995 -0.11302,4.41691 -0.90578,8.80263 -3.27431,11.93903 -0.66947,0.90275 -1.46497,1.72548 -2.34099,2.40084 -1.19473,0.92105 -2.5364,1.58717 -3.93183,1.8194 -2.02987,0.37861 -4.34256,-0.008 -5.94293,-1.23255 -1.87186,-1.23228 -2.97228,-3.85184 -3.23817,-6.5366 -0.19135,-2.74335 0.63036,-5.76801 2.76939,-7.5554 2.24951,-2.02397 5.80761,-2.67306 9.16579,-2.27417 -3.06193,-1.39329 -7.05476,-1.83567 -10.65555,0.0611 -3.34025,1.89714 -5.49505,5.72849 -5.68996,9.75922 -0.27127,3.7665 1.02753,7.85842 4.18362,10.75254 0,0 0,0 0,0 2.89097,2.45867 6.74877,3.45083 10.39993,2.85552 2.45151,-0.42733 4.68633,-1.44812 6.56972,-2.86047 1.38338,-1.03739 2.59105,-2.28648 3.5775,-3.67989 3.25323,-4.65904 4.42371,-10.19446 4.40749,-15.38815 0.18081,-5.96703 -1.31294,-12.51826 -5.79771,-17.43729 -3.69905,-3.80549 -9.24385,-5.35335 -14.40787,-3.91518 -6.50459,2.10759 -11.01221,7.32071 -13.7397,12.71654 -4.793,9.06694 -6.47567,19.22447 -6.95539,29.01438 0,0 0,10e-6 0,10e-6 -0.59393,10.12384 -2.50418,20.24648 -7.58307,28.52317 -3.24926,5.26727 -7.77828,9.84021 -13.26605,11.82799 -3.3833,1.19796 -7.13227,1.63631 -10.21613,0.62833 z"
             style="fill:#ffce76;fill-opacity:1;stroke:none" />
          <path
             inkscape:original-d="m 323.08714,475.40646 c 7.60139,22.45063 28.06025,-8.49459 1.35876,-10.31892 -26.12556,-1.78498 -30.76435,33.47146 20.85445,31.88047"
             inkscape:path-effect="#path-effect3461"
             sodipodi:nodetypes="csc"
             inkscape:connector-curvature="0"
             id="path3447"
             d="m 316.48609,468.91415 c 2.40008,-0.73307 5.09771,-0.99147 7.76096,-0.91622 2.50426,0.15022 4.90028,0.46612 6.92896,1.38995 1.3498,0.62247 2.57999,1.43699 3.30615,2.51504 0.62755,0.85825 1.01171,1.97803 1.08695,3.12945 0,0 0,0 0,0 0.0747,1.12261 -0.14314,2.31829 -0.60873,3.43491 0,0 0,0 0,0 -0.45192,1.04616 -1.09042,2.0213 -1.94254,2.7281 0,0 0,0 0,10e-6 -0.75939,0.62378 -1.69821,1.09149 -2.64845,1.10437 0,0 0,0 0,0 -1.09816,0.0794 -2.32515,-0.50723 -3.37296,-1.36107 -1.66492,-1.37877 -2.89078,-3.41571 -3.90929,-5.53223 0.4536,2.30425 1.18452,4.64666 2.72471,6.65833 0.9948,1.30716 2.46236,2.39977 4.33506,2.74803 0,0 0,0 0,0 1.63147,0.24331 3.29602,-0.13926 4.67306,-0.96958 0,-10e-6 0,-10e-6 0,-10e-6 1.47736,-0.87825 2.68542,-2.13794 3.54489,-3.5759 0,0 0,0 0,0 0.93014,-1.52594 1.51284,-3.29156 1.64102,-5.1508 0,0 0,0 0,-1e-5 0.13125,-1.97521 -0.30349,-3.99604 -1.30731,-5.7945 -1.25313,-2.14338 -3.10258,-3.75728 -5.12738,-4.79153 -2.89493,-1.49378 -5.99675,-2.15137 -8.92561,-2.36549 -3.29548,-0.32513 -6.75119,-0.0188 -9.98065,1.04546 -2.61482,0.86172 -5.10043,2.20844 -7.26917,4.11842 -2.25115,2.06311 -3.83253,4.76656 -4.53374,7.71045 -0.50335,2.11323 -0.55127,4.37373 -0.0401,6.61544 0.91545,3.22536 2.69138,5.96242 4.93818,8.15651 2.24679,2.1941 4.96106,3.84422 7.7085,4.95434 5.01906,2.12619 10.25507,3.11349 15.33395,3.34238 5.07887,0.22889 9.99448,-0.29043 14.49782,-1.13999 -4.50425,-0.46907 -9.30385,-1.04246 -14.03317,-2.05378 -4.72933,-1.01133 -9.38053,-2.46884 -13.59737,-4.77343 -4.34119,-2.49029 -8.38146,-5.85071 -9.0632,-9.88322 -0.31778,-1.21707 -0.26806,-2.53217 0.0542,-3.80386 0.44831,-1.76898 1.44877,-3.47011 2.79098,-4.70349 1.35837,-1.32571 3.09901,-2.24498 5.03427,-2.83608 z"
             style="fill:#ffce76;fill-opacity:1;stroke:none" />
          <path
             inkscape:original-d="m 278.85355,478.17678 c -0.25735,-11.2491 -14.25304,-17.35388 -27.9519,-8.49659 -23.0227,14.88582 1.27944,36.60399 -31.88075,45.41965 -34.51328,9.17539 -21.07648,-21.52381 -8.5725,-11.38356"
             inkscape:path-effect="#path-effect3511"
             style="fill:#ffce76;fill-opacity:1;stroke:none"
             d="m 241.06675,499.35836 c 0.30689,-1.42988 0.51533,-2.8947 0.66833,-4.35652 0.23855,-2.08168 0.39147,-4.1977 0.62911,-6.26679 0.23765,-2.06908 0.56209,-4.09045 1.20649,-5.98301 0.63654,-1.95155 1.58882,-3.84599 2.84588,-5.52633 0,0 0,0 0,0 1.53043,-2.07322 3.57504,-3.88539 5.82819,-5.46826 2.63428,-1.78323 5.60958,-3.19111 8.57329,-3.91661 2.9637,-0.72549 5.90921,-0.76127 8.59512,-0.001 2.62767,0.69285 4.92146,2.30669 6.53464,4.19922 1.61319,1.89252 2.5464,4.06435 2.90575,6.13817 0.28583,-2.09638 -0.11009,-4.66142 -1.48185,-7.13077 -1.37177,-2.46935 -3.72631,-4.83433 -6.92598,-6.17301 -3.14628,-1.27214 -6.75361,-1.6665 -10.3973,-1.17643 -3.64369,0.49007 -7.3142,1.8591 -10.51962,3.86034 -2.71866,1.63766 -5.29513,3.71715 -7.41098,6.28251 -1.73646,2.12796 -3.06765,4.53315 -3.96815,7.03576 -0.85224,2.44495 -1.3211,4.84306 -1.64408,7.10896 -0.32299,2.26589 -0.50233,4.39932 -0.71684,6.34647 -0.16414,1.358 -0.34307,2.62367 -0.58655,3.77948 -0.12988,0.61652 -0.28089,1.21536 -0.46135,1.7935 -0.52807,1.70432 -1.30183,3.30335 -2.34958,4.62519 0,0 0,0 0,0 -1.2442,1.62432 -2.98454,2.9675 -4.91812,4.09736 -2.75877,1.60264 -5.92204,2.68223 -9.22303,3.57441 -0.13576,0.0356 -0.27147,0.0708 -0.40712,0.10566 -1.24089,0.31902 -2.71342,0.69009 -4.34747,1.01732 -1.63405,0.32723 -3.42918,0.6092 -5.32114,0.70749 -2.03259,0.0774 -4.08899,0.0677 -5.8346,-0.5879 -1.04976,-0.40702 -2.03517,-0.95613 -2.52357,-1.72692 0,0 0,0 0,0 -0.46974,-0.61386 -0.70181,-1.52191 -0.6959,-2.4368 0.01,-1.06287 0.35741,-2.15958 0.9238,-3.13418 0.5664,-0.97461 1.35016,-1.82504 2.24496,-2.44504 0,0 10e-6,0 10e-6,0 1.03419,-0.71593 2.25998,-1.12134 3.43711,-1.17611 1.76013,-0.10305 3.43227,0.54747 4.7222,1.19221 -0.43533,-0.57176 -1.01275,-1.17119 -1.76268,-1.70421 -0.74993,-0.53303 -1.67307,-0.99951 -2.78352,-1.25657 -1.48741,-0.32757 -3.23702,-0.21913 -4.9089,0.49036 0,0 0,0 0,0 -1.39942,0.58868 -2.73307,1.55165 -3.79903,2.83997 -1.06596,1.28832 -1.86178,2.90066 -2.18309,4.7186 -0.29352,1.69327 -0.0614,3.53586 0.80445,5.22546 0,0 0,0 0,0 1.08185,1.9328 2.75588,3.32436 4.55002,4.10694 2.71139,1.20921 5.49925,1.53783 7.92171,1.51742 2.27372,0.007 4.37998,-0.21205 6.24494,-0.51123 1.86496,-0.29917 3.48937,-0.67678 4.82233,-1.02749 0.146,-0.0384 0.29168,-0.0772 0.43705,-0.1164 3.59494,-0.94111 7.24032,-2.21918 10.66934,-4.16986 0,0 0,0 0,0 2.45934,-1.39276 4.77898,-3.23802 6.65602,-5.60358 0,0 0,0 0,-10e-6 1.54851,-1.99696 2.65982,-4.24423 3.36227,-6.56991 0.23108,-0.76968 0.42413,-1.5365 0.58744,-2.29741 z"
             id="path3469"
             inkscape:connector-curvature="0"
             sodipodi:nodetypes="cssc" />
        </g>
        <use
           x="0"
           y="0"
           xlink:href="#g4287"
           id="use4293"
           transform="matrix(-0.33859167,-0.04708695,-0.21388264,0.66645321,646.46296,175.55288)"
           width="1792"
           height="1024" />
      </g>
      <g
         clip-path="url(#clipPath4609)"
         id="g3932">
        <path
           style="fill:#fbf6fa;fill-opacity:1;stroke:#f2cce3;stroke-width:12;stroke-miterlimit:4;stroke-opacity:1;stroke-dasharray:none"
           d="M 339.2929,552.12132 381,633 c 399.98765,-792.94466 388.95746,-798.98238 -41.7071,-80.87868 z"
           id="path3901"
           inkscape:connector-curvature="0"
           sodipodi:nodetypes="ccc" />
        <path
           id="path3915"
           style="fill:none;stroke:#f2cce3;stroke-width:8;stroke-linecap:butt;stroke-linejoin:miter;stroke-miterlimit:4;stroke-opacity:1;stroke-dasharray:none"
           d="m 618.1793,96.235252 c 2.73605,11.305958 7.17692,21.507608 13.36372,30.100858 m -40.65018,12.37465 c 0.36275,18.24034 4.20326,34.95688 11.64461,48.64094 m -48.03863,9.69683 c 0.9177,20.97311 6.54213,39.76349 17.06642,54.00349 m -51.94613,0.78897 c -0.58788,26.64669 5.25384,50.81714 17.5204,68.46996 m -56.45676,-3.05874 c 1.00279,27.61815 9.26012,51.89882 24.7663,67.99773 m -59.79029,-10.90415 c -1.00081,32.31892 7.39243,61.13019 25.17134,79.29663 m -68.19977,-7.35037 c 0.52869,33.93094 11.19242,63.53371 31.58399,80.58581"
           inkscape:connector-curvature="0"
           sodipodi:nodetypes="cccccccccccccc" />
      </g>
    </g>
  </g>
</svg>
