<svg xmlns="http://www.w3.org/2000/svg" xmlns:inkscape="http://www.inkscape.org/namespaces/inkscape" xmlns:xlink="http://www.w3.org/1999/xlink" height="571" viewBox="0 0 1088 571" width="1088">
  <defs>
    <inkscape:path-effect bendpath1="m -17.44183,-39.513263 h 36.303119" bendpath2="m 21.29278,-36.600957 c -17.7016985,21.200782 -19.9983985,46.1791218 -9.462279,75.94264" bendpath3="m -17.44183,39.321178 h 36.303119" bendpath4="m -11.622442,-37.720812 c -14.746663,19.164806 -18.869968,48.640571 -10.292666,77.960567" effect="envelope" id="path-effect4669" yy="false" />
    <inkscape:path-effect bendpath1="m -30.416416,-40.046 h 62.084813" bendpath2="m 39.900354,-39.950901 c -18.019911,24.728467 -24.580709,51.641188 -14.458452,80.152657" bendpath3="m -30.416416,39.363973 h 62.084813" bendpath4="m -5.8772345,-40.078217 c -23.4877855,22.934594 -30.9762175,50.838155 -24.5391815,79.44219" effect="envelope" id="path-effect1047" yy="false" />
    <inkscape:path-effect effect="powerstroke" end_linecap_type="zerowidth" id="path-effect9586" interpolator_type="CubicBezierSmooth" offset_points="0.24,2 | 6.69,2" start_linecap_type="zerowidth" />
    <inkscape:path-effect effect="powerstroke" id="path-effect9570" interpolator_type="CubicBezierSmooth" offset_points="0.59,2 | 2,2" start_linecap_type="zerowidth" />
    <inkscape:path-effect effect="powerstroke" id="path-effect9458" interpolator_type="CubicBezierSmooth" offset_points="0.5,2" start_linecap_type="zerowidth" />
    <inkscape:path-effect effect="powerstroke" id="path-effect9448" interpolator_type="CubicBezierSmooth" offset_points="0.36,2" start_linecap_type="zerowidth" />
    <inkscape:path-effect effect="powerstroke" end_linecap_type="zerowidth" id="path-effect9352" interpolator_type="CubicBezierSmooth" offset_points="0.29,2 | 2.7,2" start_linecap_type="zerowidth" />
    <inkscape:path-effect effect="powerstroke" end_linecap_type="zerowidth" id="path-effect9302" interpolator_type="CubicBezierSmooth" offset_points="0.08,2 | 0.92,2" start_linecap_type="zerowidth" />
    <inkscape:path-effect effect="powerstroke" end_linecap_type="zerowidth" id="path-effect9281" interpolator_type="CubicBezierSmooth" offset_points="0.25,2 | 2.3,2" start_linecap_type="zerowidth" />
    <inkscape:path-effect effect="powerstroke" end_linecap_type="zerowidth" id="path-effect8959" interpolator_type="CubicBezierSmooth" offset_points="0.37,2 | 1.73,2" start_linecap_type="zerowidth" />
    <linearGradient id="linearGradient8935">
      <stop offset="0" stop-color="#07534b" />
      <stop offset="1" stop-color="#00aba5" />
    </linearGradient>
    <inkscape:path-effect effect="powerstroke" end_linecap_type="zerowidth" id="path-effect4850" interpolator_type="CubicBezierSmooth" offset_points="0.52,2 | 5.32,2" start_linecap_type="zerowidth" />
    <inkscape:path-effect effect="powerstroke" id="path-effect4639" interpolator_type="CubicBezierSmooth" offset_points="0.68,2 | 6,2" start_linecap_type="zerowidth" />
    <inkscape:path-effect effect="powerstroke" end_linecap_type="zerowidth" id="path-effect4590" interpolator_type="CubicBezierSmooth" offset_points="0.36,2 | 2.6,2" start_linecap_type="zerowidth" />
    <inkscape:path-effect effect="powerstroke" id="path-effect4458" interpolator_type="CubicBezierSmooth" offset_points="0.67,2 | 3,2" start_linecap_type="zerowidth" />
    <inkscape:path-effect effect="powerstroke" id="path-effect4454" interpolator_type="CubicBezierSmooth" offset_points="0.38,2 | 3,2" start_linecap_type="zerowidth" />
    <inkscape:path-effect effect="powerstroke" id="path-effect4452" interpolator_type="CubicBezierSmooth" offset_points="0.7,2 | 3,2" start_linecap_type="zerowidth" />
    <inkscape:path-effect effect="powerstroke" end_linecap_type="zerowidth" id="path-effect4725" interpolator_type="CubicBezierSmooth" offset_points="0.32,2 | 1.655,2" start_linecap_type="zerowidth" />
    <linearGradient id="linearGradient4666">
      <stop offset="0" stop-color="#667b8c" />
      <stop offset="1" stop-color="#b4d0d6" />
    </linearGradient>
    <inkscape:path-effect bendpath1="m -23.1,-17.162177 h 47.383748" bendpath2="m 33.397514,-17.858991 c -18.836002,27.5442578 -21.479354,55.378942 -5.113195,82.160443" bendpath3="m -23.1,64.480759 h 47.383748" bendpath4="m -7.1509789,-18.967691 c -21.2425711,24.0276551 -25.7729641,52.160076 -9.2437221,82.935781" effect="envelope" id="path-effect358" yy="false" />
    <inkscape:path-effect effect="powerstroke" id="path-effect1477" interpolator_type="CubicBezierSmooth" offset_points="0.3,2" start_linecap_type="zerowidth" />
    <inkscape:path-effect effect="powerstroke" id="path-effect1418" interpolator_type="CubicBezierSmooth" offset_points="0.4,2" start_linecap_type="zerowidth" />
    <inkscape:path-effect effect="powerstroke" id="path-effect1252" interpolator_type="CubicBezierSmooth" offset_points="0.5,2" start_linecap_type="zerowidth" />
    <inkscape:path-effect effect="powerstroke" end_linecap_type="zerowidth" id="path-effect1101" interpolator_type="CubicBezierSmooth" offset_points="6.75,2 | 0.35,2" start_linecap_type="zerowidth" />
    <inkscape:path-effect effect="powerstroke" end_linecap_type="zerowidth" id="path-effect1027" interpolator_type="CubicBezierSmooth" offset_points="0.52,2 | 2.48,2" start_linecap_type="zerowidth" />
    <inkscape:path-effect effect="powerstroke" id="path-effect1009" interpolator_type="CubicBezierSmooth" offset_points="0.6,2" start_linecap_type="zerowidth" />
    <inkscape:path-effect effect="powerstroke" end_linecap_type="zerowidth" id="path-effect946" interpolator_type="CubicBezierSmooth" offset_points="0.43,2 | 1.7,2" start_linecap_type="zerowidth" />
    <inkscape:path-effect effect="powerstroke" end_linecap_type="zerowidth" id="path-effect4286" interpolator_type="CubicBezierSmooth" offset_points="0.2,2 | 1.68,2" start_linecap_type="zerowidth" />
    <linearGradient id="linearGradient4260">
      <stop offset="0" stop-color="#81065e" />
      <stop offset="1" stop-color="#d278b2" />
    </linearGradient>
    <clipPath id="clipPath4274">
      <use xlink:href="#ellipse4250" />
    </clipPath>
    <clipPath id="clipPath4438">
      <use xlink:href="#path4328" />
    </clipPath>
    <clipPath id="clipPath900">
      <use xlink:href="#ellipse876" />
    </clipPath>
    <clipPath id="clipPath930">
      <use xlink:href="#path850" />
    </clipPath>
    <linearGradient gradientUnits="userSpaceOnUse" id="linearGradient1242" x1="281.94424" x2="282.98843" y1="205.34389" y2="239.3936" xlink:href="#linearGradient4260" />
    <linearGradient gradientUnits="userSpaceOnUse" id="linearGradient1244" x1="329.28802" x2="329.14017" y1="200.32288" y2="223.63535" xlink:href="#linearGradient4260" />
    <linearGradient gradientUnits="userSpaceOnUse" id="linearGradient4668" x1="562.57202" x2="563.52747" y1="117.92779" y2="149.028" xlink:href="#linearGradient4666" />
    <clipPath id="clipPath4695">
      <use xlink:href="#path4676" />
    </clipPath>
    <linearGradient gradientUnits="userSpaceOnUse" id="linearGradient4621" x1="455.54126" x2="453.83298" y1="247.9249" y2="272.59372" xlink:href="#linearGradient4666" />
    <clipPath id="clipPath4867">
      <use xlink:href="#path4609" />
    </clipPath>
    <clipPath id="clipPath8951">
      <use xlink:href="#ellipse4993" />
    </clipPath>
    <clipPath id="clipPath9539">
      <use xlink:href="#ellipse8980" />
    </clipPath>
    <clipPath id="clipPath9654">
      <use xlink:href="#path8997" />
    </clipPath>
    <clipPath id="clipPath9847">
      <use xlink:href="#path9680" />
    </clipPath>
    <linearGradient gradientUnits="userSpaceOnUse" id="linearGradient9963" x1="859.59601" x2="859.0033" y1="105.75857" y2="135.91246" xlink:href="#linearGradient8935" />
    <clipPath id="clipPath4699">
      <path d="m 825.66942,67.97911 c -17.51045,10.663443 -31.70704,27.072922 -37.40005,48.734 l 22.82396,17.00624 z" />
    </clipPath>
    <linearGradient gradientUnits="userSpaceOnUse" id="linearGradient4948" x1="795.29681" x2="794.88654" y1="142.56261" y2="162.98869" xlink:href="#linearGradient8935" />
  </defs>
  <g inkscape:groupmode="layer" inkscape:label="Drawing">
    <g>
      <g>
        <path d="m 157.84443,74.297071 c -7.61637,-11.917332 -15.8263,-20.051082 -26.60172,-28.705999 14.7177,1.52274 26.33777,7.295937 41.3745,19.556411 -4.40525,-8.489206 -9.99249,-15.004725 -17.47062,-21.437567 20.6447,4.332406 37.98421,17.484931 38.05007,40.395338 z" style="stroke-width:4;stroke:#b73b8f;stroke-miterlimit:20;fill:#ef5eaf" />
        <path d="m 144.64998,129.02167 c -37.27876,6.01698 -50.154035,-43.872834 -10.43775,-63.729196 36.12026,-18.058512 74.58281,-2.470841 54.32995,38.946416 z" fill="#ef5eaf" />
        <path d="m 142.04941,129.7641 c -12.03159,-16.47852 -11.13292,-36.164357 -0.50196,-50.468442 -1.71527,17.388603 0.89865,32.291202 11.58575,44.298922 z" fill="#ef5eaf" stroke="#b73b8f" stroke-width="4" />
        <path d="m 188.64051,67.541963 c 2.79857,14.775389 -2.72252,28.713273 -13.59527,43.900277 l -8.41337,5.14502 c 14.34738,-44.054874 0.59925,-54.312757 -23.85199,-54.886475 18.9063,-6.755385 37.12054,-4.403639 45.86063,5.841178 z m -70.72174,10.621166 c -4.66471,24.003151 0.64266,43.049911 18.85685,51.355941 -25.12251,-1.47584 -35.3044,-30.550371 -18.85685,-51.355941 z" fill="#f37ab1" />
        <path d="m 144.64998,129.02167 c -37.27876,6.01698 -50.154035,-43.872834 -10.43775,-63.729196 36.12026,-18.058512 74.58281,-2.470841 54.32995,38.946416 z" fill="none" stroke="#b73b8f" stroke-width="4" />
        <path d="m 141.50873,139.16929 c -8.49149,-28.93002 43.35389,-55.025673 52.81821,-29.72087 z" fill="#fff" stroke="#a6d7d7" stroke-width="4" />
        <path d="m 140.26057,142.64114 c -4.22075,-24.36135 36.7256,-46.71662 57.04903,-28.73069 z" fill="#fff" stroke="#a6d7d7" stroke-width="4" />
        <path d="m 135.61848,194.81346 c -10.07542,32.05543 13.68551,64.54073 56.91857,51.94943 -11.79467,-32.99362 -37.28262,-47.99207 -56.91857,-51.94943 z" fill="#f37ab1" stroke="#b73b8f" stroke-width="4" />
        <path d="m 192.53705,246.76289 c -42.65209,-3.99258 -72.57406,-29.09406 -60.96133,-70.04478 31.34345,0.96409 67.58879,28.76172 60.96133,70.04478 z" fill="#f37ab1" stroke="#b73b8f" stroke-width="4" />
        <path d="m 283.65951,178.82193 c 77.07964,1.76005 40.25996,-93.406755 -41.70642,-64.50102 -42.16596,-36.652228 -135.40271,33.15352 -40.48813,98.0582 z" fill="#ef5eaf" />
        <path d="m 238.69646,139.0404 3.25663,-24.71949 c -10.33398,-8.98269 -23.73547,-11.57112 -36.64626,-9.42269 14.90088,6.4216 24.89399,18.17035 33.38963,34.14218 z" fill="#f37ab1" />
        <path d="m 283.65951,178.82193 c 77.07964,1.76005 40.25996,-93.406755 -41.70642,-64.50102 -42.16596,-36.652228 -135.40271,33.15352 -40.48813,98.0582 z" fill="none" stroke="#b73b8f" stroke-width="4" />
        <path d="m 196.60226,240.36578 c -154.545485,-53.73505 6.19047,-208.4916 31.717,-74.79003 z" fill="#ef5eaf" stroke="#b73b8f" stroke-width="4" />
        <path d="m 141.50873,137.16929 c -5.5154,38.33252 9.49887,72.95735 63.84454,82.43466" fill="none" stroke="#b73b8f" stroke-width="2" />
      </g>
      <g>
        <path d="m 61.410843,354.70886 c 36.485079,-2.58811 33.61239,-51.13406 -4.12352,-50.76277 -49.257599,0.48465 -56.78844236,68.50553 0.411437,81.2777 z" fill="#ef5eaf" />
        <path d="m 57.018802,367.52706 c -14.128767,-1.81627 -26.685325,-10.0021 -26.685325,-24.60762 0,-33.10422 47.088962,-30.56815 47.493811,-10.21449 0.440695,22.15579 -35.899997,18.78475 -26.932964,-2.79301 -14.212205,3.77345 -6.760727,26.0225 10.516519,24.79692 36.485079,-2.58811 33.61239,-51.13406 -4.12352,-50.76277 -49.257599,0.48465 -56.78844236,68.50553 0.411437,81.2777 z" fill="#f37ab1" />
        <path fill="#b73b8f" inkscape:original-d="m 56.067684,329.37105 c -20.871129,-0.72904 -13.787401,26.69486 5.343159,25.33781 36.485079,-2.58811 33.61239,-51.13406 -4.12352,-50.76277 -49.257599,0.48465 -56.78844236,68.50553 0.411437,81.2777" inkscape:path-effect="#path-effect1477" />
        <path d="m 39.782566,370.21667 c 1.237437,39.72132 65.143234,44.23218 62.611264,-10.37954 -1.90339,-41.05382 9.42591,-52.08552 21.73828,-40.07143 l 14.37304,-13.71387 c -10.09949,-72.05095 -94.175523,-43.01673 -67.255957,33.25428 -13.822917,-4.03514 -32.229891,6.41006 -31.466627,30.91056 z" fill="#ef5eaf" />
        <path d="m 65.697455,312.54201 c 13.722485,-36.90683 44.101805,-29.64729 66.056365,0.30377 l 2.12132,-2.26777 c -20.12758,-31.08352 -44.728293,-40.49352 -65.344109,-18.09667 -1.845809,6.56189 -3.202934,13.37378 -2.833576,20.06067 z m 20.70197,48.80233 c -0.804454,-33.48955 -47.827559,-29.99073 -46.616859,8.87233 1.237437,39.72132 65.143244,44.23218 62.611264,-10.37954 -1.24259,-26.80118 3.15443,-40.80731 9.78286,-43.9594 -8.781,-0.34196 -18.510581,8.41764 -17.365182,42.93301 1.537129,46.31974 -47.979536,42.09852 -47.979536,9.72335 0,-27.75514 33.707218,-26.29761 33.707218,-5.03283 0,14.23459 -18.869439,14.70375 -18.869439,4.31699 0,-9.58561 6.198118,-10.30526 11.358316,-7.38143 -1.50981,-10.57387 -16.635702,-7.09432 -16.635702,8.1269 0,19.62363 30.59582,17.29078 30.00706,-7.21938 z" fill="#f37ab1" />
        <path fill="#b73b8f" inkscape:original-d="m 72.179047,365.07822 c 5.237437,-14.57843 -15.786682,-15.04864 -15.786682,3.4855 0,19.62363 30.59582,17.29078 30.00706,-7.21938 -0.804454,-33.48955 -47.827559,-29.99073 -46.616859,8.87233 1.237437,39.72132 65.143234,44.23218 62.611264,-10.37954 -1.90339,-41.05382 9.42591,-52.08552 21.73828,-40.07143 l 14.37304,-13.71387 c -10.09949,-72.05095 -94.175523,-43.01673 -67.344124,33.27237" inkscape:path-effect="#path-effect1418" />
      </g>
      <g>
        <path d="m 223.8951,376.73428 c -10.32025,48.34082 -12.08747,93.64327 -5.89381,143.246 1.65832,13.28084 68.40608,11.48031 62.85683,-0.48242 -19.98169,-43.07535 -30.22016,-91.3563 -32.41586,-141.72892 z" fill="#7abcd8" stroke="#2a8eb6" stroke-width="4" />
        <path d="m 255.96486,426.37176 c -3.26489,-16.31806 -4.68537,-33.2713 -4.61664,-49.70903 l -40.23081,2.05829 2.3074,43.95085 z" style="stroke-width:4;stroke:#25a7a2;fill:#c8e9e2;stroke-linecap:round" />
        <path d="m 227.15655,397.07734 6.80787,-0.0113 -4.06196,10.80193 z" fill="#25a7a2" />
        <path d="m 209.96291,406.30636 c 14.70727,7.07733 31.1373,12.08705 46.74018,13.45565 l 1.68758,16.64562 c -13.91017,2.5217 -29.93984,1.42762 -44.14938,-2.92545 -2.48326,-8.72865 -3.68166,-18.18848 -4.27838,-27.17582 z" fill="#e9e9e9" stroke="#8fc1c1" stroke-width="3.52088308" />
        <ellipse cx="203.24513" cy="431.6705" fill="#8fc1c1" rx="3.2186573" ry="4.3073187" transform="rotate(357.78848)" />
      </g>
      <g>
        <path d="m 144.86687,367.33685 48.38266,16.97448 c -20.3768,35.57793 -21.62193,73.15692 -0.52549,123.19586 4.89057,11.6 -51.94518,12.65916 -54.26552,0.85818 -7.7381,-39.35509 -5.4562,-68.40993 5.39241,-99.32029 1.75915,-5.0122 5.5845,-5.33132 10.18787,-4.95857 -1.84288,-12.36312 -8.61976,-22.13375 -9.17193,-36.74966 z" fill="#7abcd8" />
        <path fill="#2a8eb6" inkscape:original-d="m 154.43246,409.26662 c -0.32843,-15.03553 -8.94015,-25.37442 -9.56559,-41.92977 l 48.38266,16.97448 c -20.3768,35.57793 -21.62193,73.15692 -0.52549,123.19586 4.89057,11.6 -51.94518,12.65916 -54.26552,0.85818 -7.7381,-39.35509 -5.4562,-68.40993 5.39241,-99.32029 1.75915,-5.0122 5.5845,-5.33132 10.22451,-5.0303" inkscape:path-effect="#path-effect1009" />
      </g>
      <path d="m 130.23025,307.05087 c 20.42496,-12.77 44.30427,-6.80221 61.26138,13.84867 -2.00674,-42.49057 -13.34246,-75.69943 -15.35783,-113.74052 -4.33954,-81.91115 175.10352,-82.88505 138.41924,49.80336 l -59.99092,40.73825 c 17.41057,38.5279 4.29405,88.67811 -25.38105,102.65355 -21.23682,10.00144 -58.83445,10.18205 -79.0734,-7.09354 -25.98494,39.87862 -25.1804,87.41751 -9.63363,122.99655 5.04064,11.53558 -52.342773,12.73042 -54.265525,0.85818 -6.738094,-41.60509 3.509795,-83.06901 17.547745,-113.0274 1.68338,-3.59252 7.42159,-3.99921 12.70898,-3.07854 -2.49059,-20.53818 -22.790583,-71.10345 13.76501,-93.95856 z" fill="#92ddff" />
      <g transform="matrix(.29001828.0468569-.10794604.61285059 130.29843 324.20039)" inkscape:path-effect="#path-effect358">
        <path fill="#a06f2e" inkscape:original-d="m -12.1,8.7 c -17.3,-5.5 -6.4,-32.8 7.4,-24.2 z" />
        <path fill="#e8be7f" inkscape:original-d="m -12.1,8.7 c -9.3,-2.6 -1.9,-27.5 7.4,-24.2 9.3,3.3 1.9,26.8 -7.4,24.2 z" />
        <path fill="#7aa0ff" inkscape:original-d="m 7.3,14.9 -7.4,-3.7 -1,-1.1 h -1.2 l -9,-4.5 c -3.6,-5.7 0.4,-16.2 6.3,-16.8 l 2.8,1.4 v 1.7 h 3.4 l 3.8,1.9 v 1.1 h 2.2 l 6.4,3.2 z" />
        <path fill="#5c7df0" inkscape:original-d="m -5.9,8.3 c -0.3,-7.5 1.6,-13.3 7.1,-16.4 l -3.4,-1.7 c -5.2,3.1 -7.7,9.1 -7.1,16.4 0.6,7.3 12.4,10.9 12.4,18.8 0,12.8 -23.3,15.6 -23.3,3.5 0,-8.7 16.4,-5.1 16.4,4.5 0,6.3 -3.7,12 -3.7,18.4 0,10.7 11.2,16.3 19,10.1 -9.9,2.1 -16.2,-2.1 -16.2,-10.1 0,-6.3 3.5,-9.4 3.5,-18.4 0,-13.9 -21.9,-17 -21.9,-4.5 0,15.5 29.1,13 29.1,-3.5 0,-9.1 -9.1,-11.3 -11.9,-17.1 z m 5.8,2.9 c -0.7,-6.8 2.3,-13.2 7.3,-16.3 l -2.2,-1.1 c -4.8,3.2 -7.8,9.5 -7.3,16.3 z" />
        <path fill="#a06f2e" inkscape:original-d="m 12.6,21.7 c -17.3,-5.5 -6.4,-32.8 7.4,-24.2 z" />
        <path fill="#e8be7f" inkscape:original-d="m 12.6,21.7 c -9.3,-2.6 -1.9,-27.5 7.4,-24.2 9.3,3.3 1.9,26.8 -7.4,24.2 z" />
        <path fill="#a06f2e" inkscape:original-d="m 15.2,13.5 c -2.9,-1.2 0.1,-7.9 3,-6.7 2.9,1.2 -0.1,7.9 -3,6.7 z" />
      </g>
      <g>
        <g clip-path="url(#clipPath4438)">
          <path d="m 277.08936,238.09127 c 5.68031,60.1471 -69.41684,35.93968 -62.49795,-20.45392 z" fill="#fff" id="path4328" />
          <g clip-path="url(#clipPath4274)">
            <ellipse cx="287.09189" cy="220.89348" fill="url(#linearGradient1242)" id="ellipse4250" rx="15.777485" ry="22.741219" transform="rotate(5.8970167)" />
            <path d="m 267.4116,254.2216 -22.6556,15.73353 -6.14829,-11.55486 z" fill="#fae2f4" />
            <path d="m 267.4116,254.2216 -28.62676,-0.39338 0.81352,9.5253 z" fill="#e272e0" />
            <ellipse cx="302.8389" cy="205.91049" rx="12.35153" ry="17.600124" transform="rotate(9.0672034)" />
            <ellipse cx="336.86295" cy="109.68744" fill="#fff" rx="6.2131376" ry="9.9299154" transform="rotate(24.880774)" />
            <ellipse cx="351.06427" cy="108.67893" fill="#fff" rx="2.0497684" ry="3.1722658" transform="rotate(26.666219)" />
          </g>
        </g>
        <path d="m 215.44593,236.62718 c -9.01524,-5.89173 -17.03258,-12.33785 -23.92667,-19.408 12.56798,3.87857 17.54795,0.069 13.90392,-4.48192 l 71.10179,22.58433 c 1.8976,-3.25205 3.35279,-7.08089 3.875,-11.67233 1.83828,5.87487 1.70193,12.30896 -0.5581,17.78999 l -60.9967,-20.59299 c -2.16331,4.30462 -3.48196,9.86742 -3.39924,15.78092 z" />
      </g>
      <path d="m 116.56786,400.88978 c -5.39001,-0.80102 -11.12822,-0.39433 -12.8116,3.19819 -14.03795,29.95839 -24.285839,71.42231 -17.547745,113.0274 1.922752,11.87224 59.306165,10.6774 54.265525,-0.85818 -15.54677,-35.57904 -16.35131,-83.11793 9.52549,-122.94586" fill="none" stroke="#34a7d6" stroke-width="4" />
      <path fill="#34a7d6" inkscape:original-d="m 116.52118,405.90075 c 1.52556,-16.19195 -26.10598,-73.95691 13.70907,-98.84988 20.42496,-12.77 44.30427,-6.80221 61.26138,13.84867 -2.00674,-42.49057 -13.34246,-75.69943 -15.35783,-113.74052 -4.33954,-81.91115 175.10352,-82.88505 138.41924,49.80336 l -59.99092,40.73825 c 17.41057,38.5279 4.29405,88.67811 -25.38105,102.65355 -30.80038,14.50539 -96.01502,8.35309 -92.44577,-41.90482" inkscape:path-effect="#path-effect1101" />
      <g>
        <g clip-path="url(#clipPath930)">
          <path d="m 306.52803,251.01441 c -2.95188,-4.93913 -4.06465,-9.78847 -4.56464,-16.07455 l 17.64735,-10.4468 c 0,0 -0.57031,21.7852 -5.18469,32.6335 -3.07425,-1.32394 -5.75802,-3.32726 -7.89802,-6.11215 z" fill="#fff" id="path850" />
          <g clip-path="url(#clipPath900)">
            <ellipse cx="330.63733" cy="212.03915" fill="url(#linearGradient1244)" id="ellipse876" rx="6.4472098" ry="15.254248" transform="rotate(4.4248467)" />
            <path d="m 315.94005,238.90274 -10.28879,16.77651 -3.61981,-9.27873 z" fill="#fae2f4" />
            <path d="m 315.94005,238.90274 -13.92759,2.68855 0.77532,7.83799 z" fill="#e272e0" />
            <ellipse cx="342.18503" cy="196.16818" rx="4.9480658" ry="11.98117" transform="rotate(7.1052861)" />
            <ellipse cx="376.67087" cy="92.769188" fill="#fff" rx="3.1253068" ry="5.1601882" transform="rotate(22.613527)" />
            <ellipse cx="385.39694" cy="84.165337" fill="#fff" rx="1.2694435" ry="1.9646181" transform="rotate(25.162602)" />
          </g>
        </g>
        <path d="m 297.24031,223.13535 c -0.53585,5.53557 0.33103,11.03687 2.48701,15.5664 l 18.8566,-12.0538 c 0.40623,1.72479 0.59343,3.52936 0.61423,5.16598 l 6.34943,-6.67245 c -4.68524,0.62032 -5.57442,-1.22798 -4.29068,-3.34931 l -20.6844,11.72244 c -1.5094,-2.86722 -2.51312,-6.22822 -3.33219,-10.37926 z" />
      </g>
      <g>
        <path d="m 332.56564,251.27808 c -1.13777,-3.31316 -20.7278,-0.99249 -21.60228,4.51111 -0.69188,4.35438 1.0395,13.76447 4.81264,14.43856 12.97484,2.31802 20.25083,-8.87075 16.78964,-18.94967 z" opacity=".5" />
        <path d="m 332.56564,251.27808 c -1.13777,-3.31316 -20.7278,-0.99249 -21.60228,4.51111 -0.69188,4.35438 1.0395,13.76447 4.81264,14.43856 12.97484,2.31802 20.25083,-8.87075 16.78964,-18.94967 z m 4.65015,0.61645 c 1.6497,13.524 -3.58304,26.44712 -23.41758,23.24904 -6.09146,-0.98218 -10.25943,-21.8365 -5.9348,-25.03443 7.41619,-5.48406 15.27002,-6.69083 28.16088,-7.13277 4.80792,-0.16483 4.22117,7.64853 1.1915,8.91816 z" fill="#99ffec" stroke="#46c4bd" stroke-width="2" />
        <ellipse cx="308.47644" cy="277.41843" fill="#fff" rx="3.8094597" ry="2.7882991" transform="rotate(355.87157)" />
        <ellipse cx="301.31219" cy="276.83847" fill="#fff" rx="1.6818985" ry="1.2310501" transform="rotate(355.87157)" />
        <ellipse cx="317.47916" cy="270.61395" fill="#46c4bd" rx="1.1087469" ry="1.5000693" transform="rotate(355.99503)" />
      </g>
      <g>
        <path d="m 179.12603,211.61414 c 40.73455,-46.78323 77.83692,-64.41873 100.37736,-39.85996 104.44858,-33.81594 -22.06879,-126.525401 -60.93039,-47.84611 -17.6102,16.05614 -33.55733,45.39029 -39.44697,87.70607 z" fill="#ef5eaf" />
        <path d="m 279.50339,171.75418 c 57.14497,-18.50107 45.15479,-54.63077 16.21709,-70.68616 15.71894,20.98419 8.55546,48.28425 -16.21709,70.68616 17.23482,-21.82346 26.62413,-55.44957 -0.31006,-77.162034 -6.18676,-1.371763 -12.63867,-1.783453 -18.56026,-1.514818 32.63256,12.240262 33.48805,48.336862 18.87032,78.676852 8.90366,-64.85685 -32.80071,-78.379173 -65.74608,-43.0677 33.7643,-13.39472 55.16333,-10.49126 65.74608,43.0677" fill="#f37ab1" />
        <path d="m 279.50339,171.75418 c 13.1264,-95.616527 -83.74236,-79.658849 -100.37736,39.85996 40.73455,-46.78323 77.83692,-64.41873 100.37736,-39.85996 104.44858,-33.81594 -22.06879,-126.525401 -60.88222,-47.90534" fill="none" stroke="#b73b8f" stroke-width="4" />
        <path d="m 184.42631,228.45407 c -44.47372,-48.87041 -9.56721,-96.94152 -3.57895,-98.23647 4.36654,-0.94425 27.10212,19.36137 30.12273,53.65337 z" fill="#92ddff" />
        <path fill="#34a7d6" inkscape:original-d="m 184.42631,228.45407 c -44.47372,-48.87041 -9.56721,-96.94152 -3.57895,-98.23647 4.36654,-0.94425 27.10212,19.36137 30.12273,53.65337" inkscape:path-effect="#path-effect4286" />
        <path d="m 187.70542,202.62807 c -9.83083,-10.36433 -12.63036,-31.0583 -8.3896,-44.19704 -1.1422,13.66719 1.68833,32.20326 8.3896,44.19704 z" fill="#34a7d6" />
      </g>
      <g>
        <path d="m 186.11539,285.31466 c 50.52441,25.93255 59.35582,9.65082 71.58282,14.53191 20.74826,71.37549 -15.54023,131.1822 -99.96683,101.96504 -20.58604,-42.65893 -0.95075,-88.13648 20.2139,-96.90358 3.64584,2.55925 7.23018,4.58321 10.66461,6.02073 -0.6797,-8.29098 -2.10885,-17.39054 -2.4945,-25.6141 z" fill="#defff7" />
        <path d="m 199.79174,370.43424 6.7957,-0.40715 -3.42704,11.01983 z" fill="#39bdb9" id="path1037" />
        <use transform="rotate(10.788643 552.81424 8.4994566)scale(1.1925669)" xlink:href="#path1037" />
        <use transform="rotate(9.2695455 310.64354 221.76775)scale(.99019586)" xlink:href="#path1037" />
        <use transform="rotate(3.1058376 264.67393 522.66285)scale(.9262983)" xlink:href="#path1037" />
        <use transform="rotate(3.1058378 245.54529 819.79094)scale(.95874788)" xlink:href="#path1037" />
        <use transform="rotate(3.0951009-336.73113 919.88314)scale(.95874788)" xlink:href="#path1037" />
        <use transform="rotate(1.2786222-956.71339 2776.2717)scale(.92560496)" xlink:href="#path1037" />
        <use transform="rotate(8.1542973 359.99917 103.81411)scale(.95756996)" xlink:href="#path1037" />
        <use transform="rotate(12.891005 363.26933 269.13233)scale(.95796396)" xlink:href="#path1037" />
        <use transform="rotate(3.1058376 766.38009 1448.2156)scale(.9262983)" xlink:href="#path1037" />
        <use transform="rotate(10.90404 148.72582 130.52909)scale(.9581034)" xlink:href="#path1037" />
        <use transform="rotate(359.47031-8856.3967 3002.98)scale(1.0725659)" xlink:href="#path1037" />
        <path fill="#39bdb9" inkscape:original-d="m 186.10839,335.27224 c 6.53947,-10.35278 0.83985,-32.19797 0.007,-49.95758 50.52441,25.93255 59.35582,9.65082 71.58282,14.53191 20.74826,71.37549 -15.54023,131.1822 -99.96683,101.96504 -20.58604,-42.65893 -0.95075,-88.13648 20.2139,-96.90358 3.64584,2.55925 7.23018,4.58321 10.56999,5.8828" inkscape:path-effect="#path-effect1252" />
        <g>
          <path d="m 261.16898,341.79814 c 0.35912,16.23737 -16.91616,21.8726 -36.14462,-11.33857 l -31.31571,-30.68544 c 33.91451,81.06758 83.94791,79.91135 71.08118,31.87517 z" fill="#780056" stroke="#a44989" stroke-width="2" />
          <path d="m 252.93619,354.7098 1.13833,10.13499 m -39.00061,-34.0583 c -4.88184,-6.6107 -7.77953,-12.93474 -10.67628,-20.52324 m 52.16767,47.84016 c 3.78687,-2.58046 5.85501,-5.46949 6.91509,-9.65263 m -24.07554,5.91554 c 3.55,2.33694 6.7891,3.77898 10.92122,4.33177 m -29.58426,-20.4588 c 3.04853,3.36995 5.78669,5.96321 9.33239,8.78074 m -14.57815,-8.0308 8.64621,-9.68006 m 9.96525,28.72379 4.46266,-9.74652 m -8.67779,6.35965 5.98342,-9.16528" fill="none" stroke="#a44989" stroke-linecap="round" />
          <path d="m 207.18116,313.10689 c 31.90339,50.03623 66.79433,48.80058 57.60121,0.92838 -10.71698,40.08628 -34.46047,9.8743 -57.60121,-0.92838 z" fill="#780056" stroke="#a44989" stroke-width="2" />
          <path d="m 258.2775,341.18444 c 2.27312,-2.37098 3.77818,-4.84474 5.32297,-8.61114 m -48.51656,-14.9974 c 5.11001,7.7715 9.58882,12.98134 15.74426,18.30738 m 6.03605,3.93358 c 3.56359,2.43387 7.23578,4.08801 11.51093,4.78625 m -16.96731,-2.8238 6.0379,-10.52948 m 16.22513,1.52772 4.08913,15.92059 m -8.00074,-14.65542 2.61946,16.30187" fill="none" stroke="#a44989" stroke-linecap="round" />
          <path d="m 206.97205,307.72458 c 41.87812,47.8584 55.42516,34.10209 58.60996,5.99448 l -6.09659,-1.41955 c -3.6199,20.52358 -15.05268,24.75756 -34.48061,2.82408 z" fill="#780056" stroke="#a44989" stroke-width="2" />
          <path d="m 257.43382,329.18841 c 2.125,-4.25 3.46817,-8.63924 4.61229,-13.91056 m -15.13172,19.15525 c 2.1276,0.26517 4.55146,-0.23743 6.80591,-1.32582 m -33.05093,-16.26811 c 6.52823,7.44938 12.83141,12.34116 19.63731,15.52314 m 12.7342,-5.15971 5.09992,8.02096 m -14.97492,-5.98435 0.68203,9.16113" fill="none" stroke="#a44989" stroke-linecap="round" />
        </g>
        <path d="m 244.15556,298.03146 c -2.54364,34.60766 -29.81921,52.86676 -60.80559,-16.11964 40.16771,22.5593 63.00029,19.55403 70.98035,9.22933 21.9407,31.09889 10.26208,34.70625 -10.17476,6.89031" fill="#fff" stroke="#a6d7d7" stroke-width="4" />
      </g>
      <g>
        <path d="m 306.52803,251.01441 c 7.77261,11.08815 22.80172,4.70635 19.48446,16.35618 -7.15399,25.12394 -52.33534,43.00059 -101.06638,22.2142 z" fill="#92ddff" />
        <path d="m 310.57176,286.9549 c -7.20009,-4.15048 -15.0449,-5.51973 -23.10795,-4.14992 7.48992,-3.7897 17.45737,-3.45485 26.59959,1.82943 m -7.36781,-18.09649 c -0.67311,4.7659 2.55352,6.27794 6.15066,2.75044 -3.3561,1.02884 -5.00705,0.19345 -6.15066,-2.75044 z" fill="#34a7d6" />
        <path fill="#34a7d6" inkscape:original-d="m 306.52803,251.01441 c 7.77261,11.08815 22.80172,4.70635 19.48446,16.35618 -7.15399,25.12394 -52.33534,43.00059 -101.06638,22.2142" inkscape:path-effect="#path-effect946" />
      </g>
      <g>
        <path d="m 283.52173,255.12339 c 7.63372,-7.07075 16.73186,-8.50542 23.48303,-6.31619 2.92831,0.94958 2.61139,5.0198 -0.91529,4.47119 -6.78977,-1.05622 -12.53782,0.18316 -20.7696,6.02221 z" fill="#99ffec" stroke="#46c4bd" stroke-width="2" />
        <path d="m 246.48773,254.69607 c 0.0838,-5.4529 34.59486,-4.29058 35.07543,3.22864 0.4259,6.6638 -4.58321,14.42238 -9.33946,15.22825 -21.66665,3.67107 -25.94,-5.18366 -25.73597,-18.45689 z" opacity=".5" />
        <path d="m 272.2237,273.15296 c 4.75625,-0.80587 9.76536,-8.56445 9.33946,-15.22825 -0.48057,-7.51922 -34.99163,-8.68154 -35.07543,-3.22864 -0.20403,13.27323 4.06932,22.12796 25.73597,18.45689 z m -32.11286,-26.68751 c 21.64521,-1.37302 39.55888,-0.0408 46.36498,8.35243 3.62191,4.46653 -3.19176,21.48039 -12.06317,22.96951 -23.07627,3.87349 -34.69139,-6.14042 -33.5235,-22.67689 -3.53446,-1.18985 -5.0917,-8.37144 -0.77831,-8.64505 z" fill="#99ffec" stroke="#46c4bd" stroke-width="2" />
        <ellipse cx="314.31793" cy="209.31259" fill="#99ffec" rx="4.8274302" ry="3.3491087" transform="rotate(9.8694975)" />
        <ellipse cx="304.25165" cy="209.79517" fill="#99ffec" rx="2.7491398" ry="2.1219172" transform="rotate(9.8694975)" />
        <ellipse cx="267.41296" cy="224.59177" fill="#46c4bd" rx="1.2339958" ry="1.5601419" transform="rotate(5.8485534)" />
      </g>
      <g>
        <path d="m 181.74865,396.77718 c -20.57025,46.84081 -24.64813,94.03972 -16.45447,146.14245 2.07921,13.22148 68.4437,11.57655 63.10683,-0.48242 -18.73169,-42.32535 -24.4095,-93.25275 -22.1052,-144.62537 z" fill="#92ddff" stroke="#34a7d6" stroke-width="4" />
        <path d="m 183.07697,391.76455 c -8.03827,12.19488 -13.91366,28.94856 -17.34541,48.08946 l 43.37753,5.30664 c -1.92661,-17.91272 -2.16753,-34.2367 -0.66729,-51.32105 z" fill="#defff7" />
        <path fill="#39bdb9" inkscape:original-d="m 183.07697,391.76455 c -8.03827,12.19488 -13.91366,28.94856 -17.34541,48.08946 l 43.37753,5.30664 c -1.92661,-17.91272 -2.16753,-34.2367 -0.66729,-51.32105" inkscape:path-effect="#path-effect1027" />
        <path d="m 162.2897,450.90931 c -1.93834,-9.89804 -2.60021,-20.05137 -2.88351,-30.28041 16.38579,8.67899 33.41006,14.93171 51.46042,17.28533 l -0.22969,16.2157 c -15.93282,3.05563 -32.49594,2.03923 -48.34722,-3.22062 z" fill="#fff" stroke="#a6d7d7" stroke-width="4" />
        <ellipse cx="168.9785" cy="439.92639" fill="#a6d7d7" rx="3.7317071" ry="4.9939022" />
        <use transform="rotate(12.721085-17.752097 313.63538)scale(.99024554)" xlink:href="#path1037" />
        <use transform="rotate(11.270796-29.493298 418.77081)scale(.95796396)" xlink:href="#path1037" />
      </g>
    </g>
    <g>
      <path d="m 661.64712,381.68166 c 9.46686,35.05737 10.19877,81.64441 5.14859,131.47618 -1.07117,10.56958 -51.23678,10.0187 -48.47526,0.18149 17.83031,-63.51595 17.36608,-121.95193 -7.70555,-157.83318 14.57646,-10.17906 41.01696,4.46666 51.03222,26.17551 z" style="stroke-width:4;stroke:#d36790;stroke-miterlimit:20;fill:#f6acc8" />
      <g>
        <path d="m 663.77865,293.33822 15.27256,9.75003 c 17.7333,-5.49675 23.00937,8.66572 32.92319,104.52822 5.27376,1.54669 9.55865,1.74176 15.20903,-0.10478 l 13.41463,-22.6 12.23556,-1.1206 c 0.16346,-14.58486 -0.60244,-27.45929 -2.11842,-38.78613 l 19.55603,-1.7025 c -5.38963,-68.66747 -36.61274,-89.42497 -70.47385,-84.13575 -9.97689,3.45774 -19.93147,9.83765 -28.90655,20.05294 -2.35405,4.26651 -4.73549,9.01375 -7.11218,14.11857 z" fill="#ededac" />
        <path d="m 670.17926,291.51438 1.07414,2.09598 4.35488,1.99001 c 16.99879,-10.09229 40.26453,-10.71972 52.59403,126.98688 5.68637,-0.24726 10.45687,-1.06442 15.8523,-3.31777 -9.0198,-97.96507 -19.65011,-139.20579 -56.68981,-139.86422 23.14236,-11.51501 54.95253,2.47982 63.36084,65.67726 l 9.61257,-0.87978 c -2.34368,-75.43685 -65.7596,-93.41197 -90.15895,-52.68836 z m 72.37318,-41.07926 1.23492,11.04304 c -19.10325,-9.17626 -49.20859,-9.28511 -72.97512,17.88425 18.20795,-33.14272 38.22287,-45.03152 71.7402,-28.92729 z" fill="#f2f2c4" />
        <path d="m 670.17926,291.51438 c 24.39935,-40.72361 87.81527,-22.74849 90.07194,52.69194" style="stroke-width:2;fill:none;stroke:#d7a782;stroke-miterlimit:20" />
        <path d="m 750.71158,344.97791 19.55965,-1.67545 c -5.38963,-68.66747 -36.61274,-89.42497 -70.41588,-84.15578 m -12.44674,20.23685 c 36.99589,0.68016 47.6262,41.92088 56.646,139.88595 -5.39543,2.25335 -10.16593,3.07051 -15.8523,3.31777 -12.3295,-137.7066 -35.59524,-137.07917 -52.59403,-126.98688 l -4.35488,-1.99001 c 23.55879,-33.84138 82.90082,-27.65421 81.58022,90.18073 l -12.23556,1.1206 m -13.41463,22.6 c -5.65038,1.84654 -9.93527,1.65147 -15.20903,0.10478 -9.91382,-95.8625 -15.18989,-110.02497 -32.92319,-104.52822 l -15.27256,-9.75003 c 20.28584,-43.57134 40.91755,-61.09207 78.77379,-42.9031 l 1.23492,11.04304 c -19.10325,-9.17626 -49.20859,-9.28511 -72.9558,17.84909" style="stroke-width:4;fill:none;stroke:#d7a782;stroke-miterlimit:20" />
        <path d="m 655.97793,294.97985 c 15.71279,-10.2389 37.00932,3.28045 19.88491,19.26878 z" style="stroke-width:4;stroke:#d7a782;stroke-miterlimit:20;fill:#ededac" />
      </g>
      <path d="m 483.21932,235.73984 c 8.45708,10.57885 13.71318,23.72914 14.91023,36.82463 57.0146,13.03273 73.61096,-39.00417 -14.91023,-36.82463 z" fill="#bb1c76" />
      <path d="m 500.75009,271.44357 c 2.56342,-10.55493 15.20048,-10.37103 25.67717,-3.02883 -4.6837,9.14332 -17.56894,9.36743 -25.67717,3.02883 z" fill="#ef6f2f" />
      <path d="m 469.78248,208.64079 c -4.91756,6.56825 -7.55046,18.90037 -6.32888,29.19653 14.15879,6.55298 51.04467,-8.28593 55.41104,34.33069 -11.89846,-3.05 -22.21804,-4.32514 -34.78754,-4.09889 2.01705,12.66138 12.2483,14.80454 58.86898,9.657 -26.03339,106.45712 46.12996,152.4565 99.82149,91.03493 25.07163,35.88125 32.13748,94.75949 16.62658,152.64696 -3.56753,13.31419 48.00561,12.68083 47.97841,1.46457 -0.12856,-53.03768 -4.35271,-92.62392 -13.81957,-127.68129 -3.12141,-11.55911 -18.47218,2.82785 -15.54187,-10.195 21.14924,-93.99136 -27.44107,-112.64518 -71.39821,-80.07821 2.96011,-39.73623 20.34604,-65.27628 17.21144,-125.5537 -4.58637,-88.19467 -111.70091,-100.518681 -141.41989,-21.605 -5.17092,13.73049 -10.10885,34.60929 -5.93168,53.87439 -2.47124,-0.7708 -4.72425,-1.76004 -6.6903,-2.99298 z" fill="#ffb6d2" />
      <g transform="matrix(-.50065139.03047225.07427615.69127854 661.03673 329.7585)" inkscape:path-effect="#path-effect4669">
        <path fill="#e62440" inkscape:original-d="m -13.4,-15.2 c -2.8,5.4 -3.7,16.4 -1.6,16.4 2.1,0 0.3,-6.7 3.5,-12.1 l 2.9,3.6 c -1.9,9.1 -3.7,28.3 -0.7,28.8 3,0.5 -0.4,-13.9 1.8,-26.6 l 1.6,1.3 c 1.7,18.4 -1.8,35.3 1.8,33.8 3.6,-1.5 -0.5,-12.2 0.5,-33.6 l 2.2,-0.6 c 2.7,4.8 0.7,9.4 2.8,9.3 2.1,-0.1 1.6,-7.3 -1.2,-11.5 z m 8.1,16 c 39.9,-18.4 21.8,-43.7 6.4,-31.2 -5.6,-21.2 -34.6,-3.2 -6.4,31.2 z m -0.9,37.7 c -1.9,-2.4 1.9,-5.6 3.8,-3.3 1.9,2.3 -1.9,5.7 -3.8,3.3 z" />
      </g>
      <g>
        <path d="m 471.99398,408.1876 -5.80991,-6.52796 35.68249,-29.05766 7.81718,14.51187 z" fill="#fff" stroke="#b3c8ce" stroke-width="4" />
        <path d="m 506.58722,378.21549 c -10.28756,12.96906 -22.97531,20.94453 -36.89298,27.7816 15.92911,18.63882 34.99888,35.56532 47.50476,35.00919 16.20165,-0.72047 35.98712,-28.0122 55.11514,-55.53373 l -20.14147,-17.56036 c -8.86233,12.78649 -18.21929,25.21376 -30.65134,35.7772 -5.20123,-7.66061 -10.34271,-16.34398 -14.93411,-25.4739 z" fill="#ff6ca9" />
        <path d="m 500.2419,435.31154 c 11.00766,-6.78797 19.08587,-16.36531 22.51631,-29.73523 -1.43272,-2.2351 -0.63028,-4.59808 3.36841,-6.638 6.11542,8.34368 12.3269,13.95459 21.66745,19.64602 l -5.50017,6.7652 c -6.24536,-3.51185 -11.40691,-7.57556 -16.49022,-12.91037 -3.12149,10.92085 -9.91458,18.7648 -19.84491,26.14363 m 5.25916,-52.15536 c -6.60589,12.09092 -17.62646,24.03955 -35.16027,26.95121 l -4.45965,-5.09006 c 16.9034,-2.8216 31.09474,-16.84159 36.8901,-26.77109 z m 7.67589,13.1807 c -3.49046,11.62277 -13.96849,23.88357 -25.80487,29.89369 l -7.19944,-6.29331 c 12.80911,-4.78456 25.11424,-17.0866 29.38231,-29.3517 z m 45.25615,-2.29614 c -9.18603,-2.70178 -16.77606,-9.25085 -21.95932,-15.83092 l -6.54284,8.10589 c 5.63875,7.5379 12.33017,13.40237 20.77773,16.61388 z" fill="#6f3857" />
        <path fill="#d53b78" inkscape:original-d="m 526.69482,410.9949 c -6.95926,-9.34439 -14.01735,-20.66906 -20.1076,-32.77941 -10.28756,12.96906 -22.97531,20.94453 -36.89298,27.7816 15.92911,18.63882 34.99888,35.56532 47.50476,35.00919 16.20165,-0.72047 35.98712,-28.0122 55.11514,-55.53373 l -20.14147,-17.56036 c -8.86233,12.78649 -18.21929,25.21376 -30.68462,35.71284" inkscape:path-effect="#path-effect4639" />
        <path d="m 446.81624,412.83575 c 19.78462,-6.23403 27.18262,-17.45072 40.06175,-11.26822 9.89054,4.74785 25.45845,1.06305 33.96552,-7.43631 -11.11342,-46.09459 -26.21385,-47.40009 -46.24773,-45.14745 -19.94002,2.24208 -34.23616,12.0498 -27.77954,63.85198 z" fill="#fdff81" />
      </g>
      <g>
        <g clip-path="url(#clipPath4695)">
          <path d="m 521.60516,199.20976 c -5.13617,40.08139 51.81809,45.57298 62.18807,-7.73036 z" fill="#fff" id="path4676" />
          <g>
            <ellipse cx="557.1593" cy="132.34154" fill="url(#linearGradient4668)" rx="18.28804" ry="22.257465" transform="rotate(7.8499631)" />
            <ellipse cx="554.63782" cy="134.20987" rx="13.181698" ry="16.042774" transform="rotate(7.8499631)" />
            <ellipse cx="548.67413" cy="126.60728" fill="#fff" rx="7.0693588" ry="8.0248919" transform="rotate(8.362434)" />
            <ellipse cx="560.31683" cy="139.45081" fill="#fff" rx="3.164731" ry="3.817297" transform="rotate(8.362434)" />
          </g>
        </g>
        <path d="m 524.22025,217.32533 c 10.72335,14.64514 31.435,12.66824 42.86162,3.82621 5.24937,-4.06201 10.10613,-4.2024 15.15184,-1.80458 -3.98968,0.46931 -7.36813,1.76477 -9.61037,3.41578 0,0 3.72205,0.82582 4.33284,3.18172 -5.18324,0.0914 -9.32075,1.08808 -14.90304,3.57053 -11.03289,4.90634 -29.44951,5.52598 -37.83289,-12.18966 z m 52.80196,-25.85116 c 5.22221,1.5035 6.34986,3.41995 2.72445,13.44601 8.6955,-0.83565 13.24621,-4.3476 17.43001,-8.2139 l -4.75981,0.0873 c 2.43475,-1.55032 4.35557,-3.19367 6.12488,-5.76366 -7.04143,1.81631 -9.88134,1.70113 -12.82271,0.2147 z m -59.45574,10.21543 65.96421,-9.14135 c 5.10256,-0.70711 8.82456,-2.19876 11.68574,-5.09557 l -72.49574,8.69648 c -0.62699,-3.61761 -0.69611,-7.7388 0.14348,-11.60057 -4.40912,3.98315 -5.68053,10.04255 -5.29769,17.14101 z" />
      </g>
      <path d="m 471.77426,218.11811 c 2.15947,3.02325 4.60179,3.51684 7.68674,1.85097 -2.49658,4.12448 -7.48959,3.15067 -7.68674,-1.85097 z" fill="#db779c" />
      <path d="m 476.56321,211.71085 c -4.2676,-19.34218 0.67033,-40.22098 5.84125,-53.95147 29.71898,-78.913681 136.83352,-66.58967 141.41989,21.605 3.1346,60.27742 -14.25133,85.81747 -17.21144,125.5537 43.95714,-32.56697 92.54745,-13.91315 71.39821,80.07821 -2.93031,13.02285 12.42046,-1.36411 15.54187,10.195 9.46686,35.05737 13.69101,74.64361 13.81957,127.68129 0.0272,11.21626 -51.54594,11.84962 -47.97841,-1.46457 15.5109,-57.88747 8.44505,-116.76571 -16.62658,-152.64696 -53.69153,61.42157 -125.85488,15.42219 -99.79603,-91.00661" style="stroke-width:4;stroke:#db779c;stroke-miterlimit:20;fill:none" />
      <g>
        <path d="m 618.40868,382.67262 c 5.34374,24.27385 8.80865,12.52275 12.97563,17.07181 9.9705,10.88472 0.52242,-10.14213 15.81523,-7.16574 20.67617,4.02413 -8.04622,-21.41214 7.58382,-28.26181 21.5001,-9.42214 -17.05176,-24.70583 -2.11834,-41.35034 9.56163,-10.65721 -0.50115,-23.52652 -20.70842,-21.49213 z" fill="#fff" stroke="#b3c8ce" stroke-width="4" />
        <path d="m 625.24427,342.15087 c 6.48521,-0.19924 12.54078,0.1742 19.34331,1.38847 -6.92993,-0.2081 -12.99578,-0.20488 -19.40124,0.23758 m -3.89626,19.12997 c 8.1201,-1.10956 15.95766,-1.5693 24.53219,-0.71917 -8.90672,0.39946 -16.284,1.10782 -24.84978,2.62667 m -0.15707,1.90329 c 7.80705,3.41508 15.13328,6.68596 22.91949,10.74687 -8.23763,-3.2486 -15.19015,-5.62995 -23.44696,-8.15269" fill="#b3c8ce" />
        <path d="m 536.70385,313.30509 c -2.90773,82.54851 48.80172,99.35619 88.28717,73.92689 1.71037,-37.16802 -0.19285,-65.94621 -9.3574,-90.30168 -26.66196,15.18576 -52.60546,20.38537 -78.92977,16.37479 z" fill="#ff6ca9" />
        <path d="m 562.96808,389.98218 c 6.65054,-4.40421 12.72382,-9.03715 17.47015,-16.11267 l 2.50553,7.5573 c -4.01536,5.05456 -7.75587,8.61287 -12.92285,11.96935 z m 43.28441,-55.77565 c 4.13036,18.09364 5.8235,37.76924 5.88849,59.89041 l 7.95837,-3.68058 c -0.25959,-29.5536 -4.74638,-54.42931 -12.04994,-69.61345 z m -10.74844,-6.09903 c -8.64176,14.13422 -33.95341,20.62401 -57.74937,13.63793 l -0.55867,-8.46155 c 24.03193,8.45612 48.59638,2.57108 58.0501,-11.79267 z m 20.77466,-29.00822 c -12.46566,30.15404 -38.55753,58.9193 -70.0419,70.00198 l 3.625,6.5 c 21.4752,-6.4359 42.82254,-25.30336 52.45017,-42.16254 9.58222,-6.77472 14.91967,-14.83511 17.19292,-24.78659 z" fill="#6f3857" />
        <path d="m 536.70385,313.30509 c -2.90773,82.54851 48.80172,99.35619 88.28717,73.92689 1.71037,-37.16802 -0.19285,-65.94621 -9.3574,-90.30168 -26.66196,15.18576 -52.60546,20.38537 -78.92977,16.37479 z" fill="none" stroke="#d53b78" stroke-width="4" />
        <path d="m 536.07191,322.02583 c -5.48849,37.62717 22.01915,40.77959 36.49879,10.11897 l 4.3761,-0.38547 c -14.80719,39.21642 -51.74458,36.14404 -46.50834,-9.43725 z" fill="#ffde6a" stroke="#f0b634" stroke-width="2" />
        <path d="m 544.61799,366.47669 -0.7413,2.82707 3.5005,0.90254 0.77508,-2.82267 z m -11.42098,4.34628 -3.66632,-0.95034 3.22437,-12.53653 7.61763,2.14335 2.56304,-9.51684 3.82442,1.13865 -2.55533,9.43645 1.96287,0.44365 -0.78633,3.05222 3.5005,0.90254 0.82011,-3.04782 4.17098,1.0854 -3.22439,12.53652 -13.91733,-3.78036 0.78637,-3.05222 -3.50051,-0.99256 z" fill="#ffd43f" />
        <path d="m 529.53069,369.87263 3.22437,-12.53653 10.11383,2.88956 -3.23555,12.42907 -2.90211,-0.92487 0.78637,-3.05222 -3.50051,-0.99256 -0.82008,3.13789 z" fill="#ffde6a" />
        <path d="m 540.37269,359.47945 2.56304,-9.51684 3.82442,1.13865 -2.55533,9.43645 m -4.57148,12.11702 3.23555,-12.42907 m 1.7491,6.25103 -0.7413,2.82707 3.5005,0.90254 0.77508,-2.82267 z m -5.18517,-7.26312 -5.41573,8.47151 -0.82008,3.13789 -3.66632,-0.95034 3.22437,-12.53653 13.41263,3.64526 -0.78633,3.05222 3.5005,0.90254 0.82011,-3.04782 4.17098,1.0854 -3.22439,12.53652 -13.91733,-3.78036 0.78637,-3.05222 -3.50051,-0.99256" fill="none" stroke="#f0b634" stroke-width="2" />
        <path d="m 609.73145,283.42451 c -22.28037,19.90758 -55.30328,29.65312 -72.02981,7.01254 -9.73932,1.1478 -15.99792,3.59514 -23.42079,8.03447 8.01261,3.3695 1.34381,11.23427 7.30455,15.23627 4.77121,3.20336 -0.59194,15.10115 12.93809,11.95759 15.16441,-3.5233 10.36972,15.64017 23.25185,5.54797 11.86873,-9.29826 8.97963,13.086 24.20211,-3.04136 12.43254,-13.17157 18.41778,3.93512 20.16612,-11.68973 1.15851,-10.3536 8.789,-14.537 18.69586,-10.4364 z" fill="#fff" stroke="#b3c8ce" stroke-width="4" />
        <path d="m 559.23441,303.21534 c -0.008,6.49182 -0.50791,12.76361 -1.30687,19.19574 1.52985,-6.29203 2.37424,-12.59792 2.96129,-18.9636 m -18.77515,8.75323 c 1.65947,-4.78613 3.56061,-8.55407 6.24067,-12.45242 l 1.33089,0.7541 c -2.93616,3.75431 -5.32688,7.32568 -7.57156,11.69832 z" fill="#b3c8ce" />
        <path d="m 523.08935,315.36373 21.56608,-17.83568 m -26.1947,11.47079 c 8.06935,-5.72396 14.80123,-9.70652 23.9867,-13.79698 m 43.48953,3.43233 c 3.5818,8.01575 4.98148,15.51185 6.01934,24.6306 m -23.23786,-19.69916 3.33051,30.72796" fill="none" stroke="#b3c8ce" stroke-width="2" />
      </g>
      <g>
        <path d="m 631.09462,503.77719 c 1.01864,10.99734 1.83003,22.07626 2.27203,32.81547 0.56339,13.68854 -55.71486,13.52618 -54.11502,-0.23425 1.31132,-11.27884 2.62177,-22.97479 3.50279,-33.61119 z" style="stroke-width:4;stroke:#db779c;stroke-miterlimit:20;fill:#ffb6d2" />
        <path d="m 582.537,503.5114 0.42501,-5.32166 45.32124,-14.38379 c 1.46239,7.66017 2.41633,14.71974 3.33627,22.73995 -16.73539,5.24843 -34.1419,4.19512 -49.08252,-3.0345 z" style="stroke-width:4;stroke:#ae0e24;stroke-miterlimit:20;fill:#d42f47" />
        <path d="m 617.89968,486.85139 8.7045,21.25433 m -19.27763,-17.87225 5.83186,19.55385 m -15.7045,-16.49017 2.39994,15.89215" style="stroke-width:2;fill:none;stroke:#ae0e24;stroke-miterlimit:20" />
        <path d="m 626.587,470.70173 2.01761,13.75649 c -12.21436,9.98069 -25.34911,13.60593 -45.82272,13.91164 0.75535,-9.72685 1.11106,-17.7138 1.32287,-28.11525 z" style="stroke-width:4;stroke:#b3c8ce;stroke-miterlimit:20;fill:#fff" />
        <path d="m 605.22366,366.73754 c 10.04191,31.55466 16.69646,65.04737 22.0031,107.20632 -12.5313,6.41808 -28.85232,6.61521 -43.4031,-0.23601 0.99806,-35.76009 1.87182,-67.93229 -3.38543,-99.83834 z" fill="#ff6ca9" />
        <path d="m 583.90381,459.96133 c 14.22617,2.5239 27.71926,1.98905 41.40469,-0.37879 l 0.99677,7.47291 c -14.68291,3.20672 -28.25786,3.04721 -42.61056,-1.19087 z m 0.62756,-17.96071 c 12.5827,1.87909 25.31436,1.52375 38.13689,-0.19461 l 1.09558,7.31602 c -12.95682,2.1772 -25.77275,2.27683 -39.4194,-0.19606 z m -0.2128,-17.58221 c 11.87554,1.26249 23.57096,0.85825 35.35644,-1.17953 l 1.00146,6.64187 c -11.28473,2.77017 -23.38,3.87151 -36.01561,1.46816 z m -0.69173,-20.43871 c 10.43245,1.4296 20.98287,1.20755 31.65548,-0.72504 l 1.76599,8.11633 c -11.52324,1.62631 -21.96578,1.66562 -32.94867,-0.15828 z m 28.28243,-13.92502 c -8.20207,3.42678 -19.1148,3.93943 -28.95119,2.64818 l -0.89559,-5.75927 c 9.72277,0.18013 20.16879,-1.11233 27.73376,-5.25504 z" fill="#6f3857" />
        <path fill="#d53b78" inkscape:original-d="m 605.22366,366.73754 c 10.04191,31.55466 16.69646,65.04737 22.0031,107.20632 -12.5313,6.41808 -28.85232,6.61521 -43.4031,-0.23601 0.99806,-35.76009 1.87182,-67.93229 -3.38543,-99.83834" inkscape:path-effect="#path-effect4590" />
      </g>
      <g>
        <path d="m 631.64521,98.477729 c 33.58847,-33.700224 102.96616,-21.672439 114.68139,50.920241 l -14.83524,5.88879 c -6.66738,-20.1368 -13.53948,-35.12883 -27.06518,-44.43716 l 5.32369,87.01228 c 0.31669,10.71072 0.0607,22.43518 -0.86293,35.23837 l -15.79424,3.97766 -0.83244,-21.44522 -5.77432,21.99813 -13.15959,-0.0324 c 0.45917,-3.16517 0.88071,-6.25593 1.17352,-9.54164 -8.49796,-1.41416 -13.73138,-3.27773 -20.60897,-6.71652 10.04163,-46.3091 6.35473,-75.45233 -13.92152,-88.33434 l -20.99286,-20.41525 c 6.54677,-57.642473 60.21019,-87.530643 114.27986,-41.095669 l -7.82324,16.898132 c -33.42791,-28.998049 -72.88234,-24.849399 -93.78793,10.084596" fill="#ededac" />
        <path d="m 628.06238,110.31817 c 40.16362,-8.18041 69.08164,18.28752 53.79139,127.30341 l -8.52742,-0.0232 c 15.02541,-103.57452 -10.23561,-127.47938 -43.93567,-121.98632 l -10.41416,-3.02143 c 23.71273,-42.441459 113.08139,-32.61065 106.23466,81.34757 l -15.47414,3.8209 c -2.96139,-100.150246 -56.10702,-111.5799 -81.67466,-87.44093 z" fill="#f2f2c4" />
        <path d="m 704.42618,110.8496 c 13.5257,9.30833 20.3978,24.30036 27.06518,44.43716 l 14.83524,-5.88879 c -11.71523,-72.59268 -81.09292,-84.620465 -114.68139,-50.920241 m 78.07987,99.201571 15.4861,-3.74106 c 6.84673,-113.95822 -82.52193,-123.789029 -106.23466,-81.34757 6.54677,-57.642473 60.21019,-87.530643 114.27986,-41.095669 l -7.82324,16.898132 c -33.42791,-28.998049 -72.88234,-24.849399 -93.78793,10.084596 m -2.25453,17.134371 c 33.70006,-5.49306 58.96108,18.4118 43.93567,121.98632 l 13.15959,0.0324 5.77432,-21.99813 0.83244,21.44522 15.79424,-3.97766 c 9.83248,-136.293597 -55.99764,-150.342992 -82.85958,-120.55935 z m 10.5787,17.39382 c 20.27625,12.88201 23.96315,42.02524 13.92152,88.33434 6.87759,3.43879 12.11101,5.30236 20.51696,6.44862" style="stroke-width:4;fill:none;stroke:#d7a782;stroke-miterlimit:20" />
        <path d="m 627.85572,110.3943 c 40.37028,-8.25654 69.2883,18.21139 53.94791,127.22933 m -55.57177,-134.80083 c 17.5201,-55.684332 73.53825,-54.037556 102.76198,-22.218429" fill="none" stroke="#d7a782" stroke-width="2" />
        <path d="m 609.04133,117.34349 c 7.17322,-34.103583 59.82729,28.15654 25.74444,36.08794" style="stroke-width:4;fill:#ededac;stroke:#d7a782;stroke-miterlimit:20" />
        <path d="m 599.04133,122.34349 c 8.70157,-29.773246 59.94981,18.81392 28.92367,38.71742" style="stroke-width:4;fill:#ededac;stroke:#d7a782;stroke-miterlimit:20" />
        <path d="m 635.89475,187.41671 c 2.82872,55.45052 1.89402,108.87494 -4.33792,168.54508 -6.60254,0.86362 -12.82899,0.49035 -19.80763,-0.74927 2.86248,-14.0011 5.28269,-27.92343 7.23619,-41.90576 l -8.03555,-1.39904 c -1.63052,11.28381 -3.42765,22.56761 -5.389,33.85141 -6.33251,0.28187 -11.38693,-0.14471 -17.80891,-1.94115 10.92194,-44.76565 20.37017,-90.22305 27.28151,-133.8647 z" fill="#f2f2c4" />
        <path d="m 648.13073,328.30393 c 2.03748,-50.30485 0.88723,-99.02357 -4.97254,-148.14197 l -7.26344,7.25475 c 2.56274,50.23655 2.03652,98.8101 -2.63813,151.89548 6.11837,-3.59837 10.375,-7.12027 14.87411,-11.00826 z m -19.81577,-128.45293 -8.19098,1.9689 c -2.40702,37.80542 -6.47924,68.88091 -14.08222,109.23465 l 12.96168,2.12873 c 5.55902,-37.42613 8.25095,-74.73528 9.31152,-113.33228 z" fill="#ededac" />
        <path d="m 633.33769,339.33603 c 6.0373,-3.62221 10.29393,-7.14411 14.79304,-11.0321 2.03748,-50.30485 0.88723,-99.02357 -4.97254,-148.14197 l -7.26344,7.25475 c 2.82872,55.45052 1.89402,108.87494 -4.33792,168.54508 -6.60254,0.86362 -12.82899,0.49035 -19.80763,-0.74927 10.56824,-51.69194 15.10802,-102.31021 16.56576,-155.36152 m -17.36512,112.05672 c -1.63052,11.28381 -3.42765,22.56761 -5.389,33.85141 -6.33251,0.28187 -11.38693,-0.14471 -17.80891,-1.94115 10.92194,-44.76565 20.37017,-90.22305 27.28151,-133.8647 l 5.09054,-8.13338 c -2.40702,37.80542 -6.47924,68.88091 -14.08222,109.23465 l 12.86064,2.18313" style="stroke-width:4;fill:none;stroke:#d7a782;stroke-miterlimit:20" />
        <path d="m 621.59963,356.13417 c 11.68298,-62.41839 13.71701,-117.44509 14.56807,-163.12119" style="stroke-width:2;fill:none;stroke:#d7a782;stroke-miterlimit:20" />
        <path d="m 561.39676,174.00629 c 3.67481,-26.30345 10.09766,-49.06832 20.77249,-61.12581 -20.79307,6.38946 -29.97871,20.51735 -38.56455,53.77772 -0.24454,1.45217 -0.48495,2.93485 -0.72125,4.44863 l -12.24847,-0.8471 c 0.27888,-3.31618 0.611,-6.48151 0.9505,-9.60143 l -10.24417,-1.09609 2.33139,-44.12189 c -13.23798,10.8109 -21.72677,28.8765 -27.16241,50.31984 l -30.47204,-0.8957 c 0.87953,-7.03691 2.49222,-13.71642 4.75711,-19.97566 l -13.33067,-0.62365 c 22.22002,-61.231785 94.68504,-69.351818 142.02185,-33.58552 -12.3688,10.19903 -19.54718,34.49954 -20.29845,65.78117 z" fill="#f2f2c4" />
        <path d="m 628.68384,144.78337 c -7.48019,-13.91721 -17.58271,-25.33007 -29.1958,-34.1026 -10.08635,8.10649 -16.73088,26.37061 -18.71308,45.6828 17.4304,5.01709 34.00966,1.54567 47.90888,-11.5802 z m -68.50653,-52.618409 c -25.70385,4.562128 -48.68882,26.242149 -54.66539,75.267859 l 14.68519,0.78969 c 5.23908,-44.7498 21.66548,-71.174734 50.83516,-72.854666 z m 23.7905,8.782059 c -18.79669,2.04488 -32.00652,16.02301 -40.37443,65.77842 l 11.72305,0.78523 c 4.41651,-29.89953 13.269,-47.1579 26.87445,-54.65458 l 9.14049,-7.46924 z m -105.48916,64.28311 c 2.84859,-18.92519 10.8037,-30.80487 20.48893,-38.37808 -7.19724,11.54649 -11.69922,22.8082 -14.05211,38.57103 z" fill="#ededac" />
        <path fill="#d7a782" inkscape:original-d="m 523.26683,97.331255 c -29.89206,5.854915 -52.81045,32.184725 -57.22858,67.533205 l 30.47204,0.8957 c 5.43564,-21.44334 13.92443,-39.50894 27.16241,-50.31984" inkscape:path-effect="#path-effect4454" />
        <path d="m 521.34131,159.56221 10.18903,1.01891 m 28.64697,-68.416159 c -25.70385,4.562128 -48.68882,26.242149 -54.66539,75.267859 l 14.68519,0.78969 c 5.23908,-44.7498 21.66548,-71.174734 50.83516,-72.854666 m -27.43791,71.351786 11.72207,0.79104 c 4.41651,-29.89953 13.269,-47.1579 26.87445,-54.65458 m 46.49296,31.92728 c -37.97755,-70.65893 -143.55094,-76.763618 -171.21915,-0.51822 l 13.34064,0.59612" style="stroke-width:4;fill:none;stroke:#d7a782;stroke-miterlimit:20" />
        <path fill="#d7a782" inkscape:original-d="m 543.18379,121.20288 c -7.35639,14.9808 -10.89212,29.3569 -12.54881,49.05685 l 12.24847,0.8471 c 8.32384,-53.32423 21.74794,-68.05621 41.08436,-70.15981" inkscape:path-effect="#path-effect4452" />
        <path d="m 478.47865,165.23013 c 2.84859,-18.92519 10.8037,-30.80487 20.48893,-38.37808 -7.19724,11.54649 -11.69922,22.8082 -14.05211,38.57103" style="stroke-width:2;fill:none;stroke:#d7a782;stroke-miterlimit:20" />
        <path d="m 605.92802,219.85798 c 29.27721,-11.34033 55.00381,-46.57712 49.38179,-84.63228 -22.76699,2.08962 -38.58292,7.14528 -59.13918,22.62595" fill="#ffb6d2" />
        <path d="m 637.09413,163.71591 c -6.14743,16.59553 -14.22703,27.08308 -29.76276,36.36155 18.18716,-7.06468 27.52271,-20.08448 29.76276,-36.36155 z" fill="#db779c" />
        <path fill="#db779c" inkscape:original-d="m 605.92802,219.85798 c 29.27721,-11.34033 55.00381,-46.57712 49.38179,-84.63228 -22.76699,2.08962 -38.58292,7.14528 -59.13918,22.62595" inkscape:path-effect="#path-effect4725" />
        <path d="m 605.48274,135.28469 c -2.17859,15.54452 -4.38663,28.93017 -7.53553,43.76414 l -18.79038,-2.59234 c 0.47127,-18.83658 3.26231,-35.14269 8.10749,-47.36381 z" fill="#ededac" />
        <path fill="#d7a782" inkscape:original-d="m 605.48274,135.28469 c -2.17859,15.54452 -4.38663,28.93017 -7.53553,43.76414 l -36.55045,-5.04254 c 4.69355,-33.59536 13.86998,-61.41825 30.61769,-68.48142" inkscape:path-effect="#path-effect4458" />
        <path d="m 599.47593,110.67162 c -12.35819,10.20704 -19.53657,34.50755 -20.3751,65.77714" style="stroke-width:4;fill:none;stroke:#d7a782;stroke-miterlimit:20" />
      </g>
      <g>
        <g clip-path="url(#clipPath4867)">
          <path d="m 477.0126,211.80864 c -1.91316,-10.50075 -2.09378,-21.77158 0.29846,-32.62187 l 24.15167,16.63889 0.1956,3.41004 c -1.76758,11.00036 -11.55128,15.77265 -24.64573,12.57294 z" fill="#fff" id="path4609" />
          <g>
            <ellipse cx="450.66934" cy="259.0535" fill="url(#linearGradient4621)" rx="10.308544" ry="17.728018" transform="rotate(352.36564)" />
            <ellipse cx="471.22266" cy="214.62077" rx="8.4992876" ry="14.866425" transform="rotate(357.74667)" />
            <ellipse cx="504.27438" cy="105.00301" fill="#fff" rx="4.7103734" ry="6.1078091" transform="rotate(10.073639)" />
            <ellipse cx="519.65875" cy="50.595001" fill="#fff" rx="2.169405" ry="2.6442177" transform="rotate(17.204515)" />
          </g>
        </g>
        <path d="m 484.67448,213.45369 c -2.92861,-1.11001 -5.35289,-3.02833 -7.51325,-5.84558 -2.13835,-2.78855 -4.66133,-3.51902 -7.78929,-2.88692 2.06314,0.77171 3.55807,1.86347 5.00347,3.49724 -1.5,0 -2.67145,0.34021 -3.94949,1.21884 5.78825,0.32539 5.24205,3.19817 9.39692,3.89567 z m -7.89383,-34.69258 c -2.37298,-0.40592 -4.36052,-1.27454 -6.4595,-3.45895 0.79481,2.67226 2.03478,4.71764 3.73712,6.43783 l -2.51675,-1.15404 c 0.9564,2.40594 2.34781,4.12335 4.62374,5.25047 0.83782,-3.89305 2.14301,-4.76079 4.11714,-5.01552 z m -4.57897,-5.39505 c 0.93005,2.75631 2.77426,5.00337 5.25046,6.93981 l 24.20619,18.92983 c 2.86609,-5.56335 4.35744,-11.31184 4.21088,-17.06775 -1.66331,4.8842 -2.93456,7.77271 -4.95563,10.78096 z" />
      </g>
      <path fill="#db779c" inkscape:original-d="m 501.65833,199.2357 c -2.35428,15.61627 -21.28146,16.04901 -31.87585,9.40509 -4.91756,6.56825 -7.55046,18.90037 -6.32888,29.19653 14.15879,6.55298 51.04467,-8.28593 55.41104,34.33069 -11.89846,-3.05 -22.21804,-4.32514 -34.78754,-4.09889 2.25432,14.15079 14.76905,15.16321 76.84245,7.50349 18.12875,-2.23704 22.29645,-8.63812 25.85971,-20.58157" inkscape:path-effect="#path-effect4850" />
    </g>
    <g>
      <g>
        <path d="m 834.8088,388.20332 c -0.99423,2.47849 -2.17135,5.11029 -3.36832,8.17618 l -56.7119,-13.50677 c 11.85107,-68.23835 47.66991,-73.05425 75.75075,-36.95883 l 31.49913,0.89072 c -4.67962,36.55555 -23.47783,57.19049 -46.41829,41.59173 z" fill="#4a5a86" />
        <path fill="#213159" inkscape:original-d="m 810.8009,365.11163 c 13.23392,7.42343 26.0862,3.8551 26.57129,8.64999 0.85651,8.46617 -2.45378,13.70962 -5.93171,22.61788 l -56.7119,-13.50677 c 11.85107,-68.23835 47.66991,-73.05425 75.75075,-36.95883 l 31.49913,0.89072 c -4.67962,36.55555 -23.47783,57.19049 -46.41829,41.59173" inkscape:path-effect="#path-effect9458" />
        <path d="m 777.16112,382.60868 c -3.84078,13.75085 -8.81131,24.43978 -15.36699,36.2106 -5.85564,10.51388 59.59604,17.63225 64.9048,-0.34697 2.50138,-8.47147 3.83098,-16.52094 4.13009,-25.42583 z" style="stroke-width:4;stroke:#ba6534;stroke-miterlimit:20;fill:#e19555" />
        <path d="m 844.93629,343.08627 c 1.83176,6.2611 2.46282,11.29504 2.57944,17.61603 2.08035,-5.64761 2.1475,-10.63504 1.34705,-15.93794 m -9.50075,28.79602 c -0.4914,-5.06973 -6.19034,-8.29303 -5.56112,-19.44868 l -1e-5,-7e-5 c -5.18968,9.9419 0.23207,14.18235 1.58145,19.8513 z" fill="#213159" />
        <use transform="translate(-100.07711 33.449614)" xlink:href="#path9036" />
        <use transform="translate(-101.43067 60.919286)" xlink:href="#path9036" />
        <use transform="translate(-120.51906 59.096062)" xlink:href="#path9036" />
        <use transform="translate(-79.961 40.18445)" xlink:href="#path9036" />
        <use transform="translate(-69.51906 58.830898)" xlink:href="#path9036" />
        <use transform="translate(-62.342284 82.830898)" xlink:href="#path9036" />
        <use transform="translate(-48.165508 74.654122)" xlink:href="#path9036" />
        <use transform="translate(-89.253896 78.388958)" xlink:href="#path9036" />
        <path d="m 775.17235,370.64887 c 20.44165,6.55877 41.37972,11.24441 63.34411,14.11885 -2.00149,6.74144 -3.9833,12.86943 -6.31791,18.79666 -20.40474,-3.18487 -39.6599,-7.36096 -58.82443,-13.84365 -0.69376,-6.27395 0.25066,-13.15146 1.79823,-19.07186 z" style="stroke-width:4;stroke:#99bdf4;stroke-miterlimit:20;fill:#dbe9ff" />
        <circle cx="828.64722" cy="393.49396" fill="#99bdf4" r="2.3997993" />
      </g>
      <g>
        <path d="m 944.67668,84.134745 c 13.61345,17.416615 14.50425,43.098985 -0.67661,64.442755 l 10.96016,-5.12132 c -2.76744,27.74597 -11.92903,44.93013 -37.45123,45.87951 z" style="stroke-width:4;stroke:#acb6bd;stroke-miterlimit:20;fill:#e3ebf2" />
        <path d="m 918.67058,184.77437 c 15.64342,-3.80938 26.67478,-12.97117 33.10849,-23.34042 m -31.2617,15.09953 c 17.94344,-4.66621 29.23248,-18.0039 33.86509,-28.94675" style="stroke-width:2;stroke:#acb6bd;stroke-miterlimit:20;fill:none" />
      </g>
      <g>
        <path d="m 974.43956,297.49009 -61.9076,55.64511 c 20.72721,34.83961 29.37913,76.45561 16.24729,131.55538 -4.04943,16.99099 69.06395,19.19056 68.6468,0.76218 -1.01333,-44.76596 -9.4256,-81.34301 -23.09284,-109.75413 -2.22163,-4.61826 -8.16643,0.48706 -16.13149,-3.61145 3.2902,-20.67081 15.88178,-35.28871 16.23784,-74.59709 z" fill="#c07e47" />
        <path fill="#9d5428" inkscape:original-d="m 957.43827,381.24879 c 0.29173,-26.2261 16.59542,-38.95202 17.00129,-83.7587 l -61.9076,55.64511 c 20.72721,34.83961 29.37913,76.45561 16.24729,131.55538 -4.04943,16.99099 69.06395,19.19056 68.6468,0.76218 -1.01333,-44.76596 -9.4256,-81.34301 -23.09284,-109.75413 -2.22163,-4.61826 -8.16643,0.48706 -16.1398,-3.64395" inkscape:path-effect="#path-effect9448" />
      </g>
      <g>
        <path d="m 973.97858,239.63343 c 32.20712,-105.94028 168.62502,-19.45312 90.16362,107.35647 12.8781,-115.34115 -55.4659,-134.99151 -76.98686,-98.0958 z" style="stroke-width:4;stroke:#acb6bd;stroke-miterlimit:20;fill:#e3ebf2" />
        <path d="m 980.2048,243.87768 c 28.7187,-63.8377 104.6119,-40.84227 103.5236,59.61736" style="stroke-width:2;stroke:#acb6bd;stroke-miterlimit:20;fill:none" />
        <path d="m 984.45015,241.32819 c 38.60565,-58.42793 119.68695,7.89643 69.75005,90.25 -0.8179,-48.75717 -29.8329,-90.44848 -59.4986,-79.47234 z" style="stroke-width:4;stroke:#acb6bd;stroke-miterlimit:20;fill:#e3ebf2" />
        <path d="m 991.29716,248.55438 c 29.54004,-32.43299 81.39384,5.78941 63.28174,79.58979" style="stroke-width:2;stroke:#acb6bd;stroke-miterlimit:20;fill:none" />
      </g>
      <path d="m 1017.6533,298.43455 c 0,-74.46834 -81.0067,-87.43584 -116.6991,-28.20673 8.9671,-88.01327 41.2657,-106.40808 39.6439,-159.38567 -2.9605,-96.708785 -190.34904,-61.421317 -146.31419,63.53375 l 37.32761,41.17436 c 3.57258,51.50895 -42.41103,73.16721 14.56709,133.26553 29.68359,31.30911 79.28349,30.99443 109.74369,6.11744 20.639,31.32107 37.786,83.60354 22.02,145.30462 -4.3242,16.92314 68.1441,18.16524 69.0042,-0.24784 1.3821,-29.58659 -8.1982,-79.86996 -27.553,-123.71769 -2.0695,-4.68837 -9.147,0.66205 -16.7004,-4.14573 2.4814,-21.64569 14.9602,-35.01416 14.9602,-73.69204 z" fill="#e19555" />
      <g transform="matrix(-.39680676.03824174.06058239.80230223 993.57316 281.11494)" inkscape:path-effect="#path-effect1047">
        <path fill="#ffd44f" inkscape:original-d="m 12.242,-22.084 c -7.12201,-3.561005 -13.13952671,-1.976159 -17.1774203,1.920533 l 16.1343433,27.7546135 c 10.899528,-4.8526407 14.975215,-22.7090775 1.043077,-29.6751465 z" />
        <path fill="#ffb932" inkscape:original-d="m 0.84374986,-19.130273 c -1.6980806,-0.906403 -3.66470616,-1.358428 -5.61589836,-1.170547 -7.4442765,6.98755 -8.3695165,21.7508858 2.5241802,27.197734 5.178498,2.589249 9.965262,2.3617361 13.8483593,0.486875 11.182825,-14.8793887 3.539066,-22.757192 -5.8716407,-20.190312 -0.384,-2.607 -2.332,-4.961 -4.88500044,-6.32375 z" />
        <path fill="#e09712" inkscape:original-d="m -6.643999,-3.8119995 a 0.8944272,0.82287303 26.565051 0 1 -1.168,0.336 0.8944272,0.82287303 26.565051 0 1 -0.432,-1.136 0.8944272,0.82287303 26.565051 0 1 1.168,-0.336 0.8944272,0.82287303 26.565051 0 1 0.432,1.136 z m 5.73599946,6.7779986 a 0.8944272,0.82287303 26.565051 0 1 -1.16799996,0.336 0.8944272,0.82287303 26.565051 0 1 -0.432,-1.136 0.8944272,0.82287303 26.565051 0 1 1.168,-0.336 0.8944272,0.82287303 26.565051 0 1 0.43199996,1.136 z m 11.93399954,2.632001 a 0.8944272,0.82287303 26.565051 0 1 -1.1679997,0.336 0.8944272,0.82287303 26.565051 0 1 -0.432,-1.136 0.8944272,0.82287303 26.565051 0 1 1.1679997,-0.336 0.8944272,0.82287303 26.565051 0 1 0.432,1.136 z m -3.7759992,-1.1979997 a 0.8944272,0.82287303 26.565051 0 1 -1.1679998,0.3360001 0.8944272,0.82287303 26.565051 0 1 -0.432,-1.136 0.8944272,0.82287303 26.565051 0 1 1.168,-0.336 0.8944272,0.82287303 26.565051 0 1 0.4319998,1.1359999 z m 3.7339992,-7.2180014 a 0.8944272,0.82287303 26.565051 0 1 -1.1679995,0.3360001 0.8944272,0.82287303 26.565051 0 1 -0.432,-1.136 0.8944272,0.82287303 26.565051 0 1 1.1679995,-0.336 0.8944272,0.82287303 26.565051 0 1 0.432,1.1359999 z m 4.106,-4.961999 a 0.8944272,0.82287303 26.565051 0 1 -1.168,0.336 0.8944272,0.82287303 26.565051 0 1 -0.432,-1.136 0.8944272,0.82287303 26.565051 0 1 1.168,-0.336 0.8944272,0.82287303 26.565051 0 1 0.432,1.136 z m -8.212,-1.576 a 0.8944272,0.82287303 26.565051 0 1 -1.168,0.336 0.8944272,0.82287303 26.565051 0 1 -0.432,-1.136 0.8944272,0.82287303 26.565051 0 1 1.1680001,-0.336 0.8944272,0.82287303 26.565051 0 1 0.4319999,1.136 z m -4.9119988,-5.676 a 0.8944272,0.82287303 26.565051 0 1 -1.16800002,0.336 0.8944272,0.82287303 26.565051 0 1 -0.432,-1.136 0.8944272,0.82287303 26.565051 0 1 1.16800002,-0.336 0.8944272,0.82287303 26.565051 0 1 0.432,1.136 z m -4.346001,-2.058 a 0.8944272,0.82287303 26.565051 0 1 -1.168,0.336 0.8944272,0.82287303 26.565051 0 1 -0.432,-1.136 0.8944272,0.82287303 26.565051 0 1 1.168,-0.336 0.8944272,0.82287303 26.565051 0 1 0.432,1.136 z m -0.7339992,8.7180005 a 0.8944272,0.82287303 26.565051 0 1 -1.168,0.336 0.8944272,0.82287303 26.565051 0 1 -0.432,-1.136 0.8944272,0.82287303 26.565051 0 1 1.168,-0.336 0.8944272,0.82287303 26.565051 0 1 0.432,1.136 z m 4.569999,2.8599995 a 0.8944272,0.82287303 26.565051 0 1 -1.168,0.336 0.8944272,0.82287303 26.565051 0 1 -0.432,-1.136 0.8944272,0.82287303 26.565051 0 1 1.168,-0.336 0.8944272,0.82287303 26.565051 0 1 0.432,1.136 z" />
        <path fill="#ffd44f" inkscape:original-d="m -16.6,-2.7 c -7.12201,0 -11.302085,3.9944385 -12.973723,9.1384724 l 24.0093199,17.1195146 c 6.7785665,-8.958613 2.8965411,-26.257987 -11.0355969,-26.257987 z" />
        <path fill="#ffb932" inkscape:original-d="m -24.537109,4.824219 c -1.721026,-0.04988 -3.475136,0.412109 -4.960938,1.423828 -3.160401,9.312773 2.004742,22.552734 12.898438,22.552734 5.178498,0 8.916904,-2.279039 11.273437,-5.597656 2.994505,-17.800697 -6.271624,-21.327587 -12.773437,-15.003906 -1.35,-2.1 -3.85,-3.3 -6.4375,-3.375 z" />
        <path fill="#e09712" inkscape:original-d="m -24.399999,21.4 a 0.80000001,0.80000001 0 0 1 -0.8,0.8 0.80000001,0.80000001 0 0 1 -0.8,-0.8 0.80000001,0.80000001 0 0 1 0.8,-0.8 0.80000001,0.80000001 0 0 1 0.8,0.8 z m 7.299999,3.399999 a 0.80000001,0.80000001 0 0 1 -0.8,0.8 0.80000001,0.80000001 0 0 1 -0.8,-0.8 0.80000001,0.80000001 0 0 1 0.8,-0.8 0.80000001,0.80000001 0 0 1 0.8,0.8 z m 10.6000003,-2.899999 a 0.80000001,0.80000001 0 0 1 -0.8,0.8 0.80000001,0.80000001 0 0 1 -0.8,-0.8 0.80000001,0.80000001 0 0 1 0.8,-0.8 0.80000001,0.80000001 0 0 1 0.8,0.8 z m -3.4999995,0.6 a 0.80000001,0.80000001 0 0 1 -0.7999998,0.8 0.80000001,0.80000001 0 0 1 -0.8,-0.8 0.80000001,0.80000001 0 0 1 0.8,-0.8 0.80000001,0.80000001 0 0 1 0.7999998,0.8 z m 0.099999,-7.900001 a 0.80000001,0.80000001 0 0 1 -0.7999998,0.8 0.80000001,0.80000001 0 0 1 -0.8,-0.8 0.80000001,0.80000001 0 0 1 0.8,-0.8 0.80000001,0.80000001 0 0 1 0.7999998,0.8 z m 1.3000002,-6.099999 a 0.80000001,0.80000001 0 0 1 -0.8,0.8 0.80000001,0.80000001 0 0 1 -0.8,-0.8 0.80000001,0.80000001 0 0 1 0.8,-0.8 0.80000001,0.80000001 0 0 1 0.8,0.8 z m -7.2,2.2 a 0.80000001,0.80000001 0 0 1 -0.8,0.8 0.80000001,0.80000001 0 0 1 -0.8,-0.8 0.80000001,0.80000001 0 0 1 0.8,-0.8000002 0.80000001,0.80000001 0 0 1 0.8,0.8000002 z m -6.199999,-2.8000004 a 0.80000001,0.80000001 0 0 1 -0.8,0.8 0.80000001,0.80000001 0 0 1 -0.8,-0.8 0.80000001,0.80000001 0 0 1 0.8,-0.8 0.80000001,0.80000001 0 0 1 0.8,0.8 z m -4.300001,0.1 a 0.80000001,0.80000001 0 0 1 -0.8,0.8 0.80000001,0.80000001 0 0 1 -0.8,-0.8 0.80000001,0.80000001 0 0 1 0.8,-0.8 0.80000001,0.80000001 0 0 1 0.8,0.8 z m 2.900001,7.9000004 a 0.80000001,0.80000001 0 0 1 -0.8,0.8 0.80000001,0.80000001 0 0 1 -0.8,-0.8 0.80000001,0.80000001 0 0 1 0.8,-0.8 0.80000001,0.80000001 0 0 1 0.8,0.8 z m 4.799999,0.5 a 0.80000001,0.80000001 0 0 1 -0.8,0.8 0.80000001,0.80000001 0 0 1 -0.8,-0.8 0.80000001,0.80000001 0 0 1 0.8,-0.8 0.80000001,0.80000001 0 0 1 0.8,0.8 z" />
        <path fill="#ffd44f" inkscape:original-d="m 18.578,16.522 c -5.199067,-2.635144 -10.1678525,-1.465553 -13.8572845,1.413884 l 9.3094365,20.524718 c 9.248488,-3.583787 14.718309,-16.783711 4.547848,-21.938602 z" />
        <path fill="#ffb932" inkscape:original-d="m 9.172285,18.701738 c -1.2324061,-0.670697 -2.7346616,-1.005566 -4.3049218,-0.867343 -6.777224,5.163337 -9.361851,16.077613 -1.4094527,20.108281 3.7803036,1.916044 7.6032785,1.749508 10.9164835,0.364765 10.730324,-10.996507 5.658957,-16.82326 -2.122734,-14.928827 0.0225,-1.9275 -1.2265,-3.6685 -3.079375,-4.676876 z" />
        <path fill="#e09712" inkscape:original-d="m 1.3160007,30.024 a 0.61022382,0.70688819 72.763539 0 1 -0.96799997,0.248 0.61022382,0.70688819 72.763539 0 1 -0.2,-0.84 0.61022382,0.70688819 72.763539 0 1 0.96799997,-0.248 0.61022382,0.70688819 72.763539 0 1 0.2,0.84 z m 3.6969998,5.012999 a 0.61022382,0.70688819 72.763539 0 1 -0.968,0.248 0.61022382,0.70688819 72.763539 0 1 -0.2,-0.84 0.61022382,0.70688819 72.763539 0 1 0.968,-0.248 0.61022382,0.70688819 72.763539 0 1 0.2,0.84 z m 9.1299995,1.950001 a 0.61022382,0.70688819 72.763539 0 1 -0.968,0.248 0.61022382,0.70688819 72.763539 0 1 -0.2,-0.84 0.61022382,0.70688819 72.763539 0 1 0.968,-0.248 0.61022382,0.70688819 72.763539 0 1 0.2,0.84 z m -2.842999,-0.887 a 0.61022382,0.70688819 72.763539 0 1 -0.968,0.248 0.61022382,0.70688819 72.763539 0 1 -0.2,-0.84 0.61022382,0.70688819 72.763539 0 1 0.968,-0.248 0.61022382,0.70688819 72.763539 0 1 0.2,0.84 z m 3.864999,-5.335001 a 0.61022382,0.70688819 72.763539 0 1 -0.968,0.248 0.61022382,0.70688819 72.763539 0 1 -0.2,-0.84 0.61022382,0.70688819 72.763539 0 1 0.968,-0.248 0.61022382,0.70688819 72.763539 0 1 0.2,0.84 z m 3.877,-3.666999 a 0.61022382,0.70688819 72.763539 0 1 -0.968,0.248 0.61022382,0.70688819 72.763539 0 1 -0.2,-0.84 0.61022382,0.70688819 72.763539 0 1 0.968,-0.248 0.61022382,0.70688819 72.763539 0 1 0.2,0.84 z m -6.312,-1.168 a 0.61022382,0.70688819 72.763539 0 1 -0.968,0.248 0.61022382,0.70688819 72.763539 0 1 -0.2,-0.84 0.61022382,0.70688819 72.763539 0 1 0.968,-0.248 0.61022382,0.70688819 72.763539 0 1 0.2,0.84 z m -3.1819991,-4.198 a 0.61022382,0.70688819 72.763539 0 1 -0.968,0.248 0.61022382,0.70688819 72.763539 0 1 -0.2,-0.84 0.61022382,0.70688819 72.763539 0 1 0.968,-0.248 0.61022382,0.70688819 72.763539 0 1 0.2,0.84 z m -3.1870007,-1.523 a 0.61022382,0.70688819 72.763539 0 1 -0.968,0.248 0.61022382,0.70688819 72.763539 0 1 -0.2,-0.84 0.61022382,0.70688819 72.763539 0 1 0.968,-0.248 0.61022382,0.70688819 72.763539 0 1 0.2,0.84 z m -1.6749995,6.445 a 0.61022382,0.70688819 72.763539 0 1 -0.968,0.248 0.61022382,0.70688819 72.763539 0 1 -0.2,-0.84 0.61022382,0.70688819 72.763539 0 1 0.968,-0.248 0.61022382,0.70688819 72.763539 0 1 0.2,0.84 z m 3.2639993,2.116 a 0.61022382,0.70688819 72.763539 0 1 -0.968,0.248 0.61022382,0.70688819 72.763539 0 1 -0.2,-0.84 0.61022382,0.70688819 72.763539 0 1 0.968,-0.248 0.61022382,0.70688819 72.763539 0 1 0.2,0.84 z" />
        <path fill="#9ccf4d" inkscape:original-d="m 15.382475,21.470527 16.285922,-5.291026 c -5.874677,-2.03146 -11.521896,-0.260894 -16.285922,5.291026 l 0.544323,-13.1126149 c 2.444958,3.8289659 2.788234,8.5742589 -0.544323,13.1126149 z m -31.182475,-18.370527 -11.4,-16.9 c 7,2.4 11,8.2 11.4,16.9 l 9.1,-12.7 c -5.1,1.8 -8.9,6 -9.1,12.7 z m 25.127,-19.909 -2.565,-23.237 c 6.122,6.69 7.096,14.72 2.565,23.237 l 16.976,-6.332 c -6.483,-1.503 -12.943,0.093 -16.976,6.332 z" />
        <path fill="#54a62b" inkscape:original-d="m 15.382475,21.470527 c 5.839529,1.257816 11.581895,-0.225217 16.285922,-5.291026 -5.794082,1.549226 -10.851759,3.247405 -16.285922,5.291026 0.899912,-3.880606 0.991031,-8.499707 0.544323,-13.1126149 -2.565107,3.9653799 -2.869282,8.3114269 -0.544323,13.1126149 z m -31.182475,-18.370527 c -6.4,-3.1 -10.7,-8.7 -11.4,-16.9 4.3,5.7 7.8,11 11.4,16.9 2,-4.3 5.3,-8.7 9.1,-12.7 -0.5,5.6 -3.4,9.9 -9.1,12.7 z m 25.127,-19.909 c -5.081,-6.977 -6.49,-15.006 -2.565,-23.237 1.352,8.124 2.076,15.364 2.565,23.237 4.591,-2.825 10.63,-4.926 16.976,-6.332 -3.727,5.005 -9.281,7.263 -16.976,6.332 z" />
      </g>
      <path fill="#ba6534" inkscape:original-d="m 980.6977,315.81138 c -13.4972,58.93874 -93.2534,76.52985 -134.51909,33.00441 -56.97811,-60.09833 -10.99451,-81.75658 -14.56709,-133.26553 l -37.32761,-41.17436 c -44.03485,-124.955067 143.35369,-160.242535 146.31419,-63.53375 1.6218,52.97759 -30.6768,71.3724 -39.6439,159.38567 35.6924,-59.22911 116.6991,-46.26161 116.6991,28.20673 0,44.81145 -16.7504,55.64983 -15.1255,84.10519" inkscape:path-effect="#path-effect9586" />
      <path d="m 955.85454,354.63661 c 20.70674,31.61769 37.8538,83.90016 22.0878,145.60124 -4.32424,16.92314 68.14406,18.16524 69.00416,-0.24784 1.3821,-29.58659 -8.1982,-79.86996 -27.553,-123.71769 -2.0695,-4.68837 -9.147,0.66205 -16.8105,-3.73226" style="stroke-width:4;stroke:#ba6534;stroke-miterlimit:20;fill:none" />
      <g>
        <path d="m 898.63342,276.34815 c 12.21708,-39.05873 33.15754,-72.97711 31.68275,-78.48109 -1.46231,-5.45741 -63.26061,-2.62292 -86.81362,49.11546 2.00159,-39.4095 -9.09043,-52.28331 -14.20002,-49.33329 -4.60858,2.66077 0.37178,25.78041 -1.84129,41.89161 -11.20575,8.32605 -15.77944,29.74575 -3.2808,78.04579" style="stroke-width:4;stroke:#99bdf4;stroke-miterlimit:20;fill:#dbe9ff" />
        <path d="m 831.75167,222.41851 c 1.10799,6.45787 1.42057,11.2355 1.61445,16.79905 l 2.28115,2.00725 c -0.68428,-7.37705 -1.55611,-12.93408 -3.8956,-18.8063 z m 33.60579,25.33685 c 10.40023,-7.41568 16.68602,-12.98076 25.98487,-22.02779 -7.46896,9.55353 -14.29546,17.03705 -22.44147,24.11588 z" fill="#99bdf4" />
        <g>
          <path d="m 827.41704,237.81358 0.0424,-8.94082 c 19.35571,19.91237 47.54227,20.78263 92.58418,-2.37735 l -4.34734,8.4969 c -28.65838,16.3821 -49.66072,21.45823 -63.69137,19.26696 l -3.70125,7.59516 c -2.50669,13.85831 -3.27482,26.34162 -2.90572,40.44993 l -18.06855,17.22031 -9.98635,-21.86514 c 3.67195,-20.29922 8.80838,-32.54418 17.65353,-40.19618 l 0.47405,-10.56064 c -3.20277,-2.95154 -5.65462,-5.68148 -8.05358,-9.08913 z" fill="#304168" />
          <path d="m 821.0455,308.24443 c 7.76195,-3.87808 16.1033,-6.725 24.47145,-8.55064 l 0.0833,2.61035 -18.6452,17.30452 z m 5.77959,-41.11247 c 7.30716,-1.68349 13.9205,-2.65087 21.28513,-3.22057 l -0.98931,7.33394 c -8.58586,0.85477 -16.00927,2.31088 -24.02065,4.3146 z m -8.15012,22.52623 c 8.91174,-3.83643 17.99889,-6.35724 27.24394,-7.69383 l -0.47977,8.57238 c -9.08905,1.18808 -18.4414,4.11805 -27.86913,8.23185 z m 69.3044,-40.42578 11.411,-13.74664 9.09205,-3.5325 -7.70172,11.59871 z m -4.79769,1.96013 11.50638,-13.6669 -10.53125,3.17261 -12.69388,12.57168 z m -30.80069,3.63682 16.54526,-11.37804 9.2335,-1.04126 -15.01226,13.33556 z m -16.96981,-10.69262 c 3.81341,6.22427 7.77293,11.32353 13.2626,16.7353 l 3.484,-7.22722 c -4.90272,-4.63729 -8.93303,-9.78277 -12.66991,-15.37816 -2.65038,-1.73219 -4.77489,0.64497 -4.07669,5.87008 z m -5.04849,-1.52663 5.60161,-5.22374 -3.47331,-3.55902 -5.44437,3.55199 z" fill="#c2b6b3" />
          <path d="m 845.42184,302.6576 -18.32453,16.6723 -3.81515,-8.92185 c 7.07459,-3.40017 14.59035,-5.99333 22.13968,-7.75045 z m -20.32919,-32.54667 c 7.48974,-1.97208 14.70743,-3.10338 22.5655,-3.7208 l -0.39774,2.43068 c -7.94132,0.52754 -15.10655,1.65118 -23.01933,3.73281 z m -6.79745,23.02513 c 8.70516,-3.83887 17.48331,-6.62966 27.3967,-8.69793 l -0.0625,2.75 c -9.96598,1.66421 -18.67979,4.43633 -27.62509,8.32875 z m 74.98082,-46.57398 8.21108,-11.24391 2.99532,-1.3024 -7.70172,11.59871 z m -18.5817,6.62686 12.6061,-12.6597 3.94641,-1.23544 -12.24892,13.00558 z m -14.65672,2.12806 15.73204,-12.47832 -3.56054,0.43411 -16.11096,11.9851 z m -23.94839,-14.0038 c 3.72329,6.08483 7.91365,11.45148 13.82217,16.70374 l 1.0625,-2.1875 c -5.68758,-4.87828 -10.07553,-10.56354 -14.22797,-17.25152 z m -6.79877,0.0476 5.60161,-5.22374 -1.40106,-1.15343 -5.22562,4.42699 z" fill="#7a7582" />
          <path d="m 834.99657,257.46335 13.30709,4.39108 m 8.59299,-18.36275 -8.59299,18.36275 c -2.50669,13.85831 -3.27482,26.34162 -2.90572,40.44993 l -18.06855,17.22031 -9.98635,-21.86514 c 3.67195,-20.29922 8.80838,-32.54418 17.65353,-40.19618 l 1.01418,-21.43962 m -0.54013,10.87898 c -3.20277,-2.95154 -5.65462,-5.68148 -8.05358,-9.08913 l 0.0424,-8.94082 c 19.35571,19.91237 47.54227,20.78263 92.58418,-2.37735 l -4.34734,8.4969 c -28.65838,16.3821 -49.66072,21.45823 -63.69137,19.26696" style="stroke-width:4;stroke:#13203c;stroke-miterlimit:20;fill:none" />
        </g>
        <g>
          <path d="m 926.05743,243.16217 c 23.92653,26.53976 34.52149,58.76863 35.43588,109.84429 -49.57603,42.15838 -105.7927,19.08065 -131.58649,-20.41181 40.77032,-37.14099 75.91514,-77.70703 96.15061,-89.43248 z" fill="#4a5a86" />
          <path d="m 961.49331,353.00646 c -0.91439,-51.07566 -11.50935,-83.30453 -35.43588,-109.84429 -2.88216,1.67007 -5.97838,3.92521 -9.30154,6.58712 25.448,27.23061 35.06499,66.70267 32.63451,112.09799 4.09275,-2.48683 8.11927,-5.45322 12.10291,-8.84082 z m -145.96836,-69.87551 c 3.89096,11.63759 7.43939,21.02221 12.6228,31.38383 33.9484,-36.29149 64.73915,-66.23206 89.71386,-82.03514 -2.82323,7.25781 -5.20963,14.51562 -6.66781,21.76233 -20.55694,17.71941 -49.16107,49.05429 -81.31726,78.30669 -10.0328,-14.89516 -15.47478,-32.35409 -14.35159,-49.41771 z" fill="#384b7b" />
          <circle cx="910.98474" cy="300.97812" fill="#62729d" id="path9036" r="2.0999999" />
          <use transform="translate(-20.55806-9.1767766)" xlink:href="#path9036" />
          <use transform="translate(-21.176779 12.53033)" xlink:href="#path9036" />
          <use transform="translate(-42.265167 8.9722715)" xlink:href="#path9036" />
          <use transform="translate(4.5580564 27.883884)" xlink:href="#path9036" />
          <use transform="translate(18.558056 10.237437)" xlink:href="#path9036" />
          <use transform="translate(17.911608-17.762563)" xlink:href="#path9036" />
          <use transform="translate(24.82322 37.590989)" xlink:href="#path9036" />
          <use transform="translate(-32.265168 30.121317)" xlink:href="#path9036" />
          <use transform="translate(-65.707108 29.767765)" xlink:href="#path9036" />
          <use transform="translate(-51.972272 39.414213)" xlink:href="#path9036" />
          <use transform="translate(-61.353556 48.502601)" xlink:href="#path9036" />
          <use transform="translate(34.292892 25.414213)" xlink:href="#path9036" />
          <use transform="translate(32.204504 54.590989)" xlink:href="#path9036" />
          <use transform="translate(14.469668 57.414213)" xlink:href="#path9036" />
          <use transform="translate(-4.8232271-25.292891)" xlink:href="#path9036" />
          <use transform="translate(7.9116081-42.116115)" xlink:href="#path9036" />
          <path d="m 916.80434,249.66488 c 25.31116,27.31502 35.01654,66.78708 32.54353,112.09861 m -119.35443,-29.39975 c 40.6837,-36.91008 75.82852,-77.47612 96.06399,-89.20157 23.92653,26.53976 34.52149,58.76863 35.43588,109.84429 -68.6443,58.37362 -150.01997,-8.32286 -145.96836,-69.87551 3.89096,11.63759 7.43939,21.02221 12.6228,31.38383 33.9484,-36.29149 64.73915,-66.23206 89.71386,-82.03514 -2.82323,7.25781 -5.20963,14.51562 -6.70319,21.77343" style="stroke-width:4;stroke:#213159;stroke-miterlimit:20;fill:none" />
          <path d="m 818.39475,309.51177 5.39214,-4.78647 m 106.25523,-37.33516 10.48316,-5.00492 m -0.71635,25.72777 10.32454,-5.67918 m -5.00593,24.74599 11.24538,-4.87348 m -7.80343,26.60831 11.24538,-4.87348 m -10.00782,22.49977 11.47737,-6.05284 m -56.5134,-99.15927 -2.69351,21.02593 m -14.52759,-6.78079 -1.68543,22.38786 m -14.35065,-7.54903 -0.26564,22.09393 m -19.55029,-2.8704 -1.94182,24.03099 m -15.03674,-6.156 -3.20699,23.22922" style="stroke-width:2;stroke:#213159;stroke-miterlimit:20;fill:none" />
          <path d="m 907.09418,258.49979 c 0.50595,6.88959 2.27432,14.65788 5.14683,21.59774 -1.41845,-8.26333 -1.79783,-17.19491 -1.24772,-25.31343 z" fill="#213159" />
        </g>
      </g>
      <g>
        <path d="m 885.51467,460.03545 c -0.002,19.64801 -1.87197,34.19194 -7.01344,53.56415 -3.62949,13.67534 64.1194,17.91783 66.74059,0.65303 3.07588,-20.25967 1.91924,-38.55361 -0.86991,-57.24905 z" style="stroke-width:4;stroke:#ba6534;stroke-miterlimit:20;fill:#e19555" />
        <path d="m 872.18562,341.80551 c 12.20917,32.67152 14.14988,79.05625 12.81287,122.46193 l 61.22957,-3.69876 c -7.14527,-43.93384 -17.27947,-82.0113 -34.93476,-113.39124 z" fill="#4a5a86" />
        <use transform="translate(18.170445 94.62907)" xlink:href="#path9036" />
        <path fill="#213159" inkscape:original-d="m 872.18562,341.80551 c 12.20917,32.67152 14.14988,79.05625 12.81287,122.46193 l 61.22957,-3.69876 c -7.14527,-43.93384 -17.27947,-82.0113 -34.93476,-113.39124" inkscape:path-effect="#path-effect9352" />
        <use transform="translate(-3.4545554 80.379069)" xlink:href="#path9036" />
        <use transform="translate(1.295445 109.62907)" xlink:href="#path9036" />
        <use transform="translate(-17.704555 96.75407)" xlink:href="#path9036" />
        <use transform="translate(-14.829555 127.00407)" xlink:href="#path9036" />
        <use transform="translate(-8.829555 57.25407)" xlink:href="#path9036" />
        <use transform="translate(-25.704555 46.12907)" xlink:href="#path9036" />
        <use transform="translate(-22.829555 70.004069)" xlink:href="#path9036" />
        <use transform="translate(18.472222 132.86653)" xlink:href="#path9036" />
        <path d="m 879.51822,453.251 c 21.46772,0.12345 52.55413,-1.98178 74.36903,-5.8298 0.11339,7.03138 -0.29255,13.85553 -0.74079,20.21014 -20.42024,3.08395 -49.5716,5.3471 -70.50533,4.82464 -2.01384,-6.48386 -2.91126,-12.91625 -3.12291,-19.20498 z" style="stroke-width:4;stroke:#99bdf4;stroke-miterlimit:20;fill:#dbe9ff" />
        <circle cx="765.43115" cy="721.2348" fill="#99bdf4" r="2.3997993" transform="rotate(342.54048)" />
      </g>
      <g>
        <path d="m 919.00632,78.958231 c -11.85724,-48.92892 -28.4236,-73.3016287 -72.24346,-47.457125 12.94657,29.430768 41.64358,43.942922 72.24346,47.457125 z" style="stroke-width:4;stroke:#acb6bd;stroke-miterlimit:20;fill:#e3ebf2" />
        <path d="m 808.50003,112.18877 c -19.83865,-1.84617 -32.04662,-9.57439 -39.62819,-27.858596 13.39325,8.047677 16.92472,5.829497 19.92863,-11.30652 11.01604,-62.841779 101.80302,-74.5859898 123.13715,26.560611 -26.99093,-28.089193 -51.02461,-41.819253 -85.11278,-40.328092" style="stroke-width:4;stroke:#acb6bd;stroke-miterlimit:20;fill:#e3ebf2" />
        <path d="m 787.85423,106.98463 c 7.38789,-5.23244 11.1579,-14.579375 12.28236,-25.63984 4.33492,-42.639156 65.8272,-66.399209 104.23589,10.190956" style="stroke-width:2;stroke:#acb6bd;stroke-miterlimit:20;fill:none" />
        <path d="m 790.20368,117.22149 c 5.54068,-21.081472 19.36299,-37.094527 36.50598,-47.534196 l -14.67894,49.288416 z" fill="#e19555" />
        <g clip-path="url(#clipPath4699)">
          <path d="m 790.20368,117.22149 c 5.54068,-21.081472 19.36299,-37.094527 36.50598,-47.534196" style="stroke-width:4;stroke:#ba6534;stroke-miterlimit:20;fill:none" />
          <path d="m 789.48303,105.52197 c 7.8393,4.31212 13.69114,11.22215 15.57574,21.60269 -4.84915,-7.94273 -11.17468,-13.24484 -18.72345,-16.06633" fill="#626e7e" />
        </g>
        <path d="m 827.73199,91.54297 c -37.13144,-107.654635 -33.02346,-109.515679 30.3957,-20.531829 z" fill="#e19555" />
        <path fill="#ba6534" inkscape:original-d="m 827.73199,91.54297 c -37.13144,-107.654635 -33.02346,-109.515679 30.3957,-20.531829" inkscape:path-effect="#path-effect9302" />
        <path d="m 808.96666,34.260437 c 6.84226,-1.314411 10.83095,-5.719384 12.81786,-12.129224 m -7.09378,31.222462 c 11.56461,1.191116 17.63936,-4.092812 20.44777,-13.989868 m -13.08544,35.611664 c 13.27186,1.533527 23.05036,-4.402968 26.16096,-17.985707" style="stroke-width:2;stroke:#ba6534;stroke-miterlimit:20;fill:none" />
      </g>
      <g>
        <path d="m 909.98212,103.88447 c -9.59514,-30.514081 -6.85743,-59.712768 7.10515,-76.872279 29.18133,12.174947 41.83533,61.408677 18.42277,97.499759 z" fill="#e19555" />
        <path fill="#ba6534" inkscape:original-d="m 909.98212,103.88447 c -9.59514,-30.514081 -6.85743,-59.712768 7.10515,-76.872279 29.18133,12.174947 41.83533,61.408677 18.42277,97.499759" inkscape:path-effect="#path-effect8959" />
        <path d="m 925.32576,53.107827 c 12.04488,13.111734 13.9274,32.608875 4.80006,50.286473 4.86988,-17.498396 4.15489,-34.454401 -4.80006,-50.286473 z" fill="#ba6534" />
      </g>
      <g>
        <g clip-path="url(#clipPath9847)">
          <path d="m 806.83022,166.11628 c 2.15681,-16.86658 -2.40276,-36.6389 -16.81595,-40.01501 -4.90041,19.54953 -1.95764,35.48035 16.81595,40.01501 z" fill="#fff" id="path9680" />
          <g clip-path="url(#clipPath8951)" transform="translate(-117.17445-21.92515)scale(1.1474911)">
            <ellipse cx="792.38605" cy="151.91304" fill="url(#linearGradient4948)" id="ellipse4993" rx="7.7690058" ry="13.007575" transform="rotate(359.76442)" />
            <path d="m 792.72678,150.52161 15.14966,14.52396 3.59833,-10.08401 z" fill="#88d2d2" />
            <path d="m 792.72678,150.52161 19.55497,-0.87725 -1.52566,8.57534 z" fill="#3dbfb9" />
            <ellipse cx="797.1709" cy="122.38997" rx="5.8295484" ry="10.348122" transform="rotate(1.9360259)" />
            <ellipse cx="781.49591" cy="189.73842" fill="#fff" rx="2.7365017" ry="4.650804" transform="rotate(356.68843)" />
            <ellipse cx="781.45355" cy="208.04724" fill="#fff" rx="0.9344629" ry="1.2664915" transform="rotate(355.8444)" />
          </g>
        </g>
        <path d="m 794.38118,162.58778 c 3.72155,2.91345 7.15311,4.16686 12.0053,4.84677 -5.191,0.85939 -9.24823,-0.55356 -12.0053,-4.84677 z m -0.14433,-2.41766 c 3.61516,3.29739 7.91835,5.26598 12.59337,5.94616 -7.36083,-2.36298 -13.38441,-6.18166 -16.53263,-12.70003 0.97481,2.47793 2.12511,4.5337 3.93926,6.75387 z m 0.0139,-39.72427 c 6.50144,3.03954 9.25991,8.06237 11.37514,14.94614 -3.35281,-5.729 -6.54658,-10.52274 -11.37514,-14.94614 z" fill="#ba6534" />
        <path d="m 799.52517,132.17275 c -0.24508,-3.33051 0.13403,-6.02939 1.06322,-9.28666 -1.85652,2.10899 -3.15285,4.44601 -3.75805,6.89798 m -0.11118,-0.48901 c -0.41307,-3.24722 -0.16907,-6.19126 0.49666,-9.37624 -1.78174,2.34384 -2.97992,5.23603 -3.35867,7.94708 m -0.0455,-1.90419 c -0.58721,-3.04758 -0.60439,-5.92125 -0.21093,-9.00788 -1.81739,2.83087 -2.75654,6.36819 -2.69454,9.37791 m 3.33069,33.83838 c -5.56886,-8.64976 -6.37118,-20.44569 -2.90147,-32.13657 9.19059,4.32047 17.28006,17.08009 15.49484,38.08273 5.02325,-23.20257 -5.46476,-39.70243 -17.88888,-42.65004 -3.16487,13.36027 -2.94378,29.08223 5.29551,36.70388 z m -5.33523,-11.53662 c -3.81616,0.33595 -6.80555,1.83843 -8.62022,5.17141 3.53059,-1.63182 6.24392,-2.29318 9.69721,-2.22511 m -1.74421,-7.58532 c -3.14409,-0.0665 -5.51235,0.77662 -7.67493,2.9605 3.18191,-0.48638 5.79616,-0.34247 8.49693,0.6069 m 1.2591,5.326 c -3.02716,0.85207 -5.04744,2.34789 -6.48051,5.06681 2.70277,-1.29602 5.09374,-1.92577 7.71951,-1.90788" />
      </g>
      <g>
        <path d="m 811.68674,151.58399 c -2.43619,16.27812 -17.14324,24.86833 -35.32331,26.9281 -0.43727,13.8562 1.51685,22.62766 11.22004,28.77731 -5.08377,4.3799 6.39595,15.05163 20.70653,12.44169 l 86.80147,-15.8307 c 9.40889,-1.71598 15.07382,-8.32684 17.59569,-18.12115 z" fill="#e19555" />
        <path fill="#ba6534" inkscape:original-d="m 811.68674,151.58399 c -2.43619,16.27812 -17.14324,24.86833 -35.32331,26.9281 -0.43727,13.8562 1.51685,22.62766 10.9718,28.62918" inkscape:path-effect="#path-effect9570" />
        <path d="m 792.28689,183.9888 c 2.875,1.75888 5.22779,1.29365 6.89644,-1.44194 -0.38572,4.80698 -4.33838,5.69194 -6.89644,1.44194 z" fill="#ba6534" />
        <path fill="#ba6534" inkscape:original-d="m 806.48322,207.42599 c -33.73212,-8.03466 -18.93663,16.08825 1.80678,12.3051 l 86.80147,-15.8307 c 9.40889,-1.71598 15.07382,-8.32684 17.59569,-18.12115" inkscape:path-effect="#path-effect9281" />
      </g>
      <g>
        <g clip-path="url(#clipPath9654)">
          <path d="m 831.2762,166.53151 c 11.66617,-34.72223 26.38821,-43.34411 68.14842,-35.81936 -8.88904,32.01952 -20.18165,37.42717 -68.14842,35.81936 z" fill="#fff" id="path8997" />
          <g clip-path="url(#clipPath9539)" transform="translate(0-6.7071068)">
            <ellipse cx="852.07751" cy="120.48282" fill="url(#linearGradient9963)" id="ellipse8980" rx="16.156828" ry="19.852047" transform="rotate(2.9224803)" />
            <path d="m 837.76622,165.87664 20.63552,14.32475 6.33731,-9.86238 z" fill="#88d2d2" />
            <path d="m 837.76622,165.87664 28.66199,-0.49657 -2.83821,7.96414 z" fill="#3dbfb9" />
            <ellipse cx="849.49841" cy="121.32255" rx="13.014866" ry="15.99149" transform="rotate(2.9224803)" />
            <ellipse cx="848.86957" cy="115.56514" fill="#fff" rx="4.4688811" ry="6.8339009" transform="rotate(2.9609677)" />
            <ellipse cx="851.60828" cy="140.42427" fill="#fff" rx="1.5965574" ry="1.9457006" transform="rotate(1.9737242)" />
          </g>
        </g>
        <path d="m 830.09248,137.07501 c 15.51329,-26.07127 29.85205,-32.82727 52.78947,-35.14462 -12.98312,15.84508 -16.68201,-3.312724 -52.78947,35.14462 z" fill="#626e7e" />
        <path d="m 886.27334,155.98419 c -9.53405,9.38459 -25.88877,10.75283 -54.99714,10.54732 23.64325,1.75925 39.93601,0.42027 49.49807,-4.93938 z m -53.96723,13.96676 c 11.37353,2.41519 19.40701,2.93152 30.20063,1.39251 -8.3504,4.97384 -21.9737,4.11657 -30.20063,-1.39251 z m 3.69934,-26.76283 c 14.54382,-27.0289 34.05301,-27.3946 49.22732,-26.90448 -12.75047,-4.74047 -39.84621,-2.48854 -49.22732,26.90448 z m 22.02618,45.00535 c 7.78572,-11.2826 16.41806,-13.79227 29.261,-14.36003 14.92451,-0.65978 21.59375,-5.143 27.02331,-26.71736 -1.00285,22.81588 -10.06424,29.3507 -26.56962,30.2227 -8.79865,0.46484 -19.04269,1.23238 -29.71469,10.85469 z" fill="#ba6534" />
        <path d="m 888.13934,110.07666 c 0.25857,6.33719 -1.10602,11.58157 -4.19808,17.10922 l -15.64378,0.40936 c 3.70423,-4.55263 6.59258,-9.24531 9.42819,-15.13807 0.70755,4.81267 0.54665,8.59906 -1.32925,13.65907 4.37474,-5.2297 7.6023,-9.75125 11.74292,-16.03958 z m -2.03188,17.35008 c 5.74006,-5.07063 10.60559,-10.19065 15.57976,-16.07142 -0.38477,6.47189 -2.20075,12.05582 -6.17,17.39521 z m 9.46766,13.26962 c 5.19817,1.38509 9.1621,3.2158 12.35566,7.04652 -5.26732,-0.8851 -10.19596,-0.97598 -14.79506,-0.47287 5.2417,3.05187 7.82932,7.09009 9.63599,12.22455 -4.54957,-3.28989 -8.83446,-5.77588 -13.91418,-7.06006 2.31532,3.56198 3.71356,7.49883 4.76755,12.16448 -2.73224,-3.17571 -5.09414,-5.53615 -8.17986,-7.66609 3.05963,-5.6943 7.72093,-10.29875 10.1299,-16.23653 z m -64.29892,25.83515 c 7.9805,-43.7596 31.01147,-46.10668 73.55099,-38.74184 -4.42409,14.23044 -12.37476,26.17268 -24.05292,33.80246 6.34998,-7.79671 11.42771,-16.078 14.8071,-28.50156 -34.4686,-4.06119 -48.15304,-0.59311 -64.30517,33.44094 z" />
      </g>
    </g>
  </g>
</svg>