<svg xmlns="http://www.w3.org/2000/svg" xmlns:inkscape="http://www.inkscape.org/namespaces/inkscape" xmlns:xlink="http://www.w3.org/1999/xlink" height="1080" viewBox="0 0 1920 1080" width="1920">
  <defs>
    <inkscape:path-effect effect="powerstroke" end_linecap_type="zerowidth" id="path-effect1574" interpolator_type="CubicBezierSmooth" offset_points="0.27,4 | 2.5,4" start_linecap_type="zerowidth" />
    <inkscape:path-effect effect="powerstroke" id="path-effect1552" interpolator_type="CubicBezierSmooth" offset_points="0.25,4" start_linecap_type="zerowidth" />
    <inkscape:path-effect effect="powerstroke" end_linecap_type="zerowidth" id="path-effect1550" interpolator_type="CubicBezierSmooth" offset_points="0.29,4 | 0.75,4" start_linecap_type="zerowidth" />
    <inkscape:path-effect effect="powerstroke" id="path-effect1548" interpolator_type="CubicBezierSmooth" offset_points="0.13,4 | 6,4" start_linecap_type="zerowidth" />
    <inkscape:path-effect effect="powerstroke" end_linecap_type="zerowidth" id="path-effect1225" interpolator_type="CubicBezierSmooth" miter_limit="20" offset_points="0.19,4 | 4.62,4" start_linecap_type="zerowidth" />
    <inkscape:path-effect effect="powerstroke" id="path-effect1168" interpolator_type="CubicBezierSmooth" offset_points="0.43,4" start_linecap_type="zerowidth" />
    <inkscape:path-effect effect="powerstroke" end_linecap_type="zerowidth" id="path-effect1166" interpolator_type="CubicBezierSmooth" offset_points="0.35,4 | 4.61,4" start_linecap_type="zerowidth" />
    <inkscape:path-effect effect="powerstroke" end_linecap_type="zerowidth" id="path-effect1103" interpolator_type="CubicBezierSmooth" offset_points="0.37,4 | 2,3.25 | 1.32,4 | 3,4 | 3.6,4" start_linecap_type="zerowidth" />
    <inkscape:path-effect effect="powerstroke" id="path-effect976" interpolator_type="CubicBezierSmooth" offset_points="0.66,4 | 1,4" start_linecap_type="zerowidth" />
    <inkscape:path-effect effect="powerstroke" end_linecap_type="zerowidth" id="path-effect974" interpolator_type="CubicBezierSmooth" offset_points="0.19,4 | 3.77,4" start_linecap_type="zerowidth" />
    <inkscape:path-effect effect="powerstroke" end_linecap_type="zerowidth" id="path-effect949" interpolator_type="CubicBezierSmooth" offset_points="0.27,4 | 1.86,4" start_linecap_type="zerowidth" />
    <linearGradient id="linearGradient855">
      <stop offset="0" stop-color="#580d36" />
      <stop offset="1" stop-color="#bc1d75" />
    </linearGradient>
    <clipPath id="clipPath869">
      <use xlink:href="#ellipse40" />
    </clipPath>
    <clipPath id="clipPath909">
      <use xlink:href="#ellipse885" />
    </clipPath>
    <clipPath id="clipPath1017">
      <use xlink:href="#path1000" />
    </clipPath>
    <clipPath id="clipPath1082">
      <use xlink:href="#path1058" />
    </clipPath>
    <linearGradient gradientUnits="userSpaceOnUse" id="linearGradient327" x1="1380.8842" x2="1379.1217" y1="359.78552" y2="415.77356" xlink:href="#linearGradient855" />
    <linearGradient gradientUnits="userSpaceOnUse" id="linearGradient329" x1="1280.1257" x2="1281.3633" y1="220.97926" y2="277.93781" xlink:href="#linearGradient855" />
  </defs>
  <g inkscape:groupmode="layer" inkscape:label="Drawing">
    <g>
      <path d="m 0,615.20973 v 85.10589 c 164.08101,81.71985 530.50306,-69.77783 896.74807,-55.68133 l -3.53933,-47.94238 c -50.74998,-84.33136 -821.694028,-59.77143 -893.20874,18.51782 z" fill="#faf5ab" />
      <path d="m 0,700.31562 c 376.57248,2.10683 632.37775,-111.0446 896.74807,-58.25803 l 2.78786,35.17278 c -301.45829,-14.18777 -810.425827,178.72352 -899.53593,89.07585 z" fill="#ef7135" />
      <path d="m 0,865.96208 c 518.69074,-58.3106 600.32837,-184.29032 888.45639,-164.34217 l 11.07954,-24.38954 c -256.12549,-76.56001 -443.88957,80.37515 -899.53593,89.07585 z" fill="#ec4141" />
      <path d="m 0,615.20973 c 458.90511,26.63433 596.11815,-100.6997 893.20874,-21.09452 l 18.71712,-23.82587 c -45.49854,-90.40605 -853.820498,-77.16534 -911.92586,-46.24017 z" fill="#5fbb4e" />
      <path d="m 0,445.20973 c 368.99805,82.85067 605.21809,-12.13342 921.20874,97.90548 l -9.28288,27.17413 c -282.35355,-92.10843 -599.77556,5.76036 -911.92586,-46.24017 z" fill="#2982c2" />
    </g>
    <path d="m 996.50089,581.81525 c -187.60613,-90.11338 -174.08506,-147.00757 -108.4018,-118.30289 65.08057,-28.55032 162.43351,-75.27477 162.43351,-75.27477 -7.3256,53.81455 6.4129,114.75874 56.7191,155.2605 z" style="stroke-miterlimit:20;stroke-width:8;fill:#88c4e9;stroke:#6babda" />
    <g>
      <path d="m 802.97077,679.97058 c -19.12204,48.07045 -35.86219,73.32092 -73.54849,105.82875 -32.758,28.25678 30.50656,106.33361 64.4187,83.2086 43.58092,-29.71824 61.12735,-78.4227 73.28278,-132.37952 64.19219,17.66093 125.16488,-12.44851 159.04064,-59.39494 l -171.88872,-32.46888 c 3.9216,12.80818 4.79998,25.83385 3.70974,40.17818 -24.30518,-13.45884 -50.02205,-17.52297 -55.01465,-4.97219 z" fill="#88c4e9" />
      <path fill="#6babda" inkscape:original-d="m 849.5273,730.69405 c 70.49079,28.92517 139.68494,-2.25074 176.6371,-53.46058 l -171.88872,-32.46888 c 5.06349,16.53767 5.05349,33.43792 1.76604,52.66596" inkscape:path-effect="#path-effect1574" />
      <path d="m 867.15918,736.56499 c -12.19085,54.02024 -29.73728,102.7247 -73.3182,132.44294 -33.91214,23.12501 -97.1767,-54.95182 -64.4187,-83.2086 37.6863,-32.50783 54.42645,-57.7583 73.54849,-105.82875 4.9926,-12.55078 30.70947,-8.48665 55.25488,5.16041" style="stroke-miterlimit:20;stroke-width:8;fill:none;stroke:#6babda" />
    </g>
    <path d="m 1203.77,604.8786 c 81.6863,-7.74799 168.868,-62.23375 287.2836,-36.55766 47.5243,10.30471 -22.3862,106.75451 -64.4163,101.51201 -116.53,-14.53503 -173.2264,23.11975 -262.8743,-14.25867 z" fill="#9bdbf5" stroke="#6babda" stroke-width="8" />
    <g>
      <path d="m 1155.2252,300.3061 c -65.4491,-6.16311 -119.3682,3.88002 -165.95014,29.76216 15.04694,7.77549 27.89034,21.9261 35.64934,35.57534 -42.01584,16.53646 -83.31687,13.21477 -133.59422,-0.80796 28.33743,36.57695 75.49943,64.28445 140.40612,59.71544 -20.407,24.55166 -50.90108,29.46752 -61.64621,57.64164 61.72051,-22.84284 104.31931,-16.68855 154.76691,25.29599 z" fill="#1b98d1" />
      <path d="m 1007.2159,424.74178 c 7.8692,0.45221 16.0435,0.40602 24.5204,-0.1907 -20.407,24.55166 -50.90108,29.46752 -61.64621,57.64164 61.72051,-22.84284 104.31931,-16.68855 154.76691,25.29599 l 14.0429,-95.80583 c -42.8369,-16.43808 -87.0883,-11.544 -131.684,13.0589 z" fill="#632e86" />
      <path d="m 1149.1322,341.87472 6.093,-41.56862 c -65.4491,-6.16311 -119.3682,3.88002 -165.95014,29.76216 15.04694,7.77549 27.89034,21.9261 35.64934,35.57534 39.4967,-23.45559 79.5352,-29.04124 124.2078,-23.76888 z" fill="#5fbb4e" />
      <path d="m 1155.2252,300.3061 c -65.4491,-6.16311 -119.3682,3.88002 -165.95014,29.76216 15.04694,7.77549 27.89034,21.9261 35.64934,35.57534 -42.01584,16.53646 -83.31687,13.21477 -133.59422,-0.80796 28.33743,36.57695 75.49943,64.28445 140.40612,59.71544 -20.407,24.55166 -50.90108,29.46752 -61.64621,57.64164 61.72051,-22.84284 104.31931,-16.68855 154.76691,25.29599 z" style="stroke-miterlimit:20;stroke-width:8;fill:none;stroke:#1b98d1" />
    </g>
    <g>
      <path d="m 871.99483,545.59868 c -90.39954,8.37417 -156.31026,-44.78975 -270.86063,-17.08034 12.2785,7.03545 20.59614,12.41915 28.8649,19.40503 -125.14023,17.80939 -195.11873,-34.22841 -292.82102,-50.75714 41.83768,19.50809 76.05432,39.53839 110.49493,60.38455 -79.49859,-24.53127 -173.1746,-29.77638 -268.61961,-18.29005 35.21133,13.49082 71.86542,15.99316 110.49332,29.13068 -15.69933,0.32179 -29.98444,1.76478 -44.97666,6.15686 47.51774,16.82888 86.67381,35.19901 127.36877,59.16188 -26.63861,-1.38554 -50.77386,-0.52026 -81.41584,3.01292 56.29022,27.96825 125.52471,50.85304 178.94354,63.91851 -26.60731,0.36199 -54.26907,-4.9587 -80.10408,-5.74264 216.03819,72.39706 354.58665,12.46339 421.46545,-71.48063 z" fill="#5fbb4e" />
      <path d="m 576.25396,626.72814 c -122.91768,7.70755 -164.83008,-37.73016 -319.929,-47.92192 42.32445,15.6834 78.32306,32.94556 115.61387,54.90393 -26.63861,-1.38554 -50.77386,-0.52026 -81.41584,3.01292 56.29022,27.96825 125.52471,50.85304 178.94354,63.91851 -26.60731,0.36199 -54.26907,-4.9587 -80.10408,-5.74264 216.03819,72.39706 354.58665,12.46339 421.46545,-71.48063 l 61.16693,-77.81963 c -126.92499,4.17998 -158.53298,72.52584 -295.74087,81.12946 z" fill="#faf5ab" />
      <path d="m 274.03696,585.60875 c 34.88739,13.89055 65.91938,29.26879 97.90187,48.1014 -26.63861,-1.38554 -50.77386,-0.52026 -81.41584,3.01292 56.29022,27.96825 125.52471,50.85304 178.94354,63.91851 -26.60731,0.36199 -54.26907,-4.9587 -80.10408,-5.74264 216.03819,72.39706 354.58665,12.46339 421.46545,-71.48063 l 22.72498,-28.91186 c -112.86437,26.50153 -178.70118,64.00891 -271.93554,63.62891 -108.43908,-0.44198 -189.80907,-56.94791 -287.58038,-72.52661 z" fill="#ef7135" />
      <path d="m 808.84681,542.76035 c -62.49165,-9.9938 -121.24495,-35.15829 -207.71261,-14.24201 12.2785,7.03545 20.59614,12.41915 28.8649,19.40503 -125.14023,17.80939 -195.11873,-34.22841 -292.82102,-50.75714 41.83768,19.50809 76.05432,39.53839 110.49493,60.38455 -79.49859,-24.53127 -173.1746,-29.77638 -268.61961,-18.29005 29.60127,11.34139 60.22219,14.91685 92.17827,23.57371 106.18967,1.73418 188.56199,42.87742 296.89136,38.0375 91.95518,-4.10836 95.95987,-56.94263 240.72378,-58.11159 z" fill="#1b98d1" />
      <path d="m 375.93883,633.71015 c -26.63861,-1.38554 -54.77386,-0.52026 -85.41584,3.01292 56.29022,27.96825 125.52471,50.85304 178.94354,63.91851 -26.60731,0.36199 -54.26907,-4.9587 -80.10408,-5.74264 216.03819,72.39706 354.58665,12.46339 421.46545,-71.48063 l 14.85013,-18.89308 c -127.73426,83.74475 -270.47456,122.27923 -449.7392,29.18492 z" fill="#ec4141" />
      <path d="m 771.54427,535.43261 c -49.80213,-10.8894 -101.23804,-23.64679 -170.41007,-6.91427 12.2785,7.03545 20.59614,12.41915 28.8649,19.40503 -125.14023,17.80939 -195.11873,-34.22841 -292.82102,-50.75714 41.83768,19.50809 81.40787,42.59905 115.84848,63.44521 165.49726,47.00697 168.17061,-20.75228 318.51771,-25.17883 z" fill="#632e86" />
      <path d="m 871.99483,545.59868 c -90.39954,8.37417 -156.31026,-44.78975 -270.86063,-17.08034 12.2785,7.03545 20.59614,12.41915 28.8649,19.40503 -125.14023,17.80939 -195.11873,-34.22841 -292.82102,-50.75714 41.83768,19.50809 76.05432,39.53839 110.49493,60.38455 -79.49859,-24.53127 -173.1746,-29.77638 -268.61961,-18.29005 35.21133,13.49082 71.86542,15.99316 110.49332,29.13068 -15.69933,0.32179 -29.98444,1.76478 -44.97666,6.15686 47.51774,16.82888 86.67381,35.19901 127.36877,59.16188 -26.63861,-1.38554 -50.77386,-0.52026 -81.41584,3.01292 56.29022,27.96825 125.52471,50.85304 178.94354,63.91851 -26.60731,0.36199 -54.26907,-4.9587 -80.10408,-5.74264 216.03819,72.39706 354.58665,12.46339 421.46545,-71.48063 z" style="stroke-miterlimit:20;stroke-width:8;fill:none;stroke:#1b98d1" />
    </g>
    <path d="m 784.16923,629.21762 c -47.39648,31.10359 -124.38596,57.81762 -176.96631,45.26523 -39.9244,-9.53106 -27.54683,-102.01782 15.59713,-98.83496 49.63475,3.66172 104.23952,-4.72732 151.75181,-25.19691 13.29966,-5.72986 31.04687,11.73339 39.97534,28.12445 25.75212,-23.22022 39.64215,-49.14537 88.91183,-53.87865 86.22373,-8.28341 124.42937,37.1739 196.49767,-2.36106 38.8914,-79.5917 22.2283,-129.61176 28.479,-185.23591 17.375,-154.61744 222.2164,-149.42714 273.71,-30.95331 17.7589,40.85882 17.2192,109.86564 -15.6402,161.74806 l -145.0102,44.75926 c -24.7902,44.28579 5.7642,108.42812 -77.0876,158.31989 -80.465,48.45446 -188.68975,53.98451 -266.29887,9.72444 -44.06162,0.12779 -86.12669,-16.20764 -113.9196,-51.48053 z" fill="#9bdbf5" />
    <g transform="matrix(-.39722938-1.4586461-1.7473252.25757807 899.55764 601.62535)">
      <path d="m 5.4,-14.7 c -4.2,2.7 -7.4,6 -10.5,10.6 l 8.1,-4.1 c -8.4,12.9 -9.5,30.5 -7.1,54.5 -22.6,-75.8 13.6,-77.2 9.5,-61 z" fill="#1b98d1" />
      <path d="m 3.9,-26.6 c -7.9,7.3 -12,16.6 -15.2,27.6 l 8.2,-4.3 c -5.9,14 -5,29.6 -1,49.6 -16.4,-39.2 4.8,-50 -17.1,-35.5 9.4,-50.5 24.2,-46.3 25.1,-37.4 z" fill="#fde85f" />
      <path d="m -8.4,-36.9 c -10.5,15 -15.3,31.5 -15.1,51.5 l 11.7,-8 c -1.9,12.2 0.7,24.8 7.7,39.7 -6,-17.9 -7.4,-31.8 -3.9,-45.5 l -10.5,6.8 c 2.6,-16.4 7.6,-29.3 17,-40.7 z" fill="#ec4141" />
      <path d="m -3.1,-27.4 c -10.5,9.8 -1.1,18.9 7,8.4 -2,14.5 8.6,16.2 15,10.8 6.4,-5.4 5.8,-15.8 -2.2,-19.9 8.8,-8.6 -2.5,-19.8 -10.6,-14.6 -10.1,-10 -26,8.3 -9.2,15.3 z" fill="#fff" />
      <path d="m 5.9,-42.4 c -9.8,-9.4 -25.3,8.3 -8.1,14.8 -11.2,10 -1.6,19.3 6.9,6.6 -3.2,15.6 7.5,17.9 13.9,12.5 6.4,-5.4 5.4,-15.6 -2.6,-19.5 8,-8 0.3,-15.6 -5.4,-15.6 -5.7,0 -9.9,6.8 -3.5,9 -12.5,12.4 8.3,18 3.7,7.7 6.4,11.5 -17.1,6.3 -5.3,-7.4 -5.1,-2.3 -2.3,-10.2 5.1,-10.2 7.4,0 13.8,9.3 6.8,16.2 7.6,4.3 8.6,14.8 1.8,20.5 -6.8,5.7 -17.3,3.4 -15.9,-9.8 -8.6,9.5 -17.1,-0.5 -7.2,-9.7 -16.5,-7.2 -0.6,-26.1 10.5,-15.7 z" fill="#1b98d1" />
    </g>
    <path fill="#6babda" inkscape:original-d="m 772.56251,611.91726 c 32.39132,56.79771 94.7068,76.46745 156.79679,66.13578" inkscape:path-effect="#path-effect1550" />
    <path fill="#6babda" inkscape:original-d="m 1091.2517,538.99809 c 49.9679,-89.42453 30.4849,-142.46214 37.164,-201.89828 17.375,-154.61744 222.2164,-149.42714 273.71,-30.95331 17.7589,40.85882 17.2192,109.86564 -15.6402,161.74806 l -145.0102,44.75926 c -24.7902,44.28579 5.7642,108.42812 -77.0876,158.31989 -80.465,48.45446 -188.68975,53.98451 -266.82287,9.73729" inkscape:path-effect="#path-effect1548" />
    <path fill="#6babda" inkscape:original-d="m 802.15376,588.16147 c 34.86779,-24.92978 44.94575,-58.05222 101.28527,-63.46469 86.22373,-8.28341 124.42937,37.1739 196.40037,-2.25521" inkscape:path-effect="#path-effect1552" />
    <path d="m 784.34105,629.49337 c -47.5683,30.82784 -124.55778,57.54187 -177.13813,44.98948 -39.9244,-9.53106 -27.54683,-102.01782 15.59713,-98.83496 49.63475,3.66172 104.23952,-4.72732 151.75181,-25.19691 13.29966,-5.72986 31.04687,11.73339 40.25317,28.23953" style="stroke-miterlimit:20;stroke-width:8;fill:none;stroke:#6babda" />
    <g>
      <path d="m 1051.7269,605.01991 c -66.5531,71.30291 -66.08767,123.86092 -42.1029,140.49324 39.2732,27.2342 59.3067,54.6539 62.1922,77.82741 5.3084,42.63184 115.4906,44.79711 116.2547,11.25776 1.3952,-61.23611 -40.7797,-107.78584 -108.5299,-136.20005 4.7168,-25.96172 11.6212,-49.80554 20.7248,-75.20607 z" fill="#9bdbf5" />
      <path fill="#6babda" inkscape:original-d="m 1051.7269,605.01991 c -66.5531,71.30291 -66.08767,123.86092 -42.1029,140.49324 39.2732,27.2342 59.3067,54.6539 62.1922,77.82741 5.3084,42.63184 115.4905,44.79711 116.2547,11.25776 1.5122,-66.3722 -48.1609,-115.49111 -125.8982,-142.7137" inkscape:path-effect="#path-effect974" />
      <path fill="#6babda" inkscape:original-d="m 1100.2658,623.1922 c -9.1036,25.40053 -16.008,49.24435 -20.8884,75.00881" inkscape:path-effect="#path-effect976" />
    </g>
    <g>
      <path d="m 1361.2211,502.36991 -26.7248,20.33285 c -20.15,-8.92371 -30.9055,-24.68402 -27.401,-40.87264 l 20.7373,15.71771 -17.0565,-25.734 c 17.2229,-5.1771 40.2404,11.26567 50.445,30.55608 z" style="stroke-miterlimit:20;stroke-width:4;fill:#fff;stroke:#b0d8e7" />
      <g clip-path="url(#clipPath1082)">
        <path d="m 1410.9674,400.85573 c -3.1375,23.41004 -10.7999,42.85919 -21.5261,63.25391 -12.4892,-7.61288 -28.4905,-10.83573 -34.0946,-27.05507 -2.762,-12.30946 -3.9389,-25.31863 -4.3167,-38.31654 19.1087,-8.71145 37.194,-5.52657 59.9374,2.1177 z" fill="#fff" id="path1058" />
        <g clip-path="url(#clipPath909)">
          <ellipse cx="1374.9175" cy="386.164" fill="url(#linearGradient327)" id="ellipse885" rx="18.40485" ry="38.781483" transform="rotate(1.0862292)" />
          <path d="m 1363.0527,424.07977 18.2398,26.5375 11.3671,-16.46526 z" fill="#fcb6df" />
          <path d="m 1363.0527,424.07977 31.7459,1.84184 -5.7393,13.62082 z" fill="#d9539d" />
          <ellipse cx="1369.6989" cy="391.55676" rx="14.372067" ry="29.855337" transform="rotate(.9214917)" />
          <ellipse cx="1393.9008" cy="246.15981" fill="#fff" rx="8.1806049" ry="14.760509" transform="rotate(6.3454155)" />
          <ellipse cx="1418.9891" cy="-160.40166" fill="#fff" rx="2.3640561" ry="3.6782961" transform="rotate(23.713081)" />
        </g>
      </g>
      <path d="m 1355.3467,437.05457 c 9.951,25.1146 44.0818,19.21154 35.2789,40.80743 -12.8782,31.5935 -47.0527,44.33586 -59.1587,-0.41419 -10.4435,15.72923 -8.6673,31.00587 6.3442,45.79232 -37.1274,13.64326 -99.5917,2.14969 -152.7297,-30.2766 z" fill="#9bdbf5" />
      <path d="m 1358.5113,468.90957 c -2.1654,11.05978 4.1513,13.13645 10.4214,6.30316 -5.9432,1.90378 -9.0726,0.16209 -10.4214,-6.30316 z" fill="#6babda" />
      <path d="m 1351.03,398.73803 c -0.1278,-4.39573 -0.1641,-8.79016 -0.1395,-13.15581 17.3746,-2.4773 43.6176,-9.44595 63.0657,-17.77348 -0.748,11.97116 -1.6245,22.86687 -2.9888,33.04699 -19.7168,-6.87024 -39.56,-10.77189 -59.9374,-2.1177 z" fill="#88c4e9" />
      <path d="m 1419.9238,365.214 c -23.3874,7.53677 -41.3273,11.75647 -64.9742,17.01587 -5.7489,1.27868 -10.1671,-3.12045 -11.7748,-11.35387 -2.5646,9.61411 3.4637,18.1337 12.2069,16.25023 26.2164,-5.64743 47.5514,-11.60201 64.5421,-21.91223 z m -64.5771,71.84057 c -4.7812,-11.63448 -7.5132,-25.95686 -7.7447,-39.66124 19.1391,-8.88132 39.8995,-8.15352 63.1021,1.08206 20.6876,8.2345 18.8853,12.25967 -1.3351,4.43486 -23.4238,-9.06446 -42.2949,-8.77965 -56.4714,-2.09516 0.03,11.49779 0.981,23.60089 2.4491,36.23948 z m 39.5951,-40.68037 c 20.412,-18.53621 22.9733,-15.65067 6.5457,1.16307 m 3.572,0.78187 c 24.5713,-12.50946 26.2828,-9.05145 5.9204,2.40319" />
      <path fill="#6babda" inkscape:original-d="m 1355.3467,437.05457 c 9.951,25.1146 44.0818,19.21154 35.2789,40.80743 -12.8782,31.5935 -47.0527,44.33586 -59.1587,-0.41419 -10.4435,15.72923 -8.6673,31.00587 6.3442,45.79232 -37.1274,13.64326 -99.5917,2.14969 -152.7297,-30.2766" inkscape:path-effect="#path-effect1103" />
      <g clip-path="url(#clipPath1017)">
        <path d="m 1167.7212,677.2184 c -5.8777,34.38329 -27.9801,59.94393 -54.348,59.94396 -30.8618,4e-5 -55.8803,-35.01568 -55.8803,-78.20978 0,-7.72035 0.7993,-15.17944 2.2883,-22.22401 39.5928,5.71275 76.2907,17.66275 107.94,40.48983 z" fill="#fff" id="path1000" transform="rotate(346.90198)" />
        <g clip-path="url(#clipPath869)">
          <ellipse cx="1292.3169" cy="248.83859" fill="url(#linearGradient329)" id="ellipse40" rx="29.887943" ry="42.102299" transform="rotate(7.085006)" />
          <path d="m 1222.8076,436.00629 31.1329,-21.26533 -36.8671,3.16035 z" fill="#fcb6df" />
          <path d="m 1216.0989,411.01097 37.8416,3.72999 -35.9921,9.03535 z" fill="#d9539d" />
          <ellipse cx="1307.681" cy="158.55261" rx="20.436451" ry="30.581928" transform="rotate(11.080401)" />
          <ellipse cx="1224.1937" cy="-458.45447" fill="#fff" rx="11.198801" ry="16.687943" transform="rotate(37.963631)" />
          <ellipse cx="959.07629" cy="-906.6413" fill="#fff" rx="4.0067468" ry="5.3968167" transform="rotate(61.647346)" />
        </g>
      </g>
      <path d="m 1176.5036,379.99825 c -0.2995,-14.75518 2.618,-28.47091 8.1335,-39.64826 32.6497,17.24006 67.9791,31.24442 104.9287,43.53665 0.6166,3.73505 1.0287,7.438 1.2454,11.08694 -37.1861,-16.11714 -71.2488,-17.73792 -114.3076,-14.97533 z" fill="#88c4e9" />
      <path d="m 1179.3944,337.08965 c 41.0958,18.97682 76.3625,33.52906 109.1674,43.55654 6.4921,1.98445 10.3311,-3.15476 12.5167,-11.00463 2.0526,8.94707 -2.4524,20.37973 -13.2823,16.7686 -36.8105,-12.27415 -89.4943,-32.41981 -108.4018,-49.32051 z m 10.5011,42.26974 c -15.6432,-29.2402 -10.2276,-31.83068 8.2506,-0.0642 m -21.6372,-2.48204 c 40.3722,-2.79576 81.2028,-0.65433 117.738,16.09676 0.1793,19.88521 -4.1008,35.68831 -13.6303,49.86408 5.405,-15.18915 7.9071,-29.98978 7.6236,-45.87347 -34.6344,-14.33498 -72.6241,-16.66271 -111.4834,-14.09796 -32.2444,2.12816 -32.2475,-3.77345 -0.2479,-5.98941 z m 0.041,3.03163 c -24.1926,-21.21403 -20.1005,-26.34503 9.2915,-0.191" />
    </g>
    <g>
      <path d="m 1161.656,284.7306 c 42.5374,15.8515 85.2917,-12.56395 166.6151,8.37398 48.0251,12.36478 56.6702,-31.82872 31.8691,-82.21488 -11.1224,-22.59627 -23.1327,-37.14254 -35.479,-46.67694 l -160.396,43.11109 c -53.3251,8.18943 -66.5491,-36.63227 -112.8812,-34.60075 36.1653,26.64932 39.2438,73.48169 83.8044,97.36169 z" fill="#ef7135" />
      <path d="m 1162.3732,270.87396 c 45.7194,-0.76551 104.6038,5.80693 165.8979,22.23062 29.2755,7.84436 43.9343,-5.78822 45.2462,-29.07814 -44.008,-120.5297 -108.1481,-23.84907 -212.1505,-13.43983 z" fill="#ec4141" />
      <path d="m 1164.2652,207.32385 c -53.3251,8.18943 -66.5491,-36.63227 -112.8812,-34.60075 36.1653,26.64932 39.2438,73.48169 83.8044,97.36169" fill="none" stroke="#1b98d1" stroke-width="8" />
      <path d="m 1140.9048,319.73733 c -54.9578,27.39193 -123.4325,7.06033 -126.6995,-5.13217 -4.5753,-17.07531 118.4299,-126.95749 200.3841,-37.71683" fill="#9bdbf5" />
      <path fill="#6babda" inkscape:original-d="m 1140.9048,319.73733 c -54.9578,27.39193 -123.4325,7.06033 -126.6995,-5.13217 -4.5753,-17.07531 118.4299,-126.95749 200.3841,-37.71683" inkscape:path-effect="#path-effect949" />
      <path d="m 1360.1402,210.8897 c -48.9109,-99.36748 -114.9941,-43.06271 -151.2998,-89.44853 -5.0424,22.00315 1.1188,37.02893 15.7014,46.35799 -42.8503,1.5061 -69.2868,26.81495 -111.6186,15.46645 15.1896,27.6574 40.3164,33.19954 68.6828,24.78739 80.7484,0.26122 129.6491,-55.93291 183.005,12.71514 z" fill="#faf5ab" />
      <path d="m 1284.5937,250.64763 c -56.8564,-3.78151 -76.6768,24.6744 -122.9377,34.08297 42.5374,15.8515 85.2917,-12.56395 166.6151,8.37398 z" fill="#ec4141" />
      <path fill="#1b98d1" inkscape:original-d="m 1284.5937,250.64763 c -56.8564,-3.78151 -76.6768,24.6744 -122.9377,34.08297 42.5374,15.8515 85.2917,-12.56395 166.6151,8.37398 48.0251,12.36478 56.6703,-31.82876 31.8691,-82.21488 -48.9108,-99.36755 -114.9941,-43.06271 -151.2998,-89.44853 -7.8425,34.22147 11.4161,51.56499 47.3269,56.97781" inkscape:path-effect="#path-effect1166" />
      <path fill="#1b98d1" inkscape:original-d="m 1196.1424,202.6717 c -34.1815,15.03131 -65.4782,12.89684 -83.2192,-19.40609 42.3318,11.3485 68.7683,-13.96035 111.6138,-15.50078" inkscape:path-effect="#path-effect1168" />
    </g>
    <g>
      <path d="m 1057.0124,593.41037 c -108.42362,-6.16278 -184.20137,-78.80257 -150.81932,-90.57384 -145.62216,-123.33011 -104.86797,-185.7615 -23.15124,-107.0291 -56.17754,-138.64751 18.84429,-145.3334 80.71606,19.63446 -7.71719,-113.30829 76.761,-136.4682 67.0504,9.61559 -4.531,68.1625 6.0639,103.85042 45.9204,133.24709 z" fill="#9bdbf5" />
      <path fill="#6babda" inkscape:original-d="m 1057.0124,593.41037 c -108.42362,-6.16278 -184.20137,-78.80257 -150.81932,-90.57384 -145.62216,-123.33011 -104.86797,-185.7615 -23.15124,-107.0291 -56.17754,-138.64751 18.84429,-145.3334 80.71606,19.63446 -7.71719,-113.30829 76.761,-136.4682 67.0504,9.61559 -4.531,68.1625 6.0639,103.85042 45.9204,133.24709" inkscape:path-effect="#path-effect1225" />
      <path d="m 968.7116,572.67158 c -32.41647,-18.07045 -33.31419,-37.03712 3.09141,-27.64575 -83.12012,-60.77961 -61.74991,-89.76915 12.77478,-37.80233 -37.24196,-43.62253 9.05478,-71.364 53.54701,1.85479" style="stroke-miterlimit:20;stroke-width:8;fill:none;stroke:#6babda" />
    </g>
  </g>
</svg>