<svg xmlns="http://www.w3.org/2000/svg" xmlns:xlink="http://www.w3.org/1999/xlink" viewBox="-25 -25 50 50">
  <path d="M2.8 1.1C8.8.8 17-6.2 11-24.7 24.1-19.3 28.4-7.4 22 7.9 23.7-5.2 12.2-2.5 13.4 9.1 10.8 4.5 4.6 6.2 2.8 11.1Z" fill="#5d5d5d" id="W"/>
  <use transform="scale(-1 1)" xlink:href="#W"/>
  <rect height="4" width="1.4" x="-.7" y="20.7"/>
  <path d="m0-13.4-4-.8v-6.5c2.5-1.3 5.5-1.3 8 0v6.5z" fill="#f18a67"/>
  <path d="M.7 21H-.7L-4 13.5 4-8.8v-5.4h-8v5.4l8 22.3z" fill="#e4bbae"/>
  <path d="M-2-6.1 4-8.8V13.5L0 15.3Z" fill="#f5c45d"/>
  <path d="M-4 13.5V-8.8L0-7v22.3z" fill="#f5ad12"/>
</svg>
