<svg xmlns="http://www.w3.org/2000/svg" viewBox="-37 -56 74 112">
  <path d="m-4.5-45.7c-5.6 8.1-15-1.8-8-7.4 8.5-6.8 27.5.8-1.9 44.9-14 21-17.1 38.9-2.5 47.5s31.8 6.1 34.1-29.6 17.8-30.8 19.1-22.8-9.4 7.2-8.3 1.5c-2.5 3.1-3.8 11.4-4.9 30.8-1.8 31.3-17.3 41.5-38.3 33.4s-31.9-31.8-6.4-62.8c13.9-17 17.7-29.2 17.1-35.5zM21-10.2C13.2-13.9 3.6-21.7-2.9-28.5l2.2-5.6c6.6 8 16.7 15.9 23.9 19.8z" fill="#f3ba36"/>
  <path d="m-1.9-52.7c2.2 2.1 1.2 4.3.3 2.9s-1.8-2.4-3.1-3.3.6-1.7 2.8.4zm5.2 23.4c-2.9 3.6 15.4 14.7 16.6 13.1zm24.8 13.6c-1.2.1-1-2 2.4-1.5s4.1 3 2 2.2-3.2-.8-4.4-.7z" fill="#ffe8a9"/>
  <path d="m-21.988229-10.554875c-25.230168 30.671682-15.380763 55.162343 6.724073 63.672465 21.828116 8.403588 37.222338-3.175579 38.860794-33.896097 1.574289-29.517416 4.151353-32.0344 8.446796-32.299484-4.859384-.646774-7.68431.390252-9.445185 32.242751C20.911908 49.669007 5.985463 60.206145-14.907186 52.183474-36.515427 43.88602-45.885047 20.089785-21.214485-9.9213772 1.452712-37.495494-2.5943677-52.971242-9.1751619-51.165802-3.204567-51.29496-.8103671-36.30027-21.988229-10.554875Z" fill="#b78000"/>
  <path d="m-4.5-45.7c-5.6 8.1-15-1.8-8-7.4 8.5-6.8 27.5.8-1.9 44.9-14 21-17.1 38.9-2.5 47.5s31.8 6.1 34.1-29.6 17.8-30.8 19.1-22.8-9.4 7.2-8.3 1.5" fill="none" stroke="#b78000"/>
  <path d="M14.6-13.6-3.2 44.8M-17.8 40.4 6.7-19.5m-5.5-4.9-27.1 55.6" fill="none" stroke="#40ba8f" stroke-linecap="round"/>
  <path d="M21-10.2C13.2-13.9 3.6-21.7-2.9-28.5m2.2-5.6c6.6 8 16.7 15.9 23.9 19.8" fill="none" stroke="#b78000"/>
</svg>
