<?xml version="1.0" encoding="UTF-8" standalone="no"?>
<!-- Created with Inkscape (http://www.inkscape.org/) -->

<svg xmlns:dc="http://purl.org/dc/elements/1.1/" xmlns:cc="http://creativecommons.org/ns#" xmlns:rdf="http://www.w3.org/1999/02/22-rdf-syntax-ns#" xmlns:svg="http://www.w3.org/2000/svg" xmlns="http://www.w3.org/2000/svg" xmlns:xlink="http://www.w3.org/1999/xlink" xmlns:sodipodi="http://sodipodi.sourceforge.net/DTD/sodipodi-0.dtd" xmlns:inkscape="http://www.inkscape.org/namespaces/inkscape" width="819.76123" height="819.76123" id="svg2" version="1.1" inkscape:version="0.48.5 r" sodipodi:docname="Parcly and Her Beautiful Brain.svg" inkscape:export-filename="/home/parclytaxel/Pictures/Parcly and Her Beautiful Brain.png" inkscape:export-xdpi="702.64362" inkscape:export-ydpi="702.64362">
  <defs id="defs4">
    <inkscape:path-effect effect="skeletal" id="path-effect4955" is_visible="true" pattern="m -186.5,630 c -28.32598,0 -56,2.5 -84.5,9 28.5,6 56.17402,9 84.5,9 l 388,0 c 36.82598,0 86.5,-3 126.5,-9 -39.5,-5.5 -90.67402,-9 -126.5,-9 z" copytype="single_stretched" prop_scale="1" scale_y_rel="false" spacing="0" normal_offset="0" tang_offset="0" prop_units="false" vertical_pattern="false" fuse_tolerance="0" pattern-nodetypes="scsscss" />
    <inkscape:path-effect effect="skeletal" id="path-effect4750" is_visible="true" pattern="m -251,258 c -28.32598,0 -56,2.5 -84.5,9 28.5,6 56.17402,9 84.5,9 l 390,0 c 28.32598,0 57.5,-1.5 84.5,-9 -26.5,-6 -56.17402,-9 -84.5,-9 z" copytype="single_stretched" prop_scale="1" scale_y_rel="false" spacing="0" normal_offset="0" tang_offset="0" prop_units="false" vertical_pattern="false" fuse_tolerance="0" pattern-nodetypes="scsscss" />
    <linearGradient inkscape:collect="always" id="linearGradient3786">
      <stop style="stop-color:#230f38;stop-opacity:1" offset="0" id="stop3788" />
      <stop style="stop-color:#5c2594;stop-opacity:1" offset="1" id="stop3790" />
    </linearGradient>
    <clipPath clipPathUnits="userSpaceOnUse" id="clipPath3804">
      <use x="0" y="0" xlink:href="#path4266" id="use3806" width="1" height="1" />
    </clipPath>
    <clipPath clipPathUnits="userSpaceOnUse" id="clipPath3970">
      <use x="0" y="0" xlink:href="#path3496" id="use3972" width="1" height="1" />
    </clipPath>
    <clipPath clipPathUnits="userSpaceOnUse" id="clipPath3987">
      <path style="fill:black;fill-opacity:1;fill-rule:nonzero;stroke:none" d="m 163.24941,409.22763 194.37053,-16.37954 68.79406,146.32388 -58.42035,97.73125 -160.51949,0 -67.15611,-144.13994 z" id="path3989" inkscape:connector-curvature="0" />
    </clipPath>
    <clipPath clipPathUnits="userSpaceOnUse" id="clipPath3804-6">
      <use x="0" y="0" xlink:href="#path4266-1" id="use3806-4" width="1" height="1" />
    </clipPath>
    <clipPath clipPathUnits="userSpaceOnUse" id="clipPath4713">
      <use x="0" y="0" xlink:href="#path3818" id="use4715" transform="matrix(2.0911019,-0.1603948,0.5374486,1.0813968,-1151.8978,21.286672)" width="1" height="1" />
    </clipPath>
    <clipPath clipPathUnits="userSpaceOnUse" id="clipPath6070">
      <path id="path6072" style="font-size:medium;font-style:normal;font-variant:normal;font-weight:normal;font-stretch:normal;text-indent:0;text-align:start;text-decoration:none;line-height:normal;letter-spacing:normal;word-spacing:normal;text-transform:none;direction:ltr;block-progression:tb;writing-mode:lr-tb;text-anchor:start;baseline-shift:baseline;color:black;fill:none;stroke:#b3b3b3;stroke-width:1;stroke-miterlimit:4;stroke-dasharray:none;marker:none;visibility:visible;display:inline;overflow:visible;enable-background:accumulate;font-family:Sans;-inkscape-font-specification:Sans" d="m 457.71875,297.09375 c 73.81038,-92.09691 128.7334,-161.62904 164.21875,-209.75 L 580.5,39.46875 C 534.43525,74.48496 467.63992,129.0705 379.15625,202.4375 z" inkscape:connector-curvature="0" sodipodi:nodetypes="ccccc" />
    </clipPath>
    <clipPath clipPathUnits="userSpaceOnUse" id="clipPath6074">
      <path style="font-size:medium;font-style:normal;font-variant:normal;font-weight:normal;font-stretch:normal;text-indent:0;text-align:start;text-decoration:none;line-height:normal;letter-spacing:normal;word-spacing:normal;text-transform:none;direction:ltr;block-progression:tb;writing-mode:lr-tb;text-anchor:start;baseline-shift:baseline;color:black;fill:none;stroke:#b3b3b3;stroke-width:1;stroke-miterlimit:4;stroke-dasharray:none;marker:none;visibility:visible;display:inline;overflow:visible;enable-background:accumulate;font-family:Sans;-inkscape-font-specification:Sans" d="M 631.0625,142.1875 C 576.75997,124.70899 538.79257,94.545594 517.25,42.59375 l -48.78125,36.9375 c 23.18067,56.85245 66.5436,91.59988 124.28125,110.5625 z" id="path6076" inkscape:connector-curvature="0" sodipodi:nodetypes="ccccc" />
    </clipPath>
    <clipPath clipPathUnits="userSpaceOnUse" id="clipPath6103">
      <path style="fill:none;stroke:black;stroke-width:1" d="M 564.31763,223.15589 C 551.68372,168.50688 505.54858,126.69579 418.43846,116.85292 878.47298,-252.88048 889.69807,-200.34933 564.31763,223.15589 z" id="path6105" inkscape:connector-curvature="0" sodipodi:nodetypes="ccc" />
    </clipPath>
    <clipPath clipPathUnits="userSpaceOnUse" id="clipPath4753">
      <use x="0" y="0" xlink:href="#path3953" id="use4755" width="832.36572" height="832.36572" />
    </clipPath>
    <clipPath clipPathUnits="userSpaceOnUse" id="clipPath4768">
      <use x="0" y="0" xlink:href="#path6107" id="use4770" width="1" height="1" />
    </clipPath>
    <filter inkscape:collect="always" id="filter4983" color-interpolation-filters="sRGB">
      <feGaussianBlur inkscape:collect="always" stdDeviation="0.7639404" id="feGaussianBlur4985" />
    </filter>
    <linearGradient inkscape:collect="always" xlink:href="#linearGradient3786" id="linearGradient5191" gradientUnits="userSpaceOnUse" x1="477.9281" y1="313.95847" x2="471.83252" y2="359.68359" />
    <linearGradient inkscape:collect="always" xlink:href="#linearGradient3786" id="linearGradient5193" gradientUnits="userSpaceOnUse" x1="282.2283" y1="376.51874" x2="277.5744" y2="556.6366" />
    <linearGradient inkscape:collect="always" xlink:href="#linearGradient3786" id="linearGradient5195" gradientUnits="userSpaceOnUse" x1="282.2283" y1="376.51874" x2="277.5744" y2="556.6366" />
  </defs>
  <sodipodi:namedview id="base" pagecolor="#ffffff" bordercolor="#666666" borderopacity="1.0" inkscape:pageopacity="0.0" inkscape:pageshadow="2" inkscape:zoom="0.65750853" inkscape:cx="409.88062" inkscape:cy="409.88062" inkscape:document-units="px" inkscape:current-layer="layer2" showgrid="true" fit-margin-top="0" fit-margin-left="0" fit-margin-right="0" fit-margin-bottom="0" inkscape:window-width="1364" inkscape:window-height="698" inkscape:window-x="0" inkscape:window-y="0" inkscape:window-maximized="1" showguides="true" inkscape:guide-bbox="true" inkscape:object-paths="false" inkscape:object-nodes="false" inkscape:snap-nodes="true" inkscape:snap-smooth-nodes="false">
    <inkscape:grid type="xygrid" id="grid4734" empspacing="5" visible="true" enabled="false" snapvisiblegridlinesonly="true" spacingx="18px" spacingy="18px" originx="87.061119px" originy="-36.390553px" />
  </sodipodi:namedview>
  <metadata id="metadata7">
    <rdf:RDF>
      <cc:Work rdf:about="">
        <dc:format>image/svg+xml</dc:format>
        <dc:type rdf:resource="http://purl.org/dc/dcmitype/StillImage" />
        <dc:title></dc:title>
      </cc:Work>
    </rdf:RDF>
  </metadata>
  <g inkscape:groupmode="layer" id="layer2" inkscape:label="Drawing" style="display:inline" transform="translate(87.061119,23.78606)">
    <path sodipodi:nodetypes="ssscscs" inkscape:connector-curvature="0" id="path5091" d="M 93.486407,285.01951 C 43.247763,422.39472 121.58148,609.17599 105,916.36572 c -5.391156,99.87698 244.4142,100.10048 244.4142,-0.58579 0,-53 -15.29289,-101.94974 -7.34271,-159.57853 102.66536,17.9808 184.42027,-18.91205 207.76467,-60.91388 9.50392,-17.09969 0.9521,-26.91122 -12.55695,-36.55096 C 792.09406,176.3788 196.56507,3.1557548 93.486407,285.01951 z" style="fill:#6dc6fb;fill-opacity:1;stroke:none" />
    <g id="g4995">
      <path sodipodi:nodetypes="ccc" inkscape:connector-curvature="0" id="path6107" d="m 390.75375,333.58886 c 49.64305,-42.78747 107.87429,-38.42472 138.44001,9.67406 -39.47275,39.15291 -91.56568,36.33444 -138.44001,-9.67406 z" style="fill:white;stroke:none" />
      <g clip-path="url(#clipPath4768)" id="g4759">
        <g id="g4745" clip-path="url(#clipPath4753)" transform="translate(19,1.5)">
          <path transform="matrix(0.99842761,-0.05605584,0.05605584,0.99842761,-31.457657,23.996089)" d="m 490.98324,335.2467 c 0,16.94011 -12.77521,30.67278 -28.53423,30.67278 -15.75903,0 -28.53424,-13.73267 -28.53424,-30.67278 0,-16.9401 12.77521,-30.67277 28.53424,-30.67277 15.75902,0 28.53423,13.73267 28.53423,30.67277 z" sodipodi:ry="30.672779" sodipodi:rx="28.534237" sodipodi:cy="335.2467" sodipodi:cx="462.44901" id="path3953" style="fill:url(#linearGradient5191);fill-opacity:1;stroke:none" sodipodi:type="arc" />
          <path style="fill:#8f4dd3;fill-opacity:1;fill-rule:nonzero;stroke:none" d="m 446,333.11572 27,32.75 13.5,-19 z" id="path4741" inkscape:connector-curvature="0" sodipodi:nodetypes="cccc" />
          <path sodipodi:nodetypes="cccc" inkscape:connector-curvature="0" id="path4739" d="m 446,333.11572 43.5,6.5 -6,14.75 z" style="fill:#62289e;fill-opacity:1;fill-rule:nonzero;stroke:none" />
          <path sodipodi:type="arc" style="fill:black;stroke:none" id="path3957" sodipodi:cx="462.44901" sodipodi:cy="335.2467" sodipodi:rx="28.534237" sodipodi:ry="31.570635" d="m 490.98324,335.2467 c 0,17.43598 -12.77521,31.57064 -28.53423,31.57064 -15.75903,0 -28.53424,-14.13466 -28.53424,-31.57064 0,-17.43598 12.77521,-31.57063 28.53424,-31.57063 15.75902,0 28.53423,14.13465 28.53423,31.57063 z" transform="matrix(0.76666105,-0.03859561,0.03859561,0.76666105,81.383077,93.199732)" />
          <use style="filter:url(#filter4983)" id="use4793" xlink:href="#path4772-4" y="0" x="0" width="832.36572" height="832.36572" />
          <path sodipodi:nodetypes="ccccccc" inkscape:connector-curvature="0" id="path4772-4" d="m 448.61871,346.21235 -11.33839,-6.74582 -0.30497,-13.48743 11.99016,-6.94115 11.7648,7.02529 -0.36553,13.44957 z" style="opacity:0.5;fill:none;stroke:white;stroke-width:0.80000001;stroke-linejoin:round;stroke-miterlimit:4;stroke-dasharray:none;display:inline" />
          <path transform="matrix(0.92671171,0.37577309,-0.37577309,0.92671171,154.81272,-152.81189)" d="m 448.12893,331.73413 c 0,7.2247 -4.19472,13.08148 -9.36916,13.08148 -5.17445,0 -9.36917,-5.85678 -9.36917,-13.08148 0,-7.2247 4.19472,-13.08147 9.36917,-13.08147 5.17444,0 9.36916,5.85677 9.36916,13.08147 z" sodipodi:ry="13.081475" sodipodi:rx="9.3691645" sodipodi:cy="331.73413" sodipodi:cx="438.75977" id="path3959" style="fill:white;stroke:none" sodipodi:type="arc" />
          <path sodipodi:type="arc" style="fill:white;stroke:none" id="path3961" sodipodi:cx="438.75977" sodipodi:cy="331.73413" sodipodi:rx="8.699789" sodipodi:ry="13.081475" d="m 447.45955,331.73413 a 8.699789,13.081475 0 1 1 -17.39957,0 8.699789,13.081475 0 1 1 17.39957,0 z" transform="matrix(0.32517797,0.13284721,-0.13284721,0.32517797,346.96317,167.73246)" />
        </g>
      </g>
      <path style="fill:black;stroke:none" d="m 390.75375,333.58886 c 46.43048,-47.65515 112.73835,-42.25046 138.44001,9.67406 -32.58974,-42.26894 -84.08417,-48.22849 -138.44001,-9.67406 z" id="path3056" inkscape:connector-curvature="0" sodipodi:nodetypes="ccc" />
    </g>
    <path style="fill:none;stroke:#1c92cd;stroke-width:18;stroke-linecap:butt;stroke-linejoin:miter;stroke-miterlimit:4;stroke-opacity:1;stroke-dasharray:none;stroke-dashoffset:7.8" d="M 537.24262,659.36573 C 792.09406,176.3788 196.56507,3.1557548 93.486407,285.01951 43.247763,422.39472 121.58148,609.17599 105,916.36572 c -5.391156,99.87698 244.4142,100.10048 244.4142,-0.58579 0,-53 -15.29289,-101.94974 -7.24264,-160.41421" id="path3044" inkscape:connector-curvature="0" sodipodi:nodetypes="csssc" />
    <g id="g3891" transform="translate(11.962243,-1.0899471)">
      <path id="path3879" style="fill:black;fill-opacity:1;fill-rule:nonzero;stroke:none" d="m 174.35625,441.5548 0.55768,12.38666 c -69.85255,15.52137 -73.14448,5.88722 -0.55768,-12.38666 z m -2.03799,-19.35295 -2.26537,12.52602 c -71.357717,9.52804 -73.159552,-1.32029 2.26537,-12.52602 z" inkscape:connector-curvature="0" />
      <g clip-path="url(#clipPath3987)" id="g3974">
        <path sodipodi:type="arc" style="fill:white;stroke:none" id="path3496" sodipodi:cx="285.004" sodipodi:cy="488.39539" sodipodi:rx="107.32664" sodipodi:ry="149.1463" d="m 392.33064,488.39539 c 0,82.37122 -48.05178,149.1463 -107.32664,149.1463 -59.27487,0 -107.32664,-66.77508 -107.32664,-149.1463 0,-82.37123 48.05177,-149.14631 107.32664,-149.14631 59.27486,0 107.32664,66.77508 107.32664,149.14631 z" transform="matrix(0.95937016,-0.28215044,0.28215044,0.95937016,-137.03737,101.34938)" />
        <g id="g3952" clip-path="url(#clipPath3970)">
          <g clip-path="url(#clipPath3804)" id="g3796">
            <path sodipodi:type="arc" style="fill:url(#linearGradient5193);fill-opacity:1;stroke:none" id="path4266" sodipodi:cx="237.04665" sodipodi:cy="463.28333" sodipodi:rx="89.6064" sodipodi:ry="122.64352" d="m 326.65305,463.28333 c 0,67.73414 -40.11816,122.64351 -89.6064,122.64351 -49.48825,0 -89.6064,-54.90937 -89.6064,-122.64351 0,-67.73415 40.11815,-122.64352 89.6064,-122.64352 49.48824,0 89.6064,54.90937 89.6064,122.64352 z" transform="matrix(1.0668335,-0.20941323,0.20941323,1.0668335,-121.03763,42.234786)" />
            <path sodipodi:nodetypes="cccc" inkscape:connector-curvature="0" id="path3784" d="M 333.05064,579.02885 358.07396,517.8844 225.59529,507.19464 z" style="fill:#8f4dd3;fill-opacity:1;stroke:none" />
            <path style="fill:#62289e;fill-opacity:1;stroke:none" d="m 359.2579,489.48737 -5.55182,45.86854 -128.11079,-28.16127 z" id="path3782" inkscape:connector-curvature="0" sodipodi:nodetypes="cccc" />
            <path transform="matrix(0.85735446,-0.17286318,0.17286318,0.85735446,-64.992496,130.39099)" d="m 326.65305,463.28333 c 0,68.52779 -40.11816,124.08054 -89.6064,124.08054 -49.48825,0 -89.6064,-55.55275 -89.6064,-124.08054 0,-68.5278 40.11815,-124.08055 89.6064,-124.08055 49.48824,0 89.6064,55.55275 89.6064,124.08055 z" sodipodi:ry="124.08054" sodipodi:rx="89.6064" sodipodi:cy="463.28333" sodipodi:cx="237.04665" id="path4268" style="fill:black;stroke:none" sodipodi:type="arc" />
            <path sodipodi:type="arc" style="fill:white;stroke:none" id="path3008" sodipodi:cx="193.27856" sodipodi:cy="451.81442" sodipodi:rx="41.913208" sodipodi:ry="59.564518" d="m 235.19177,451.81442 c 0,32.89658 -18.76518,59.56452 -41.91321,59.56452 -23.14802,0 -41.9132,-26.66794 -41.9132,-59.56452 0,-32.89657 18.76518,-59.56452 41.9132,-59.56452 23.14803,0 41.91321,26.66795 41.91321,59.56452 z" transform="matrix(0.86438907,0.24333758,-0.24333758,0.86438907,138.34385,4.7791824)" />
            <path sodipodi:type="arc" style="fill:white;fill-opacity:1;fill-rule:nonzero;stroke:none" id="path3012" sodipodi:cx="252.2449" sodipodi:cy="528.25226" sodipodi:rx="12.557647" sodipodi:ry="16.925524" d="m 264.80255,528.25226 c 0,9.34771 -5.62225,16.92552 -12.55765,16.92552 -6.93539,0 -12.55764,-7.57781 -12.55764,-16.92552 0,-9.34771 5.62225,-16.92553 12.55764,-16.92553 6.9354,0 12.55765,7.57782 12.55765,16.92553 z" transform="matrix(0.97446759,0.34233658,-0.34233658,0.97446759,160.82068,-91.870979)" />
          </g>
        </g>
      </g>
      <path sodipodi:nodetypes="sscssscccc" inkscape:connector-curvature="0" d="m 175.91893,402.48434 165.86745,-13.77797 c 21.44649,-1.78148 36.88531,-12.8199 46.69697,-34.47664 -0.17128,29.20685 -18.87466,43.22972 -41.30798,45.09931 l -173.32148,14.44457 c -74.840067,6.23715 -75.589119,-4.83884 2.06504,-11.28927 z m 190.41756,189.25549 c 28.12982,-69.06282 14.34717,-147.7433 -27.14766,-196.88191 l 11.77277,-1.89377 c 40.94683,48.58961 58.33708,135.9682 15.37489,198.77568 z" style="fill:black;stroke:none" id="path3812" />
    </g>
    <g id="g4717">
      <path id="path3879-8" style="fill:black;fill-opacity:1;fill-rule:nonzero;stroke:none;display:inline" d="m 595.55516,428.64623 -0.96093,10.22762 c 55.63625,22.33712 58.46359,14.659 0.96093,-10.22762 z m -3.78814,15.10635 -2.55455,9.86797 c 53.95908,24.79239 57.18041,17.04008 2.55455,-9.86797 z" inkscape:connector-curvature="0" />
      <path sodipodi:nodetypes="ccccc" inkscape:connector-curvature="0" id="path3818" d="m 489.80316,604.09156 c -8.97056,-75.78175 7.20607,-144.50812 51.7538,-203.90509 l 61.06957,20.64312 c 4.1401,78.58335 -18.80558,156.26434 -62.09102,237.41482 -24.41102,-13.09438 -41.33674,-30.10204 -50.73235,-54.15285 z" style="fill:white;stroke:none" />
      <g transform="matrix(0.460656,0.06832536,-0.22894364,0.89077259,535.5021,59.742251)" clip-path="url(#clipPath4713)" id="g3952-2">
        <g id="g3796-1" clip-path="url(#clipPath3804-6)">
          <path transform="matrix(1.0668335,-0.20941323,0.20941323,1.0668335,-121.03763,42.234786)" d="m 326.65305,463.28333 c 0,67.73414 -40.11816,122.64351 -89.6064,122.64351 -49.48825,0 -89.6064,-54.90937 -89.6064,-122.64351 0,-67.73415 40.11815,-122.64352 89.6064,-122.64352 49.48824,0 89.6064,54.90937 89.6064,122.64352 z" sodipodi:ry="122.64352" sodipodi:rx="89.6064" sodipodi:cy="463.28333" sodipodi:cx="237.04665" id="path4266-1" style="fill:url(#linearGradient5195);fill-opacity:1;stroke:none" sodipodi:type="arc" />
          <path style="fill:#8f4dd3;fill-opacity:1;stroke:none" d="M 333.05064,579.02885 358.07396,517.8844 225.59529,507.19464 z" id="path3784-5" inkscape:connector-curvature="0" sodipodi:nodetypes="cccc" />
          <path sodipodi:nodetypes="cccc" inkscape:connector-curvature="0" id="path3782-7" d="m 359.2579,489.48737 -5.55182,45.86854 -128.11079,-28.16127 z" style="fill:#62289e;fill-opacity:1;stroke:none" />
          <path sodipodi:type="arc" style="fill:black;stroke:none" id="path4268-6" sodipodi:cx="237.04665" sodipodi:cy="463.28333" sodipodi:rx="89.6064" sodipodi:ry="124.08054" d="m 326.65305,463.28333 c 0,68.52779 -40.11816,124.08054 -89.6064,124.08054 -49.48825,0 -89.6064,-55.55275 -89.6064,-124.08054 0,-68.5278 40.11815,-124.08055 89.6064,-124.08055 49.48824,0 89.6064,55.55275 89.6064,124.08055 z" transform="matrix(0.85735446,-0.17286318,0.17286318,0.85735446,-64.992496,130.39099)" />
          <path transform="matrix(0.89076343,0.25076232,-0.25076232,0.89076343,135.03926,-14.802895)" d="m 239.17353,451.81442 c 0,32.89658 -20.54787,59.56452 -45.89497,59.56452 -25.34709,0 -45.89497,-26.66794 -45.89497,-59.56452 0,-32.89657 20.54788,-59.56452 45.89497,-59.56452 25.3471,0 45.89497,26.66795 45.89497,59.56452 z" sodipodi:ry="59.564518" sodipodi:rx="45.89497" sodipodi:cy="451.81442" sodipodi:cx="193.27856" id="path3008-0" style="fill:white;stroke:none" sodipodi:type="arc" />
          <path transform="matrix(0.97446759,0.34233658,-0.34233658,0.97446759,161.87779,-95.921126)" d="m 267.17268,528.25226 c 0,9.34771 -6.68339,16.92552 -14.92778,16.92552 -8.24438,0 -14.92777,-7.57781 -14.92777,-16.92552 0,-9.34771 6.68339,-16.92553 14.92777,-16.92553 8.24439,0 14.92778,7.57782 14.92778,16.92553 z" sodipodi:ry="16.925524" sodipodi:rx="14.927776" sodipodi:cy="528.25226" sodipodi:cx="252.2449" id="path3012-1" style="fill:white;fill-opacity:1;fill-rule:nonzero;stroke:none" sodipodi:type="arc" />
        </g>
      </g>
      <path d="m 603.49438,416.14942 -60.40023,-21.01507 c -14.94468,-5.19971 -26.93553,-16.48659 -32.59146,-32.65946 -1.83745,20.99423 8.45361,34.45627 28.57442,41.29288 l 62.40336,21.20328 c 49.7178,16.89301 51.59061,8.4276 2.01391,-8.82163 z M 490.51027,604.44511 c -3.13716,-79.80003 14.20984,-148.25864 55.83958,-202.25864 l -9.05634,-3.51041 c -39.96017,52.49668 -62.89647,125.19476 -46.78324,205.76905 z" style="fill:black;stroke:none;display:inline" id="path3907" inkscape:connector-curvature="0" />
    </g>
    <path style="fill:#1c92cd;fill-opacity:1;stroke:none" d="m 547.18278,654.4566 c -3.12748,-2.61936 -6.29747,-4.90009 -9.3753,-6.99802 -4.46266,-3.07997 -8.90519,-5.9167 -13.19891,-8.73963 -4.29372,-2.82292 -8.43848,-5.63081 -12.36224,-8.70653 -4.21378,-3.28484 -8.24926,-6.84092 -11.92585,-10.90977 0,0 0,-1e-5 0,-1e-5 -3.94334,-4.35092 -7.5155,-9.34877 -10.51732,-15.01108 0.16701,6.37987 1.51134,12.85329 3.99153,18.98894 0,0 0,0 0,10e-6 2.316,5.71492 5.54674,11.08038 9.34846,15.93283 3.56312,4.52554 7.54501,8.60239 11.67301,12.3463 4.128,3.7439 8.40273,7.15436 12.60506,10.39678 2.87636,2.24645 5.65927,4.35923 8.21125,6.49518 0.65089,0.54478 1.28389,1.09373 1.89667,1.64942 2.52535,2.36537 4.68175,4.53496 5.85733,6.75613 1.00374,1.80382 1.60178,3.82106 1.47754,5.57418 0,1e-5 0,1e-5 0,1e-5 0.0737,2.45843 -1.23157,5.4255 -2.89446,8.68394 0,10e-6 0,10e-6 -10e-6,2e-5 -4.34788,7.94754 -10.84125,14.98236 -18.19093,21.29895 -8.94,7.6262 -19.22384,13.87636 -30.11182,19.12221 -27.44498,13.22619 -58.26681,19.44309 -89.22564,20.76595 -10e-6,0 -10e-6,0 -2e-5,0 -39.28211,1.64132 -78.89665,-5.17806 -116.29285,-18.17434 -11.10757,-3.85871 -22.01706,-8.27116 -32.71266,-13.18046 -7.62715,-3.50088 -15.88682,-7.39605 -24.47043,-11.64043 -8.58361,-4.24439 -17.4909,-8.83827 -26.44041,-13.65269 -8.94951,-4.81441 -17.941,-9.84846 -26.72418,-14.89446 -8.78318,-5.04601 -17.35803,-10.10252 -25.50771,-14.90141 6.22651,6.93913 13.28232,14.07847 20.9165,21.04823 7.63418,6.96975 15.84707,13.76713 24.30793,20.07728 8.46085,6.31014 17.16877,12.13118 25.71731,17.23909 8.54855,5.1079 16.93568,9.5027 24.70152,13.06598 11.19409,5.13629 22.63037,9.76785 34.29303,13.83782 39.27786,13.70192 81.11159,20.84993 122.95045,19.16024 1e-5,0 1e-5,0 2e-5,0 32.91047,-1.29976 66.08103,-8.10176 96.27183,-22.52124 12.00266,-5.73391 23.57689,-12.82177 33.98298,-21.63532 8.59727,-7.23467 16.44978,-15.92682 22.26832,-26.27096 0,0 0,-1e-5 1e-5,-1e-5 2.70481,-4.60005 4.76204,-10.27211 5.15021,-16.79889 0,-1e-5 0,-2e-5 0,-3e-5 0.12847,-5.46877 -1.25832,-10.67597 -3.84381,-15.14407 -2.74586,-4.63127 -6.09659,-8.28099 -9.44031,-11.19648 -0.79229,-0.70856 -1.58843,-1.39559 -2.3861,-2.06366 z" id="path3816" inkscape:connector-curvature="0" sodipodi:nodetypes="csc" inkscape:path-effect="#path-effect4955" inkscape:original-d="m 489.80316,604.09156 c 12.95585,51.18377 81.17649,53.15406 60.033,91.19596 -36.67766,65.99138 -217.54328,119.37109 -397.54327,-29.6289" />
    <path id="path3941" style="fill:#1c92cd;fill-opacity:1;stroke:none;display:inline" d="m 434.54122,673.80241 c 11.99492,32.07501 29.84922,50.21047 70.12291,61.29891 l -16.38899,9.19514 c -33.92126,-12.77183 -52.72367,-35.57834 -53.73392,-70.49405 z m 60.78318,-4.78896 c -0.70521,10.28362 5.59535,14.93609 16.30499,12.61956 -13.31767,14.98139 -27.78972,4.12979 -16.30499,-12.61956 z" inkscape:connector-curvature="0" />
    <g id="g3842">
      <path sodipodi:nodetypes="cccccccccc" inkscape:connector-curvature="0" id="path3834" d="m 218.63588,204.03952 c 39.34218,10.36724 56.58071,56.29524 25.00808,119.12574 53.88044,-16.44575 93.75002,-44.31815 119.58145,-93.42086 21.44511,30.88443 24.07607,73.70339 12.05375,113.80358 57.64161,-19.71613 92.41828,-48.7461 114.61525,-98.85171 38.20472,33.46427 45.27599,73.61515 43.6413,125.52337 42.23769,-25.56056 61.63839,-60.56541 72.09512,-102.5192 31.81131,34.80391 37.77988,78.15507 29.25735,127.55359 C 823.15397,241.55718 649.11236,-90.997546 167.29081,111.76242 z" style="fill:#f3a4d9;fill-opacity:1;stroke:none" />
      <path sodipodi:nodetypes="cccccccc" inkscape:connector-curvature="0" id="path3832" d="m 218.63588,204.03952 c 39.34218,10.36724 56.58071,56.29524 25.00808,119.12574 53.88044,-16.44575 95.75459,-45.98536 119.43515,-95.62578 23.59597,37.33703 24.76009,72.68201 12.20005,116.0085 57.64161,-19.71613 92.41828,-48.7461 114.61525,-98.85171 38.20472,33.46427 45.27599,73.61515 43.6413,125.52337 C 623.84726,214.50506 545.84016,43.031215 186.22286,145.787 z" style="fill:#961370;fill-opacity:1;stroke:none" />
      <path style="fill:none;stroke:#d91e9b;stroke-width:18;stroke-miterlimit:20;stroke-opacity:1;stroke-dasharray:none" d="m 218.63588,204.03952 c 39.34218,10.36724 56.58071,56.29524 25.00808,119.12574 53.88044,-18.0589 95.75458,-47.59851 118.89743,-96.1635 21.44511,33.03531 24.76009,74.83288 12.73777,116.54622 57.64161,-19.71613 92.41828,-48.7461 114.61525,-98.85171 38.20472,33.46427 45.27599,73.61515 43.6413,125.52337 42.23769,-25.56056 61.63839,-60.56541 72.09512,-102.5192 31.81131,34.80391 37.77988,78.15507 29.25735,127.55359 C 823.15397,241.55718 649.11236,-90.997546 167.29081,111.76242 z" id="path3973" inkscape:connector-curvature="0" sodipodi:nodetypes="cccccccccc" />
      <g id="g6094" clip-path="url(#clipPath6103)">
        <path style="fill:#6dc6fb;fill-opacity:1;stroke:#1c92cd;stroke-width:18;stroke-linecap:butt;stroke-linejoin:miter;stroke-miterlimit:4;stroke-opacity:1;stroke-dasharray:none;stroke-dashoffset:7.8" d="m 384.88881,209.35146 c 353.8331,-293.383775 360.96431,-286.165956 65.80293,82.12171 z" id="path4786" inkscape:connector-curvature="0" sodipodi:nodetypes="ccc" />
        <path id="path4924" style="fill:none;stroke:#1c92cd;stroke-width:9;stroke-linecap:butt;stroke-linejoin:miter;stroke-miterlimit:4;stroke-opacity:1;stroke-dasharray:none;stroke-dashoffset:7.8" d="m 561.96884,63.605081 c 21.01134,3.064021 41.92257,4.65129 62.79658,4.660758 m -139.5548,56.320601 c 28.0778,8.27859 56.14813,13.89977 84.38986,16.62441 m -150.66451,39.9248 c 30.81741,14.13577 61.85515,24.93525 93.40744,32.07156" inkscape:connector-curvature="0" sodipodi:nodetypes="cccccc" />
        <g id="g6088">
          <path clip-path="none" sodipodi:nodetypes="ccccc" inkscape:connector-curvature="0" id="path6080" d="m 552.9289,162.98398 c -21.36514,-12.05583 -39.49694,-27.55806 -54.0864,-47.21829 12.15502,-10.00921 23.6862,-19.309135 34.46716,-27.784111 12.68847,16.502321 28.03524,29.858521 45.85714,40.830061 -8.15534,10.7664 -16.95194,22.0846 -26.2379,34.17234 z" style="fill:#ebebeb;fill-opacity:1;stroke:none" />
          <path style="fill:white;fill-opacity:1;fill-rule:nonzero;stroke:none" d="m 515.78878,136.28251 46.08157,-19.55023 3.56318,3.31641 -33.8159,29.36018 z" id="path6086" inkscape:connector-curvature="0" sodipodi:nodetypes="ccccc" />
          <path id="path6048" style="fill:none;stroke:#d7d7d7;stroke-width:18;stroke-linecap:butt;stroke-linejoin:miter;stroke-miterlimit:20;stroke-opacity:1;stroke-dasharray:none;stroke-dashoffset:7.8" d="M 508.94589,46.031961 C 531.47581,100.3649 572.23968,132.69955 628.31547,150.74882 M 476.80329,76.133097 c 22.20745,54.465543 62.77893,87.041263 118.74674,105.422623" clip-path="url(#clipPath6070)" inkscape:connector-curvature="0" />
          <path style="fill:none;stroke:#d7d7d7;stroke-width:18;stroke-linecap:butt;stroke-linejoin:miter;stroke-miterlimit:4;stroke-opacity:1;stroke-dasharray:none;stroke-dashoffset:7.8" d="m 384.88881,209.35146 c 353.8331,-293.383775 360.96431,-286.165956 65.80293,82.12171" id="path6051" inkscape:connector-curvature="0" sodipodi:nodetypes="cc" clip-path="url(#clipPath6074)" />
        </g>
      </g>
    </g>
    <g id="g6028">
      <path sodipodi:nodetypes="cccccccc" inkscape:connector-curvature="0" id="path6026" d="M 106.75801,243.47813 C 42.501885,412.35542 102.6226,675.23871 227.30572,763.95829 185.94183,772.24311 135.54341,756.7966 90.9982,723.65446 143.12963,825.86174 131.00959,932.74072 49.658213,996.6656 66.857417,944.94774 64.451,867.68945 30.451922,823.51997 15.007784,923.65919 -43.852675,1004.7866 -150.4184,1042.5303 15.895387,819.58257 -118.14638,496.04211 72.226074,203.50866 z" style="fill:#f3a4d9;fill-opacity:1;stroke:none;display:inline" />
      <path sodipodi:nodetypes="cccccc" inkscape:connector-curvature="0" id="path4666" d="m 86.363437,220.81296 20.394573,22.66517 C 42.501885,412.35542 102.6226,675.23871 227.30572,763.95829 185.94183,772.24311 135.54341,756.7966 90.9982,723.65446 143.12963,825.86174 130.00959,932.74072 48.658213,996.6656 187.93155,803.32692 -111.84873,716.52717 86.363437,220.81296 z" style="fill:#961370;fill-opacity:1;stroke:none;display:inline" />
      <path style="fill:none;stroke:#d91e9b;stroke-width:18;stroke-linecap:butt;stroke-linejoin:miter;stroke-miterlimit:20;stroke-opacity:1;stroke-dasharray:none;display:inline" d="M 106.75801,243.47813 C 42.501885,412.35542 102.6226,675.23871 227.30572,763.95829 185.94183,772.24311 135.54341,756.7966 90.9982,723.65446 143.12963,825.86174 131.00959,932.74072 49.658213,996.6656 66.857417,944.94774 64.451,867.68945 30.451922,823.51997 15.007784,923.65919 -43.852675,1004.7866 -150.4184,1042.5303 15.895387,819.58257 -118.14638,496.04211 72.226074,203.50866 z" id="path4011" inkscape:connector-curvature="0" sodipodi:nodetypes="cccccccc" />
    </g>
    <g id="g4779">
      <path style="fill:#6dc6fb;fill-opacity:1;stroke:none" d="m 97.414214,407.48704 c -109,-196 43.539306,-361.978102 74.585786,-358.121318 22.73132,2.823824 67.29289,92.671568 63.58579,188.499998 z" id="path4777" inkscape:connector-curvature="0" sodipodi:nodetypes="cscc" />
      <path inkscape:original-d="m 97.414214,407.48704 c -109,-196 43.539306,-361.978102 74.585786,-358.121318 22.73132,2.823824 67.29289,92.671568 63.58579,188.499998" inkscape:path-effect="#path-effect4750" sodipodi:nodetypes="csc" inkscape:connector-curvature="0" id="path4730" d="m 55.825134,323.18495 c 1.049902,4.97915 2.289149,9.89865 3.717454,14.74751 7.564291,25.653 20.336462,49.27174 37.871626,69.55458 -4.173559,-12.69626 -7.954073,-25.10994 -11.421912,-37.39314 -3.467838,-12.2832 -6.62382,-24.43638 -9.464168,-36.68339 -1.074632,-4.62756 -2.104422,-9.27035 -3.089038,-13.9397 -3.557843,-16.87238 -5.507714,-34.07346 -5.721853,-51.28345 -0.252215,-19.87895 1.79668,-39.80214 6.006259,-59.25815 10e-7,-1e-5 2e-6,-2e-5 4e-6,-2e-5 3.843725,-17.76782 9.484985,-35.16256 16.724083,-51.87043 6.460356,-14.90469 14.175811,-29.25947 23.088901,-42.81052 7.48554,-11.36907 15.74204,-22.156623 24.94714,-31.957701 0,-5e-6 1e-5,-10e-6 1e-5,-1.5e-5 6.90215,-7.299971 14.01231,-14.049034 21.8686,-19.161109 2.70295,-1.736173 5.22715,-3.228632 7.6647,-4.106865 0.9059,-0.323535 1.66077,-0.570335 2.26273,-0.65689 0.49268,-0.04343 0.71097,-0.102649 0.61082,-0.06859 0,0 0,-1e-6 0,-1e-6 0.11648,-0.06107 0.59119,0.196298 1.38671,0.545529 0.98626,0.493424 2.05793,1.320737 3.26319,2.325062 0,3e-6 1e-5,7e-6 1e-5,1.1e-5 3.28768,2.76539 6.20961,6.481048 9.16443,10.572541 8.57367,12.014898 14.97666,25.866832 20.61342,40.258207 4.60642,11.84859 8.43936,24.01401 11.55276,36.38182 1.78977,7.10978 3.43957,14.31563 5.01125,21.56101 2.4431,11.28867 4.68015,22.65471 6.89404,33.99022 2.21389,11.33551 4.40501,22.63998 6.80949,33.93425 2.69714,-10.90078 4.35496,-22.59685 4.88468,-34.59816 0.52972,-12.00131 -0.0684,-24.3036 -1.725,-36.40913 -1.05398,-7.72986 -2.53333,-15.39592 -4.41709,-22.87425 -3.28742,-13.05071 -7.34678,-25.92373 -12.23203,-38.50461 -5.84391,-15.157397 -12.94523,-30.307007 -22.70844,-44.151234 -3.298,-4.726376 -7.2008,-9.519438 -12.10703,-13.80475 0,-6e-6 -1e-5,-1.2e-5 -2e-5,-1.7e-5 -1.83337,-1.610359 -4.00278,-3.187898 -6.55639,-4.575738 -2.01836,-1.146199 -4.56914,-2.059541 -7.61492,-2.513452 -2e-5,-2e-6 -3e-5,-4e-6 -4e-5,-6e-6 -2.26301,-0.234624 -4.244,-0.133318 -5.89889,0.194857 -2.06188,0.374384 -3.90599,0.917423 -5.53045,1.545607 -4.24262,1.634315 -7.94892,3.72798 -11.211,5.91048 -9.56294,6.331321 -17.75442,13.989788 -25.11256,21.889322 0,5e-6 -1e-5,1.1e-5 -1e-5,1.6e-5 -10.01549,10.68542 -18.90938,22.281434 -26.859319,34.383065 -9.4962,14.44153 -17.703865,29.70737 -24.565516,45.5437 -7.698302,17.76072 -13.698523,36.27209 -17.800969,55.22033 -4.494016,20.75979 -6.678199,42.02771 -6.412125,63.29234 0.234638,18.41549 2.312713,36.77904 6.106463,54.77086 z" style="fill:#1c92cd;fill-opacity:1;stroke:none" />
      <path sodipodi:nodetypes="ccc" inkscape:connector-curvature="0" id="path4732" d="m 154.94715,133.82216 c -40.82763,49.48002 -55.38213,121.07474 -33.89781,185.32927 -6.67921,-68.77058 5.40328,-130.36758 33.89781,-185.32927 z" style="fill:#1c92cd;fill-opacity:1;stroke:none" />
    </g>
  </g>
</svg>
