<svg xmlns="http://www.w3.org/2000/svg" xmlns:xlink="http://www.w3.org/1999/xlink" viewBox="-30 -50 60 100">
  <path d="M-5-47.9c-4.5 4.6-6 10.4-6.4 16.3-1.4 3-3.2 5.6-3.7 8.7 1.3-1.7 2.4-3.4 3.6-5.1.2 3.6.7 6.7 1.5 9.9-.8 2.9-1.4 5.5-1.7 8.2 1.2-1.5 2.1-3 3-4.7.9 2.4 1.9 4.8 3 6.9C-7.7-2.6-8.9.8-8 5.1c1.9-3.6 2.6-7.4 4.2-10.4C0 .9 4.9.7 8.7 7.1c3.8 6.4-.1 9.4-1 12.2 3.2-1.3 5.4-4.2 7.7-8.1 3.3 6.7 4.5 17 .1 23.8C-6.9 24.1-22.9.5-15.9-18.3-27 3.5-2.7 28.2 13.5 36.6 6.4 39.2-16.4 33-21.9 21.4c2.6-.4 5-.9 6.4-2.4-3 .1-6.4-.4-8.5-1.9-2.6-5.6-4.2-11.3-4.9-17.2l5.3 3.3C-25.2.6-27.7-2-29.1-4.7c.2-3.3.7-6.8 1.5-9.8 1 1.7 1.9 3.1 3 4.7-.8-2.8-1-6.5-1.7-10.1 1.1-5.8 3-11.1 6.4-16 .5 1.8 1.1 3.7 1.9 5 .2-2.4 0-5 .3-7.8 3-3.5 7.9-7.4 12.7-9.2z" fill="#605ca8"/>
  <path d="M16.1 37.8l.8-1c6.4 1.1 11.1 3.5 12.6 9.5l-5.6 1.5c.9-5.1-.4-6.8-7.8-10z" fill="#8882be"/>
  <path d="M13-5.4L5.5-.5 10.4-8l-4.9-7.5 7.5 4.9 7.5-4.9L15.6-8l4.9 7.5z" fill="#fff" id="S"/>
  <use transform="translate(17.5-22.9)scale(.34)" xlink:href="#S"/>
  <use transform="translate(11.1-32.2)scale(.49)" xlink:href="#S"/>
  <use transform="rotate(45 46.2-20.7)scale(.36)" xlink:href="#S"/>
  <use transform="rotate(45 31.5-3.9)scale(.52)" xlink:href="#S"/>
</svg>
