<svg xmlns="http://www.w3.org/2000/svg" xmlns:inkscape="http://www.inkscape.org/namespaces/inkscape" xmlns:sodipodi="http://sodipodi.sourceforge.net/DTD/sodipodi-0.dtd" xmlns:xlink="http://www.w3.org/1999/xlink" height="1024" viewBox="0 0 1792 1024.0001" width="1792">
  <defs>
    <inkscape:path-effect effect="powerstroke" end_linecap_type="zerowidth" id="path-effect9721" interpolator_type="CubicBezierSmooth" offset_points="0.18,2.5 | 4.64,2.5" start_linecap_type="zerowidth" />
    <inkscape:path-effect effect="powerstroke" end_linecap_type="zerowidth" id="path-effect9715" interpolator_type="CubicBezierSmooth" offset_points="0.15,5 | 9.56,5" start_linecap_type="zerowidth" />
    <inkscape:path-effect effect="powerstroke" id="path-effect7214" interpolator_type="CubicBezierSmooth" offset_points="0.22,5 | 5,5" start_linecap_type="zerowidth" />
    <inkscape:path-effect effect="powerstroke" end_linecap_type="zerowidth" id="path-effect7204" interpolator_type="CubicBezierSmooth" offset_points="0.2,5 | 8.66,5" start_linecap_type="zerowidth" />
    <inkscape:path-effect effect="join_type" id="path-effect7172" line_width="10" />
    <inkscape:path-effect effect="powerstroke" end_linecap_type="zerowidth" id="path-effect7142" interpolator_type="CubicBezierSmooth" offset_points="0.22,5 | 1.6,5" start_linecap_type="zerowidth" />
    <inkscape:path-effect effect="powerstroke" end_linecap_type="zerowidth" id="path-effect7117" interpolator_type="CubicBezierSmooth" offset_points="0.15,5 | 2.4,5" start_linecap_type="zerowidth" />
    <inkscape:path-effect effect="powerstroke" id="path-effect7111" interpolator_type="CubicBezierSmooth" offset_points="0.23,5" start_linecap_type="zerowidth" />
    <clipPath id="clipPath8011">
      <ellipse cx="181.14122" cy="877.51654" fill="#fff" rx="45.544643" ry="54.100956" transform="rotate(315)" />
    </clipPath>
    <clipPath id="clipPath4295">
      <ellipse cx="199.06287" cy="879.3111" fill="url(#linearGradient7045)" rx="33.662395" ry="40.884205" transform="rotate(315)" />
    </clipPath>
    <linearGradient id="linearGradient4281">
      <stop offset="0" stop-color="#230f38" />
      <stop offset="1" stop-color="#5c2594" />
    </linearGradient>
    <linearGradient gradientUnits="userSpaceOnUse" id="linearGradient6905" x1="186.9471" x2="189.20007" y1="851.7475" y2="906.58624" xlink:href="#linearGradient4281" />
    <linearGradient gradientUnits="userSpaceOnUse" id="linearGradient7045" x1="186.9471" x2="189.20007" y1="851.7475" y2="906.58624" xlink:href="#linearGradient4281" />
    <clipPath id="clipPath7179">
      <path d="m 1331.04,171.8062 c -48.8915,42.77023 112.1614,100.27103 65.9447,9.24405 l -54.4634,-47.09475 c 31.7103,-176.495898 82.9909,-165.736816 55.5798,8.28922 z" />
    </clipPath>
  </defs>
  <rect fill="#332740" height="1008" width="1792" y="8" />
  <g fill="#fff" opacity=".1">
    <circle cx="48" cy="16" r="10" />
    <circle cx="80" cy="16" r="10" />
    <circle cx="144" cy="16" r="10" />
    <circle cx="176" cy="16" r="10" />
    <circle cx="240" cy="16" r="10" />
    <circle cx="272" cy="16" r="10" />
    <circle cx="304" cy="16" r="10" />
    <circle cx="336" cy="16" r="10" />
    <circle cx="368" cy="16" r="10" />
    <circle cx="464" cy="16" r="10" />
    <circle cx="528" cy="16" r="10" />
    <circle cx="560" cy="16" r="10" />
    <circle cx="592" cy="16" r="10" />
    <circle cx="624" cy="16" r="10" />
    <circle cx="656" cy="16" r="10" />
    <circle cx="720" cy="16" r="10" />
    <circle cx="752" cy="16" r="10" />
    <circle cx="816" cy="16" r="10" />
    <circle cx="912" cy="16" r="10" />
    <circle cx="944" cy="16" r="10" />
    <circle cx="1008" cy="16" r="10" />
    <circle cx="1040" cy="16" r="10" />
    <circle cx="1072" cy="16" r="10" />
    <circle cx="1104" cy="16" r="10" />
    <circle cx="1136" cy="16" r="10" />
    <circle cx="1168" cy="16" r="10" />
    <circle cx="1232" cy="16" r="10" />
    <circle cx="1264" cy="16" r="10" />
    <circle cx="1296" cy="16" r="10" />
    <circle cx="1328" cy="16" r="10" />
    <circle cx="1392" cy="16" r="10" />
    <circle cx="1424" cy="16" r="10" />
    <circle cx="1488" cy="16" r="10" />
    <circle cx="1584" cy="16" r="10" />
    <circle cx="1616" cy="16" r="10" />
    <circle cx="1648" cy="16" r="10" />
    <circle cx="1776" cy="16" r="10" />
    <circle cx="16" cy="48" r="10" />
    <circle cx="80" cy="48" r="10" />
    <circle cx="112" cy="48" r="10" />
    <circle cx="208" cy="48" r="10" />
    <circle cx="272" cy="48" r="10" />
    <circle cx="304" cy="48" r="10" />
    <circle cx="336" cy="48" r="10" />
    <circle cx="368" cy="48" r="10" />
    <circle cx="400" cy="48" r="10" />
    <circle cx="464" cy="48" r="10" />
    <circle cx="496" cy="48" r="10" />
    <circle cx="528" cy="48" r="10" />
    <circle cx="624" cy="48" r="10" />
    <circle cx="656" cy="48" r="10" />
    <circle cx="688" cy="48" r="10" />
    <circle cx="720" cy="48" r="10" />
    <circle cx="752" cy="48" r="10" />
    <circle cx="784" cy="48" r="10" />
    <circle cx="848" cy="48" r="10" />
    <circle cx="944" cy="48" r="10" />
    <circle cx="976" cy="48" r="10" />
    <circle cx="1008" cy="48" r="10" />
    <circle cx="1040" cy="48" r="10" />
    <circle cx="1072" cy="48" r="10" />
    <circle cx="1136" cy="48" r="10" />
    <circle cx="1168" cy="48" r="10" />
    <circle cx="1264" cy="48" r="10" />
    <circle cx="1328" cy="48" r="10" />
    <circle cx="1360" cy="48" r="10" />
    <circle cx="1424" cy="48" r="10" />
    <circle cx="1456" cy="48" r="10" />
    <circle cx="1488" cy="48" r="10" />
    <circle cx="1520" cy="48" r="10" />
    <circle cx="1744" cy="48" r="10" />
    <circle cx="16" cy="80" r="10" />
    <circle cx="48" cy="80" r="10" />
    <circle cx="144" cy="80" r="10" />
    <circle cx="176" cy="80" r="10" />
    <circle cx="208" cy="80" r="10" />
    <circle cx="304" cy="80" r="10" />
    <circle cx="400" cy="80" r="10" />
    <circle cx="432" cy="80" r="10" />
    <circle cx="496" cy="80" r="10" />
    <circle cx="528" cy="80" r="10" />
    <circle cx="560" cy="80" r="10" />
    <circle cx="592" cy="80" r="10" />
    <circle cx="624" cy="80" r="10" />
    <circle cx="656" cy="80" r="10" />
    <circle cx="720" cy="80" r="10" />
    <circle cx="752" cy="80" r="10" />
    <circle cx="784" cy="80" r="10" />
    <circle cx="880" cy="80" r="10" />
    <circle cx="912" cy="80" r="10" />
    <circle cx="976" cy="80" r="10" />
    <circle cx="1008" cy="80" r="10" />
    <circle cx="1040" cy="80" r="10" />
    <circle cx="1072" cy="80" r="10" />
    <circle cx="1136" cy="80" r="10" />
    <circle cx="1200" cy="80" r="10" />
    <circle cx="1232" cy="80" r="10" />
    <circle cx="1296" cy="80" r="10" />
    <circle cx="1328" cy="80" r="10" />
    <circle cx="1360" cy="80" r="10" />
    <circle cx="1424" cy="80" r="10" />
    <circle cx="1456" cy="80" r="10" />
    <circle cx="1488" cy="80" r="10" />
    <circle cx="1552" cy="80" r="10" />
    <circle cx="1648" cy="80" r="10" />
    <circle cx="1680" cy="80" r="10" />
    <circle cx="1776" cy="80" r="10" />
    <circle cx="48" cy="112" r="10" />
    <circle cx="80" cy="112" r="10" />
    <circle cx="144" cy="112" r="10" />
    <circle cx="176" cy="112" r="10" />
    <circle cx="208" cy="112" r="10" />
    <circle cx="240" cy="112" r="10" />
    <circle cx="272" cy="112" r="10" />
    <circle cx="336" cy="112" r="10" />
    <circle cx="368" cy="112" r="10" />
    <circle cx="432" cy="112" r="10" />
    <circle cx="464" cy="112" r="10" />
    <circle cx="528" cy="112" r="10" />
    <circle cx="560" cy="112" r="10" />
    <circle cx="688" cy="112" r="10" />
    <circle cx="720" cy="112" r="10" />
    <circle cx="816" cy="112" r="10" />
    <circle cx="848" cy="112" r="10" />
    <circle cx="912" cy="112" r="10" />
    <circle cx="944" cy="112" r="10" />
    <circle cx="1040" cy="112" r="10" />
    <circle cx="1072" cy="112" r="10" />
    <circle cx="1104" cy="112" r="10" />
    <circle cx="1168" cy="112" r="10" />
    <circle cx="1232" cy="112" r="10" />
    <circle cx="1328" cy="112" r="10" />
    <circle cx="1520" cy="112" r="10" />
    <circle cx="1584" cy="112" r="10" />
    <circle cx="1680" cy="112" r="10" />
    <circle cx="1776" cy="112" r="10" />
    <circle cx="16" cy="144" r="10" />
    <circle cx="48" cy="144" r="10" />
    <circle cx="80" cy="144" r="10" />
    <circle cx="112" cy="144" r="10" />
    <circle cx="176" cy="144" r="10" />
    <circle cx="240" cy="144" r="10" />
    <circle cx="272" cy="144" r="10" />
    <circle cx="336" cy="144" r="10" />
    <circle cx="368" cy="144" r="10" />
    <circle cx="400" cy="144" r="10" />
    <circle cx="496" cy="144" r="10" />
    <circle cx="592" cy="144" r="10" />
    <circle cx="624" cy="144" r="10" />
    <circle cx="752" cy="144" r="10" />
    <circle cx="784" cy="144" r="10" />
    <circle cx="848" cy="144" r="10" />
    <circle cx="880" cy="144" r="10" />
    <circle cx="976" cy="144" r="10" />
    <circle cx="1040" cy="144" r="10" />
    <circle cx="1072" cy="144" r="10" />
    <circle cx="1104" cy="144" r="10" />
    <circle cx="1136" cy="144" r="10" />
    <circle cx="1168" cy="144" r="10" />
    <circle cx="1232" cy="144" r="10" />
    <circle cx="1264" cy="144" r="10" />
    <circle cx="1296" cy="144" r="10" />
    <circle cx="1392" cy="144" r="10" />
    <circle cx="1424" cy="144" r="10" />
    <circle cx="1488" cy="144" r="10" />
    <circle cx="1520" cy="144" r="10" />
    <circle cx="1552" cy="144" r="10" />
    <circle cx="1648" cy="144" r="10" />
    <circle cx="1744" cy="144" r="10" />
    <circle cx="1776" cy="144" r="10" />
    <circle cx="16" cy="176" r="10" />
    <circle cx="112" cy="176" r="10" />
    <circle cx="144" cy="176" r="10" />
    <circle cx="176" cy="176" r="10" />
    <circle cx="208" cy="176" r="10" />
    <circle cx="272" cy="176" r="10" />
    <circle cx="336" cy="176" r="10" />
    <circle cx="464" cy="176" r="10" />
    <circle cx="560" cy="176" r="10" />
    <circle cx="592" cy="176" r="10" />
    <circle cx="656" cy="176" r="10" />
    <circle cx="688" cy="176" r="10" />
    <circle cx="784" cy="176" r="10" />
    <circle cx="816" cy="176" r="10" />
    <circle cx="848" cy="176" r="10" />
    <circle cx="880" cy="176" r="10" />
    <circle cx="912" cy="176" r="10" />
    <circle cx="944" cy="176" r="10" />
    <circle cx="1040" cy="176" r="10" />
    <circle cx="1072" cy="176" r="10" />
    <circle cx="1104" cy="176" r="10" />
    <circle cx="1168" cy="176" r="10" />
    <circle cx="1264" cy="176" r="10" />
    <circle cx="1296" cy="176" r="10" />
    <circle cx="1392" cy="176" r="10" />
    <circle cx="1456" cy="176" r="10" />
    <circle cx="1488" cy="176" r="10" />
    <circle cx="1552" cy="176" r="10" />
    <circle cx="1584" cy="176" r="10" />
    <circle cx="1744" cy="176" r="10" />
    <circle cx="1776" cy="176" r="10" />
    <circle cx="80" cy="208" r="10" />
    <circle cx="144" cy="208" r="10" />
    <circle cx="176" cy="208" r="10" />
    <circle cx="240" cy="208" r="10" />
    <circle cx="272" cy="208" r="10" />
    <circle cx="304" cy="208" r="10" />
    <circle cx="336" cy="208" r="10" />
    <circle cx="400" cy="208" r="10" />
    <circle cx="432" cy="208" r="10" />
    <circle cx="464" cy="208" r="10" />
    <circle cx="496" cy="208" r="10" />
    <circle cx="528" cy="208" r="10" />
    <circle cx="560" cy="208" r="10" />
    <circle cx="624" cy="208" r="10" />
    <circle cx="656" cy="208" r="10" />
    <circle cx="688" cy="208" r="10" />
    <circle cx="720" cy="208" r="10" />
    <circle cx="848" cy="208" r="10" />
    <circle cx="880" cy="208" r="10" />
    <circle cx="912" cy="208" r="10" />
    <circle cx="1040" cy="208" r="10" />
    <circle cx="1104" cy="208" r="10" />
    <circle cx="1200" cy="208" r="10" />
    <circle cx="1264" cy="208" r="10" />
    <circle cx="1360" cy="208" r="10" />
    <circle cx="1392" cy="208" r="10" />
    <circle cx="1424" cy="208" r="10" />
    <circle cx="1520" cy="208" r="10" />
    <circle cx="1584" cy="208" r="10" />
    <circle cx="1616" cy="208" r="10" />
    <circle cx="1680" cy="208" r="10" />
    <circle cx="1712" cy="208" r="10" />
    <circle cx="16" cy="240" r="10" />
    <circle cx="48" cy="240" r="10" />
    <circle cx="80" cy="240" r="10" />
    <circle cx="112" cy="240" r="10" />
    <circle cx="272" cy="240" r="10" />
    <circle cx="304" cy="240" r="10" />
    <circle cx="336" cy="240" r="10" />
    <circle cx="400" cy="240" r="10" />
    <circle cx="432" cy="240" r="10" />
    <circle cx="496" cy="240" r="10" />
    <circle cx="528" cy="240" r="10" />
    <circle cx="560" cy="240" r="10" />
    <circle cx="656" cy="240" r="10" />
    <circle cx="848" cy="240" r="10" />
    <circle cx="944" cy="240" r="10" />
    <circle cx="1008" cy="240" r="10" />
    <circle cx="1072" cy="240" r="10" />
    <circle cx="1200" cy="240" r="10" />
    <circle cx="1232" cy="240" r="10" />
    <circle cx="1264" cy="240" r="10" />
    <circle cx="1328" cy="240" r="10" />
    <circle cx="1360" cy="240" r="10" />
    <circle cx="1392" cy="240" r="10" />
    <circle cx="1520" cy="240" r="10" />
    <circle cx="1552" cy="240" r="10" />
    <circle cx="1712" cy="240" r="10" />
    <circle cx="1744" cy="240" r="10" />
    <circle cx="16" cy="272" r="10" />
    <circle cx="48" cy="272" r="10" />
    <circle cx="80" cy="272" r="10" />
    <circle cx="144" cy="272" r="10" />
    <circle cx="208" cy="272" r="10" />
    <circle cx="304" cy="272" r="10" />
    <circle cx="336" cy="272" r="10" />
    <circle cx="464" cy="272" r="10" />
    <circle cx="528" cy="272" r="10" />
    <circle cx="624" cy="272" r="10" />
    <circle cx="656" cy="272" r="10" />
    <circle cx="688" cy="272" r="10" />
    <circle cx="720" cy="272" r="10" />
    <circle cx="784" cy="272" r="10" />
    <circle cx="816" cy="272" r="10" />
    <circle cx="976" cy="272" r="10" />
    <circle cx="1008" cy="272" r="10" />
    <circle cx="1072" cy="272" r="10" />
    <circle cx="1168" cy="272" r="10" />
    <circle cx="1200" cy="272" r="10" />
    <circle cx="1232" cy="272" r="10" />
    <circle cx="1264" cy="272" r="10" />
    <circle cx="1456" cy="272" r="10" />
    <circle cx="1488" cy="272" r="10" />
    <circle cx="1552" cy="272" r="10" />
    <circle cx="1584" cy="272" r="10" />
    <circle cx="1680" cy="272" r="10" />
    <circle cx="1712" cy="272" r="10" />
    <circle cx="1744" cy="272" r="10" />
    <circle cx="48" cy="304" r="10" />
    <circle cx="144" cy="304" r="10" />
    <circle cx="176" cy="304" r="10" />
    <circle cx="240" cy="304" r="10" />
    <circle cx="272" cy="304" r="10" />
    <circle cx="304" cy="304" r="10" />
    <circle cx="336" cy="304" r="10" />
    <circle cx="368" cy="304" r="10" />
    <circle cx="400" cy="304" r="10" />
    <circle cx="464" cy="304" r="10" />
    <circle cx="496" cy="304" r="10" />
    <circle cx="528" cy="304" r="10" />
    <circle cx="624" cy="304" r="10" />
    <circle cx="656" cy="304" r="10" />
    <circle cx="720" cy="304" r="10" />
    <circle cx="752" cy="304" r="10" />
    <circle cx="784" cy="304" r="10" />
    <circle cx="880" cy="304" r="10" />
    <circle cx="976" cy="304" r="10" />
    <circle cx="1040" cy="304" r="10" />
    <circle cx="1072" cy="304" r="10" />
    <circle cx="1136" cy="304" r="10" />
    <circle cx="1168" cy="304" r="10" />
    <circle cx="1232" cy="304" r="10" />
    <circle cx="1264" cy="304" r="10" />
    <circle cx="1296" cy="304" r="10" />
    <circle cx="1328" cy="304" r="10" />
    <circle cx="1392" cy="304" r="10" />
    <circle cx="1456" cy="304" r="10" />
    <circle cx="1488" cy="304" r="10" />
    <circle cx="1520" cy="304" r="10" />
    <circle cx="1680" cy="304" r="10" />
    <circle cx="1744" cy="304" r="10" />
    <circle cx="1776" cy="304" r="10" />
    <circle cx="16" cy="336" r="10" />
    <circle cx="48" cy="336" r="10" />
    <circle cx="112" cy="336" r="10" />
    <circle cx="176" cy="336" r="10" />
    <circle cx="208" cy="336" r="10" />
    <circle cx="240" cy="336" r="10" />
    <circle cx="272" cy="336" r="10" />
    <circle cx="304" cy="336" r="10" />
    <circle cx="336" cy="336" r="10" />
    <circle cx="368" cy="336" r="10" />
    <circle cx="400" cy="336" r="10" />
    <circle cx="496" cy="336" r="10" />
    <circle cx="528" cy="336" r="10" />
    <circle cx="624" cy="336" r="10" />
    <circle cx="656" cy="336" r="10" />
    <circle cx="688" cy="336" r="10" />
    <circle cx="752" cy="336" r="10" />
    <circle cx="816" cy="336" r="10" />
    <circle cx="912" cy="336" r="10" />
    <circle cx="944" cy="336" r="10" />
    <circle cx="1104" cy="336" r="10" />
    <circle cx="1136" cy="336" r="10" />
    <circle cx="1168" cy="336" r="10" />
    <circle cx="1200" cy="336" r="10" />
    <circle cx="1296" cy="336" r="10" />
    <circle cx="1328" cy="336" r="10" />
    <circle cx="1360" cy="336" r="10" />
    <circle cx="1392" cy="336" r="10" />
    <circle cx="1552" cy="336" r="10" />
    <circle cx="1616" cy="336" r="10" />
    <circle cx="1648" cy="336" r="10" />
    <circle cx="1680" cy="336" r="10" />
    <circle cx="1712" cy="336" r="10" />
    <circle cx="1744" cy="336" r="10" />
    <circle cx="16" cy="368" r="10" />
    <circle cx="80" cy="368" r="10" />
    <circle cx="112" cy="368" r="10" />
    <circle cx="240" cy="368" r="10" />
    <circle cx="272" cy="368" r="10" />
    <circle cx="336" cy="368" r="10" />
    <circle cx="400" cy="368" r="10" />
    <circle cx="432" cy="368" r="10" />
    <circle cx="528" cy="368" r="10" />
    <circle cx="560" cy="368" r="10" />
    <circle cx="624" cy="368" r="10" />
    <circle cx="688" cy="368" r="10" />
    <circle cx="720" cy="368" r="10" />
    <circle cx="784" cy="368" r="10" />
    <circle cx="880" cy="368" r="10" />
    <circle cx="944" cy="368" r="10" />
    <circle cx="976" cy="368" r="10" />
    <circle cx="1008" cy="368" r="10" />
    <circle cx="1104" cy="368" r="10" />
    <circle cx="1136" cy="368" r="10" />
    <circle cx="1168" cy="368" r="10" />
    <circle cx="1296" cy="368" r="10" />
    <circle cx="1360" cy="368" r="10" />
    <circle cx="1456" cy="368" r="10" />
    <circle cx="1520" cy="368" r="10" />
    <circle cx="1584" cy="368" r="10" />
    <circle cx="1648" cy="368" r="10" />
    <circle cx="1680" cy="368" r="10" />
    <circle cx="1712" cy="368" r="10" />
    <circle cx="1744" cy="368" r="10" />
    <circle cx="1776" cy="368" r="10" />
    <circle cx="48" cy="400" r="10" />
    <circle cx="144" cy="400" r="10" />
    <circle cx="176" cy="400" r="10" />
    <circle cx="240" cy="400" r="10" />
    <circle cx="272" cy="400" r="10" />
    <circle cx="304" cy="400" r="10" />
    <circle cx="336" cy="400" r="10" />
    <circle cx="368" cy="400" r="10" />
    <circle cx="464" cy="400" r="10" />
    <circle cx="528" cy="400" r="10" />
    <circle cx="560" cy="400" r="10" />
    <circle cx="592" cy="400" r="10" />
    <circle cx="624" cy="400" r="10" />
    <circle cx="656" cy="400" r="10" />
    <circle cx="688" cy="400" r="10" />
    <circle cx="784" cy="400" r="10" />
    <circle cx="816" cy="400" r="10" />
    <circle cx="848" cy="400" r="10" />
    <circle cx="880" cy="400" r="10" />
    <circle cx="912" cy="400" r="10" />
    <circle cx="944" cy="400" r="10" />
    <circle cx="976" cy="400" r="10" />
    <circle cx="1040" cy="400" r="10" />
    <circle cx="1072" cy="400" r="10" />
    <circle cx="1104" cy="400" r="10" />
    <circle cx="1232" cy="400" r="10" />
    <circle cx="1296" cy="400" r="10" />
    <circle cx="1360" cy="400" r="10" />
    <circle cx="1392" cy="400" r="10" />
    <circle cx="1424" cy="400" r="10" />
    <circle cx="1520" cy="400" r="10" />
    <circle cx="1680" cy="400" r="10" />
    <circle cx="1712" cy="400" r="10" />
    <circle cx="1744" cy="400" r="10" />
    <circle cx="1776" cy="400" r="10" />
    <circle cx="16" cy="432" r="10" />
    <circle cx="112" cy="432" r="10" />
    <circle cx="272" cy="432" r="10" />
    <circle cx="304" cy="432" r="10" />
    <circle cx="400" cy="432" r="10" />
    <circle cx="496" cy="432" r="10" />
    <circle cx="560" cy="432" r="10" />
    <circle cx="592" cy="432" r="10" />
    <circle cx="624" cy="432" r="10" />
    <circle cx="720" cy="432" r="10" />
    <circle cx="816" cy="432" r="10" />
    <circle cx="880" cy="432" r="10" />
    <circle cx="912" cy="432" r="10" />
    <circle cx="976" cy="432" r="10" />
    <circle cx="1040" cy="432" r="10" />
    <circle cx="1072" cy="432" r="10" />
    <circle cx="1200" cy="432" r="10" />
    <circle cx="1232" cy="432" r="10" />
    <circle cx="1328" cy="432" r="10" />
    <circle cx="1360" cy="432" r="10" />
    <circle cx="1424" cy="432" r="10" />
    <circle cx="1456" cy="432" r="10" />
    <circle cx="1552" cy="432" r="10" />
    <circle cx="1584" cy="432" r="10" />
    <circle cx="1616" cy="432" r="10" />
    <circle cx="1648" cy="432" r="10" />
    <circle cx="16" cy="464" r="10" />
    <circle cx="48" cy="464" r="10" />
    <circle cx="80" cy="464" r="10" />
    <circle cx="112" cy="464" r="10" />
    <circle cx="144" cy="464" r="10" />
    <circle cx="208" cy="464" r="10" />
    <circle cx="240" cy="464" r="10" />
    <circle cx="304" cy="464" r="10" />
    <circle cx="432" cy="464" r="10" />
    <circle cx="496" cy="464" r="10" />
    <circle cx="528" cy="464" r="10" />
    <circle cx="592" cy="464" r="10" />
    <circle cx="624" cy="464" r="10" />
    <circle cx="656" cy="464" r="10" />
    <circle cx="688" cy="464" r="10" />
    <circle cx="784" cy="464" r="10" />
    <circle cx="816" cy="464" r="10" />
    <circle cx="848" cy="464" r="10" />
    <circle cx="976" cy="464" r="10" />
    <circle cx="1008" cy="464" r="10" />
    <circle cx="1040" cy="464" r="10" />
    <circle cx="1104" cy="464" r="10" />
    <circle cx="1136" cy="464" r="10" />
    <circle cx="1296" cy="464" r="10" />
    <circle cx="1328" cy="464" r="10" />
    <circle cx="1520" cy="464" r="10" />
    <circle cx="1648" cy="464" r="10" />
    <circle cx="1680" cy="464" r="10" />
    <circle cx="1712" cy="464" r="10" />
    <circle cx="80" cy="496" r="10" />
    <circle cx="208" cy="496" r="10" />
    <circle cx="304" cy="496" r="10" />
    <circle cx="336" cy="496" r="10" />
    <circle cx="560" cy="496" r="10" />
    <circle cx="592" cy="496" r="10" />
    <circle cx="624" cy="496" r="10" />
    <circle cx="656" cy="496" r="10" />
    <circle cx="720" cy="496" r="10" />
    <circle cx="848" cy="496" r="10" />
    <circle cx="912" cy="496" r="10" />
    <circle cx="944" cy="496" r="10" />
    <circle cx="976" cy="496" r="10" />
    <circle cx="1008" cy="496" r="10" />
    <circle cx="1136" cy="496" r="10" />
    <circle cx="1232" cy="496" r="10" />
    <circle cx="1264" cy="496" r="10" />
    <circle cx="1296" cy="496" r="10" />
    <circle cx="1328" cy="496" r="10" />
    <circle cx="1584" cy="496" r="10" />
    <circle cx="1616" cy="496" r="10" />
    <circle cx="1648" cy="496" r="10" />
    <circle cx="1680" cy="496" r="10" />
    <circle cx="1776" cy="496" r="10" />
    <circle cx="16" cy="528" r="10" />
    <circle cx="48" cy="528" r="10" />
    <circle cx="80" cy="528" r="10" />
    <circle cx="144" cy="528" r="10" />
    <circle cx="176" cy="528" r="10" />
    <circle cx="240" cy="528" r="10" />
    <circle cx="272" cy="528" r="10" />
    <circle cx="368" cy="528" r="10" />
    <circle cx="400" cy="528" r="10" />
    <circle cx="432" cy="528" r="10" />
    <circle cx="592" cy="528" r="10" />
    <circle cx="656" cy="528" r="10" />
    <circle cx="688" cy="528" r="10" />
    <circle cx="752" cy="528" r="10" />
    <circle cx="816" cy="528" r="10" />
    <circle cx="880" cy="528" r="10" />
    <circle cx="912" cy="528" r="10" />
    <circle cx="944" cy="528" r="10" />
    <circle cx="1008" cy="528" r="10" />
    <circle cx="1040" cy="528" r="10" />
    <circle cx="1072" cy="528" r="10" />
    <circle cx="1136" cy="528" r="10" />
    <circle cx="1200" cy="528" r="10" />
    <circle cx="1232" cy="528" r="10" />
    <circle cx="1296" cy="528" r="10" />
    <circle cx="1360" cy="528" r="10" />
    <circle cx="1392" cy="528" r="10" />
    <circle cx="1424" cy="528" r="10" />
    <circle cx="1520" cy="528" r="10" />
    <circle cx="1552" cy="528" r="10" />
    <circle cx="1616" cy="528" r="10" />
    <circle cx="1712" cy="528" r="10" />
    <circle cx="1776" cy="528" r="10" />
    <circle cx="48" cy="560" r="10" />
    <circle cx="144" cy="560" r="10" />
    <circle cx="208" cy="560" r="10" />
    <circle cx="304" cy="560" r="10" />
    <circle cx="336" cy="560" r="10" />
    <circle cx="368" cy="560" r="10" />
    <circle cx="432" cy="560" r="10" />
    <circle cx="496" cy="560" r="10" />
    <circle cx="528" cy="560" r="10" />
    <circle cx="560" cy="560" r="10" />
    <circle cx="592" cy="560" r="10" />
    <circle cx="656" cy="560" r="10" />
    <circle cx="720" cy="560" r="10" />
    <circle cx="944" cy="560" r="10" />
    <circle cx="1072" cy="560" r="10" />
    <circle cx="1104" cy="560" r="10" />
    <circle cx="1136" cy="560" r="10" />
    <circle cx="1168" cy="560" r="10" />
    <circle cx="1264" cy="560" r="10" />
    <circle cx="1296" cy="560" r="10" />
    <circle cx="1360" cy="560" r="10" />
    <circle cx="1392" cy="560" r="10" />
    <circle cx="1552" cy="560" r="10" />
    <circle cx="1584" cy="560" r="10" />
    <circle cx="1616" cy="560" r="10" />
    <circle cx="1648" cy="560" r="10" />
    <circle cx="1680" cy="560" r="10" />
    <circle cx="1776" cy="560" r="10" />
    <circle cx="80" cy="592" r="10" />
    <circle cx="112" cy="592" r="10" />
    <circle cx="240" cy="592" r="10" />
    <circle cx="272" cy="592" r="10" />
    <circle cx="336" cy="592" r="10" />
    <circle cx="368" cy="592" r="10" />
    <circle cx="464" cy="592" r="10" />
    <circle cx="528" cy="592" r="10" />
    <circle cx="560" cy="592" r="10" />
    <circle cx="592" cy="592" r="10" />
    <circle cx="624" cy="592" r="10" />
    <circle cx="656" cy="592" r="10" />
    <circle cx="720" cy="592" r="10" />
    <circle cx="752" cy="592" r="10" />
    <circle cx="784" cy="592" r="10" />
    <circle cx="880" cy="592" r="10" />
    <circle cx="912" cy="592" r="10" />
    <circle cx="976" cy="592" r="10" />
    <circle cx="1008" cy="592" r="10" />
    <circle cx="1040" cy="592" r="10" />
    <circle cx="1136" cy="592" r="10" />
    <circle cx="1232" cy="592" r="10" />
    <circle cx="1296" cy="592" r="10" />
    <circle cx="1328" cy="592" r="10" />
    <circle cx="1392" cy="592" r="10" />
    <circle cx="1424" cy="592" r="10" />
    <circle cx="1488" cy="592" r="10" />
    <circle cx="1520" cy="592" r="10" />
    <circle cx="1552" cy="592" r="10" />
    <circle cx="1648" cy="592" r="10" />
    <circle cx="1744" cy="592" r="10" />
    <circle cx="48" cy="624" r="10" />
    <circle cx="144" cy="624" r="10" />
    <circle cx="176" cy="624" r="10" />
    <circle cx="272" cy="624" r="10" />
    <circle cx="336" cy="624" r="10" />
    <circle cx="464" cy="624" r="10" />
    <circle cx="528" cy="624" r="10" />
    <circle cx="624" cy="624" r="10" />
    <circle cx="656" cy="624" r="10" />
    <circle cx="688" cy="624" r="10" />
    <circle cx="720" cy="624" r="10" />
    <circle cx="752" cy="624" r="10" />
    <circle cx="784" cy="624" r="10" />
    <circle cx="848" cy="624" r="10" />
    <circle cx="976" cy="624" r="10" />
    <circle cx="1104" cy="624" r="10" />
    <circle cx="1136" cy="624" r="10" />
    <circle cx="1168" cy="624" r="10" />
    <circle cx="1232" cy="624" r="10" />
    <circle cx="1264" cy="624" r="10" />
    <circle cx="1392" cy="624" r="10" />
    <circle cx="1456" cy="624" r="10" />
    <circle cx="1552" cy="624" r="10" />
    <circle cx="1648" cy="624" r="10" />
    <circle cx="1680" cy="624" r="10" />
    <circle cx="1712" cy="624" r="10" />
    <circle cx="1744" cy="624" r="10" />
    <circle cx="1776" cy="624" r="10" />
    <circle cx="16" cy="656" r="10" />
    <circle cx="48" cy="656" r="10" />
    <circle cx="80" cy="656" r="10" />
    <circle cx="112" cy="656" r="10" />
    <circle cx="176" cy="656" r="10" />
    <circle cx="208" cy="656" r="10" />
    <circle cx="336" cy="656" r="10" />
    <circle cx="400" cy="656" r="10" />
    <circle cx="432" cy="656" r="10" />
    <circle cx="464" cy="656" r="10" />
    <circle cx="528" cy="656" r="10" />
    <circle cx="592" cy="656" r="10" />
    <circle cx="656" cy="656" r="10" />
    <circle cx="720" cy="656" r="10" />
    <circle cx="752" cy="656" r="10" />
    <circle cx="784" cy="656" r="10" />
    <circle cx="944" cy="656" r="10" />
    <circle cx="976" cy="656" r="10" />
    <circle cx="1040" cy="656" r="10" />
    <circle cx="1136" cy="656" r="10" />
    <circle cx="1232" cy="656" r="10" />
    <circle cx="1296" cy="656" r="10" />
    <circle cx="1360" cy="656" r="10" />
    <circle cx="1392" cy="656" r="10" />
    <circle cx="1456" cy="656" r="10" />
    <circle cx="1488" cy="656" r="10" />
    <circle cx="1520" cy="656" r="10" />
    <circle cx="1584" cy="656" r="10" />
    <circle cx="1616" cy="656" r="10" />
    <circle cx="1648" cy="656" r="10" />
    <circle cx="1776" cy="656" r="10" />
    <circle cx="16" cy="688" r="10" />
    <circle cx="80" cy="688" r="10" />
    <circle cx="400" cy="688" r="10" />
    <circle cx="464" cy="688" r="10" />
    <circle cx="496" cy="688" r="10" />
    <circle cx="528" cy="688" r="10" />
    <circle cx="592" cy="688" r="10" />
    <circle cx="624" cy="688" r="10" />
    <circle cx="688" cy="688" r="10" />
    <circle cx="752" cy="688" r="10" />
    <circle cx="784" cy="688" r="10" />
    <circle cx="816" cy="688" r="10" />
    <circle cx="848" cy="688" r="10" />
    <circle cx="880" cy="688" r="10" />
    <circle cx="912" cy="688" r="10" />
    <circle cx="944" cy="688" r="10" />
    <circle cx="976" cy="688" r="10" />
    <circle cx="1008" cy="688" r="10" />
    <circle cx="1072" cy="688" r="10" />
    <circle cx="1136" cy="688" r="10" />
    <circle cx="1200" cy="688" r="10" />
    <circle cx="1296" cy="688" r="10" />
    <circle cx="1328" cy="688" r="10" />
    <circle cx="1424" cy="688" r="10" />
    <circle cx="1488" cy="688" r="10" />
    <circle cx="1520" cy="688" r="10" />
    <circle cx="1552" cy="688" r="10" />
    <circle cx="1616" cy="688" r="10" />
    <circle cx="1680" cy="688" r="10" />
    <circle cx="1712" cy="688" r="10" />
    <circle cx="16" cy="720" r="10" />
    <circle cx="144" cy="720" r="10" />
    <circle cx="208" cy="720" r="10" />
    <circle cx="240" cy="720" r="10" />
    <circle cx="464" cy="720" r="10" />
    <circle cx="496" cy="720" r="10" />
    <circle cx="528" cy="720" r="10" />
    <circle cx="624" cy="720" r="10" />
    <circle cx="656" cy="720" r="10" />
    <circle cx="752" cy="720" r="10" />
    <circle cx="784" cy="720" r="10" />
    <circle cx="816" cy="720" r="10" />
    <circle cx="848" cy="720" r="10" />
    <circle cx="944" cy="720" r="10" />
    <circle cx="1008" cy="720" r="10" />
    <circle cx="1040" cy="720" r="10" />
    <circle cx="1104" cy="720" r="10" />
    <circle cx="1232" cy="720" r="10" />
    <circle cx="1264" cy="720" r="10" />
    <circle cx="1360" cy="720" r="10" />
    <circle cx="1424" cy="720" r="10" />
    <circle cx="1520" cy="720" r="10" />
    <circle cx="1552" cy="720" r="10" />
    <circle cx="1648" cy="720" r="10" />
    <circle cx="1712" cy="720" r="10" />
    <circle cx="1744" cy="720" r="10" />
    <circle cx="1776" cy="720" r="10" />
    <circle cx="80" cy="752" r="10" />
    <circle cx="112" cy="752" r="10" />
    <circle cx="144" cy="752" r="10" />
    <circle cx="176" cy="752" r="10" />
    <circle cx="208" cy="752" r="10" />
    <circle cx="240" cy="752" r="10" />
    <circle cx="400" cy="752" r="10" />
    <circle cx="432" cy="752" r="10" />
    <circle cx="464" cy="752" r="10" />
    <circle cx="496" cy="752" r="10" />
    <circle cx="528" cy="752" r="10" />
    <circle cx="560" cy="752" r="10" />
    <circle cx="624" cy="752" r="10" />
    <circle cx="688" cy="752" r="10" />
    <circle cx="784" cy="752" r="10" />
    <circle cx="816" cy="752" r="10" />
    <circle cx="912" cy="752" r="10" />
    <circle cx="944" cy="752" r="10" />
    <circle cx="1104" cy="752" r="10" />
    <circle cx="1232" cy="752" r="10" />
    <circle cx="1360" cy="752" r="10" />
    <circle cx="1456" cy="752" r="10" />
    <circle cx="1488" cy="752" r="10" />
    <circle cx="1520" cy="752" r="10" />
    <circle cx="1552" cy="752" r="10" />
    <circle cx="1584" cy="752" r="10" />
    <circle cx="1616" cy="752" r="10" />
    <circle cx="1648" cy="752" r="10" />
    <circle cx="1680" cy="752" r="10" />
    <circle cx="1744" cy="752" r="10" />
    <circle cx="1776" cy="752" r="10" />
    <circle cx="80" cy="784" r="10" />
    <circle cx="112" cy="784" r="10" />
    <circle cx="176" cy="784" r="10" />
    <circle cx="240" cy="784" r="10" />
    <circle cx="272" cy="784" r="10" />
    <circle cx="336" cy="784" r="10" />
    <circle cx="368" cy="784" r="10" />
    <circle cx="432" cy="784" r="10" />
    <circle cx="464" cy="784" r="10" />
    <circle cx="528" cy="784" r="10" />
    <circle cx="560" cy="784" r="10" />
    <circle cx="592" cy="784" r="10" />
    <circle cx="624" cy="784" r="10" />
    <circle cx="656" cy="784" r="10" />
    <circle cx="720" cy="784" r="10" />
    <circle cx="752" cy="784" r="10" />
    <circle cx="816" cy="784" r="10" />
    <circle cx="912" cy="784" r="10" />
    <circle cx="944" cy="784" r="10" />
    <circle cx="1040" cy="784" r="10" />
    <circle cx="1104" cy="784" r="10" />
    <circle cx="1168" cy="784" r="10" />
    <circle cx="1232" cy="784" r="10" />
    <circle cx="1264" cy="784" r="10" />
    <circle cx="1296" cy="784" r="10" />
    <circle cx="1328" cy="784" r="10" />
    <circle cx="1360" cy="784" r="10" />
    <circle cx="1392" cy="784" r="10" />
    <circle cx="1456" cy="784" r="10" />
    <circle cx="1520" cy="784" r="10" />
    <circle cx="1552" cy="784" r="10" />
    <circle cx="1584" cy="784" r="10" />
    <circle cx="1616" cy="784" r="10" />
    <circle cx="1680" cy="784" r="10" />
    <circle cx="1744" cy="784" r="10" />
    <circle cx="1776" cy="784" r="10" />
    <circle cx="16" cy="816" r="10" />
    <circle cx="48" cy="816" r="10" />
    <circle cx="80" cy="816" r="10" />
    <circle cx="112" cy="816" r="10" />
    <circle cx="144" cy="816" r="10" />
    <circle cx="176" cy="816" r="10" />
    <circle cx="240" cy="816" r="10" />
    <circle cx="272" cy="816" r="10" />
    <circle cx="304" cy="816" r="10" />
    <circle cx="336" cy="816" r="10" />
    <circle cx="368" cy="816" r="10" />
    <circle cx="400" cy="816" r="10" />
    <circle cx="432" cy="816" r="10" />
    <circle cx="496" cy="816" r="10" />
    <circle cx="560" cy="816" r="10" />
    <circle cx="656" cy="816" r="10" />
    <circle cx="752" cy="816" r="10" />
    <circle cx="784" cy="816" r="10" />
    <circle cx="880" cy="816" r="10" />
    <circle cx="912" cy="816" r="10" />
    <circle cx="976" cy="816" r="10" />
    <circle cx="1008" cy="816" r="10" />
    <circle cx="1040" cy="816" r="10" />
    <circle cx="1072" cy="816" r="10" />
    <circle cx="1136" cy="816" r="10" />
    <circle cx="1232" cy="816" r="10" />
    <circle cx="1264" cy="816" r="10" />
    <circle cx="1328" cy="816" r="10" />
    <circle cx="1392" cy="816" r="10" />
    <circle cx="1520" cy="816" r="10" />
    <circle cx="1552" cy="816" r="10" />
    <circle cx="1616" cy="816" r="10" />
    <circle cx="1680" cy="816" r="10" />
    <circle cx="1744" cy="816" r="10" />
    <circle cx="16" cy="848" r="10" />
    <circle cx="48" cy="848" r="10" />
    <circle cx="208" cy="848" r="10" />
    <circle cx="496" cy="848" r="10" />
    <circle cx="528" cy="848" r="10" />
    <circle cx="592" cy="848" r="10" />
    <circle cx="688" cy="848" r="10" />
    <circle cx="784" cy="848" r="10" />
    <circle cx="944" cy="848" r="10" />
    <circle cx="976" cy="848" r="10" />
    <circle cx="1008" cy="848" r="10" />
    <circle cx="1072" cy="848" r="10" />
    <circle cx="1104" cy="848" r="10" />
    <circle cx="1136" cy="848" r="10" />
    <circle cx="1168" cy="848" r="10" />
    <circle cx="1232" cy="848" r="10" />
    <circle cx="1392" cy="848" r="10" />
    <circle cx="1424" cy="848" r="10" />
    <circle cx="1616" cy="848" r="10" />
    <circle cx="1712" cy="848" r="10" />
    <circle cx="1744" cy="848" r="10" />
    <circle cx="1776" cy="848" r="10" />
    <circle cx="16" cy="880" r="10" />
    <circle cx="144" cy="880" r="10" />
    <circle cx="176" cy="880" r="10" />
    <circle cx="240" cy="880" r="10" />
    <circle cx="272" cy="880" r="10" />
    <circle cx="336" cy="880" r="10" />
    <circle cx="432" cy="880" r="10" />
    <circle cx="496" cy="880" r="10" />
    <circle cx="592" cy="880" r="10" />
    <circle cx="624" cy="880" r="10" />
    <circle cx="656" cy="880" r="10" />
    <circle cx="752" cy="880" r="10" />
    <circle cx="816" cy="880" r="10" />
    <circle cx="848" cy="880" r="10" />
    <circle cx="912" cy="880" r="10" />
    <circle cx="944" cy="880" r="10" />
    <circle cx="1040" cy="880" r="10" />
    <circle cx="1072" cy="880" r="10" />
    <circle cx="1104" cy="880" r="10" />
    <circle cx="1136" cy="880" r="10" />
    <circle cx="1296" cy="880" r="10" />
    <circle cx="1328" cy="880" r="10" />
    <circle cx="1360" cy="880" r="10" />
    <circle cx="1392" cy="880" r="10" />
    <circle cx="1424" cy="880" r="10" />
    <circle cx="1488" cy="880" r="10" />
    <circle cx="1584" cy="880" r="10" />
    <circle cx="1648" cy="880" r="10" />
    <circle cx="16" cy="912" r="10" />
    <circle cx="48" cy="912" r="10" />
    <circle cx="80" cy="912" r="10" />
    <circle cx="144" cy="912" r="10" />
    <circle cx="208" cy="912" r="10" />
    <circle cx="240" cy="912" r="10" />
    <circle cx="272" cy="912" r="10" />
    <circle cx="304" cy="912" r="10" />
    <circle cx="400" cy="912" r="10" />
    <circle cx="432" cy="912" r="10" />
    <circle cx="464" cy="912" r="10" />
    <circle cx="592" cy="912" r="10" />
    <circle cx="624" cy="912" r="10" />
    <circle cx="752" cy="912" r="10" />
    <circle cx="816" cy="912" r="10" />
    <circle cx="848" cy="912" r="10" />
    <circle cx="880" cy="912" r="10" />
    <circle cx="944" cy="912" r="10" />
    <circle cx="976" cy="912" r="10" />
    <circle cx="1040" cy="912" r="10" />
    <circle cx="1072" cy="912" r="10" />
    <circle cx="1136" cy="912" r="10" />
    <circle cx="1168" cy="912" r="10" />
    <circle cx="1232" cy="912" r="10" />
    <circle cx="1264" cy="912" r="10" />
    <circle cx="1296" cy="912" r="10" />
    <circle cx="1328" cy="912" r="10" />
    <circle cx="1360" cy="912" r="10" />
    <circle cx="1520" cy="912" r="10" />
    <circle cx="1552" cy="912" r="10" />
    <circle cx="1616" cy="912" r="10" />
    <circle cx="1680" cy="912" r="10" />
    <circle cx="112" cy="944" r="10" />
    <circle cx="144" cy="944" r="10" />
    <circle cx="208" cy="944" r="10" />
    <circle cx="240" cy="944" r="10" />
    <circle cx="272" cy="944" r="10" />
    <circle cx="368" cy="944" r="10" />
    <circle cx="400" cy="944" r="10" />
    <circle cx="464" cy="944" r="10" />
    <circle cx="496" cy="944" r="10" />
    <circle cx="560" cy="944" r="10" />
    <circle cx="784" cy="944" r="10" />
    <circle cx="816" cy="944" r="10" />
    <circle cx="848" cy="944" r="10" />
    <circle cx="1008" cy="944" r="10" />
    <circle cx="1072" cy="944" r="10" />
    <circle cx="1232" cy="944" r="10" />
    <circle cx="1488" cy="944" r="10" />
    <circle cx="1520" cy="944" r="10" />
    <circle cx="1552" cy="944" r="10" />
    <circle cx="1584" cy="944" r="10" />
    <circle cx="1616" cy="944" r="10" />
    <circle cx="112" cy="976" r="10" />
    <circle cx="144" cy="976" r="10" />
    <circle cx="240" cy="976" r="10" />
    <circle cx="400" cy="976" r="10" />
    <circle cx="560" cy="976" r="10" />
    <circle cx="592" cy="976" r="10" />
    <circle cx="656" cy="976" r="10" />
    <circle cx="752" cy="976" r="10" />
    <circle cx="816" cy="976" r="10" />
    <circle cx="1008" cy="976" r="10" />
    <circle cx="1104" cy="976" r="10" />
    <circle cx="1168" cy="976" r="10" />
    <circle cx="1232" cy="976" r="10" />
    <circle cx="1264" cy="976" r="10" />
    <circle cx="1296" cy="976" r="10" />
    <circle cx="1328" cy="976" r="10" />
    <circle cx="1392" cy="976" r="10" />
    <circle cx="1424" cy="976" r="10" />
    <circle cx="1584" cy="976" r="10" />
    <circle cx="1648" cy="976" r="10" />
    <circle cx="1680" cy="976" r="10" />
    <circle cx="1712" cy="976" r="10" />
    <circle cx="16" cy="1008" r="10" />
    <circle cx="80" cy="1008" r="10" />
    <circle cx="144" cy="1008" r="10" />
    <circle cx="208" cy="1008" r="10" />
    <circle cx="432" cy="1008" r="10" />
    <circle cx="464" cy="1008" r="10" />
    <circle cx="656" cy="1008" r="10" />
    <circle cx="720" cy="1008" r="10" />
    <circle cx="752" cy="1008" r="10" />
    <circle cx="784" cy="1008" r="10" />
    <circle cx="816" cy="1008" r="10" />
    <circle cx="848" cy="1008" r="10" />
    <circle cx="880" cy="1008" r="10" />
    <circle cx="1072" cy="1008" r="10" />
    <circle cx="1264" cy="1008" r="10" />
    <circle cx="1360" cy="1008" r="10" />
    <circle cx="1392" cy="1008" r="10" />
    <circle cx="1424" cy="1008" r="10" />
    <circle cx="1456" cy="1008" r="10" />
    <circle cx="1488" cy="1008" r="10" />
    <circle cx="1520" cy="1008" r="10" />
    <circle cx="1552" cy="1008" r="10" />
    <circle cx="1712" cy="1008" r="10" />
    <circle cx="1744" cy="1008" r="10" />
  </g>
  <g transform="matrix(.98 0 0 .98 19 29)">
    <g>
      <path d="m 810.09125,668.22626 -175.59279,-111.82465 c -86.01577,27.3201 -190.49364,19.90454 -290.15485,-9.04667 -71.93209,-20.89598 -111.24231,137.59878 -38.26418,159.52636 91.71365,27.55698 229.03431,11.92022 321.07721,-34.10789 62.54692,24.40917 130.43044,21.30695 182.93461,-4.54715 z" fill="#11a2f9" />
      <path fill="#1c92cd" inkscape:original-d="m 606.9368,663.45192 c 67.55327,34.13865 144.83972,33.48967 203.15445,4.77434 l -175.59279,-111.82465 c -86.01577,27.3201 -190.49364,19.90454 -290.15485,-9.04667 -71.93209,-20.89598 -111.24231,137.59878 -38.26418,159.52636 91.71365,27.55698 229.03431,12.0386 320.84226,-33.84337" inkscape:path-effect="#path-effect7214" />
    </g>
    <path d="m 1170.3604,703.02017 c 98.7536,-147.70244 257.5705,-28.03497 261.2442,200.84332 1.3187,82.06154 -159.2954,1.59244 -157.4003,-88.29689 0.9517,-45.14413 -10.6752,-77.28292 -29.2005,-93.96142 z" fill="#11a2f9" stroke="#1c92cd" stroke-width="10" />
    <path d="m 1478.5746,477.02294 c 18.9454,4.56619 32.7241,18.30953 28.3155,40.00913 -14.144,-8.73257 -22.8714,-22.18893 -28.3155,-40.00913 z" fill="#ef6f2f" />
    <g>
      <path d="m 762.35741,493.3055 c -41.14398,-2.84961 -84.02781,9.86689 -150.11541,48.02259 -178.31743,102.95171 -352.25313,70.87328 -411.75968,-43.81562 54.99953,30.55633 102.94521,38.01627 162.18784,22.87624 -61.4156,-18.98973 -105.33126,-55.43667 -135.14099,-111.2458 110.04853,56.65942 207.32533,63.95744 294.90024,26.88771 -43.53234,-8.53137 -72.51248,-25.45576 -105.85406,-62.47596 134.03344,50.83693 264.50875,-40.94445 385.00224,103.19571 z" fill="#f3a4d9" />
      <path d="m 786.0124,483.32056 -23.65499,9.98494 c -41.14398,-2.84961 -84.02781,9.86689 -150.11541,48.02259 -178.31743,102.95171 -352.25313,70.87328 -411.75968,-43.81562 54.99953,30.55633 102.94521,38.01627 162.18784,22.87624 -61.4156,-18.98973 -105.33126,-55.43667 -135.14099,-111.2458 99.54734,98.79404 229.28878,103.88427 379.39907,57.31297 72.53624,-22.50416 140.20236,-14.6992 179.08416,16.86468 z" fill="#961370" />
      <path d="m 762.35741,493.3055 c -41.14398,-2.84961 -84.02781,9.86689 -150.11541,48.02259 -178.31743,102.95171 -352.25313,70.87328 -411.75968,-43.81562 54.99953,30.55633 102.94521,38.01627 162.18784,22.87624 -61.4156,-18.98973 -105.33126,-55.43667 -135.14099,-111.2458 110.04853,56.65942 207.32533,63.95744 294.90024,26.88771 -43.53234,-8.53137 -72.51248,-25.45576 -105.85406,-62.47596 134.03344,50.83693 264.50875,-40.94445 385.00224,103.19571 z" style="fill:none;stroke:#d91e9b;stroke-width:10;stroke-miterlimit:20" />
    </g>
    <path d="m 1072.2844,518.02857 c -108.57159,-129.26387 -0.2328,-263.55704 -81.86038,-385.29015 -67.69475,-100.954755 -257.84603,-37.855559 -392.64792,-128.276426 -81.97009,-54.982963 -90.35014,45.920457 25.83949,88.140126 -83.41877,12.36535 -63.03381,64.34988 34.96972,75.38084 -66.03502,27.74336 -48.9236,65.48132 41.40313,73.0833 -61.78076,31.99936 -24.3277,63.88508 55.91698,79.85608 -73.11711,28.49491 -29.5448,88.13309 79.29264,63.77504 -43.67852,43.95044 -21.66685,79.12373 55.84447,56.81428 -42.78836,48.42979 1.59058,82.9016 68.29212,51.74879 -35.39069,50.65984 -0.69056,79.73062 62.75965,46.24097 z" style="fill:#11a2f9;stroke:#1c92cd;stroke-width:10;stroke-miterlimit:20" />
    <path d="m 958.39103,716.09674 c 188.89127,0 257.77797,-79.22945 337.75797,-127.84057 82.525,1.26878 159.6833,-23.43284 216.0919,-69.20908 -26.4284,-11.39408 -38.9945,-43.25304 -35.7247,-92.04885 27.7697,30.08395 65.7019,15.61407 62.0924,-33.34947 -2.1144,-28.68452 -47.6478,6.73845 -51.0196,-14.31662 -33.4623,-208.98393 -325.6874,-167.555 -325.6874,19.30942 0,73.1526 -78.7389,144.25987 -220.39177,91.75551 -127.63014,-47.30677 -205.81327,1.98174 -261.67371,13.35577 -0.47836,-12.28271 -6.22562,-22.08272 -16.82581,-21.54456 -90.13419,4.5758 -190.24215,-27.69469 -279.28106,-81.01063 -64.26516,-38.48164 -142.54443,104.82995 -77.52942,144.57506 89.1719,54.51291 215.16425,66.67457 321.02679,45.4873 45.30488,69.86759 181.14744,124.83672 331.16441,124.83672 z" fill="#6dc6fb" />
    <g transform="translate(180.8508-361.80896)scale(1.5536024)">
      <g clip-path="url(#clipPath8011)">
        <ellipse cx="181.14122" cy="877.51654" fill="#fff" rx="45.544643" ry="54.100956" transform="rotate(315)" />
        <g clip-path="url(#clipPath4295)">
          <ellipse cx="199.06287" cy="879.3111" fill="url(#linearGradient6905)" rx="33.662395" ry="40.884205" transform="rotate(315)" />
          <path d="m 769.93698,479.6447 2.89122,55.44603 -32.00109,-4.59873 z" fill="#8f4dd3" />
          <path d="m 769.93698,479.6447 -38.25682,40.52919 17.53502,13.09924 z" fill="#62289e" />
          <ellipse cx="202.23378" cy="880.30762" rx="26.743998" ry="32.481552" transform="rotate(315)" />
          <ellipse cx="719.61194" cy="509.51852" fill="#fff" rx="11.136971" ry="16.049131" transform="rotate(357.21587)" />
          <ellipse cx="738.85132" cy="524.39716" fill="#fff" rx="4.0481038" ry="5.8335972" transform="rotate(357.21587)" />
        </g>
      </g>
      <path d="m 702.60257,461.81221 c -29.17812,-17.55226 -32.08324,-13.70878 -2.42844,4.11204 m -2.45334,9.85725 c -33.5479,-5.82934 -34.86878,-1.19603 -0.77936,4.71153 m 2.90972,14.65897 c -5.9674,-35.38332 24.13065,-58.49955 55.66403,-48.34958 25.12358,8.08677 43.27417,30.47701 41.97338,64.23231 8.93164,-32.15465 -13.153,-59.14387 -40.81356,-68.12146 -33.18252,-10.76981 -65.34388,12.98067 -61.59833,48.41286 -30.53984,5.40022 -29.81157,10.35145 4.77448,3.82587 z" />
    </g>
    <path d="m 1281.8979,587.35053 26.2338,1.74891 -7.1124,-11.06433 z" fill="#6dc6fb" />
    <g transform="rotate(98.044582 141.06434 635.02573)scale(3.5115889)">
      <g fill="#54a2e1">
        <path d="m 20.3,-9 c -5.5,14 -14.5,14.6 -19.9,14.3 l -0.5,1.9 c 6.6,1.8 15.7,1.2 21.7,-7.6 z" />
        <path d="m -2.3557714,22.080316 c -9.3743556,-11.76314 -5.3939709,-19.8573687 -2.4341632,-24.3839058 l -1.3954483,-1.3830127 c -4.8588461,4.8157676 -8.8892301,12.9965988 -4.2682071,22.5927515 z" />
        <path d="m -17.944229,-13.080316 c 14.874356,-2.23686 19.8939713,5.2573687 22.3341636,10.0839058 l 1.8954483,-0.5169873 c -1.7411543,-6.6157675 -6.81076951,-14.1965985 -17.4317929,-14.9927515 z" />
      </g>
      <g fill="#5a318e" transform="rotate(180)">
        <path d="m 20.3,-9 c -5.5,14 -14.5,14.6 -19.9,14.3 l -0.5,1.9 c 6.6,1.8 15.7,1.2 21.7,-7.6 z" />
        <path d="m -2.3557714,22.080316 c -9.3743556,-11.76314 -5.3939709,-19.8573687 -2.4341632,-24.3839058 l -1.3954483,-1.3830127 c -4.8588461,4.8157676 -8.8892301,12.9965988 -4.2682071,22.5927515 z" />
        <path d="m -17.944229,-13.080316 c 14.874356,-2.23686 19.8939713,5.2573687 22.3341636,10.0839058 l 1.8954483,-0.5169873 c -1.7411543,-6.6157675 -6.81076951,-14.1965985 -17.4317929,-14.9927515 z" />
      </g>
      <path d="m -10.18,4.52 1.18,-11.07 10.17,-4.52 9.01,6.55 -1.18,11.07 -10.17,4.52 z" fill="none" stroke="#576ab7" />
    </g>
    <path d="m 679.92129,504.05765 c -0.56353,-12.58751 -6.31079,-22.38752 -16.91098,-21.84936 -90.13419,4.5758 -190.24215,-27.69469 -279.28106,-81.01063 -64.26516,-38.48164 -142.54443,104.82995 -77.52942,144.57506 89.1719,54.51291 215.16425,66.67457 320.76304,45.28231" fill="none" stroke="#1c92cd" stroke-width="10" />
    <path d="m 1509.737,400.40186 c 3.8812,4.65045 8.6938,3.77591 11.5094,-1.70623 -0.015,9.98847 -8.9389,12.40973 -11.5094,1.70623 z" fill="#1c92cd" />
    <path fill="#1c92cd" inkscape:original-d="m 618.0914,573.58327 c 31.66909,77.89977 177.65367,142.51347 340.29963,142.51347 188.89127,0 257.77797,-79.22945 337.75797,-127.84057 82.525,1.26878 159.6833,-23.43284 216.0919,-69.20908 -26.4284,-11.39408 -38.9945,-43.25304 -35.7247,-92.04885 27.7697,30.08395 65.7019,15.61407 62.0924,-33.34947 -2.1144,-28.68452 -47.6478,6.73845 -51.0196,-14.31662 -33.4623,-208.98393 -325.6874,-167.555 -325.6874,19.30942 0,73.1526 -78.7389,144.25984 -220.39177,91.75551 -144.50512,-53.56157 -225.62327,16.70401 -282.84654,15.12563" inkscape:path-effect="#path-effect7204" />
    <g>
      <path d="m 1143.584,650.93945 c 4.4706,11.02881 9.7852,21.23381 16.8682,30.4876 128.2918,-76.48791 227.6307,88.03861 159.3437,293.23473 -25.9071,77.84842 -142.6676,-54.55008 -117.5662,-143.14676 6.6451,-23.4543 9.6259,-41.57809 8.939,-57.26321 -71.5455,67.99861 -171.3664,19.90478 -160.0364,-96.75809 z" fill="#6dc6fb" />
      <path fill="#1c92cd" inkscape:original-d="m 1131.8364,702.27249 c 141.4685,-121.19885 261.2444,52.17488 187.9595,272.38929 -25.9071,77.84842 -142.6676,-54.55008 -117.5662,-143.14676 12.5193,-44.18749 12.0323,-69.45491 -3.1027,-91.97141" inkscape:path-effect="#path-effect7117" />
      <path d="m 1155.8173,684.32259 c -5.9879,-9.3264 -9.7736,-20.84589 -12.2333,-33.38314 6.3091,10.66127 13.249,19.83664 22.5375,27.92064 z" fill="#1c92cd" />
      <path fill="#1c92cd" inkscape:original-d="m 1051.1323,677.49372 c -11.33,116.66287 88.4909,164.7567 160.2788,96.28424" inkscape:path-effect="#path-effect7111" />
    </g>
    <g>
      <path d="m 1157.668,393.21407 c 42.8666,128.74015 124.3991,193.12629 211.4311,203.90266 -22.6474,13.83411 -44.8769,22.00443 -67.4269,20.4989 29.8226,35.54185 43.9386,81.90072 26.5726,125.71066 -9.7274,-35.40685 -32.0736,-64.60422 -58.9175,-76.73851 26.1776,50.10018 27.8426,108.5882 -21.0785,157.46204 13.0793,-181.70674 -152.0396,-290.61466 -130.1764,-495.16123 z" fill="#f3a4d9" />
      <path d="m 1132.6345,352.40646 c -0.2804,-6.47357 25.0335,40.80761 25.0335,40.80761 42.8666,128.74015 124.3991,193.12629 211.4311,203.90266 -22.6474,13.83411 -44.8769,22.00443 -67.4269,20.4989 29.8226,35.54185 43.9386,81.90072 26.5726,125.71066 6.991,-135.92716 -185.3099,-152.58841 -195.6103,-390.91983 z" fill="#961370" />
      <path d="m 1157.668,393.21407 c 42.8666,128.74015 124.3991,193.12629 211.4311,203.90266 -22.6474,13.83411 -44.8769,22.00443 -67.4269,20.4989 29.8226,35.54185 43.9386,81.90072 26.5726,125.71066 -9.7274,-35.40685 -32.0736,-64.60422 -58.9175,-76.73851 26.1776,50.10018 27.8426,108.5882 -21.0785,157.46204 13.0793,-181.70674 -152.0396,-290.61466 -130.1764,-495.16123 z" style="fill:none;stroke:#d91e9b;stroke-width:10;stroke-miterlimit:20" />
    </g>
    <g>
      <path d="m 1199.5576,310.3066 c 38.7001,3.08337 59.3092,33.64364 48.7578,68.02036 38.5696,-28.35288 40.7343,-61.08862 28.5737,-97.02577 34.456,5.02683 54.6281,24.99168 54.3537,60.72501 31.6646,-29.0332 36.4812,-60.6355 19.8537,-90.80099 32.8359,3.04796 56.5452,22.6957 61.518,59.15639 26.3187,-26.65852 29.2709,-56.65584 11.8087,-89.04197 32.0959,5.15117 49.6494,25.52774 55.8962,59.24608 59.1239,-111.82623 -102.4156,-249.97275 -218.1882,-110.31635 -36.2552,43.73464 -64.2186,68.22625 -110.8582,92.59317 z" fill="#f3a4d9" />
      <path d="m 1351.0965,251.22521 c 16.6275,30.16549 11.8109,61.76779 -19.8537,90.80099 0.2744,-35.73333 -19.8977,-55.69818 -54.3537,-60.72501 12.1606,35.93715 9.996,68.67289 -28.5737,97.02577 10.5514,-34.37672 -10.0576,-64.93702 -48.7578,-68.02036 l -27.665,-27.18342 c 47.2816,-19.99541 80.2939,-44.10291 112.9457,-74.21546 69.7195,-64.29752 153.5006,28.40066 127.7762,101.47388 -4.9727,-36.46071 -28.6821,-56.10843 -61.518,-59.15639 z" fill="#961370" />
      <path d="m 1199.5576,310.3066 c 38.7001,3.08337 59.3092,33.64364 48.7578,68.02036 38.5696,-28.35288 40.7343,-61.08862 28.5737,-97.02577 34.456,5.02683 54.6281,24.99168 54.3537,60.72501 31.6646,-29.0332 36.4812,-60.6355 19.8537,-90.80099 32.8359,3.04796 56.5452,22.6957 61.518,59.15639 26.3187,-26.65852 29.2709,-56.65584 11.8087,-89.04197 32.0959,5.15117 49.6494,25.52774 55.8962,59.24608 59.1239,-111.82623 -102.4156,-249.97275 -218.1882,-110.31635 -36.2552,43.73464 -64.2186,68.22625 -110.8582,92.59317 z" fill="none" stroke="#d91e9b" stroke-width="10" />
      <g>
        <path d="m 1322.0997,219.38034 c 73.2682,-247.616381 77.4486,-246.395031 68.1009,13.60675 z" style="clip-path:url(#clipPath7179);stroke:#1c92cd;fill:#6dc6fb;stroke-width:10" />
        <path d="m 1357.849,99.644007 c 12.2687,-6.115419 25.9437,-14.502864 37.2028,-25.478972 m -51.6613,73.060935 c 17.7562,-4.92985 35.5031,-12.54139 51.3012,-25.55256 m -64.272,68.3521 c 21.4472,-1.57272 42.7379,-7.20184 61.9528,-18.99064" fill="none" stroke="#1c92cd" stroke-width="5" />
        <path d="m 1392.1066,177.1234 c -18.0485,4.00842 -38.7283,0.61087 -55.1102,-7.76884 2.9923,-9.95847 5.8402,-19.36318 8.5496,-28.21309 14.2558,6.6812 31.208,9.48015 47.3993,7.14602 -0.2378,9.06152 -0.5193,18.67316 -0.8387,28.83591 z" fill="#ebebeb" />
        <path d="m 1357.581,146.39165 -7.7519,28.49996 13.4733,3.06453 -0.9894,-30.63571 z" fill="#fff" />
        <path fill="#d7d7d7" inkscape:original-d="m 1392.1066,177.1234 c -18.0485,4.00842 -38.7283,0.61087 -55.1102,-7.76884 2.9923,-9.95847 5.8402,-19.36318 8.5496,-28.21309 14.2558,6.6812 31.208,9.48015 47.3993,7.14602 -0.2378,9.06152 -0.5193,18.67316 -0.8387,28.83591 z" inkscape:path-effect="#path-effect7172" />
      </g>
      <path d="m 1284.8383,208.90772 c 52.2787,-48.21309 112.4638,-8.1529 128.458,45.71529 z" fill="#961370" />
    </g>
    <g>
      <path d="m 1190.5945,446.17445 c -94.3814,-68.98468 -73.7627,-186.88036 -61.6799,-192.2291 15.967,-7.06813 77.654,24.34522 95.3241,75.63311 z" fill="#6dc6fb" />
      <path fill="#1c92cd" inkscape:original-d="m 1190.5945,446.17445 c -94.3814,-68.98468 -73.7627,-186.88036 -61.6799,-192.2291 15.967,-7.06813 77.654,24.34522 95.3241,75.63311" inkscape:path-effect="#path-effect7142" />
      <path d="m 1149.7382,306.69456 c -2.782,28.2815 9.7331,61.35567 32.0093,82.4848 -17.0819,-22.75732 -29.8183,-56.25546 -32.0093,-82.4848 z" fill="#1c92cd" />
    </g>
    <g>
      <path d="m 1049.763,517.16907 c -122.34765,-116.30988 -29.7084,-261.87741 -124.4388,-373.71728 -78.56112,-92.750162 -260.46216,-8.77975 -404.53123,-83.556646 -87.60527,-45.470204 -84.64739,55.737386 35.53523,84.697156 -81.51241,21.61758 -55.44124,70.99604 43.18114,70.99677 -62.5178,34.95486 -41.29301,70.54225 49.31723,67.99411 -57.81424,38.70835 -17.02996,66.20514 64.4975,73.10113 -69.47141,36.49377 -19.50236,90.88451 85.92794,54.50657 -38.48892,48.55983 -12.68146,81.05059 61.84838,50.212 -37.10336,52.91152 10.85258,82.20357 73.65139,43.78611 -29.50269,54.3002 8.2311,79.30762 67.53762,38.93162 z" fill="#6dc6fb" />
      <path fill="#1c92cd" inkscape:original-d="m 1049.763,517.16907 c -122.34765,-116.30988 -29.7084,-261.87741 -124.4388,-373.71728 -78.56112,-92.750162 -260.46216,-8.77975 -404.53123,-83.556646 -87.60527,-45.470204 -84.64739,55.737386 35.53523,84.697156 -81.51241,21.61758 -55.44124,70.99604 43.18114,70.99677 -62.5178,34.95486 -41.29301,70.54225 49.31723,67.99411 -57.81424,38.70835 -17.02996,66.20514 64.4975,73.10113 -69.47141,36.49377 -19.50236,90.88451 85.92794,54.50657 -38.48892,48.55983 -12.68146,81.05059 61.84838,50.212 -37.10336,52.91152 10.85258,82.20357 73.65139,43.78611 -29.50269,54.3002 8.2311,79.30762 67.53762,38.93162" inkscape:path-effect="#path-effect9715" />
      <path fill="#1c92cd" inkscape:original-d="m 974.73065,469.2667 c -115.86194,-45.10219 -23.27939,-224.01677 -96.4048,-291.59108 -64.84828,-59.92551 -107.5,10.09324 -44.08203,44.10439 -66.57177,0.60013 -59.31391,66.60278 4.5287,73.72255 -42.26278,18.28895 -27.34107,54.39242 15.91581,50.00065 -22.26415,18.9265 -7.73992,41.00116 25.2779,38.13827" inkscape:path-effect="#path-effect9721" />
    </g>
  </g>
</svg>
