<svg xmlns="http://www.w3.org/2000/svg" xmlns:inkscape="http://www.inkscape.org/namespaces/inkscape" xmlns:xlink="http://www.w3.org/1999/xlink" height="781" viewBox="0 0 352 781.00004" width="352">
  <defs>
    <inkscape:path-effect effect="powerstroke" id="path-effect975" interpolator_type="CubicBezierSmooth" offset_points="0.34,1.25" start_linecap_type="zerowidth" />
    <inkscape:path-effect effect="powerstroke" end_linecap_type="zerowidth" id="path-effect973" interpolator_type="CubicBezierSmooth" offset_points="0.22,1.25 | 2.79,1.25" start_linecap_type="zerowidth" />
    <inkscape:path-effect effect="powerstroke" id="path-effect912" interpolator_type="CubicBezierSmooth" offset_points="0.48,1.25 | 12,1.25" start_linecap_type="zerowidth" />
    <clipPath id="clipPath1028">
      <use xlink:href="#path998-6" />
    </clipPath>
    <clipPath id="clipPath1151">
      <use xlink:href="#path1130" />
    </clipPath>
    <clipPath id="clipPath1183">
      <use xlink:href="#path1155" />
    </clipPath>
    <clipPath id="clipPath4451-3">
      <use xlink:href="#path4427-5" />
    </clipPath>
    <clipPath id="clipPath4617-9">
      <use xlink:href="#path4590-2" />
    </clipPath>
  </defs>
  <g inkscape:groupmode="layer" inkscape:label="Drawing">
    <g>
      <path d="m 161.90583,204.36482 c -71.727979,-81.23399 -68.231859,-153.022889 -19.9932,-171.002575 75.33551,-28.0793215 67.21728,113.634675 36.60736,164.400755" fill="none" stroke="#957348" stroke-width="5.5" />
      <path d="m 189.11463,201.58156 a 17.0942,17.0942 0 0 1 -17.0942,17.0942 17.0942,17.0942 0 0 1 -17.0942,-17.0942 17.0942,17.0942 0 0 1 17.0942,-17.0942 17.0942,17.0942 0 0 1 17.0942,17.0942" style="fill:#fff;stroke-width:4;stroke:#f5f7f0;stroke-linecap:round" />
      <path d="m 171.6292,366.09053 v -149.42971" style="fill:none;stroke-width:4;stroke:#957348;stroke-linecap:round" />
      <path d="m 174.99759,285.34068 c 3.60996,-18.12554 18.67916,-28.4898 35.52191,-31.85564 2.20515,11.84763 3.67559,22.45033 -3.22216,32.50125 2.59956,8.06103 3.72811,16.24142 3.02921,25.61526 -19.49945,1.4318 -26.3256,-3.27699 -36.55157,-19.16266 10.78679,0.61384 21.14894,2.97388 27.93612,12.29903 -10.73258,1.48845 -21.74045,-6.22944 -27.171,-11.4582 m -5.14563,-7.93904 c -3.60996,-18.12554 -18.67916,-28.4898 -35.52191,-31.85564 -2.20515,11.84763 -3.67559,22.45033 3.22216,32.50125 -2.59956,8.06103 -3.72811,16.24142 -3.02921,25.61526 19.49945,1.4318 26.3256,-3.27699 36.55157,-19.16266 -10.78679,0.61384 -21.14894,2.97388 -27.93612,12.29903 10.73258,1.48845 21.74045,-6.22944 27.171,-11.4582" fill="#1796d2" stroke="#1a80b8" stroke-width="3" />
      <path d="m 176.45192,289.6272 c 4.46568,-3.91899 9.29292,-5.89559 15.29989,-6.64041 -6.09832,-1.25443 -11.77838,-0.70452 -17.00739,1.78853 m -6.80428,4.85188 c -4.46568,-3.91899 -9.29292,-5.89559 -15.29989,-6.64041 6.09832,-1.25443 11.77838,-0.70452 17.00739,1.78853" fill="#1a80b8" />
      <path d="m 181.83882,287.96179 a 9.642787,9.642787 0 0 1 -9.64279,9.64279 9.642787,9.642787 0 0 1 -9.64279,-9.64279 9.642787,9.642787 0 0 1 9.64279,-9.64278 9.642787,9.642787 0 0 1 9.64279,9.64278" fill="#1796d2" stroke="#1a80b8" stroke-width="3" />
      <g clip-path="url(#clipPath1183)">
        <path d="m 67.877268,388.1844 c 11.00732,19.83305 -6.643479,38.84493 -29.145678,33.61327 -42.5856757,-9.90097 -48.824808,-84.6808 51.559286,-77.66743 57.004284,3.98262 188.349524,50.2743 180.874594,85.36054 -3.62478,17.01421 -31.79963,19.72741 -33.15968,4.33641 -1.80769,-20.4568 29.16513,-14.41349 14.66779,-0.33489 2.11795,-9.17419 -10.83399,-11.28638 -8.71127,-0.57219 1.75822,8.87446 18.77769,11.45134 21.95528,-3.79597 5.39731,-25.89835 -124.78327,-73.83575 -179.483604,-77.65741 -74.603135,-5.21217 -83.326339,55.4753 -48.435156,62.42315 16.14972,3.21588 30.587216,-13.80787 23.593998,-24.21288 -3.919753,-5.83209 -15.631802,-2.39562 -21.132778,7.77993 -4.310053,-18.14272 19.235441,-24.01451 27.417218,-9.27253 z" fill="#262626" id="path1155" />
        <path d="m 5.6144157,382.1807 c 12.7707853,-20.9456 34.9700503,-38.1321 84.4629203,-34.67427 59.052234,4.12571 188.311754,51.21506 181.055604,85.27433 27.78487,-57.60312 -259.715394,-143.99944 -265.5185243,-50.60006 z" fill="#313131" />
      </g>
      <g clip-path="url(#clipPath1151)">
        <path d="m 276.9108,390.4889 c -11.81661,14.9753 5.01365,35.77649 27.3381,32.76809 43.15672,-5.81572 44.16029,-76.40487 -49.28052,-76.40487 -55.66953,0 -183.170753,37.95678 -178.541212,72.43552 2.312673,17.22375 30.139002,23.93347 32.984782,9.89025 3.27885,-16.18029 -26.034602,-17.9845 -15.185187,-3.93766 -1.817768,-8.14363 12.570277,-9.72916 9.310187,2.43766 -2.33905,8.72947 -19.806542,8.38359 -21.984782,-8.39025 -3.403476,-26.20894 123.246682,-65.18552 176.666212,-65.18552 68.90816,0 82.18724,57.08915 47.28052,61.65487 -15.91994,2.08229 -27.90256,-16.84426 -22.5881,-23.34131 4.99846,-6.11073 13.86904,-1.04317 19.65457,7.03526 2.16942,-15.32627 -15.30046,-22.0839 -25.65457,-8.96204 z" fill="#262626" id="path1130" />
        <path d="m 334.56133,390.37055 c -9.78375,-21.53188 -31.25896,-40.59165 -79.59295,-40.59165 -57.66953,0 -183.34753,37.95678 -178.717989,72.43552 -22.902333,-59.39362 259.310609,-125.41128 258.310939,-31.84387 z" fill="#313131" />
      </g>
      <path d="m 171.46042,455.40951 v -86.65654" style="fill:none;stroke-width:4;stroke:#957348;stroke-linecap:round" />
      <path d="m 179.52456,459.91702 c 3.38055,-16.04614 -15.74414,-15.5516 -20.56078,-5.50288 -4.11911,-8.20697 -14.01419,-7.40434 -17.0238,0.61718 -6.92329,18.45263 8.43311,22.74158 9.30727,18.02851 1.91732,-10.33734 -24.12006,-1.02166 -15.25812,23.47288 9.99055,27.61403 37.88596,1.48896 26.83955,0.85366 -10.99364,-0.63226 0.0236,25.07483 22.94404,13.09149 20.98003,-10.96883 12.42609,-32.19066 6.41913,-25.66208 -5.66962,6.16194 17.54332,8.11979 16.87336,-11.19755 -0.49472,-14.26437 -11.68817,-18.80239 -21.08328,-11.39282 -1.67594,-1.66207 -4.46931,-2.68719 -8.45737,-2.30839 z" fill="#fff" />
      <path fill="#d7f8f6" inkscape:original-d="m 171.3035,476.25362 c 10.22819,5.05213 12.13848,-10.23506 3.07332,-11.65216 -9.51779,-1.48786 -22.6234,12.6357 -3.89296,19.82049 18.91785,7.25667 29.11623,-26.41175 9.0407,-24.50493 3.38055,-16.04614 -15.74414,-15.5516 -20.56078,-5.50288 -4.11911,-8.20697 -14.01419,-7.40434 -17.0238,0.61718 -6.92329,18.45263 8.43311,22.74158 9.30727,18.02851 1.91732,-10.33734 -24.12006,-1.02166 -15.25812,23.47288 9.99055,27.61403 37.88596,1.48896 26.83955,0.85366 -10.99364,-0.63226 0.0236,25.07483 22.94404,13.09149 20.98003,-10.96883 12.42609,-32.19066 6.41913,-25.66208 -5.66962,6.16194 17.54332,8.11979 16.87336,-11.19755 -0.49472,-14.26437 -11.68817,-18.80239 -21.17497,-11.56005" inkscape:path-effect="#path-effect912" />
    </g>
    <g>
      <g id="g4415">
        <path d="m 103.76196,502.18996 -3.35908,-3.34237 c -0.929337,-5.14584 -4.242131,-9.06509 -12.164759,-10.53939 11.299437,-1.90674 15.945029,2.02519 17.779029,12.20554 z" fill="#225988" />
        <path d="m 87.345571,562.4034 0.96971,-84.27311" fill="none" stroke="#805f3c" stroke-width="3.5" />
        <path d="m 111.77644,474.77329 c -14.717312,-15.6124 -51.652647,-12.43923 -58.42686,26.11909 l 2.224603,3.33483 z" fill="#ab323c" />
        <g clip-path="url(#clipPath1028)" transform="rotate(.98830641-4667.9648 3107.2262)scale(.85609777)">
          <path d="m 11.650615,494.38679 24.715569,-0.10495 c -0.437743,-23.14324 30.531421,-24.79021 31.522714,-3.36466 l 23.696442,-0.31313 c -1.23523,-56.74237 -77.837569,-49.60915 -79.934725,3.66334 z" fill="#c83640" />
          <path d="m 19.296834,497.64674 c -2.878771,-45.74754 65.672391,-55.22977 64.80269,-2.76017 z" fill="#d7c652" />
          <path d="m 27.414525,496.31322 c -2.164506,-34.39694 49.378167,-41.5265 48.724252,-2.07532 z" fill="#2580b6" />
        </g>
        <path d="m 88.678173,465.88138 0.41106,-28.01277" style="fill:none;stroke-width:3.5;stroke:#805f3c;stroke-linecap:round" />
      </g>
      <use transform="rotate(358.87438 613.17455-8084.6922)" xlink:href="#g4415" />
      <g id="g4674">
        <g clip-path="url(#clipPath4617-9)">
          <path d="m 88.118354,436.4848 c -1.465256,-1.38263 -2.643164,-4.11683 -2.130247,-5.98964 0.457049,-1.66882 2.899947,-0.84744 2.373565,0.65694 -0.449413,1.28441 0.06359,3.31742 1.098195,4.51689 -0.383611,-1.38861 -0.669867,-2.89458 -0.477638,-4.3262 0.214422,-1.5969 2.770972,-0.81088 2.354383,0.71607 -0.397562,1.45721 -0.401393,2.5542 0.08067,3.58245 z" fill="#805f3c" id="path4590-2" />
          <path d="m 84.972226,434.88727 c 1.546193,-1.94066 4.736822,-2.41846 7.486797,-1.0707 l -0.334694,2.88371 -4.871828,0.9133 z" fill="#584a2a" />
        </g>
        <path d="m 85.409322,438.6349 c -0.541571,-6.31985 8.900908,-5.76257 8.274568,-0.41341 -0.40564,3.4642 -8.035064,3.20794 -8.274568,0.41341 z" fill="#805f3c" />
        <path d="m 85.409322,438.6349 c 2.26555,1.99775 5.810417,1.74778 8.27457,-0.41341 -0.524311,4.47772 -7.883182,4.98032 -8.27457,0.41341 z" fill="#584a2a" />
      </g>
      <use transform="rotate(180.4751 174.56195 3.8830918)scale(1-1)" xlink:href="#g4674" />
      <use transform="rotate(358.31215 454.43212-5232.1619)" xlink:href="#g1309" />
      <g id="g1309">
        <path d="m 105.35841,644.76987 0.20021,-71.95129 m -34.094942,43.67831 0.249768,-58.93027" style="fill:none;stroke-width:3.5;stroke:#805f3c;stroke-linecap:round" />
        <path d="m 117.71164,641.19761 -9.54754,20.10376 5.76411,-0.13034 -14.693319,34.17232 -2.99412,1.38081 6.337479,-28.16276 -9.052703,-23.77641 4.74409,-1.66568 z m -37.483481,1.11865 2.447131,-2.06995 -1.252853,-25.03377 -20.273365,-5.62369 -5.072831,0.70638 9.256181,18.6455 -6.914934,1.26666 c 6.606971,11.39376 11.703212,23.35406 14.715348,36.0959 l 2.119135,-1.88965 -2.462872,-25.70819 z" fill="#cea05d" />
        <path d="m 113.38906,643.03189 -19.863513,1.7531 -4.359717,27.85503 9.194629,-0.98871 -2.119686,25.07285 13.818337,-33.88746 -5.4269,0.13035 z m -33.160901,-0.71563 -1.622275,-25.57174 -22.529643,-6.44929 9.256181,21.81972 -6.914934,-1.90756 14.715348,36.0959 -2.114163,-26.3043 z" fill="#d8c559" />
        <path d="m 94.794512,577.87674 c 32.918458,18.99418 35.564808,-30.78023 15.111508,-18.88465 -0.82784,-13.04561 -11.981089,-17.24241 -25.956647,-11.00568 -6.057558,-16.09968 -34.362951,-7.01849 -25.941733,8.4761 4.04522,7.44299 11.398104,4.2656 11.669579,0.12972 0.191279,-2.91411 -3.597594,-4.79008 -11.669579,-0.12972 -15.837091,9.14355 -2.122109,33.60132 21.180925,19.19308 -0.53033,11.51421 12.710856,13.69059 15.605947,2.22115 z" fill="#d8d8da" stroke="#b8d4d0" stroke-width="2.5" />
      </g>
    </g>
    <g>
      <g id="g1050">
        <path d="m 67.888898,490.91718 -3.990468,-3.83593 c -1.189064,-5.99119 -5.137097,-10.50181 -14.419773,-12.06404 13.15839,-2.45457 18.663273,2.04399 21.010342,13.89685 z" fill="#2e72a7" />
        <path d="m 52.987618,543.70123 -1.082709,-80.62594" fill="none" stroke="#957348" stroke-width="4" />
        <path d="m 76.696766,458.73531 c -17.503153,-17.93747 -60.576631,-13.48731 -67.7114922,31.6821 l 2.6653412,3.84998 z" fill="#ce3944" />
        <g clip-path="url(#clipPath1028)">
          <path d="m 11.650615,494.38679 24.715569,-0.10495 c -0.437743,-23.14324 30.531421,-24.79021 31.522714,-3.36466 l 23.696442,-0.31313 c -1.23523,-56.74237 -77.837569,-49.60915 -79.934725,3.66334 z" fill="#ee3e4c" id="path998-6" />
          <path d="m 19.296834,497.64674 c -2.878771,-45.74754 65.672391,-55.22977 64.80269,-2.76017 z" fill="#fbe76b" />
          <path d="m 27.414525,496.31322 c -2.164506,-34.39694 49.378167,-41.5265 48.724252,-2.07532 z" fill="#2d9ad6" />
        </g>
        <path d="m 51.654909,448.70029 -0.275097,-24.72735" style="fill:none;stroke-width:4;stroke:#957348;stroke-linecap:round" />
        <g clip-path="url(#clipPath4451-3)">
          <path d="m 48.594178,424.86574 c -6.660419,-2.47251 -9.733131,-6.59987 -8.771927,-11.35297 0.567515,-2.80633 4.756432,-2.03634 4.552572,0.0224 -0.379049,3.82794 0.809283,6.42987 5.107042,7.55662 -3.081393,-2.66495 -4.424947,-5.71814 -3.744004,-9.08536 0.567515,-2.80633 4.756432,-2.03634 4.552572,0.0224 -0.311167,3.14241 0.433924,5.45861 3.017532,6.97213 z" fill="#957348" id="path4427-5" />
          <path d="m 38.953607,419.50517 c 1.460651,-1.76284 4.488037,-2.48137 6.874956,-1.88463 1.312806,-1.61117 4.114336,-1.96921 6.143216,-1.07412 l 2.305844,8.52814 -11.454132,0.9173 z" fill="#725738" />
        </g>
        <path d="m 46.234422,425.18238 c -3.54006,-8.19037 9.306232,-11.65646 10.855273,-4.2406 1.003209,4.80275 -9.289999,7.86206 -10.855273,4.2406 z" fill="#957348" />
        <path d="m 46.234422,425.18238 c 5.339447,1.42888 8.812609,-0.35273 10.855273,-4.2406 1.296705,6.20783 -8.297161,10.15911 -10.855273,4.2406 z" fill="#725738" />
      </g>
      <use transform="rotate(178.62154 169.20105 2.6264428)scale(1-1)" xlink:href="#g1050" />
      <use transform="rotate(178.75314 169.52517 2.128347)scale(1-1)" xlink:href="#g1041" />
      <g id="g1041">
        <path d="m 61.074476,683.53764 13.51618,28.46034 -8.160088,-0.18453 20.800923,48.3768 4.238692,1.95478 -8.971788,-39.86923 12.815656,-33.65961 -6.716076,-2.35805 z m -43.61861,7.72421 -3.464335,-2.93037 1.773628,-35.43962 28.700438,-7.96129 7.181465,1 -13.103717,26.39591 9.789279,1.79317 c -9.353305,16.12984 -16.567911,33.0617 -20.832108,51.09996 l -3,-2.67512 3.48662,-36.39436 z" fill="#f5bd6d" />
        <path d="m 17.455866,691.26185 2.296609,-36.20121 31.894587,-9.13007 -13.103717,30.88957 9.789279,-2.70049 -20.832108,51.09996 2.992962,-37.23826 z m 49.737956,-5.12747 28.120228,2.48181 6.17193,39.4336 -13.01658,-1.39969 3.00078,35.49493 -19.562228,-47.97353 7.682704,0.18453 z" fill="#fde869" />
        <path d="m 33.632638,648.33057 -0.592527,-78.24112 m 48.353835,114.95719 -0.761308,-98.07234" style="fill:none;stroke-width:4;stroke:#957348;stroke-linecap:round" />
        <path d="m 25.463441,547.88931 c -2.095391,-0.7993 -4.557865,-1.17022 -7.365185,-0.91996 -20.602752,1.83665 -2.334711,56.72896 33.477516,28.39588 10.513844,24.88259 50.786578,15.00985 43.25657,-4.55827 16.416038,1.29731 8.682188,-16.11569 -3.172751,-13.15823 5.602427,-15.76327 -5.719615,-37.32435 -26.107002,-35.90257 -12.174932,0.84906 -18.542764,8.86002 -20.304077,17.99876 -8.676073,-3.74148 -15.930399,-1.77469 -19.785071,8.14439 z" fill="#fff" />
        <path d="m 25.47601,547.91001 c 3.23278,-8.70872 10.337496,-12.65649 19.620621,-8.03399" fill="none" stroke="#d7f8f6" stroke-width="2.5" />
        <path fill="#d7f8f6" inkscape:original-d="m 75.52243,572.1344 c 29.56445,-8.44087 18.86328,-52.399 -9.969841,-50.38824 -30.011737,2.09296 -24.736987,47.70484 -2.158851,46.4522 24.070376,-1.33544 8.328196,-38.63111 -7.297697,-15.27961" inkscape:path-effect="#path-effect973" />
        <path fill="#d7f8f6" inkscape:original-d="m 26.203042,559.56575 c -9.253565,-5.54846 -11.557685,10.22965 0.760349,8.28799 12.318035,-1.94167 7.80964,-22.37088 -8.865135,-20.88439 -20.6027532,1.83664 -2.334711,56.72896 33.477516,28.39588 10.513844,24.88259 50.786578,15.00985 43.25657,-4.55827 16.416038,1.29731 8.682188,-16.11569 -3.207255,-13.13219" inkscape:path-effect="#path-effect975" />
      </g>
    </g>
  </g>
</svg>