<svg xmlns="http://www.w3.org/2000/svg" xmlns:inkscape="http://www.inkscape.org/namespaces/inkscape" height="671" viewBox="0 0 736 671" width="736">
  <defs>
    <inkscape:path-effect effect="powerstroke" id="path-effect901" interpolator_type="CubicBezierSmooth" offset_points="0.5,5" start_linecap_type="zerowidth" />
    <inkscape:path-effect effect="powerstroke" end_linecap_type="zerowidth" id="path-effect899" interpolator_type="CubicBezierSmooth" offset_points="1,5 | 1.6,5" start_linecap_type="zerowidth" />
    <inkscape:path-effect effect="powerstroke" id="path-effect862" interpolator_type="CubicBezierSmooth" offset_points="0.21,5 | 5,5" start_linecap_type="zerowidth" />
    <inkscape:path-effect effect="powerstroke" id="path-effect860" interpolator_type="CubicBezierSmooth" offset_points="0.41,5 | 5,5" start_linecap_type="zerowidth" />
    <inkscape:path-effect effect="powerstroke" end_linecap_type="zerowidth" id="path-effect858" interpolator_type="CubicBezierSmooth" offset_points="0.23,5 | 0.76,5" start_linecap_type="zerowidth" />
  </defs>
  <g inkscape:groupmode="layer" inkscape:label="Drawing">
    <path d="m 323.20219,534.73161 c -194.89932,-30.33355 -225.858357,-153.56073 -184.80079,-154.67876 -176.501373,-200.83049 -110.757587,-275.51704 -31.57029,-190.30199 -104.5029856,-254.639871 23.00884,-264.717706 100.69359,8.31503 -28.50684,-251.395382 82.20209,-274.883927 87.70841,-28.19513 2.25357,100.96201 -15.4512,189.86367 43.73968,302.12929 z" style="stroke-miterlimit:20;stroke:#006e85;stroke-width:12;fill:#61baea" />
    <path d="m 237.22735,788.71434 23.12842,80.05999 h 120.72483 l 39.9465,-94.25776 z" style="stroke-linejoin:round;stroke:#615422;stroke-width:10;fill:#807232" transform="translate(0-223.66689)" />
    <path d="m 358.65686,869.22916 25.87811,-92.40105 m -58.20556,92.10735 -12.46659,-86.51348 m -31.86988,87.04647 7.00878,-84.77933" style="stroke-linejoin:round;stroke:#615422;stroke-width:5;fill:none" transform="translate(0-223.66689)" />
    <path d="m 460.47205,499.72343 c 35.09684,-18.05562 -0.17918,-87.53432 -36.57207,-60.6348 -28.09247,-28.69284 -77.31813,-29.66501 -103.84674,5.95953 l -70.46689,25.02836 c -33.17868,-4.50503 -60.32624,-2.02359 -73.44752,19.26161 -24.26839,1.08837 -40.6539,15.14555 -38.95519,31.04299 3.60255,33.7147 57.43004,26.67005 51.68233,66.51375 -6.54636,45.38008 44.97823,50.23705 70.61338,-6.51913 20.07291,1.14802 36.23725,-3.6075 52.14715,-12.79989 39.68138,16.27215 74.52935,11.83477 93.25308,-5.88374 58.79084,17.64683 85.79205,-15.06866 55.59247,-61.96868 z" fill="#2b2b2b" />
    <path d="m 250.13679,517.12706 c 16.30917,9.99125 25.47647,24.72846 18.11107,49.77227 -1.88626,-18.71986 -6.9497,-35.96277 -18.11107,-49.77227 z m -27.36165,-8.66349 c 17.91035,13.30549 25.73179,31.41826 31.65097,53.73415 7.1184,-29.42737 -11.02455,-51.8505 -31.65097,-53.73415 z" fill="#0a0e15" />
    <path d="m 197.15266,562.69104 c -9.60637,-24.17607 -43.70287,-20.66773 -39.70914,-42.61485 3.82079,-20.99671 53.99994,-7.74574 71.9791,15.13715 19.66831,25.03274 6.10003,68.80041 -14.91736,67.81213 -19.60072,-0.92167 -12.0924,-27.09622 -17.3526,-40.33443 z" fill="#89093d" stroke="#0a0e15" stroke-width="5" />
    <path fill="#0a0e15" inkscape:original-d="m 206.72869,494.0281 c -39.99416,-13.90409 -71.88194,4.48311 -69.54505,26.35302 3.60255,33.7147 57.43004,26.67005 51.68233,66.51375 -6.54636,45.38008 44.97823,50.23705 70.61338,-6.51913 20.07291,1.14802 36.23725,-3.6075 52.14715,-12.79989 39.68138,16.27215 74.52935,11.83477 93.5502,-5.97394" inkscape:path-effect="#path-effect860" />
    <path fill="#0a0e15" inkscape:original-d="m 377.50419,551.14064 c 77.33144,37.21489 117.46139,2.15132 82.96786,-51.41721 35.09684,-18.05562 -0.17918,-87.53432 -36.57207,-60.6348 -28.09247,-28.69284 -77.31813,-29.66501 -103.84674,5.95953 l -70.46689,25.02836 c -33.17868,-4.50503 -60.32624,-2.02359 -73.61689,19.3249" inkscape:path-effect="#path-effect862" />
    <path d="m 228.87703,534.56288 c -23.40194,9.62401 -63.35836,42.59809 -57.35008,50.88162 3.68619,5.08209 38.77584,-26.27442 65.72222,-35.20815" fill="#c14d41" />
    <path d="m 218.49149,524.961 c 4.26548,3.09534 8.02031,6.54761 10.93113,10.25234 3.82338,4.86619 6.3908,10.44035 7.89168,16.25608" fill="none" stroke="#0a0e15" stroke-width="5" />
    <path d="m 508.07022,518.48394 c 31.93069,-19.89673 29.25007,-46.86636 -23.83386,-41.35323 154.14629,-98.75451 92.0219,-192.37876 -1.08723,-91.08699 51.27051,-111.79366 -31.95919,-105.67119 -59.62063,-25.9912 m -45.52431,186.08812 c 199.86997,-8.75171 240.44954,-128.93248 199.72664,-134.2821 190.20192,-191.41439 139.52019,-261.7725 52.39861,-189.40541 130.22627,-242.494279 4.43555,-265.67877 -101.014,-2.12205 54.50317,-252.882293 -68.50706,-268.255483 -86.44396,-17.47374 -8.59859,120.21968 -16.08158,195.10465 -71.76914,279.47798 z" style="stroke-miterlimit:20;stroke:#006e85;stroke-width:12;fill:#61baea" />
    <path d="m 356.10417,562.59546 c 47.11054,0.46214 53.79583,-26.49494 47.34797,-46.96907 13.4359,-26.10192 0.18019,-41.71189 -13.33883,-41.81447 -7.19972,-10.1712 -14.78946,-17.92958 -31.85126,-19.65749 z m -123.69291,-71.43538 c -29.82935,-72.82808 43.20379,-113.72054 121.38941,-40.29077 z" fill="#2b2b2b" />
    <path fill="#0a0e15" inkscape:original-d="m 358.26205,454.15443 c 17.0618,1.72791 24.65154,9.48629 31.85126,19.65749 16.41918,0.12458 32.44997,23.12366 0.56136,59.94421" inkscape:path-effect="#path-effect899" />
    <path fill="#0a0e15" inkscape:original-d="m 356.10417,562.59546 c 47.11054,0.46214 53.79583,-26.49494 47.45094,-46.93124" inkscape:path-effect="#path-effect901" />
    <path fill="#0a0e15" inkscape:original-d="m 232.41126,491.16008 c -29.82935,-72.82808 43.20379,-113.72054 121.38941,-40.29077" inkscape:path-effect="#path-effect858" />
  </g>
</svg>
