<svg xmlns="http://www.w3.org/2000/svg" xmlns:inkscape="http://www.inkscape.org/namespaces/inkscape" xmlns:xlink="http://www.w3.org/1999/xlink" height="1080" viewBox="0 0 1920 1080" width="1920">
  <defs>
    <clipPath id="clipPath868">
      <use xlink:href="#path48" />
    </clipPath>
    <clipPath id="clipPath913">
      <use xlink:href="#path874" />
    </clipPath>
    <clipPath id="clipPath978">
      <use xlink:href="#path964" />
    </clipPath>
    <clipPath id="clipPath1152">
      <use xlink:href="#ellipse1037" />
    </clipPath>
  </defs>
  <g transform="translate(0-360)" inkscape:groupmode="layer" inkscape:label="Drawing">
    <ellipse cx="966.82806" cy="1075.9961" fill="#9aabb5" rx="761.84412" ry="273.88797" />
    <g clip-path="url(#clipPath1152)">
      <ellipse cx="966.82806" cy="1053.1677" fill="#d3dcdf" id="ellipse1037" rx="761.84412" ry="273.88797" />
      <path d="m 670.20631,1190.1179 c 68.06038,50.3226 132.63867,50.2435 147.63418,18.0903 52.40903,-41.3505 149.06334,-43.2452 234.28501,4.0399 183.5319,26.8906 327.0602,-4.5905 425.2334,-82.2485 -95.5121,-119.2852 -255.6797,-225.10792 -418.0908,-283.5971 -128.38977,-37.55072 -286.68562,-26.36154 -381.03847,20.45965 -27.37221,36.83613 -75.51076,50.94717 -141.61404,32.47625 -37.08598,-10.78704 -71.88154,3.99731 -82.34309,31.70201 39.28383,99.97229 113.96402,187.98439 215.93381,259.07749 z" fill="#f6fbfa" />
      <path d="m 579.57318,775.72133 652.41352,602.66557 400.1817,-143.3551 -694.83611,-471.33645 z m -187.82254,80.27554 425.2184,510.21013 156.97877,13.4367 -515.07178,-565.70797 z m 1183.87896,173.17083 a 606.97797,184.83664 0 0 1 -606.97799,184.8367 606.97797,184.83664 0 0 1 -606.97796,-184.8367 606.97797,184.83664 0 0 1 606.97796,-184.83661 606.97797,184.83664 0 0 1 606.97799,184.83661" fill="#e9f0ee" />
    </g>
    <use fill="#f2f2f2" transform="translate(-393.9474-337)" xlink:href="#g1011" />
    <use transform="translate(0-337)" xlink:href="#g1011" />
    <use transform="translate(-602.0789-194.78948)" xlink:href="#g1011" />
    <use transform="translate(206.34214-194.78948)" xlink:href="#g1011" />
    <use transform="translate(-199.18422-194.78948)" xlink:href="#g1011" />
    <g id="g1011">
      <g clip-path="url(#clipPath978)">
        <path d="m 1290.0076,1074.3412 -30.2097,160.7853 c -68.0311,38.1059 -140.6234,36.9925 -208.5712,0.4067 l -30.2074,-159.7237 z" fill="#b76f4c" id="path964" />
        <path d="m 1030.3367,1168.3135 c 80.9112,49.1425 165.9529,52.2063 258.7259,-4.8066 l 0.1627,-19 c -77.5715,48.8802 -175.8609,54.9491 -258.4468,5.8066 z" fill="#f9f4d7" />
      </g>
      <path d="m 1041.1572,1051.456 227.1096,-0.3246 c 19.8758,4.9341 23.3342,14.7291 21.7408,23.2098 -4.9465,22.8792 -41.0981,23.837 -48.8484,31.5873 -7.69,7.69 -7.3089,-0.518 -18.3331,1.5534 -18.8981,3.5509 -30.8501,2.971 -46.7424,6.4491 -10.0121,2.1912 -13.4432,-0.37 -30.4927,1.2155 -12.862,1.1961 -18.1211,-3.1796 -28.8261,-4.1445 -23.0275,-2.0756 -38.8021,-7.2408 -51.5909,-5.8681 -11.2338,1.2058 -10.2985,-4.4776 -23.7456,-10.798 -9.4924,-4.4616 -19.0292,-11.4286 -20.4091,-18.5264 -2.5348,-13.4034 6.4688,-20.2098 20.1379,-24.3535 z" fill="#e5b682" />
      <path d="m 1041.1025,1050.1124 c -31.5079,34.3748 19.4983,67.1999 177.3594,50.1337 7.3006,-0.7893 7.3062,-5.2856 23.8502,-6.7376 20.4592,-1.7957 53.9005,-19.4506 32.0395,-42.8358 z" fill="#d6986e" />
      <path d="m 1264.1934,1026.6662 c 43.6133,16.4097 15.4784,48.5561 -9.6815,30.7279 m -205.8797,-29.1095 c -38.0871,10.5126 -24.9108,43.5138 9.2603,31.6884" fill="#ae389a" />
      <g clip-path="url(#clipPath913)">
        <path d="m 1190.8575,876.25751 c -30.1774,-1.23682 -64.1255,35.56785 -80.6143,78.47049 -12.8834,33.52163 -60.0975,31.80686 -66.8109,59.0737 -16.302,66.2112 79.2609,99.377 180.6209,70.1632 52.5354,-15.1417 58.7307,-76.1883 24.3936,-91.61746 -63.2495,-28.42067 -91.3805,-73.51274 -57.5893,-116.08993 z" fill="#f8f3d9" id="path874" />
        <path d="m 1185.7005,935.05132 c 19.7911,61.05753 89.5477,59.93042 76.5455,128.60958 36.5712,-49.2887 14.2414,-89.33396 -76.5455,-128.60958 z m -139.3231,129.08528 c 6.1282,-74.24527 66.4673,-38.4114 70.386,-139.68724 -59.947,22.51163 -110.6443,91.72534 -70.386,139.68724 z" fill="#f2e8bf" />
        <path d="m 1054.1393,1075.744 c -2.688,-42.2958 4.0806,-46.5453 31.6114,-69.319 46.3217,-38.31766 15.0844,-36.6736 45.2099,-92.5328 -32.9786,52.51796 -18.2563,57.89258 -39.1128,76.67434 -28.4754,25.64266 -56.3792,18.49546 -53.133,56.60446 z m 131.5612,-140.69268 c 8.068,57.42895 86.4312,62.32603 74.2664,129.88868 l 4.0982,-6.4083 c 17.338,-74.99106 -38.9871,-46.8029 -78.3646,-123.48038 z m 52.2604,151.65668 c 21.2005,-109.00195 -111.2862,-95.46518 -53.7871,-195.26627 -65.5936,94.49779 66.7788,92.93905 43.3453,199.42887 z m -88.9868,12.7358 -51.5582,-2.8374 c 122.9692,-84.378 -47.4651,-117.7262 98.5879,-223.87661 -116.635,98.64665 -9.9962,110.76128 -47.0297,226.71401 z" fill="#ead7a0" />
      </g>
      <g clip-path="url(#clipPath868)">
        <path d="m 1071.6311,1025.6583 c 10.8652,14.274 25.2543,23.182 28.1929,42.2753 3.1562,20.5073 -3.2298,27.1382 -29.4099,17.5674 -22.1382,-8.0931 -16.5778,-21.0398 -6.0311,-29.4862 9.0841,-7.275 14.9837,-14.5787 7.2481,-30.3565 z m 171.1886,0 c -10.8652,14.274 -25.2543,23.182 -28.1929,42.2753 -3.1562,20.5073 3.2298,27.1382 29.4099,17.5674 22.1382,-8.0931 16.5778,-21.0398 6.0311,-29.4862 -9.0841,-7.275 -14.9837,-14.5787 -7.2481,-30.3565 z m -81.733,-0.026 -28.8913,49.6239 c -6.9334,11.9088 2.0782,20.6658 11.8037,24.8752 13.0332,5.6409 36.6899,3.1946 36.6899,-18.7752 0,-22.4958 -19.6764,-12.8859 -19.6023,-55.7239 z" fill="#ae389a" id="path48" />
        <path d="m 1069.876,1022.7208 c 17.1822,21.4948 34.6765,56.4623 8.4702,68.8628 l -14.2522,-5.7237 c -15.8109,-30.5432 17.1962,-25.4651 8.5454,-49.621 z m 174.6988,0 c -17.1822,21.4948 -34.6765,56.4623 -8.4702,68.8628 l 14.2522,-5.7237 c 15.8109,-30.5432 -17.1962,-25.4651 -8.5454,-49.621 z m -80.5376,83.971 c 30.6288,-47.6616 -15.4943,-29.7681 -0.3018,-83.4968 l -4.3588,-0.9628 c -8.517,43.4164 -37.1832,48.9178 -8.539,84.0408 z" fill="#c558ba" />
      </g>
      <circle cx="1112.2814" cy="1219.5392" fill="#935332" id="path924" r="5.8697138" />
      <use transform="translate(296.09017 258.73367)scale(.79018858)" xlink:href="#path924" />
      <use transform="translate(627.10273 675.60227)scale(.45610596)" xlink:href="#path924" />
      <use transform="translate(472.18739 540.12061)scale(.56583982)" xlink:href="#path924" />
      <use transform="translate(743.73643 850.92369)scale(.29769456)" xlink:href="#path924" />
      <use transform="translate(738.03247 842.02237)scale(.29769456)" xlink:href="#path924" />
      <use transform="translate(730.31207 667.32315)scale(.45610596)" xlink:href="#path924" />
      <use transform="translate(775.40301 744.41535)scale(.39879851)" xlink:href="#path924" />
      <use transform="translate(269.64429 93.317883)scale(.86012572)" xlink:href="#path924" />
      <use transform="translate(637.96277 599.65902)scale(.45610596)" xlink:href="#path924" />
      <use transform="translate(714.96347 556.17191)scale(.47941834)" xlink:href="#path924" />
      <use transform="translate(597.14114 400.93004)scale(.5891522)" xlink:href="#path924" />
      <use transform="translate(810.06251 726.65128)scale(.33568941)" xlink:href="#path924" />
      <use transform="translate(686.72689 683.13342)scale(.38488884)" xlink:href="#path924" />
      <use transform="translate(592.50281 619.47554)scale(.42314865)" xlink:href="#path924" />
      <use transform="translate(348.85441 349.46274)scale(.63296007)" xlink:href="#path924" />
    </g>
    <use fill="#f2f2f2" transform="translate(-393.9474)" xlink:href="#g1011" />
  </g>
</svg>