<?xml version="1.0" encoding="UTF-8" standalone="no"?>
<!-- Created with Inkscape (http://www.inkscape.org/) -->

<svg
   xmlns:dc="http://purl.org/dc/elements/1.1/"
   xmlns:cc="http://creativecommons.org/ns#"
   xmlns:rdf="http://www.w3.org/1999/02/22-rdf-syntax-ns#"
   xmlns:svg="http://www.w3.org/2000/svg"
   xmlns="http://www.w3.org/2000/svg"
   xmlns:xlink="http://www.w3.org/1999/xlink"
   xmlns:sodipodi="http://sodipodi.sourceforge.net/DTD/sodipodi-0.dtd"
   xmlns:inkscape="http://www.inkscape.org/namespaces/inkscape"
   id="svg3217"
   version="1.1"
   inkscape:version="0.48.3.1 r9886"
   width="1624.663"
   height="1952.0538"
   sodipodi:docname="Clove Hitching the Long Tail to Mendelevium's End.svg"
   inkscape:export-filename="/home/parclytaxel/Pictures/Clove Hitching the Long Tail to Mendelevium's End.png"
   inkscape:export-xdpi="354.53506"
   inkscape:export-ydpi="354.53506">
  <metadata
     id="metadata3223">
    <rdf:RDF>
      <cc:Work
         rdf:about="">
        <dc:format>image/svg+xml</dc:format>
        <dc:type
           rdf:resource="http://purl.org/dc/dcmitype/StillImage" />
        <dc:title></dc:title>
      </cc:Work>
    </rdf:RDF>
  </metadata>
  <defs
     id="defs3221">
    <linearGradient
       id="linearGradient9562">
      <stop
         id="stop9564"
         offset="0"
         style="stop-color:#4091c0;stop-opacity:0" />
      <stop
         style="stop-color:#4091c0;stop-opacity:0.4"
         offset="0.50753307"
         id="stop9566" />
      <stop
         id="stop9568"
         offset="1"
         style="stop-color:#4091c0;stop-opacity:0" />
    </linearGradient>
    <linearGradient
       inkscape:collect="always"
       id="linearGradient9544">
      <stop
         style="stop-color:#4091c0;stop-opacity:0"
         offset="0"
         id="stop9546" />
      <stop
         id="stop9552"
         offset="0.48706469"
         style="stop-color:#4091c0;stop-opacity:0.302" />
      <stop
         style="stop-color:#4091c0;stop-opacity:0"
         offset="1"
         id="stop9548" />
    </linearGradient>
    <inkscape:path-effect
       effect="skeletal"
       id="path-effect8657"
       is_visible="true"
       pattern="m 326.52906,1143.3917 c -24.9112,0 -46.67614,1.3974 -74.09194,6.75 28.3202,5.0437 49.58504,6.75 74.09194,6.75 l 252.45625,0 c 33.58512,0 66.59149,-1.7497 100.8905,-1.7497 l 0,-10 c -34.67163,0 -67.30538,-1.7503 -100.8905,-1.7503 z"
       copytype="single_stretched"
       prop_scale="1"
       scale_y_rel="false"
       spacing="0"
       normal_offset="0"
       tang_offset="0"
       prop_units="false"
       vertical_pattern="false"
       fuse_tolerance="0"
       pattern-nodetypes="scssccss" />
    <inkscape:path-effect
       effect="skeletal"
       id="path-effect7734"
       is_visible="true"
       pattern="m 553.22898,841.45706 -8,13.5 209.34677,0 c 26.5548,0 77.536,-1.89747 126.0613,-6.75 -48.5253,-5.66128 -99.9109,-6.75 -126.0613,-6.75 z"
       copytype="single_stretched"
       prop_scale="1"
       scale_y_rel="false"
       spacing="0"
       normal_offset="0"
       tang_offset="0"
       prop_units="false"
       vertical_pattern="false"
       fuse_tolerance="0"
       pattern-nodetypes="ccscsc" />
    <inkscape:path-effect
       effect="skeletal"
       id="path-effect7695"
       is_visible="true"
       pattern="m -965.67556,90.585786 c -24.9112,0 -46.67614,1.39747 -74.09194,6.75 28.3202,5.043784 49.58504,6.750004 74.09194,6.750004 l 541.34675,0 c 26.55478,0 48.53604,-1.89747 72.06133,-6.750004 -24.02529,-5.66128 -45.91092,-6.75 -72.06133,-6.75 z"
       copytype="single_stretched"
       prop_scale="1"
       scale_y_rel="false"
       spacing="0"
       normal_offset="0"
       tang_offset="0"
       prop_units="false"
       vertical_pattern="false"
       fuse_tolerance="0"
       pattern-nodetypes="scsscss" />
    <inkscape:path-effect
       effect="skeletal"
       id="path-effect7640"
       is_visible="true"
       pattern="m 733.0919,965 c -18.11723,0 -41.55993,1.7304 -80.0919,6.75 38.8202,4.7509 62.32764,6.75 80.0919,6.75 l 219.3467,0 16,-13.5 z"
       copytype="single_stretched"
       prop_scale="1"
       scale_y_rel="false"
       spacing="0"
       normal_offset="0"
       tang_offset="0"
       prop_units="false"
       vertical_pattern="false"
       fuse_tolerance="0"
       pattern-nodetypes="scsccs" />
    <inkscape:path-effect
       effect="skeletal"
       id="path-effect7620"
       is_visible="true"
       pattern="m 372.93819,1007.4158 c -18.11723,0 -41.55993,1.7304 -80.0919,6.75 38.8202,4.7509 62.32764,6.75 80.0919,6.75 l 509.34674,0 c 26.5548,0 95.536,-1.8975 144.06127,-6.75 -48.52527,-5.6613 -117.91087,-6.75 -144.06127,-6.75 z"
       copytype="single_stretched"
       prop_scale="1"
       scale_y_rel="false"
       spacing="0"
       normal_offset="0"
       tang_offset="0"
       prop_units="false"
       vertical_pattern="false"
       fuse_tolerance="0"
       pattern-nodetypes="scsscss" />
    <inkscape:path-effect
       effect="skeletal"
       id="path-effect4478"
       is_visible="true"
       pattern="m -1053.8708,-553.44931 c -22.4112,0 -93.6761,1.89747 -132.0919,6.75 38.8202,4.04378 110.085,6.75 132.0919,6.75 l 509.34675,0 c 26.55478,0 77.53604,-1.89747 126.06133,-6.75 -48.52529,-5.66128 -99.91092,-6.75 -126.06133,-6.75 z"
       copytype="single_stretched"
       prop_scale="1"
       scale_y_rel="false"
       spacing="0"
       normal_offset="0"
       tang_offset="0"
       prop_units="false"
       vertical_pattern="false"
       fuse_tolerance="0"
       pattern-nodetypes="scsscss" />
    <clipPath
       clipPathUnits="userSpaceOnUse"
       id="clipPath6079">
      <path
         transform="matrix(0.7951226,-0.56670472,0.56670472,0.7951226,-27.365102,660.93322)"
         d="m 597.93252,226.08488 a 37.945705,49.440136 0 1 1 -75.89141,0 37.945705,49.440136 0 1 1 75.89141,0 z"
         sodipodi:ry="49.440136"
         sodipodi:rx="37.945705"
         sodipodi:cy="226.08488"
         sodipodi:cx="559.98682"
         id="path6081"
         style="fill:none;stroke:#000000"
         sodipodi:type="arc" />
    </clipPath>
    <linearGradient
       inkscape:collect="always"
       xlink:href="#linearGradient6622"
       id="linearGradient7131"
       gradientUnits="userSpaceOnUse"
       x1="538.06152"
       y1="176.87613"
       x2="536.73077"
       y2="240.53133" />
    <linearGradient
       inkscape:collect="always"
       id="linearGradient6622">
      <stop
         style="stop-color:#230f38;stop-opacity:1"
         offset="0"
         id="stop6624" />
      <stop
         style="stop-color:#5c2594;stop-opacity:1"
         offset="1"
         id="stop6626" />
    </linearGradient>
    <clipPath
       clipPathUnits="userSpaceOnUse"
       id="clipPath6024">
      <path
         transform="matrix(0.94451371,-0.32847199,0.32847199,0.94451371,-28.019856,496.84955)"
         d="m 582.9435,210.67358 a 31.663898,41.414997 0 1 1 -63.3278,0 31.663898,41.414997 0 1 1 63.3278,0 z"
         sodipodi:ry="41.414997"
         sodipodi:rx="31.663898"
         sodipodi:cy="210.67358"
         sodipodi:cx="551.2796"
         id="path6026"
         style="fill:none;stroke:#000000;stroke-width:1;stroke-linecap:butt;stroke-linejoin:miter;stroke-miterlimit:20;stroke-opacity:1;stroke-dasharray:none;stroke-dashoffset:0"
         sodipodi:type="arc" />
    </clipPath>
    <clipPath
       clipPathUnits="userSpaceOnUse"
       id="clipPath8688">
      <path
         style="fill:none;stroke:#00ff00"
         d="m 557.70392,1067.2355 c 8.66367,-11.341 17.9794,-22.3478 28.02617,-32.9853 l 124.55867,18.7081 c 2.47488,38.8908 -26.87005,83.7921 -67.5287,119.501 -53.74012,-3.5355 -104.85513,-46.5339 -85.05614,-105.2238 z"
         id="path8690"
         inkscape:connector-curvature="0"
         sodipodi:nodetypes="ccccc" />
    </clipPath>
    <clipPath
       clipPathUnits="userSpaceOnUse"
       id="clipPath8694">
      <path
         style="font-size:medium;font-style:normal;font-variant:normal;font-weight:normal;font-stretch:normal;text-indent:0;text-align:start;text-decoration:none;line-height:normal;letter-spacing:normal;word-spacing:normal;text-transform:none;direction:ltr;block-progression:tb;writing-mode:lr-tb;text-anchor:start;baseline-shift:baseline;color:#000000;fill:none;stroke:#0000ff;stroke-width:1;stroke-miterlimit:4;stroke-dasharray:none;marker:none;visibility:visible;display:inline;overflow:visible;enable-background:accumulate;font-family:Sans;-inkscape-font-specification:Sans"
         d="m 571.75,1091.5935 c -1.42891,-3.9669 -0.98403,-15.3169 3.96875,-32.625 4.95278,-17.3082 13.92048,-40.8363 27.53125,-71.00005 l -245.71385,250.94165 342.49956,86.2843 56.21499,-325.6227 -133.64318,-37.47666 -31.1127,68.23576 11.66726,14.1422 z"
         id="path8696"
         inkscape:connector-curvature="0"
         sodipodi:nodetypes="cscccccccc" />
    </clipPath>
    <clipPath
       clipPathUnits="userSpaceOnUse"
       id="clipPath8890">
      <path
         style="fill:none;stroke:#ffff00"
         d="m 741.45743,261.60474 c 47.63022,15.61525 77.52579,50.20731 86.11136,88.49196 C 1042.1098,18.08856 938.53341,-28.953949 741.45743,261.60474 z"
         id="path8892"
         inkscape:connector-curvature="0"
         sodipodi:nodetypes="ccc" />
    </clipPath>
    <linearGradient
       inkscape:collect="always"
       xlink:href="#linearGradient9544"
       id="linearGradient9550"
       x1="552.62109"
       y1="1553.929"
       x2="626.44824"
       y2="1778.8101"
       gradientUnits="userSpaceOnUse" />
    <linearGradient
       inkscape:collect="always"
       xlink:href="#linearGradient9562"
       id="linearGradient9560"
       x1="727.38196"
       y1="1627.8882"
       x2="746.42786"
       y2="1819.7107"
       gradientUnits="userSpaceOnUse" />
    <clipPath
       clipPathUnits="userSpaceOnUse"
       id="clipPath3084">
      <path
         sodipodi:nodetypes="csccccscccccc"
         inkscape:connector-curvature="0"
         d="m 908.46131,1743.1937 -117.26188,-302.7305 80.18875,-43.4214 C 1394.4609,717.74517 1037.8572,-89.873528 612.97056,-58.941121 222.65057,-30.525222 -1.8385585,751.85241 324.07567,1693.406 l 80.41677,-43.5449 176.52953,270.6377 -67.98398,36.8127 C 537.78113,2752.1566 2207.5404,2699.7513 2174.2254,1597.6072 2139.7827,458.15391 1537.7771,504.7495 1530.7356,1040.0118 l 147.9412,-80.10869 -176.0735,461.56869 z"
         style="fill:none;stroke:#000000"
         id="path3086" />
    </clipPath>
    <clipPath
       clipPathUnits="userSpaceOnUse"
       id="clipPath3091">
      <rect
         y="90.219589"
         x="299.14825"
         height="1992.9652"
         width="1624.663"
         id="rect3093"
         style="fill:none;stroke:#000000;stroke-width:7.03469086;stroke-linecap:butt;stroke-linejoin:miter;stroke-miterlimit:4;stroke-opacity:1;stroke-dasharray:none;display:inline" />
    </clipPath>
  </defs>
  <sodipodi:namedview
     pagecolor="#ffffff"
     bordercolor="#666666"
     borderopacity="1"
     objecttolerance="10"
     gridtolerance="10"
     guidetolerance="10"
     inkscape:pageopacity="0"
     inkscape:pageshadow="2"
     inkscape:window-width="1364"
     inkscape:window-height="698"
     id="namedview3219"
     showgrid="true"
     fit-margin-top="0"
     fit-margin-left="0"
     fit-margin-right="0"
     fit-margin-bottom="0"
     showguides="false"
     inkscape:zoom="0.27355803"
     inkscape:cx="812.33148"
     inkscape:cy="976.02692"
     inkscape:window-x="0"
     inkscape:window-y="0"
     inkscape:window-maximized="1"
     inkscape:current-layer="layer2"
     inkscape:guide-bbox="true" />
  <g
     inkscape:groupmode="layer"
     id="layer2"
     inkscape:label="Drawing"
     style="display:inline"
     transform="translate(-299.14825,-131.13098)">
    <path
       style="fill:#11a2f9;fill-opacity:1;stroke:#1c92cd;stroke-width:13.5;stroke-linecap:butt;stroke-linejoin:miter;stroke-miterlimit:4;stroke-opacity:1;stroke-dasharray:none"
       d="m 601.21591,1021.261 c 65.01606,-61.86656 145.6795,24.783 84.959,93.9039 -81.97354,93.3143 -210.68533,123.4351 -222.56306,109.7116 -11.87781,-13.724 28.7992,-110.8274 110.68702,-180.9543 z"
       id="path8705"
       inkscape:connector-curvature="0"
       sodipodi:nodetypes="cszcc"
       inkscape:transform-center-x="2.7506309"
       inkscape:transform-center-y="78.523622" />
    <g
       id="g9416"
       clip-path="url(#clipPath3091)">
      <rect
         transform="matrix(0.87935705,-0.47616298,0.47616298,0.87935705,0,0)"
         y="1643.4213"
         x="-1262.9978"
         height="322.04407"
         width="3312.2803"
         id="rect9407"
         style="fill:#d8d8d8;fill-opacity:1;fill-rule:evenodd;stroke:none" />
      <rect
         style="fill:#c8c8c8;fill-opacity:1;fill-rule:evenodd;stroke:none"
         id="rect9497"
         width="3312.2803"
         height="61.646999"
         x="-1262.9978"
         y="1643.4213"
         transform="matrix(0.87935705,-0.47616298,0.47616298,0.87935705,0,0)" />
      <rect
         transform="matrix(0.87935705,-0.47616298,0.47616298,0.87935705,0,0)"
         y="1903.8184"
         x="-1262.9978"
         height="61.646999"
         width="3312.2803"
         id="rect9499"
         style="fill:#c8c8c8;fill-opacity:1;fill-rule:evenodd;stroke:none" />
    </g>
    <path
       style="fill:#6dc6fb;fill-opacity:1;stroke:#1c92cd;stroke-width:13.5;stroke-miterlimit:4;stroke-opacity:1;stroke-dasharray:none"
       d="m 708,1007 c 43,264 161.7603,400.8445 171,399 54.49389,-10.8787 101.65686,-32.8995 139,-73 7.0313,-7.5504 -154,-79 -250,-357 z"
       id="path7660"
       inkscape:connector-curvature="0"
       sodipodi:nodetypes="csscc" />
    <path
       style="fill:#6dc6fb;fill-opacity:1;stroke:none"
       d="m 1775.3104,1740.9467 c -0.2888,2.5683 0.8715,5.2546 2.9513,6.7902 74.7708,54.9992 109.5638,128.7503 112.7097,188.9741 1.5728,30.1112 -4.7863,56.7383 -17.4454,76.0072 -12.658,19.2694 -31.2941,31.4459 -56.3524,33.6684 -57.3626,5.0877 -123.7965,-2.7281 -178.4207,-20.99 -23.8585,-7.9766 -39.1601,-24.1464 -47.0009,-45.8266 -7.8411,-21.6807 -7.8475,-49.0568 0.6706,-77.9814 17.0367,-57.8495 67.9956,-121.5122 153.4886,-157.6571 2.3796,-1.0108 4.1342,-3.3542 4.4465,-5.9201 l 69.5266,-591.0036 c 27.5764,-234.40997 -253.2711,-384.89876 -329.4752,303.973 -74.479,673.2779 -694.78838,676.702 -763.67856,378.3429 -36.04822,-156.1226 -47.75374,-407.0364 31.95403,-442.6284 163.15248,-72.8528 282.05563,353.7145 185.37776,405.2329 -96.67782,51.5185 -472.26135,-182.4274 -540.9835,-144.992 -66.89773,36.4416 137.40179,300.0733 179.71045,275.3009 42.30866,-24.7724 5.79525,-196.8395 -55.83228,-340.1661 -105.72763,-245.8898 -24.82724,-304.7532 14.90864,-453.0495 106.02893,-395.70538 -101.35234,-524.764 -48.9086,-688.95133 80.65982,-252.52435 437.30064,-162.82552 348.84432,114.3752 -2.49017,7.80358 72.60716,7.99718 72.05635,17.15628 -4.15304,69.05874 -88.71771,148.41264 -208.6149,142.00333 94.81065,115.71331 118.67217,268.77404 22.6364,399.51902 -101.62576,138.3553 -227.42393,235.2959 -144.63621,449.0678 38.92229,100.5039 124.07625,359.8769 23.21947,410.8635 -100.85678,50.9866 -367.38282,-309.9011 -235.99447,-379.0196 96.88856,-50.9694 480.94233,181.2177 539.10252,150.2249 58.16018,-30.9928 -40.54453,-352.7606 -122.84539,-305.2442 -39.96858,23.0759 -46.81915,216.2744 -10.36505,370.9471 57.7653,245.0949 587.15402,237.1502 655.62032,-364.8459 85.3669,-750.59611 449.0139,-602.5078 412.8579,-295.1738 z"
       id="path4251"
       inkscape:connector-curvature="0"
       sodipodi:nodetypes="ccscssssccsssssssssssscsssssssssc"
       clip-path="url(#clipPath3084)" />
    <use
       height="946.37177"
       width="912.56482"
       id="use4263"
       xlink:href="#path4163"
       y="0"
       x="0" />
    <g
       id="g7571"
       transform="translate(1.1437518,11.437518)">
      <path
         transform="matrix(1.8992325,-0.74073191,0.74073191,1.8992325,-542.12197,491.63912)"
         d="m 597.93252,226.08488 c 0,27.30504 -16.98887,49.44014 -37.9457,49.44014 -20.95684,0 -37.94571,-22.1351 -37.94571,-49.44014 0,-27.30503 16.98887,-49.44013 37.94571,-49.44013 20.95683,0 37.9457,22.1351 37.9457,49.44013 z"
         sodipodi:ry="49.440136"
         sodipodi:rx="37.945705"
         sodipodi:cy="226.08488"
         sodipodi:cx="559.98682"
         id="path5499"
         style="fill:#ffffff;stroke:none"
         sodipodi:type="arc" />
      <g
         transform="matrix(2.0242828,0.51116483,-0.51116483,2.0242828,-148.88145,-832.28855)"
         clip-path="url(#clipPath6079)"
         id="g6028">
        <path
           sodipodi:type="arc"
           style="fill:url(#linearGradient7131);fill-opacity:1;stroke:none"
           id="path5777"
           sodipodi:cx="551.2796"
           sodipodi:cy="210.67358"
           sodipodi:rx="31.663898"
           sodipodi:ry="41.414997"
           d="m 582.9435,210.67358 c 0,22.87288 -14.17641,41.415 -31.6639,41.415 -17.48749,0 -31.6639,-18.54212 -31.6639,-41.415 0,-22.87287 14.17641,-41.41499 31.6639,-41.41499 17.48749,0 31.6639,18.54212 31.6639,41.41499 z"
           transform="matrix(0.94451371,-0.32847199,0.32847199,0.94451371,-28.019856,496.84955)" />
        <g
           id="g6010"
           clip-path="url(#clipPath6024)">
          <path
             sodipodi:nodetypes="ccccc"
             transform="translate(0,308.2677)"
             inkscape:connector-curvature="0"
             id="path5780"
             d="m 551.27787,252.03762 6.09628,-23.16586 -6.09629,-5.22539 -13.06345,15.32779 z"
             style="fill:#8f4dd3;fill-opacity:1;stroke:none" />
          <path
             sodipodi:nodetypes="ccccc"
             transform="translate(0,308.2677)"
             inkscape:connector-curvature="0"
             id="path5782"
             d="m 550.05861,219.98861 -18.6372,14.63107 9.23151,9.2315 12.01838,-17.76629 z"
             style="fill:#62289e;fill-opacity:1;stroke:none" />
        </g>
        <path
           transform="matrix(0.96150801,-0.27477694,0.27477694,0.96150801,-22.627756,460.46607)"
           d="m 577.02329,210.67358 c 0,20.24832 -11.52584,36.66282 -25.74369,36.66282 -14.21784,0 -25.74368,-16.4145 -25.74368,-36.66282 0,-20.24831 11.52584,-36.66281 25.74368,-36.66281 14.21785,0 25.74369,16.4145 25.74369,36.66281 z"
           sodipodi:ry="36.662811"
           sodipodi:rx="25.743687"
           sodipodi:cy="210.67358"
           sodipodi:cx="551.2796"
           id="path5784"
           style="fill:#000000;stroke:#000000;stroke-width:1;stroke-linecap:butt;stroke-linejoin:miter;stroke-miterlimit:20;stroke-opacity:1;stroke-dasharray:none;stroke-dashoffset:0"
           sodipodi:type="arc" />
        <path
           transform="matrix(0.40701329,-0.25248774,0.25248774,0.40701329,141.01999,485.97665)"
           d="m 722.9971,477.56964 c 0,20.51124 -10.48741,37.13889 -23.42429,37.13889 -12.93687,0 -23.42428,-16.62765 -23.42428,-37.13889 0,-20.51124 10.48741,-37.13888 23.42428,-37.13888 12.93688,0 23.42429,16.62764 23.42429,37.13888 z"
           sodipodi:ry="37.138885"
           sodipodi:rx="23.42428"
           sodipodi:cy="477.56964"
           sodipodi:cx="699.57281"
           id="path7565"
           style="fill:#ffffff;stroke:none"
           sodipodi:type="arc" />
        <path
           sodipodi:type="arc"
           style="fill:#ffffff;stroke:none"
           id="path7567"
           sodipodi:cx="699.57281"
           sodipodi:cy="477.56964"
           sodipodi:rx="7.1385236"
           sodipodi:ry="12.071415"
           d="m 706.71134,477.56964 c 0,6.66686 -3.19603,12.07142 -7.13853,12.07142 -3.94249,0 -7.13852,-5.40456 -7.13852,-12.07142 0,-6.66686 3.19603,-12.07141 7.13852,-12.07141 3.9425,0 7.13853,5.40455 7.13853,12.07141 z"
           transform="matrix(0.40441592,-0.25662745,0.25662745,0.40441592,160.83161,505.54856)" />
      </g>
      <path
         sodipodi:nodetypes="cccccccccc"
         inkscape:connector-curvature="0"
         d="m 619.01142,445.17483 -3.79333,8.11314 c -59.566,-21.36944 -56.56054,-28.36378 3.79333,-8.11314 z m -6.59058,17.05005 -1.79863,8.7987 c -62.40121,-12.39962 -60.72534,-20.61905 1.79863,-8.7987 z M 758.87002,569.6648 C 803.7255,428.37579 624.04164,344.79561 612.07294,489.6421 c -65.1411,-4.66515 -64.30347,-13.80247 -7.44814,-9.24603 23.57401,-157.62383 221.4771,-39.97253 154.24522,89.26873 z"
         style="fill:#000000;stroke:none"
         id="path6075" />
    </g>
    <path
       transform="translate(983.17462,948.87933)"
       style="fill:#1c92cd;fill-opacity:1;stroke:none"
       d="m -185.48315,-255.56059 c -11.20286,4.14946 -22.47631,7.31393 -33.80028,9.66856 -11.32397,2.35462 -22.70131,3.89908 -34.16397,4.703 -18.37049,1.29666 -36.96159,0.69457 -56.21727,-1.71101 -19.25568,-2.40559 -39.19764,-6.6224 -60.04275,-13.05397 20.1428,9.57859 39.95765,16.33005 59.37826,20.67453 19.42062,4.34447 38.46869,6.30167 57.41981,5.93762 12.1304,-0.23818 24.19918,-1.4531 36.21832,-3.68302 12.01915,-2.22992 23.99248,-5.47401 35.89501,-9.88558 8.53029,-3.16167 16.87488,-6.83854 24.97031,-11.03539 25.59285,-13.25356 48.75987,-31.753 66.241982,-55.00795 7.660419,-10.19806 14.180919,-21.36803 18.985834,-33.34948 9e-6,-2e-5 1.8e-5,-4e-5 2.8e-5,-7e-5 4.390133,-10.92945 7.280362,-22.59854 8.018786,-34.56913 3e-6,-6e-5 5e-6,-1.2e-4 7e-6,-1.9e-4 0.05922,-1.52036 -0.209782,-2.89643 -0.788311,-4.09647 -2.4e-5,-5e-5 -4.7e-5,-1e-4 -7.1e-5,-1.5e-4 -0.645381,-1.25734 -1.320693,-2.17424 -1.98184,-2.75649 -1.669586,-1.48632 -3.138407,-2.35478 -4.240509,-2.75536 -3.511968,-1.52133 -6.836956,-2.30045 -9.740226,-2.85468 -4.156101,-0.85379 -8.26172,-1.47458 -12.280378,-2.02462 -2.3e-5,0 -4.7e-5,-1e-5 -7e-5,-1e-5 -4.587843,-0.63084 -9.148532,-1.1743 -13.671492,-1.70726 -4.49634,-0.53029 -8.95731,-1.04484 -13.37356,-1.61758 -2e-5,0 -5e-5,-10e-6 -7e-5,-10e-6 -3.82864,-0.49869 -7.56628,-1.01315 -11.18239,-1.69719 -2.65603,-0.54745 -4.89472,-0.92282 -6.49405,-1.66289 -1e-5,-10e-6 -3e-5,-2e-5 -4e-5,-3e-5 -0.48836,-0.35444 -0.47274,-0.18605 0.24391,0.32618 0.35817,0.25703 0.72952,0.94001 1.16792,2.05049 0.31401,1.1972 0.3099,2.27876 -0.0225,3.2868 9.9859,-31.18739 15.66612,-64.16387 14.02636,-97.25262 -1.34857,-27.00442 -7.89202,-53.93091 -20.29595,-78.20341 -11.18093,-21.8181 -27.02638,-41.17682 -46.18859,-56.46252 -1e-5,-1e-5 -2e-5,-2e-5 -3e-5,-3e-5 -18.64937,-14.86296 -40.25331,-25.84816 -63.10027,-32.45211 -23.05177,-6.66537 -47.33041,-8.9083 -71.20576,-6.65016 -24.62564,2.3301 -48.76104,9.47806 -70.67248,20.97257 -23.62877,12.41285 -44.47117,29.79568 -61.28969,50.3933 -19.55666,23.98248 -33.66904,51.95087 -42.9784,81.17394 -6.43467,20.16068 -9.6167,41.30135 -9.56035,62.42786 0.074,20.9726 3.12745,41.68548 7.6588,61.83389 4.93513,21.99071 11.48373,43.43021 18.20896,64.62929 10e-6,2e-5 10e-6,4e-5 2e-5,6e-5 7.55645,23.84154 15.3673,47.50371 22.40535,71.30145 0,2e-5 10e-6,5e-5 2e-5,7e-5 17.18975,58.14825 29.3061,117.83329 33.08587,178.127212 1.44439,22.848381 1.78017,45.745871 1.12831,68.6332724 -0.48256,16.9432266 -1.35969,33.1543226 -2.47971,48.8807036 -1.12001,15.726381 -2.48441,30.968375 -4.01625,45.97541 -1.53183,15.007032 -3.23207,29.779382 -5.08002,44.564042 -1.84794,14.78465 -3.84422,29.58193 -6.01244,44.63193 9.6057,-29.56598 16.69448,-58.56122 21.81107,-88.600615 2.5583,-15.019697 4.61539,-30.304622 6.17001,-46.074857 1.55462,-15.770235 2.6083,-32.026107 3.08973,-48.9933506 0.66037,-23.2742584 0.32157,-46.5821584 -1.13735,-69.8645024 -3.8873,-61.528315 -16.1796,-122.207145 -33.61371,-181.108595 -7.12034,-24.06621 -14.9567,-47.81163 -22.48187,-71.55121 0,-2e-5 -1e-5,-4e-5 -2e-5,-7e-5 -6.6868,-21.11467 -13.13396,-42.17844 -17.90464,-63.5021 -4.35499,-19.5088 -7.29959,-39.24953 -7.33217,-58.91743 -0.0508,-19.74862 2.91788,-39.50826 8.9203,-58.28479 0,-10e-6 0,-2e-5 10e-6,-3e-5 8.91788,-27.84152 22.22845,-54.33202 40.57297,-76.74028 15.73162,-19.24349 35.18008,-35.48867 57.10785,-46.98036 20.33319,-10.67218 42.80141,-17.32488 65.67096,-19.48679 22.18591,-2.09826 44.7904,-0.0126 66.18331,6.17848 21.19271,6.1353 41.24126,16.31586 58.43408,30.03818 2e-5,2e-5 3e-5,3e-5 5e-5,4e-5 17.6546,14.07688 32.30084,31.96918 42.59094,52.06329 1e-5,2e-5 2e-5,4e-5 3e-5,6e-5 11.47198,22.33414 17.52624,47.43667 18.82837,72.73151 1.61205,31.07066 -3.86096,62.45135 -13.40473,92.46523 -0.47852,1.46601 -0.49662,3.04885 -0.0441,4.70639 0.59096,1.61758 1.27538,2.74709 1.99939,3.38697 6e-5,5e-5 1.1e-4,1e-4 1.6e-4,1.5e-4 1.8029,1.64898 3.28239,2.51395 4.24143,2.77391 2e-5,0 5e-5,10e-6 8e-5,2e-5 3.41191,1.38705 6.57582,2.04237 9.2697,2.50271 3e-5,0 5e-5,1e-5 7e-5,1e-5 4.04815,0.75971 8.04033,1.31461 11.94603,1.81851 2e-5,0 5e-5,10e-6 7e-5,10e-6 4.5415,0.58843 9.05404,1.10936 13.52827,1.63673 4.51252,0.53236 8.986713,1.06477 13.412016,1.67411 2.3e-5,1e-5 4.5e-5,1e-5 6.8e-5,1e-5 3.905631,0.54032 7.715664,1.11035 11.393623,1.87234 2.771031,0.6161 5.160168,1.09243 6.93267,1.94633 0.5499,0.34196 0.721282,0.32715 0.348192,0.10557 -0.193325,-0.12589 -0.452237,-0.52437 -0.820834,-1.18967 -2.7e-5,-6e-5 -5.4e-5,-1.1e-4 -8.2e-5,-1.7e-4 -0.336216,-0.68175 -0.482549,-1.48137 -0.457677,-2.4306 2e-6,-7e-5 4e-6,-1.5e-4 6e-6,-2.3e-4 -0.601261,10.3063 -3.177641,20.57399 -7.07724,30.36494 -8e-6,2e-5 -1.6e-5,4e-5 -2.5e-5,6e-5 -4.285946,10.74137 -10.228474,20.88296 -17.251917,30.26433 -16.03439,21.43589 -37.67469,38.64134 -61.6618,51.12598 -7.58203,3.94172 -15.41566,7.39578 -23.43743,10.36698 z"
       id="path4001"
       inkscape:connector-curvature="0"
       sodipodi:nodetypes="csssc"
       inkscape:path-effect="#path-effect7695"
       inkscape:original-d="m -369.70742,-255.95401 c 166.68234,65.58878 295.245382,-35.76809 300.390511,-121.32367 0.550809,-9.1591 -74.546521,-9.3527 -72.056351,-17.15628 88.456315,-277.20072 -268.1845,-366.89955 -348.84432,-114.3752 -52.44374,164.18733 139.48912,289.42655 48.9086,688.95137" />
    <path
       id="path4457"
       style="fill:#1c92cd;fill-opacity:1;fill-rule:evenodd;stroke:none"
       d="m 793.2712,609.68303 c 28.71456,24.54545 53.05668,31.2184 90.38449,29.36406 l -9.67548,12.76595 C 840.2335,650.87585 812.71757,639.51577 793.2712,609.68303 z m 67.30338,-25.1363 c 6.35744,9.40281 13.56628,10.92133 24.17426,3.99996 -5.87755,17.19358 -25.51943,14.06433 -24.17426,-3.99996 z"
       inkscape:connector-curvature="0" />
    <path
       style="fill:#1c92cd;fill-opacity:1;stroke:none"
       d="m 713.65989,713.05433 c -5.72986,0.0425 -11.42361,0.19937 -17.07753,0.46597 23.41084,27.85831 43.25888,58.73513 57.96237,91.89565 14.10058,31.80295 23.46289,65.73983 26.65308,100.25677 0,0 0,10e-6 0,10e-6 1.70234,18.35737 1.63883,36.88377 -0.19152,55.22666 -1.24506,12.47739 -3.49283,29.16689 -8.13856,47.98431 -1.97863,8.0317 -4.39056,16.443 -7.27137,25.0693 -2.88082,8.6263 -6.23062,17.4672 -10.03357,26.3615 -3.80295,8.8942 -8.05874,17.8414 -12.7019,26.6905 -4.64316,8.8491 -9.67312,17.5996 -14.98168,26.119 6.62908,-7.5209 12.92394,-15.5064 18.74689,-23.7911 5.82294,-8.2847 11.17316,-16.8678 15.96401,-25.5551 4.79085,-8.6874 9.02193,-17.4782 12.66687,-26.1609 3.64493,-8.6827 6.70386,-17.2567 9.21271,-25.5046 2.95335,-9.727 5.13294,-18.9776 6.72476,-27.39945 1.59182,-8.42184 2.59909,-16.01474 3.24395,-22.47264 1.91783,-19.20567 1.98473,-38.59461 0.20171,-57.81429 0,0 0,0 0,-10e-6 -3.36048,-36.1083 -13.09025,-71.4546 -27.75546,-104.48502 0,0 0,-10e-6 0,-10e-6 -13.84053,-31.17501 -31.97374,-60.31912 -53.22476,-86.88655 z"
       id="path4039"
       inkscape:connector-curvature="0"
       sodipodi:nodetypes="cc"
       inkscape:path-effect="#path-effect7734"
       inkscape:original-d="m 701.74906,709.1766 c 97.66572,116.17031 123.41063,271.50783 26.13015,403.9474" />
    <g
       id="g7654">
      <path
         style="fill:#6dc6fb;fill-opacity:1;stroke:none"
         d="m 705.09789,1020.6058 c 76.02299,143.0629 184.17284,130.9415 214.34102,-39.50795 12.67782,31.23665 26.30016,52.29735 32.88163,50.49265 59.51576,-16.3193 101.49096,-41.45944 128.98446,-88.72131 6.5015,-11.17626 -82.38557,-126.02696 -152.04587,-126.02696 -47.84289,0 -98.90699,27.48515 -127.06359,167.04454 -13.5732,-2.30462 -29.68989,-9.58092 -42.71024,-19.22515 z"
         id="path7652"
         inkscape:connector-curvature="0"
         sodipodi:nodetypes="ccsssccc" />
      <path
         inkscape:original-d="m 902.90522,932.28601 c 15.18331,55.82357 39.80525,101.93959 49.41532,99.30449 59.51576,-16.3193 101.49096,-41.45944 128.98446,-88.72131 6.5015,-11.17626 -82.38557,-126.02696 -152.04587,-126.02696 -52.44268,0 -108.75574,33.02425 -134.87728,210.57417"
         inkscape:path-effect="#path-effect7620"
         sodipodi:nodetypes="csssc"
         inkscape:connector-curvature="0"
         id="path7604"
         d="m 938.32687,1005.7802 c -0.85192,-1.5875 -1.73181,-3.2394 -2.65645,-4.9582 -4.46015,-8.36205 -9.55975,-18.18158 -15.67594,-30.73195 -5.08411,-10.4364 -10.86146,-22.72395 -17.08926,-37.80404 2.39003,16.13682 5.41572,29.61352 8.58895,41.02247 3.84201,13.82683 7.94922,24.68354 12.24937,33.58582 0.87175,1.8227 1.75733,3.583 2.66627,5.2782 3.11968,5.8185 6.6473,11.6456 11.01928,17.1047 1.67272,2.1672 3.84902,4.5318 6.80239,6.6512 1.01584,0.7582 2.42313,1.4937 4.23567,2.0769 2e-5,0 4e-5,0 6e-5,0 1.50126,0.5224 3.41304,0.5897 5.6383,0.095 27.28382,-7.4348 54.38279,-17.6795 78.45729,-33.6489 0,0 0,0 0,0 22.3587,-14.90639 41.0855,-35.00048 54.5768,-58.18798 0.9325,-1.87874 1.3176,-3.40165 1.2442,-4.48697 0.02,-1.46903 -0.1222,-2.66476 -0.3486,-3.57461 0,-10e-6 0,-2e-5 0,-4e-5 -0.6121,-2.67403 -1.5111,-4.92038 -2.4116,-6.78667 0,0 0,0 0,-10e-6 -2.8634,-6.14402 -6.4113,-11.64582 -9.9798,-16.78403 -5.0203,-7.27683 -10.4348,-14.20948 -16.0554,-20.8922 -6.6578,-7.92039 -13.6636,-15.5401 -20.9732,-22.8477 -15.5781,-15.60308 -32.6655,-30.06442 -51.79439,-41.69911 -1e-5,-10e-6 -1e-5,-10e-6 -2e-5,-10e-6 -8.93109,-5.43608 -18.42955,-10.23247 -28.54261,-13.76774 -9.13494,-3.21386 -18.92723,-5.29514 -29.01905,-5.332 -14.333,-0.0309 -28.889,2.55054 -42.29238,8.5274 -1e-5,10e-6 -2e-5,10e-6 -2e-5,2e-5 -16.17505,7.34756 -29.71467,19.153 -40.32652,32.76096 -7.51248,9.62083 -13.82462,19.97343 -19.24648,30.72302 -2.02008,4.00507 -4.38326,9.11232 -6.80943,15.11113 -2.42617,5.99881 -4.91079,12.89051 -7.2787,20.3773 -2.54397,8.00057 -4.98566,16.72 -7.1717,25.84515 -2.18604,9.12514 -4.11739,18.65518 -5.73329,28.25606 -3.23179,19.20174 -5.18143,38.67583 -6.01876,55.72313 4.37237,-16.4953 8.98314,-35.40175 14.11763,-53.91253 2.56724,-9.25539 5.26163,-18.41302 8.04657,-27.1514 2.78495,-8.73837 5.66158,-17.05714 8.50657,-24.67 2.69062,-7.16467 5.33366,-13.7043 7.79603,-19.35913 2.46237,-5.65483 4.74085,-10.42794 6.60836,-14.15319 5.06973,-10.11296 10.90067,-19.70941 17.80291,-28.45457 9.64495,-12.20153 21.48927,-22.68074 35.24064,-28.78225 0,-10e-6 1e-5,-10e-6 2e-5,-10e-6 11.29848,-5.12427 24.00986,-7.31023 36.75853,-7.34109 0,0 1e-5,0 2e-5,0 8.1629,-0.0369 16.47582,1.79431 24.58096,4.58164 8.98093,3.11125 17.6239,7.50463 25.97612,12.55871 17.93234,10.85973 34.17299,24.65655 49.25409,39.70555 7.0415,7.04027 13.7842,14.37313 20.1839,21.98714 5.4101,6.44032 10.5645,13.03182 15.2753,19.86873 3.3924,4.95787 6.5597,9.79209 8.838,14.7813 0,10e-6 10e-5,10e-6 10e-5,2e-5 0.6975,1.59397 1.2813,2.8938 1.4656,3.94709 0.042,0.34708 0.088,0.43458 0.06,0.24995 0,-1e-5 0,-1e-5 0,-1e-5 -0.1082,-0.15308 0.1137,-0.72492 0.5771,-1.79729 -12.4612,21.42525 -29.7927,40.03674 -50.391,53.74022 0,0 0,10e-6 0,10e-6 -22.2992,14.91621 -48.09368,24.56641 -74.54383,31.86551 0.94037,-0.1424 1.47292,-0.1915 1.69467,-0.041 0,0 10e-6,1e-4 10e-6,1e-4 0.16533,0.105 0.0566,-0.015 -0.34006,-0.2293 -1.21931,-0.7553 -2.44771,-2.2415 -3.95868,-4.0162 -3.63451,-4.4542 -6.69058,-9.5846 -9.60464,-15.0147 z"
         style="fill:#1c92cd;fill-opacity:1;stroke:none" />
      <path
         sodipodi:nodetypes="cccc"
         inkscape:connector-curvature="0"
         id="path7606"
         d="m 759.4853,964.66162 c 13.25,12.5 25.21243,19.70034 41.71243,23.95034 l 2.55781,-9.70321 c -17.25,-2 -28.02024,-5.99713 -44.27024,-14.24713 z"
         style="fill:#1c92cd;fill-opacity:1;stroke:none" />
      <path
         inkscape:original-d="m 705.09789,1020.6058 c 77.52314,145.8859 188.45355,130.4027 216.1746,-49.62623"
         inkscape:path-effect="#path-effect7640"
         sodipodi:nodetypes="cc"
         inkscape:connector-curvature="0"
         id="path7602"
         d="m 762.75028,1086.9937 c -6.76034,-5.9906 -14.23765,-13.1784 -22.97141,-22.6545 -4.98811,-5.4191 -10.36068,-11.5871 -16.14102,-18.7854 -5.78034,-7.1984 -11.96809,-15.4339 -18.53996,-24.948 4.28522,10.7483 8.66976,20.2152 13.07072,28.5635 4.40096,8.3482 8.81332,15.5818 13.15547,21.9063 7.68504,11.2087 15.20527,19.5751 22.48319,26.0166 3.15985,2.7967 6.43477,5.4798 9.8327,8.0277 10.30624,7.7522 21.96334,14.1829 34.77573,17.8569 0,0 0,0 10e-6,0 11.17317,3.1866 23.14366,3.9335 34.76298,1.6541 11.84479,-2.3996 22.78366,-7.7944 32.08491,-15.0311 11.02985,-8.5897 19.92962,-19.335 27.14102,-30.7896 10e-6,0 10e-6,0 10e-6,-10e-5 9.10451,-14.4132 15.88576,-30.0133 21.19804,-45.876 4.73769,-14.115 8.38203,-28.5212 11.22659,-43.03711 -3.25185,-6.81442 -6.67739,-13.45155 -10.22814,-19.94469 -3.08512,19.98063 -7.40921,39.7102 -13.79494,58.6807 -5.10293,15.1238 -11.42038,29.7499 -19.80665,42.954 -6.66588,10.4571 -14.51831,20.0515 -23.999,27.337 -7.90257,6.0792 -16.96557,10.6192 -26.45728,12.4666 -9.26646,1.8779 -19.132,1.2147 -28.44813,-1.4027 -10.81829,-3.02 -21.00719,-8.7251 -30.37114,-15.68 -3.08753,-2.3012 -6.07611,-4.7465 -8.9737,-7.3142 z"
         style="fill:#1c92cd;fill-opacity:1;stroke:none" />
    </g>
    <g
       style="display:inline"
       transform="matrix(1.6213647,-0.4351016,0.4351016,1.6213647,-349.26951,86.495908)"
       id="g5412-0">
      <path
         style="fill:#961370;fill-opacity:1;stroke:none"
         d="m 431.44574,306.39889 c -33.5958,71.44492 -17.74678,182.75387 53.75064,240.0055 -22.40292,-0.76102 -42.13692,-5.73882 -61.74895,-16.42047 22.55865,43.26183 17.52331,87.25082 -20.02169,118.36707 7.50885,-35.21576 1.88758,-62.30343 -17.49976,-87.50959 -4.32287,66.76425 -29.14286,106.27626 -86.94774,129.44739 C 385.54639,559.98998 312.51249,362.3184 442.52955,239.0575 z"
         id="path5410-9"
         inkscape:connector-curvature="0"
         sodipodi:nodetypes="cccccccc" />
      <path
         style="fill:#f3a4d9;fill-opacity:1;stroke:none"
         d="m 403.42574,648.35099 c 7.30784,-35.25802 1.88758,-62.30343 -17.49976,-87.50959 -4.32287,66.76425 -29.14286,106.27626 -86.94774,129.44739 C 385.54639,559.98998 312.51249,362.3184 442.52955,239.0575 l -4.19054,25.46028 C 315.14628,455.6037 459.29093,560.47311 403.42574,648.35099 z"
         id="path5408-4"
         inkscape:connector-curvature="0"
         sodipodi:nodetypes="cccccc" />
      <path
         sodipodi:nodetypes="cccccccc"
         inkscape:connector-curvature="0"
         id="path5406-7"
         d="m 431.44574,306.39889 c -33.5958,71.44492 -17.74678,182.75387 53.75064,240.0055 -22.40292,-0.76102 -42.13692,-5.73882 -61.74895,-16.42047 22.55865,43.26183 17.52331,87.25082 -20.02169,118.36707 7.50885,-35.21576 1.88758,-62.30343 -17.49976,-87.50959 -4.32287,66.76425 -29.14286,106.27626 -86.94774,129.44739 C 385.54639,559.98998 312.51249,362.3184 442.52955,239.0575 z"
         style="fill:none;stroke:#d91e9b;stroke-width:8.04179001;stroke-linecap:butt;stroke-linejoin:miter;stroke-miterlimit:20;stroke-opacity:1;stroke-dasharray:none" />
    </g>
    <g
       id="g8894">
      <path
         style="fill:#961370;fill-opacity:1;stroke:none"
         d="m 563.5,343.78492 c 39.16645,3.52197 59.20939,38.96925 38.79029,88.51052 46.11191,-17.54381 63.02486,-38.7 64.06824,-87.41416 38.88623,22.88313 51.11724,50.36265 40.64963,91.36959 45.18769,-18.7486 60.33367,-45.14494 54.76583,-89.74892 40.3342,20.84669 54.05134,51.32299 44.90765,93.16414 39.0349,-20.75493 51.60259,-47.98294 50.84433,-89.22778 32.69546,23.58896 45.89436,51.39739 48.3349,92.41662 C 1035.289,268.85305 797,66 499,265 z"
         id="path8886"
         inkscape:connector-curvature="0"
         sodipodi:nodetypes="cccccccccc" />
      <path
         style="fill:#f3a4d9;fill-opacity:1;stroke:none"
         d="m 806.68164,439.66609 c 39.0349,-20.75493 51.60259,-47.98294 50.84433,-89.22778 32.69546,23.58896 45.89436,51.39739 48.3349,92.41662 C 1035.289,268.85305 797,66 499,265 l 27.34085,33.39608 C 762.71316,171.3616 884.56856,339.89514 806.68164,439.66609 z"
         id="path8884"
         inkscape:connector-curvature="0"
         sodipodi:nodetypes="cccccc" />
      <path
         sodipodi:nodetypes="cccccccccc"
         inkscape:connector-curvature="0"
         id="path8880"
         d="m 563.5,343.78492 c 39.16645,3.52197 59.20939,38.96925 38.79029,88.51052 46.11191,-17.54381 63.02486,-38.7 64.06824,-87.41416 38.88623,22.88313 51.11724,50.36265 40.64963,91.36959 45.18769,-18.7486 60.33367,-45.14494 54.76583,-89.74892 40.3342,20.84669 54.05134,51.32299 44.90765,93.16414 39.0349,-20.75493 51.60259,-47.98294 50.84433,-89.22778 32.69546,23.58896 45.89436,51.39739 48.3349,92.41662 C 1035.289,268.85305 797,66 499,265 z"
         style="fill:none;stroke:#d91e9b;stroke-width:13.5;stroke-miterlimit:20;stroke-opacity:1;stroke-dasharray:none" />
      <g
         clip-path="url(#clipPath8890)"
         id="g4459">
        <path
           style="fill:#6dc6fb;fill-opacity:1;stroke:#1c92cd;stroke-width:13.5;stroke-linecap:butt;stroke-linejoin:miter;stroke-miterlimit:4;stroke-opacity:1;stroke-dasharray:none"
           d="M 723.99492,316.54495 C 939.02026,71.782055 935.58901,69.494547 798.33878,365.72628 z"
           id="path4041"
           inkscape:connector-curvature="0"
           sodipodi:nodetypes="ccc" />
        <path
           id="path4047"
           style="fill:none;stroke:#1c92cd;stroke-width:7;stroke-linecap:butt;stroke-linejoin:miter;stroke-miterlimit:4;stroke-opacity:1;stroke-dasharray:none"
           d="m 836.09733,189.70208 c 14.58605,0.46907 29.08093,0.0202 43.54775,-1.33277 m -84.71766,47.93579 c 21.28465,2.38831 42.36036,2.82006 63.41969,1.34219 m -103.97485,44.82108 c 26.86964,5.43331 53.41015,7.72027 80.00436,6.96723"
           inkscape:connector-curvature="0"
           sodipodi:nodetypes="cccccc" />
      </g>
    </g>
    <g
       id="g4488">
      <path
         transform="translate(983.17462,948.87933)"
         style="fill:#6dc6fb;fill-opacity:1;stroke:none"
         d="m -461.62378,-423.02777 c -156.69401,-107.51267 -76.63137,-298.51922 -58.33135,-303.09423 19.97285,-4.99321 105.22518,48.03757 120.09395,147.54398 z"
         id="path4486"
         inkscape:connector-curvature="0"
         sodipodi:nodetypes="cscc" />
      <path
         inkscape:original-d="m -461.62378,-423.02777 c -156.69401,-107.51267 -76.63137,-298.51922 -58.33135,-303.09423 19.97285,-4.99321 105.22518,48.03757 120.09395,147.54398"
         inkscape:path-effect="#path-effect4478"
         sodipodi:nodetypes="csc"
         inkscape:connector-curvature="0"
         id="path3231"
         d="m -532.21333,-486.52628 c 1.57051,2.57401 3.87839,6.1106 6.86543,10.18228 2.98704,4.07167 6.65808,8.67475 10.89587,13.38335 3.66891,4.07302 7.75339,8.21981 12.10744,12.21414 4.35405,3.99434 8.97675,7.83578 13.66785,11.35381 4.6911,3.51803 9.44902,6.71303 14.03868,9.47064 4.58967,2.7576 9.00942,5.07897 13.01428,6.89429 -6.46937,-5.98819 -14.53937,-13.50287 -22.36196,-21.7564 -3.91129,-4.12676 -7.76614,-8.42981 -11.39208,-12.75231 -3.62594,-4.32251 -7.02239,-8.66415 -10.0759,-12.82822 -3.55919,-4.84953 -6.65467,-9.45716 -9.20997,-13.44943 -2.55531,-3.99228 -4.57548,-7.36686 -6.02609,-9.74385 -4.73963,-7.76645 -8.93488,-15.86036 -12.52676,-24.21006 -6.62558,-15.38553 -11.22896,-31.66556 -13.88296,-48.26548 -2.4683,-15.43661 -3.25584,-31.16601 -2.56924,-46.8464 0,0 0,-10e-6 10e-6,-10e-6 0.6239,-14.20017 2.45433,-28.35574 5.41447,-42.27425 2.49887,-11.73165 5.76595,-23.26949 9.97361,-34.41593 3.0985,-8.15723 6.50111,-16.02163 10.89009,-23.07136 1.43516,-2.27467 2.79595,-4.32501 4.30462,-5.91621 0.5239,-0.53914 0.9171,-0.94636 1.22311,-1.14549 0.29481,-0.11051 0.13711,-0.12012 -0.45518,0.12963 0,0 0,0 0,0 0.41006,-0.16118 1.20845,-0.11625 2.29981,-0.0792 0,0 10e-6,0 10e-6,0 1.39801,0.0976 2.92476,0.43194 4.56964,0.86712 4.48596,1.19965 8.94269,3.23796 13.44215,5.58709 12.9001,6.78042 24.59339,16.0733 35.29574,26.48986 9.13491,8.92229 17.39198,18.75209 24.62045,29.28548 2.93892,4.28261 6.60344,9.71757 10.51172,16.13089 4.91121,8.05777 10.17226,17.69481 14.99197,28.3719 4.81972,10.67708 9.18368,22.38775 12.72534,34.34234 0.0891,-6.24178 -0.28499,-12.57635 -1.07643,-18.82761 -0.79144,-6.25126 -1.99987,-12.41837 -3.53294,-18.34378 -3.06613,-11.85083 -7.45496,-22.69945 -12.01142,-31.65047 -3.64717,-7.16471 -7.36694,-13.13031 -10.47671,-17.66207 -7.72518,-11.25761 -16.54839,-21.76031 -26.31891,-31.30416 -11.34034,-11.11393 -24.07728,-21.16722 -38.42666,-28.7711 -4.97108,-2.65012 -10.34303,-5.04989 -16.1878,-6.67148 -2.16026,-0.60397 -4.51262,-1.08288 -7.04646,-1.30077 -1.90137,-0.20302 -4.15107,-0.128 -6.65374,0.439 -1.97209,0.5947 -3.37615,1.33529 -4.2301,2.06334 -1.29882,0.97234 -2.33975,1.95577 -3.16627,2.8741 0,0 -10e-6,10e-6 -10e-6,2e-5 -2.40123,2.62865 -4.28721,5.36868 -5.88024,7.98529 -5.03559,8.17323 -8.82251,16.81817 -12.04303,25.41299 -4.47109,11.86141 -7.92925,24.05115 -10.5469,36.37159 -3.11362,14.63341 -5.03819,29.52758 -5.6969,44.49002 0,0 0,10e-6 0,10e-6 -0.73006,16.53002 0.10943,33.16672 2.72509,49.56831 2.8151,17.65027 7.7287,34.99956 14.81359,51.47325 3.84994,8.94296 8.3375,17.60194 13.40369,25.90526 z"
         style="fill:#1c92cd;fill-opacity:1;stroke:none"
         transform="translate(983.17462,948.87933)" />
      <path
         sodipodi:nodetypes="ccc"
         inkscape:connector-curvature="0"
         id="path4453"
         d="m 475.16687,299.64411 c -14.90043,50.56533 -5.32277,106.27414 31.57628,143.16701 -26.86271,-43.12018 -37.01876,-86.90864 -31.57628,-143.16701 z"
         style="fill:#1c92cd;fill-opacity:1;stroke:none" />
    </g>
    <path
       style="opacity:0.2;fill:#ffffff;stroke:none"
       d="m 1636.384,2032.3984 c -103.4937,-34.5999 -68.1492,-221.369 106.6197,-295.2582 l 70.3908,-598.343 39.6393,4.6633 -70.3907,598.3432 c 152.8499,112.4312 143.8843,302.2985 35.187,311.9408 -58.5161,5.19 -125.724,-2.7165 -181.4461,-21.3461 z"
       id="path4163"
       inkscape:connector-curvature="0"
       sodipodi:nodetypes="sccccss" />
    <g
       id="g3018"
       transform="matrix(0.30386259,0.12098051,-0.12098051,0.30386259,1652.6681,1682.9201)">
      <path
         id="path3014"
         style="fill:#5a318e;fill-opacity:1;stroke:none"
         d="m 428.86157,620.36218 c 55.42564,96.00002 166.27687,192.00001 332.55375,160.00001 l 83.13843,-112 c -221.7025,96 -332.55373,0 -387.97938,-64.00001 z m 193.98968,-48 c 55.42563,-96.00002 83.13844,-240 -27.71281,-368 l -138.56406,-16 c 193.98969,144 166.27687,287.99999 138.56406,368.00001 z m -138.56406,-144 c -110.85127,0 -249.41532,48 -304.84095,208 l 55.42563,128 c 27.71281,-240 166.27687,-288 249.41533,-304.00001 z"
         inkscape:connector-curvature="0" />
      <path
         id="path3016"
         style="fill:#54a2e1;fill-opacity:1;stroke:none"
         d="m 401.14875,508.3622 c -55.42563,96.00001 -83.13844,239.99998 27.71281,367.99999 l 138.56406,15.99999 c -193.98969,-144 -166.27687,-287.99997 -138.56406,-368 z m 138.56406,143.99998 c 110.85127,0 249.41532,-47.99999 304.84095,-207.99999 l -55.42563,-128 c -27.71281,240 -166.27687,287.99999 -249.41533,304 z m 55.42563,-192 c -55.42564,-96.00002 -166.27688,-192 -332.55376,-160 l -83.13843,112 c 221.7025,-96 332.55374,-1e-5 387.97939,64 z"
         inkscape:connector-curvature="0" />
      <path
         transform="matrix(0.86602541,0.5,-0.5,0.86602541,324.59501,-159.04283)"
         style="fill:none;stroke:#576ab7;stroke-width:16;stroke-linejoin:round;stroke-miterlimit:4;stroke-opacity:1"
         d="m 623.99998,650.56408 -176,27.71279 L 336,539.71279 l 64.00002,-166.27687 176,-27.71279 L 688,484.28721 z"
         id="path4120"
         inkscape:connector-curvature="0" />
    </g>
    <g
       id="g8707">
      <path
         style="fill:#6dc6fb;fill-opacity:1;stroke:none"
         d="m 597.21339,1027.6273 c 53.72536,-71.88959 147.77249,0.012 99.49798,78.3335 -65.1712,105.7353 -187.01255,157.0057 -201.02278,145.4673 -14.01023,-11.5384 9.81363,-114.0868 78.78736,-196.9481 z"
         id="path8692"
         inkscape:connector-curvature="0"
         sodipodi:nodetypes="cszcc" />
      <path
         clip-path="url(#clipPath8694)"
         inkscape:original-d="m 597.21339,1027.6273 c 53.72536,-71.88959 147.77249,0.012 99.49798,78.3335 -65.1712,105.7353 -186.04811,157.7999 -201.02278,145.4673 -14.97468,-12.3327 13.27294,-128.6367 93.67585,-213.7444"
         inkscape:path-effect="#path-effect8657"
         sodipodi:nodetypes="cszc"
         inkscape:connector-curvature="0"
         id="path7744"
         d="m 705.16668,1022.4526 c -4.3375,-6.6979 -9.71969,-12.5115 -15.90379,-17.206 -6.76579,-5.1188 -14.44182,-8.84444 -22.5687,-10.89516 -8.21711,-2.06653 -16.82412,-2.34878 -25.15493,-0.73945 -8.78318,1.71693 -17.08339,5.4956 -24.29137,10.89481 -8.08624,6.0685 -14.77623,14.0205 -20.0345,23.1205 7.21178,-7.7513 15.05486,-13.883 23.22785,-18.0103 7.37635,-3.7312 15.02119,-5.8668 22.42287,-6.3584 7.11366,-0.4909 14.09055,0.4795 20.5379,2.6267 6.45648,2.1422 12.46244,5.4905 17.77795,9.7744 4.86211,3.9031 9.13044,8.6627 12.65486,14.1214 4.2881,6.6416 7.26249,14.1724 8.59909,21.9357 1.37292,7.8819 1.10642,16.1112 -0.5421,24.0649 0,0 0,0 0,0 -1.91802,9.3163 -5.8207,18.3147 -10.92661,26.6374 -10e-6,0 -10e-6,0 -10e-6,0 -15.33307,24.8934 -34.3303,47.5466 -55.6839,67.7024 -18.80806,17.7418 -39.41332,33.5824 -61.4354,47.0953 -9.13018,5.6007 -18.48259,10.7879 -28.08016,15.4 0,0 -10e-6,0 -2e-5,0 -7.76883,3.7286 -15.62813,7.0936 -23.64118,9.7476 -5.77916,1.8822 -11.36805,3.5061 -16.79338,3.9694 -1.80608,0.1339 -3.35888,0.2161 -4.58757,-0.014 -0.84832,-0.296 -1.22273,-0.2233 -0.76385,-0.1022 0,0 0,0 0,0 0.14864,0.3309 0.11433,-0.024 -0.28996,-0.7101 -0.43302,-1.0219 -0.64779,-2.4149 -0.8646,-4.0604 -0.58852,-4.9067 -0.10802,-10.2207 0.57089,-15.7891 0.9866,-7.7108 2.66582,-15.4194 4.68073,-23.127 1.86144,-7.1035 4.03044,-14.1452 6.43683,-21.1264 0.83259,-2.4154 1.68926,-4.823 2.56752,-7.223 8.34698,-22.8043 18.57799,-44.8002 30.68328,-65.9182 6.85127,-11.9454 14.31548,-23.5954 22.48918,-34.8324 8.17371,-11.2369 17.05752,-22.0614 26.74562,-32.3135 l -7.26913,-6.8673 c -10.04677,10.6375 -19.3625,21.6443 -28.02617,32.9853 -8.66367,11.3409 -16.67445,23.0168 -24.06138,35.0065 -13.12992,21.2991 -24.39835,43.6424 -33.20383,67.2693 -0.92503,2.4814 -1.82256,4.9792 -2.68924,7.4938 -2.50366,7.2644 -4.77077,14.631 -6.73114,22.1015 -2.12451,8.0775 -3.91405,16.3528 -5.01171,24.8271 -0.8066,5.9671 -1.29635,12.3536 -0.59864,19.0064 0.21757,2.2582 0.70457,4.7686 1.68131,7.4128 0.60822,1.9474 1.98191,4.1612 4.30812,6.2855 2e-5,0 3e-5,0 4e-5,0 2.6986,1.9657 5.23666,2.865 7.25482,3.0184 2.90115,0.4177 5.56535,0.3706 7.92182,0.1196 7.07559,-0.6925 13.66791,-2.5265 19.80366,-4.5996 8.72234,-2.9014 17.11361,-6.4816 25.23711,-10.393 10e-6,0 2e-5,0 2e-5,0 10.06804,-4.8418 19.82433,-10.2493 29.29179,-16.0608 22.82942,-14.01 44.16907,-30.4127 63.63858,-48.7818 22.1351,-20.8711 41.87513,-44.4364 57.9123,-70.4388 10e-6,0 10e-6,0 2e-5,0 5.83488,-9.428 10.31203,-19.869 12.65003,-30.9653 0,0 10e-6,0 10e-6,0 1.99206,-9.507 2.28785,-19.4194 0.62998,-29.1143 -1.65859,-9.6071 -5.29025,-18.8161 -10.57091,-26.9703 z"
         style="fill:#1c92cd;fill-opacity:1;stroke:none" />
      <path
         clip-path="url(#clipPath8688)"
         style="fill:none;stroke:#1c92cd;stroke-width:10;stroke-linecap:butt;stroke-linejoin:miter;stroke-miterlimit:20;stroke-opacity:1;stroke-dasharray:none"
         d="m 598.69708,985.92485 c -54.69003,121.20235 -35.36667,136.61695 16.96929,85.33895 -37.03599,63.3792 -15.0619,76.625 35.73521,22.5784 -35.23915,66.0686 -12.61209,79.9298 72.74459,-10.6405"
         id="path8686"
         inkscape:connector-curvature="0"
         sodipodi:nodetypes="cccc" />
      <path
         sodipodi:nodetypes="cccccc"
         inkscape:connector-curvature="0"
         d="M 636.07896,1139.098 525.52692,1247.7279 M 600.72361,1123.5416 495.82843,1251.617 M 575.62132,1098.0858 493,1225.454"
         style="fill:none;stroke:#1c92cd;stroke-width:6;stroke-linecap:butt;stroke-linejoin:miter;stroke-miterlimit:4;stroke-opacity:1;stroke-dasharray:none"
         id="path8702" />
    </g>
    <path
       id="path9533"
       style="fill:url(#linearGradient9560);fill-opacity:1;stroke:none"
       d="m 762.77864,1486.3961 c -16.7,71.7219 -13.5769,208.3361 13.58144,323.5674 10.97089,46.5489 38.95336,83.9705 77.55899,109.9288 l -20.12998,54.5949 c -53.38373,-32.624 -92.51279,-82.1667 -107.05855,-145.1635 -24.48913,-106.0609 -37.74391,-255.8687 -18.73622,-352.1959 z"
       inkscape:connector-curvature="0"
       sodipodi:nodetypes="csccscc" />
    <path
       id="path9525"
       style="fill:url(#linearGradient9550);fill-opacity:1;stroke:none"
       d="m 561.74239,1379.6253 c -10.61984,51.6068 -6.43347,110.436 21.50061,182.5665 28.75775,74.2574 82.75338,235.2414 68.31456,334.8237 l -52.5508,-5.1055 c 10.77269,-60.954 -22.5313,-194.6744 -72.04976,-309.839 -39.32292,-91.453 -52.8297,-157.0347 -52.23989,-210.9685 z"
       inkscape:connector-curvature="0"
       sodipodi:nodetypes="csccscc" />
    <path
       id="path9531"
       style="fill:#6dc6fb;fill-opacity:1;stroke:none"
       d="m 795.01135,1775.4091 c -89.40841,-29.752 -196.72866,-80.143 -278.09724,-109.4754 l -14.97307,-61.3302 c 91.16592,27.6306 205.2421,80.9048 290.7129,113.9139 z"
       inkscape:connector-curvature="0"
       sodipodi:nodetypes="ccccc" />
  </g>
</svg>
