<svg xmlns="http://www.w3.org/2000/svg" xmlns:inkscape="http://www.inkscape.org/namespaces/inkscape" xmlns:xlink="http://www.w3.org/1999/xlink" height="1080" viewBox="0 0 1920 1080" width="1920">
  <defs>
    <inkscape:path-effect bendpath1="m -37.71012,-38.665603 h 75.60037" bendpath2="m 30.555544,-39.034991 c 19.446386,24.304005 16.944558,47.1768383 1.586625,77.852073" bendpath3="m -37.71012,39.106565 h 75.60037" bendpath4="m -44.084997,-38.819731 c 16.251876,25.603082 12.217205,53.603818 -5.223294,81.169716" effect="envelope" id="path-effect1585" yy="false" />
    <inkscape:path-effect effect="powerstroke" end_linecap_type="zerowidth" id="path-effect4665" interpolator_type="CubicBezierSmooth" offset_points="0.4,5 | 0.66,5" start_linecap_type="zerowidth" />
    <inkscape:path-effect effect="powerstroke" id="path-effect4663" interpolator_type="CubicBezierSmooth" offset_points="0.35,5" start_linecap_type="zerowidth" />
    <inkscape:path-effect effect="powerstroke" end_linecap_type="zerowidth" id="path-effect1014" interpolator_type="CubicBezierSmooth" offset_points="0.63,5 | 3.57,5" start_linecap_type="zerowidth" />
    <inkscape:path-effect effect="powerstroke" end_linecap_type="zerowidth" id="path-effect863" interpolator_type="CubicBezierSmooth" offset_points="0.49,5 | 3.43,5" start_linecap_type="zerowidth" />
    <linearGradient id="linearGradient837">
      <stop offset="0" stop-color="#02534d" />
      <stop offset="1" stop-color="#02aca4" />
    </linearGradient>
    <clipPath id="clipPath851">
      <use xlink:href="#ellipse827" />
    </clipPath>
    <clipPath id="clipPath911">
      <use xlink:href="#ellipse887" />
    </clipPath>
    <clipPath id="clipPath1062">
      <use xlink:href="#path1047" />
    </clipPath>
    <clipPath id="clipPath4595">
      <use xlink:href="#path1135" />
    </clipPath>
    <linearGradient gradientUnits="userSpaceOnUse" id="linearGradient2491" x1="1260.147" x2="1259.9662" y1="631.02142" y2="725.23108" xlink:href="#linearGradient837" />
    <linearGradient gradientUnits="userSpaceOnUse" id="linearGradient2493" x1="1114.8918" x2="1115.5659" y1="630.39221" y2="712.90485" xlink:href="#linearGradient837" />
    <clipPath id="clipPath2573">
      <path d="m 1003.0044,308.84829 458.9918,388.74297 195.218,-93.71399 -29.025,-477.96697 -568.948,10.77165 z" />
    </clipPath>
    <filter color-interpolation-filters="sRGB" height="1.5598215" id="filter4414" width="2.0085789" x="-0.50428944" y="-0.27991075">
      <feGaussianBlur stdDeviation="15.561595" />
    </filter>
    <filter color-interpolation-filters="sRGB" height="1.1359092" id="filter4690" width="1.2199297" x="-0.10996487" y="-0.067954586">
      <feGaussianBlur stdDeviation="3.7046787" />
    </filter>
  </defs>
  <g inkscape:groupmode="layer" inkscape:label="Drawing">
    <g id="g1102">
      <path d="m 1228.9801,347.76654 c -253.93767,-28.2923 -241.97886,-240.60244 166.1342,-186.42549 135.3062,17.96188 324.6671,269.80719 201.7256,565.99793 -87.8072,211.54512 -232.0839,141.674 -227.1542,45.51249 2.4569,-47.92647 51.7976,-48.43318 42.317,-4.64592 -11.2676,-10.87475 -27.3917,-7.25972 -24.2958,9.86262 4.8658,26.91109 79.3115,30.23703 83.0343,-65.19856 5.9628,-152.86328 -65.8449,-327.24628 -182.4221,-443.82342 -24.9962,15.1748 -53.4656,42.19372 -59.339,78.72035 z" fill="#f3b5cf" />
      <path d="m 1288.3191,269.04619 c -24.9962,15.1748 -53.4656,42.19372 -59.339,78.72035 -253.93767,-28.2923 -241.97886,-240.60244 166.1342,-186.42549 135.3062,17.96188 324.6671,269.80719 201.7256,565.99793 -87.8072,211.54512 -232.0839,141.674 -227.1542,45.51249 2.4569,-47.92647 51.7976,-48.43318 42.317,-4.64592 -11.2676,-10.87475 -27.3917,-7.25972 -24.2958,9.86262 4.8658,26.91109 79.3115,30.23703 83.0343,-65.19856 5.9628,-152.86328 -65.8449,-327.24628 -182.4221,-443.82342 -120.2733,-120.2734 -264.3193,-71.59125 -112.4194,69.26161" style="stroke-width:10;stroke-miterlimit:20;stroke:#e581b1;fill:none" />
      <path d="m 1134.2586,170.9451 c 217.1903,17.80322 385.3723,361.60055 336.7155,543.19024 m -150.8053,-560.12144 c 154.4942,62.03711 275.5097,223.26103 305.0549,484.39175 m -384.4765,-485.66874 c 225.648,132.45246 413.427,685.33463 139.007,667.20075" style="stroke-width:5;stroke-miterlimit:20;stroke:#e581b1;fill:none" />
    </g>
    <g>
      <path d="m 1151.2117,617.23412 c -203.12153,-127.99828 -394.69911,21.61593 -194.93366,206.25699 z" style="stroke-width:10;stroke-miterlimit:20;stroke:#e581b1;fill:#f3b5cf" />
      <path d="m 971.71918,806.95152 c -102.95874,-160.18413 -17.09081,-217.82045 156.67652,-202.89244" style="stroke-width:5;stroke-miterlimit:20;stroke:#e581b1;fill:none" />
    </g>
    <path d="m 1511.4052,852.60227 c 9.3642,65.8866 150.6863,91.67988 150.6863,47.86711 0,-68.70475 -71.4877,-139.23054 -169.0515,-170.8397 -17.6057,-5.70399 -55.4709,2.65807 -91.5788,52.83115 65.8904,12.9065 105.9741,42.20917 109.944,70.14144 z" style="stroke-width:10;stroke:#e9d461;stroke-miterlimit:20;fill:#f3e488" />
    <path d="m 917.63663,895.63037 c -19.12655,-19.12655 -11.11039,-83.9654 33.64719,-83.27744 -1.01194,-48.92367 -32.37103,-164.31388 85.80148,-207.12683 117.5256,-42.57857 146.2393,72.83951 244.9139,66.40624 21.4538,-33.4941 30.2947,-63.44442 38.0802,-100.6416 l 153.4107,-161.83859 c 15.6162,413.64014 -82.9939,507.95705 -416.9038,408.30981 z" fill="#faf5ab" />
    <g>
      <use transform="rotate(2.5013213-10595.858 18246.718)scale(.26625949)" xlink:href="#FS-3" />
      <use transform="rotate(356.1948 8661.6124-11167.978)scale(.26625948)" xlink:href="#FS-3" />
      <use transform="rotate(9.9116336-1958.8633 4870.8871)scale(.26625948)" xlink:href="#FS-3" />
      <use transform="rotate(358.0511 18138.339-20800.082)scale(.26625948)" xlink:href="#FS-3" />
      <use transform="rotate(13.311193-1317.5493 3506.6112)scale(.26625947)" xlink:href="#FS-3" />
      <use transform="rotate(3.8266317-6745.2584 10871.237)scale(.26625947)" xlink:href="#FS-3" />
      <use transform="rotate(350.16875 3727.9932-3544.8875)scale(.26625947)" xlink:href="#FS-3" />
    </g>
    <path fill="#e9d461" inkscape:original-d="m 949.90691,826.9364 c 10.3343,-34.04129 -45.52071,-173.63449 87.17839,-221.7103 117.5256,-42.57856 146.2393,72.83951 244.9139,66.40624 21.4538,-33.4941 30.2947,-63.44442 38.0802,-100.6416 l 153.4107,-161.83859 c 15.6162,413.64014 -82.9939,507.95705 -416.9038,408.30981" inkscape:path-effect="#path-effect4663" />
    <g>
      <path d="m 1131.4151,685.19623 c -3.4382,51.08206 -20.9054,98.79324 -66.9326,127.83047 71.8296,8.10794 135.6791,29.98377 165.7886,73.1332 31.8382,45.62681 -89.397,117.2972 -126.0848,75.44656 -49.5328,-56.50328 -172.54074,-51.96716 -186.54967,-65.97609 -6.68943,-6.68943 -10.05871,-18.97048 -9.69597,-32.07851 90.77531,-41.21354 161.62424,-93.24257 223.47444,-178.35563 z" fill="#faf5ab" />
      <path fill="#e9d461" inkscape:original-d="m 1131.4151,685.19623 c -4.4478,66.08193 -32.3733,126.52264 -114.871,148.31969" inkscape:path-effect="#path-effect4665" />
      <path d="m 1064.3143,812.96779 c 71.9978,8.16685 135.8473,30.04268 165.9568,73.19211 31.8382,45.62681 -89.397,117.2972 -126.0848,75.44656 -49.5328,-56.50328 -172.54074,-51.96716 -186.54967,-65.97609 -19.12655,-19.12655 -11.11039,-83.9654 33.67561,-83.14522" style="stroke-width:10;stroke:#e9d461;stroke-miterlimit:20;fill:none" />
    </g>
    <g>
      <path d="m 1244.3368,701.41755 c 76.8036,53.30127 13.6511,181.31765 -89.0194,130.74328 -98.4781,-48.50924 -120.1835,-162.99512 -100.9408,-181.26604 16.1047,-15.29137 93.9687,1.83448 156.1634,41.65364 z" fill="#faf5ab" />
      <path d="m 1244.3368,701.41755 c 76.8036,53.30127 13.6511,181.31765 -89.0194,130.74328 -98.4781,-48.50924 -120.1835,-162.99512 -100.9408,-181.26604 16.1047,-15.29137 93.9687,1.83448 156.1634,41.65364 -16.3336,3.94273 -28.182,10.02925 -35.1241,26.42491 -34.4489,-9.89015 -63.9896,16.61944 -41.5182,53.3264 -7.7847,18.36466 1.1607,40.14102 16.7351,57.35285" style="stroke-width:10;stroke:#e9d461;stroke-miterlimit:20;fill:none" />
      <path d="m 1130.9817,782.13434 -78.2333,-74.24264 m 128.2409,1.05679 -100.6706,-63.5256 m 54.8759,80.43222 -85.339,-65.20202" style="stroke-width:5;stroke:#e9d461;stroke-miterlimit:20;fill:none" />
    </g>
    <g>
      <path d="m 1442.5252,854.40442 c -111.3854,73.31559 -179.4365,21.27328 -160.126,-73.65639 l 62.3573,-21.49704 c 3.8452,12.02799 12.4801,27.87742 27.3863,39.17714 z" style="stroke-width:10;stroke:#e9d461;stroke-miterlimit:20;fill:#faf5ab" />
      <g>
        <path d="m 1686.2325,777.77305 13.6022,-13.78738 10.1174,19.09826 z" fill="#54401e" />
        <path d="m 1680.4593,764.62167 5.7305,-2.02158 -57.2967,-88.46814 -27.9145,-7.95165 -39.0971,57.95453 c 45.4589,4.89543 93.0658,20.00832 118.5778,40.48684 z m -253.5285,142.62648 -21.5845,-27.71617 146.2304,-156.19165 20.0744,29.00658 z" fill="#eded86" />
        <path d="m 1590.2634,729.02616 -3.8304,-0.15589 c -2.3251,-2.74871 -4.9884,-5.28801 -8.845,-8.25889 5.3535,2.19748 8.3444,4.79086 12.6754,8.41478 z m 7.1063,-33.98475 c 6.1036,1.58367 5.5251,4.66887 10.2018,7.75599 4.8231,3.18369 7.9708,7.56778 8.8547,12.60591 -3.1397,-5.40016 -4.9631,-8.1856 -9.5714,-10.85235 -4.6864,-2.71203 -4.9015,-6.04491 -9.4851,-9.50955 z m 23.7807,26.72701 c 13.7812,1.47148 3.3923,8.27468 9.7632,9.98176 8.311,2.22691 6.0594,7.56694 2.9572,14.14133 1.5083,-6.47184 3.07,-11.30894 -3.5,-12.625 -9.6631,-1.93566 3.2799,-6.91633 -9.2204,-11.49809 z m -36.1289,-14.25805 c 10.1687,3.75 2.5467,13.22017 10.5816,13.87419 5.5412,0.45104 6.7157,7.52048 6.9657,13.27048 2.0015,-9.14005 -1.5128,-14.18615 -7.0128,-15.31115 -5.5232,-1.12974 1.2889,-11.90472 -10.5345,-11.83352 z" fill="#d8b941" />
        <path d="m 1579.4492,754.51359 98.0825,20.60428 c 11.6457,13.5263 26.9379,15.79403 33.1589,9.90646 l -164.3572,155.54792 c -13.4338,4.767 -25.5926,-1.02279 -31.0406,-13.9929 l -88.6756,-11.16304 z" fill="#54401e" />
        <path d="m 1571.6511,752.34691 -20.0744,-29.00658 c 48.4543,3.44002 101.4458,19.25777 128.8826,41.28134 l 5.7305,-2.02158 -57.2967,-88.46814 -27.9145,-7.95165 c 18.5444,35.48807 50.2856,76.57881 85.2112,96.41979 18.4734,3.33137 10.0376,17.47188 -4.3655,11.42362 z" fill="#fdfdc9" />
        <path d="m 1685.888,763.40187 c -19.7318,-3.46269 -37.8068,-5.75808 -57.3365,-7.82635 18.5274,0.17461 35.9399,1.26908 52.5097,3.72943 z m -254.2093,118.00739 c 30.0015,-33.78888 59.975,-65.5076 93.0839,-98.38704 -31.5141,34.94001 -61.3099,67.45491 -93.0839,98.38704 z m 126.0513,-149.35938 -33.207,35.4192 31.4998,-37.77275 z m 0.9326,1.55358 c 18.9294,-1.27549 38.5696,3.62284 63.4451,11.72611 -28.4252,-7.15015 -44.1811,-10.41272 -62.0371,-9.73763 z m 58.5512,-62.54608 c 6.8196,11.54254 13.4762,20.57974 22.4445,30.34181 -8.0467,-11.4763 -13.7968,-20.15553 -17.5639,-29.00723 z m 6.3223,20.09177 c 12.5309,23.90768 30.5485,41.62868 48.5098,58.19751 -19.3412,-20.36812 -31.9705,-34.97531 -48.5098,-58.19751 z" fill="#d8b941" />
        <path d="m 1551.5767,723.34033 20.0744,29.00658 m 29.3275,-86.16661 c 18.5444,35.48807 50.2856,76.57881 85.2112,96.41979" style="stroke:#d8b941;stroke-width:3;stroke-linejoin:round;fill:none" />
        <path d="m 1426.9308,907.24815 -21.5845,-27.71617 146.2304,-156.19165 c 48.4543,3.44002 101.4458,19.25777 128.8826,41.28134 l 5.7305,-2.02158 -57.2967,-88.46814 -27.9145,-7.95165 -39.0467,57.84441" style="stroke:#d8b941;stroke-width:5;stroke-miterlimit:20;fill:none" />
        <path d="m 1698.2419,787.82006 -162.6055,154.50267 c -6.5495,-1.10906 -12.4527,-3.41828 -16.7428,-8.72344 l 163.2455,-153.79309 c 4.3121,4.28891 9.7107,7.0418 16.1028,8.01386 z m -280.805,121.31177 156.1669,-165.39963 106.8397,22.73345 c 26.877,28.38924 35.2449,9.21909 10.9334,-3.21758 l -57.0249,-88.43451 9.4996,2.60997 54.7289,82.81653 c 12.9585,6.62838 17.5286,19.65623 12.1101,24.78427 -6.221,5.88757 -21.5132,3.61984 -33.1589,-9.90646 l -98.0825,-20.60428 -152.832,160.90272 z" fill="#6c5228" />
        <path d="m 1710.6906,785.02433 c -6.221,5.88757 -21.5132,3.61984 -33.1589,-9.90646 l -98.0825,-20.60428 -152.832,160.90272 m 152.832,-160.90272 -5.8454,-10.78139 m 103.9279,31.38567 -162.2389,151.46148 m -88.6756,-11.16304 -9.1803,-6.28448 156.1669,-165.39963 106.8397,22.73345 c 26.877,28.38924 35.2449,9.21909 10.9334,-3.21758 l -57.0249,-88.43451 9.4996,2.60997 54.7289,82.81653 c 12.9585,6.62838 17.5286,19.65623 12.1101,24.78427 l -164.3572,155.54792 c -13.4338,4.767 -25.5926,-1.02279 -31.0406,-13.9929 z" style="stroke-width:5;stroke:#24170d;stroke-miterlimit:20;fill:none" />
      </g>
      <path d="m 1408.212,842.8553 c 15.0493,23.43555 17.3716,43.32831 17.0726,77.1963 -0.5875,66.54612 135.8773,113.2539 141.8406,69.84885 16.2534,-118.30473 -106.236,-200.1946 -139.8298,-223.00868 -15.31,-10.39728 -47.2745,-3.62276 -71.4481,35.34802 z" fill="#faf5ab" />
      <path fill="#e9d461" inkscape:original-d="m 1408.212,842.8553 c 15.0493,23.43555 17.3716,43.32831 17.0726,77.1963 -0.5875,66.54612 135.8773,113.2539 141.8406,69.84885 16.2534,-118.30473 -106.236,-200.1946 -139.8298,-223.00868 -15.31,-10.39728 -47.2745,-3.62276 -71.4481,35.34802" inkscape:path-effect="#path-effect1014" />
    </g>
    <g>
      <path d="m 1170.7207,242.4703 c -64.1852,218.01053 72.4408,434.33015 58.4646,526.60927 -11.036,72.8661 -73.4116,70.67095 -73.4116,27.88933 0,-27.44264 21.7445,-22.04666 21.2583,-8.91757 38.6667,-22.47671 -38.1121,-62.33988 -39.9873,13.56908 -5.0248,203.39929 449.2671,21.8437 132.9303,-392.19147 z" style="stroke-width:10;stroke-miterlimit:20;stroke:#e581b1;fill:#f3b5cf" />
      <path d="m 1161.9512,275.18681 c 23.4646,232.8565 218.6619,325.0512 157.9353,561.62943 m -165.741,-498.47909 c 33.4781,183.99767 219.1038,422.53368 68.745,546.50252" style="stroke-width:5;stroke-miterlimit:20;stroke:#e581b1;fill:none" />
      <path d="m 1237.8794,575.37535 c 19.4971,7.15156 31.7831,21.69692 36.2698,42.83856 72.818,-50.02097 -24.0933,-125.68027 -36.2698,-42.83856 z" fill="#bb1c76" />
      <path d="m 1285.1515,603.52905 c -14.7336,9.69371 -18.4935,-14.94633 -3.4741,-32.55066 14.2314,19.38105 7.3307,28.59287 3.4741,32.55066 z" fill="#ef6f2f" />
      <path d="m 1451.1196,559.85101 c -39.1287,31.01208 -101.0614,65.03009 -179.3946,61.17661 22.5158,-23.05739 11.9185,-52.78968 -6.7129,-73.85869 -1.0604,54.66942 -59.2397,52.60514 -78.3403,15.55783 -10.3802,-20.13341 6.2955,-21.23134 21.1491,-30.16099 -177.6489,-332.08563 341.2615,-452.591322 312.1205,-27.51803 z" fill="#faf5ab" />
      <path d="m 1207.6122,533.08599 c -177.4402,-332.60585 341.4702,-453.111542 312.3292,-28.03825" style="stroke-width:10;stroke:#e9d461;stroke-miterlimit:20;fill:none" />
      <path d="m 1220.2786,557.82492 c 8.9064,0.75203 13.0546,-1.63154 13.9887,-9.88743 4.0121,11.95672 -3.7646,16.77142 -13.9887,9.88743 z" fill="#e9d461" />
      <path d="m 1418.3209,269.3309 c -3.7578,-50.22647 23.7207,-124.25469 44.7459,-128.3241 20.5185,-3.97134 125.1238,113.38778 51.8872,233.12864 z" style="stroke-width:10;stroke:#e9d461;stroke-miterlimit:20;fill:#faf5ab" />
      <g>
        <path d="m 1300.302,354.11534 c -5.4376,26.90833 -7.4872,50.7314 -6.9137,71.50995 29.703,-30.7039 91.2895,22.90206 135.0671,14.95418 0.8463,-16.86364 -0.4007,-35.98211 -4.3031,-57.32546 -45.1299,0.5419 -95.3963,-8.76215 -123.8503,-29.13867 z" fill="#f3e488" />
        <path d="m 1408.2677,496.95805 c 9.5483,2.04367 16.3932,7.64819 21.3401,18.0831 -0.01,-10.99988 -6.8224,-20.06119 -18.3059,-22.49826 z m 5.8197,-9.51447 c 9.7648,0.0644 16.157,3.40572 22.8782,12.1685 -2.2899,-10.76285 -10.9169,-17.5528 -21.2466,-17.37404 z m -10.9212,19.80716 c 8.8044,4.39669 13.6564,10.03548 16.3048,20.78676 1.482,-12.75107 -4.3165,-20.53707 -12.5313,-25.10135 z" />
        <g clip-path="url(#clipPath1062)">
          <path d="m 1293.3775,425.21883 c 3.6648,141.4568 128.6719,142.33543 135.0753,15.41303 -39.0999,9.30253 -105.5782,-45.79284 -135.0753,-15.41303 z" fill="#fff" id="path1047" />
          <g clip-path="url(#clipPath851)">
            <ellipse cx="1248.7585" cy="675.48718" fill="url(#linearGradient2491)" id="ellipse827" rx="34.779419" ry="56.447155" transform="rotate(351.13845)" />
            <path d="m 1383.1291,515.83331 -57.3997,-26.38629 67.0722,-0.17187 z" fill="#84d2d4" />
            <path d="m 1392.3073,477.27986 -66.5779,12.16716 65.5424,8.02905 z" fill="#3cbeb7" />
            <ellipse cx="1224.952" cy="717.60352" rx="26.093828" ry="49.137203" transform="rotate(349.35841)" />
            <ellipse cx="1020.6799" cy="987.05054" fill="#fff" rx="14.1419" ry="23.312359" transform="rotate(334.59932)" />
            <ellipse cx="854.24628" cy="1139.3584" fill="#fff" rx="5.0410166" ry="6.4600234" transform="rotate(326.92958)" />
          </g>
        </g>
        <path d="m 1300.2556,347.91963 c 26.9078,23.61128 87.3308,34.82532 142.8206,33.62556 -42.0021,9.92174 -117.1257,1.10593 -151.7958,-28.76814 -1.591,-13.25825 0.7452,-26.53948 9.4354,-37.76572 -3.3896,11.79351 -3.3014,22.57524 -0.4602,32.9083 z m 114.7836,92.7863 c 12.677,-3.3553 25.4593,-13.46495 31.1388,-26.10021 -0.2018,11.46527 -5.9266,20.7511 -15.0191,26.58213 l -16.1197,-0.48194 z m -105.2999,55.56563 c -13.244,-21.26903 -20.1339,-50.84643 -19.5186,-75.72976 33.131,-27.4985 95.1015,20.79673 137.8096,17.12698 13.1697,-1.13163 22.5311,-5.19106 32.2803,-14.42677 -5.5888,12.89217 -14.0894,19.68592 -31.9851,22.1006 -40.9598,5.52675 -103.4964,-40.37877 -130.1286,-18.63991 -0.5194,22.64935 3.1518,48.70811 11.5424,69.56886 z m 94.8734,-56.2898 c 10.0339,-5.15201 18.4963,-13.547 22.98,-24.80778 0.5032,11.45599 -4.6415,21.07567 -13.3604,27.45355 z" />
      </g>
      <g>
        <path d="m 1200.8006,508.27377 c -7.2101,1.41704 -11.8819,4.59511 -15.9508,13.19129 0.4983,-9.17972 6.2808,-16.34322 13.8015,-17.10356 z m -3.3378,-8.76372 c -6.9799,0.0429 -12.0357,2.81585 -18.3847,9.53029 2.7205,-8.78139 9.5892,-13.44343 17.4108,-14.00208 z m 8.2101,16.43999 c -6.5505,3.33237 -10.2008,6.49999 -12.7268,15.38814 -1.0377,-9.02029 2.5731,-14.93279 9.2675,-18.44174 z" />
        <g clip-path="url(#clipPath4595)">
          <path d="m 1220.9922,438.22945 c 3.6141,26.50806 6.3849,54.92918 5.5528,66.67041 -1.5529,12.65262 -9.1243,20.88283 -17.5793,26.83258 -12.2101,-20.02827 -22.5207,-42.67551 -29.4318,-68.79808 12.0034,-16.80574 26.2758,-24.96143 41.4583,-24.70491 z" fill="#fff" id="path1135" />
          <g clip-path="url(#clipPath911)">
            <ellipse cx="1122.1757" cy="669.40045" fill="url(#linearGradient2493)" id="ellipse887" rx="18.365576" ry="49.008774" transform="rotate(350.80009)" />
            <path d="m 1218.8271,490.78242 -21.8325,37.08936 -9.9578,-24.21922 z" fill="#84d2d4" />
            <path d="m 1218.8271,490.78242 -32.4123,0.84937 4.122,18.52077 z" fill="#3cbeb7" />
            <ellipse cx="1124.1005" cy="664.7254" rx="12.810824" ry="41.907894" transform="rotate(351.1291)" />
            <ellipse cx="1012.6618" cy="812.75439" fill="#fff" rx="7.9871216" ry="19.500158" transform="rotate(342.04496)" />
            <ellipse cx="961.01166" cy="891.00134" fill="#fff" rx="3.0264015" ry="4.5653081" transform="rotate(339.2617)" />
          </g>
        </g>
        <path d="m 1179.5339,462.93436 c -4.204,-15.89064 -7.1501,-33.0673 -8.5005,-51.72274 15.6803,-5.93929 30.4238,-14.73978 40.7685,-24.49 2.5857,8.68326 6.1804,29.43215 9.1903,51.50783 -15.1825,-0.25652 -29.4549,7.89917 -41.4583,24.70491 z" fill="#f3e488" />
        <path d="m 1182.9954,459.16579 c -5.5329,-0.72838 -10.5006,-3.26778 -15.2954,-8.15631 7.1178,3.02193 13.9512,3.22471 21.2609,1.40468 m -11.2745,13.39697 c -5.9559,0.90586 -12.3216,-0.78384 -18.8105,-5.56938 8.9346,2.36664 15.9375,2.2967 26.0066,-2.84924 m -5.7133,1.97705 c 11.606,-16.90635 26.9141,-25.02412 43.8041,-24.84327 6.5437,24.28095 7.9191,48.2917 3.5717,70.37357 -0.08,-22.33187 -2.8431,-43.4053 -8.3609,-62.97084 -11.9029,-0.36037 -24.0923,6.20029 -37.2379,24.19778 -4.814,6.59082 -12.763,9.60996 -23.2827,8.14126 8.9825,-2.17716 15.1058,-5.57583 21.5057,-14.8985 z m -30.5923,-40.07847 c 23.5849,-0.10067 53.9866,-18.49528 75.0536,-37.73629 0.3925,-12.40024 -2.9655,-22.63147 -10.2519,-31.84977 2.5962,9.08884 3.5069,19.16375 2.9446,27.98923 -16.7869,17.04524 -36.624,29.06446 -67.7463,41.59683 z" />
      </g>
      <path fill="#e9d461" inkscape:original-d="m 1226.545,504.89986 c -7.5066,41.01104 -55.8872,26.76625 -39.8732,57.8269 19.1006,37.04728 77.2799,39.11159 78.3403,-15.55783 18.6314,21.06901 29.2287,50.8013 6.7129,73.85869 78.3332,3.85348 140.2659,-30.16453 179.3946,-61.17661" inkscape:path-effect="#path-effect863" />
    </g>
    <use clip-path="url(#clipPath2573)" xlink:href="#g1102" />
    <g>
      <path d="m 1009.1308,642.83658 c -15.27211,-1.06932 -62.22214,73.01182 -50.3953,106.60394 12.15389,34.52107 62.6418,36.89831 70.0737,0.17143 5.8561,-28.93969 -0.5065,-105.43301 -19.6784,-106.77537 z" fill="#fff" filter="url(#filter4414)" />
      <g id="FS-3" transform="matrix(-1.03114-.12592865-.51142867 1.6424044 1005.7163 706.64865)" inkscape:path-effect="#path-effect1585">
        <path fill="#f3b5cf" inkscape:original-d="m 17.1,-14.3 c 12.5,13.7 -8.1,27 -9.7,4 -21.6,12.5 -21.9,-12.6 -3,-11.6 -11.9,-12.7 10,-31.6 8.4,2.7 28.5,-19.9 19.3,2.4 4.3,4.9 z" />
        <path fill="#69c8c3" inkscape:original-d="m 5.9,-7.6 c 4.4,-11.9 8.7,-17.7 10,-17.1 1.3,0.6 -1,7.8 -10,17.1 z" />
        <path fill="#69c8c3" font-variant-east-asian="normal" vector-effect="none" inkscape:original-d="m 15.808594,-37.544922 c -0.526521,0.0623 -1.007327,0.335882 -1.361328,0.734375 -0.708003,0.796986 -0.851357,2.185661 0.226562,3.320313 l 0.652344,-0.619141 c -0.822081,-0.865349 -0.640826,-1.613002 -0.205078,-2.103516 0.217874,-0.245257 0.51402,-0.404491 0.792968,-0.4375 0.278949,-0.03301 0.536729,0.03409 0.789063,0.291016 0.504669,0.513845 0.949201,1.982853 0.359375,4.947266 -0.58925,2.961516 -2.171832,7.372781 -5.453125,13.689453 -5.24e-4,9.27e-4 -0.0014,0.001 -0.002,0.002 -0.0027,0.0053 -0.0031,0.0084 -0.0059,0.01367 l 0.791016,0.427734 c 3.587178,-6.352294 6.514992,-10.241133 8.771484,-12.496094 2.256493,-2.25496 3.841186,-2.828527 4.63086,-2.751953 0.394837,0.03829 0.602165,0.197572 0.734375,0.416016 0.132209,0.218444 0.174604,0.52344 0.0957,0.832031 -0.157802,0.617183 -0.736381,1.240504 -1.986328,1.130859 l -0.07813,0.896485 c 1.600053,0.140355 2.671474,-0.77187 2.935547,-1.804688 0.132036,-0.516408 0.07912,-1.0661 -0.195313,-1.519531 -0.274431,-0.453431 -0.783508,-0.785943 -1.419922,-0.847656 -1.272826,-0.123426 -3.006883,0.666679 -5.353515,3.011719 -1.457627,1.456637 -3.239402,3.835881 -5.179688,6.732421 1.280142,-3.035971 2.221324,-5.665226 2.597656,-7.55664 0.616424,-3.098087 0.270722,-4.867751 -0.599609,-5.753906 -0.435165,-0.443078 -1.010589,-0.616992 -1.537109,-0.554688 z" />
        <path fill="#f3b5cf" inkscape:original-d="m 26.093,25.431 c 10.375,11.371 -6.723,22.41 -8.051,3.32 -17.928,10.375 -18.177,-10.458 -2.49,-9.628 -9.877,-10.541 8.3,-26.228 6.972,2.241 23.655,-16.517 16.019,1.992 3.569,4.067 z" />
        <path fill="#69c8c3" inkscape:original-d="m 16.797,30.992 c 3.652,-9.877 7.221,-14.691 8.3,-14.193 1.079,0.498 -0.83,6.474 -8.3,14.193 z" />
        <path fill="#69c8c3" font-variant-east-asian="normal" vector-effect="none" inkscape:original-d="m 25.021133,6.1377147 c -0.437012,0.051709 -0.836081,0.2787821 -1.129902,0.6095313 -0.587643,0.6614984 -0.706627,1.8140986 0.188046,2.7558598 l 0.541446,-0.5138871 c -0.682327,-0.7182396 -0.531886,-1.3387916 -0.170215,-1.7459182 0.180835,-0.2035633 0.426637,-0.3357276 0.658163,-0.363125 0.231528,-0.027398 0.445486,0.028295 0.654923,0.2415432 0.418875,0.4264914 0.787837,1.645768 0.298281,4.1062313 -0.489078,2.458058 -1.802621,6.119408 -4.526094,11.362246 -4.35e-4,7.69e-4 -0.0012,8.3e-4 -0.0017,0.0017 -0.0022,0.0044 -0.0026,0.007 -0.0049,0.01135 l 0.656544,0.355019 c 2.977357,-5.272404 5.407443,-8.500141 7.280331,-10.371758 1.872889,-1.871617 3.188185,-2.347678 3.843614,-2.284121 0.327715,0.03178 0.499797,0.163985 0.609531,0.345293 0.109734,0.181309 0.144922,0.434455 0.07943,0.690586 -0.130975,0.512262 -0.611196,1.029618 -1.648652,0.938613 l -0.06485,0.744082 c 1.328044,0.116495 2.217324,-0.640652 2.436504,-1.497891 0.10959,-0.428618 0.06567,-0.884863 -0.16211,-1.26121 -0.227777,-0.3763481 -0.650311,-0.6523331 -1.178535,-0.7035549 -1.056445,-0.1024436 -2.495713,0.5533439 -4.443417,2.4997269 -1.209831,1.209009 -2.688704,3.183781 -4.299141,5.587909 1.062517,-2.519856 1.843699,-4.702137 2.156054,-6.272011 0.511632,-2.5714121 0.224699,-4.0402332 -0.497675,-4.7757419 -0.361187,-0.3677547 -0.838789,-0.5121033 -1.275801,-0.460391 z" />
        <path fill="#f3b5cf" inkscape:original-d="m -12.452582,12.664236 c 16.6371964,-5.2066386 19.7842763,17.626679 -0.445716,9.852759 2.068275,23.367438 -19.434329,13.651761 -11.074164,-2.052442 -15.54691,5.092742 -22.948354,-21.0727458 5.637203,-6.083601 -5.63145,-32.185483 9.7117714,-15.4888088 5.882677,-1.716716 z" />
        <path fill="#69c8c3" inkscape:original-d="m -11.193981,24.867494 c -8.390009,-8.475897 -11.622976,-14.443308 -10.595379,-15.3124591 1.027597,-0.8691514 6.247787,3.9505661 10.595379,15.3124591 z" />
        <path fill="#69c8c3" font-variant-east-asian="normal" vector-effect="none" inkscape:original-d="m -32.768638,4.5301176 c -0.156091,0.4733081 -0.114024,0.9916043 0.08483,1.4514939 0.397714,0.9197801 1.523818,1.5935743 2.918676,1.1260166 l -0.268313,-0.8017116 c -1.063797,0.3565853 -1.628739,-0.094845 -1.873517,-0.6609333 -0.122388,-0.2830443 -0.140397,-0.5985973 -0.0577,-0.8493544 0.08269,-0.2507585 0.242263,-0.4437126 0.561389,-0.5566166 0.638245,-0.2258116 2.066331,-0.020942 4.357486,1.6591946 2.288917,1.6784947 5.418304,4.7791672 9.496132,10.0839652 5.82e-4,8.15e-4 2.96e-4,0.0016 9.09e-4,0.0025 0.0034,0.0044 0.0059,0.006 0.0093,0.01046 l 0.678639,-0.503967 c -3.986659,-5.5795422 -6.136568,-9.6187175 -7.161218,-12.4368976 -1.02465,-2.81818061 -0.883751,-4.3960829 -0.504809,-5.0384095 0.189474,-0.3211621 0.407534,-0.4345143 0.646155,-0.4603686 0.23862,-0.025853 0.515297,0.059192 0.746849,0.249004 0.463108,0.379619 0.764287,1.1201486 0.174321,2.14145741 l 0.732704,0.42269992 c 0.755212,-1.30737447 0.403694,-2.58254103 -0.371288,-3.21781103 -0.38749,-0.3176342 -0.87681,-0.4909248 -1.372123,-0.4372578 -0.495312,0.053665 -0.980825,0.3552688 -1.286223,0.8729324 -0.610794,1.0353254 -0.626554,2.82649745 0.439028,5.7572554 0.661894,1.8204605 1.981011,4.2835881 3.677858,7.0872574 -2.077882,-2.2966638 -3.943926,-4.1429852 -5.405775,-5.2149788 -2.39447,-1.7558994 -4.039432,-2.1644045 -5.140123,-1.774979 -0.550345,0.1947121 -0.927101,0.6158434 -1.083188,1.0891522 z" />
      </g>
      <path d="m 1023.486,645.28391 c -1.6693,0.0165 -4.6581,1.58072 -8.6559,5.3642 -3.813,3.60854 -9.2956,10.02256 -14.1813,19.13838 0.1596,-1.71893 0.2004,-2.96071 0.099,-3.77711 1.4725,-4.98179 3.2415,-8.90526 4.7767,-11.68992 2.5212,-4.57309 4.7495,-6.71916 5.759,-7.34165 0.535,-0.32993 0.8618,-0.37814 1.0941,-0.27387 0.2325,0.10441 0.3379,0.3993 0.2716,0.80851 -0.1321,0.81487 -0.7982,1.98145 -2.5456,3.11299 -0.016,0.35632 -0.031,0.71334 -0.044,1.07107 2.2736,-1.48653 3.7046,-3.63267 3.924,-4.94491 0.1108,-0.6628 -0.04,-1.1589 -0.4787,-1.35285 -0.4375,-0.19345 -1.1971,-0.0502 -2.1226,0.51525 -1.7977,1.09843 -4.2577,3.68314 -6.892,8.46751 -1.4288,2.595 -2.9701,6.23003 -4.3216,10.51806 -0.049,-5e-4 -0.1004,0.007 -0.1545,0.0253 -0.0515,0.0175 -0.11137,0.0761 -0.16678,0.11117 0.61708,-4.27707 1.20138,-7.74502 1.31028,-10.03402 0.1957,-4.11271 -0.4964,-5.67989 -1.84983,-5.8353 -0.66093,-0.0759 -1.49653,0.27024 -2.23814,0.85443 -0.74336,0.58558 -1.37637,1.36968 -1.79818,2.16671 -0.83941,1.58613 -0.78244,3.26761 0.87135,3.49819 0.28076,-0.45562 0.56375,-0.90993 0.84891,-1.36292 -1.29079,-0.17647 -1.1773,-1.27201 -0.67481,-2.21972 0.25243,-0.47609 0.61496,-0.90994 0.97175,-1.19399 0.35659,-0.28388 0.72202,-0.46145 1.13213,-0.41277 0.85054,0.10098 1.64102,1.33469 1.47286,5.30425 -0.11248,2.65402 -0.55133,5.78526 -1.25837,10.9015 -0.4919,0.98085 -1.00937,2.36528 -1.45833,4.08951 -3.95199,-11.76181 -6.31666,-15.08264 -9.23295,-13.44794 -2.586,1.44957 -4.44699,7.3775 -3.57162,13.40376 0.62488,4.23012 2.58258,8.31713 5.98854,10.34112 -8.04402,6.8234 -11.12905,14.84543 -11.08611,20.78576 -0.005,0.31724 -6.2e-4,0.62804 0.0118,0.93181 0,0 0,0 0,0 0.45432,7.2863 5.22766,9.49634 10.39695,2.39599 0.18668,-0.25639 0.37534,-0.52391 0.56619,-0.80285 1.99668,-2.95985 4.04952,-7.06446 6.56184,-12.82341 0.17776,1.04741 0.38409,2.11879 0.62427,3.21151 0.16636,-1.43746 0.33508,-2.84116 0.50178,-4.16563 5.55547,9.29504 11.40347,8.49624 15.05757,4.45283 3.7269,-4.12391 5.8578,-11.88276 4.2963,-16.93301 -1.006,-3.34859 -3.483,-5.81308 -8.2629,-6.2916 6.6266,-5.24415 11.6031,-12.29286 14.1673,-17.46417 2.6333,-5.31035 2.9908,-9.12887 0.2902,-9.10215 z m -3.8296,59.42572 c -1.0285,0.0846 -2.6429,1.65199 -4.3117,4.19704 -0.1783,0.26822 -0.3575,0.54748 -0.5368,0.83733 -3.4586,5.62779 -6.5466,14.5193 -6.1458,23.71514 -8.1228,-5.95912 -14.37463,0.35169 -15.43688,7.33003 -1.05369,6.92209 3.04754,14.5992 13.52588,10.45242 -0.3411,1.09819 -0.6742,2.239 -0.9962,3.42451 0.6507,-0.9232 1.2723,-1.82509 1.8797,-2.71607 -0.8061,9.72502 0.5454,16.37305 2.3597,20.04317 1.8594,3.76141 4.3194,4.78496 6.4129,3.75286 4.266,-2.10314 6.9683,-12.32703 3.3147,-26.60733 7.8067,5.52024 14.2322,-2.32589 15.5674,-9.30207 1.346,-7.03254 -2.605,-12.967 -17.9034,-4.053 0.8042,-1.63203 1.3781,-2.98559 1.7112,-4.03286 2.7546,-3.70095 5.1346,-6.28138 6.9635,-7.90833 3.0208,-2.6873 4.6481,-2.8765 5.2451,-2.3972 0.3014,0.242 0.4036,0.60946 0.4037,1.06994 0,0.45987 -0.1293,1.02408 -0.356,1.51577 -0.4538,0.98407 -1.2044,1.7205 -2.2293,0.9416 -0.1824,0.466 -0.3628,0.93162 -0.5412,1.39688 1.3514,1.02484 2.7588,-0.0364 3.4911,-1.6373 0.3657,-0.79957 0.5906,-1.72796 0.593,-2.59692 0,0 0,3e-5 0,3e-5 0,-0.86996 -0.243,-1.67092 -0.7599,-2.0867 -1.0272,-0.82632 -2.973,-0.29762 -6.1504,2.50986 -1.7051,1.5066 -3.9424,4.06155 -6.3575,7.19055 -0.015,-0.0641 -0.018,-0.14509 -0.044,-0.19491 -0.024,-0.0479 -0.055,-0.087 -0.088,-0.11986 2.1419,-4.00157 4.0965,-7.6955 5.3165,-10.4442 1.4534,-3.27469 2.3276,-5.73904 2.7269,-7.62101 0.07,-0.31504 0.1273,-0.61227 0.1716,-0.89282 0.093,-0.64737 0.1165,-1.20414 0.079,-1.68186 -0.074,-0.95657 -0.4411,-1.54739 -0.9448,-1.70214 -0.5025,-0.15439 -1.1147,0.0916 -1.6857,0.60401 -0.5718,0.51311 -1.1055,1.32099 -1.4645,2.30361 0,0 0,0 0,0 -0.1059,0.27981 -0.1985,0.57372 -0.2748,0.87921 -0.1822,0.76964 -0.2542,1.61099 -0.1681,2.48139 -0.013,0.009 0.9805,-0.65849 0.9671,-0.64946 -0.061,-0.64772 -0.021,-1.22254 0.085,-1.72303 0.073,-0.32331 0.1716,-0.61613 0.2875,-0.87807 0.2249,-0.52191 0.5232,-0.92014 0.8217,-1.19037 0.3389,-0.30683 0.6757,-0.4226 0.9181,-0.34742 0.2431,0.0754 0.4207,0.30301 0.4695,0.89664 0.019,0.23492 0.012,0.5334 -0.031,0.89969 -0.035,0.26322 -0.087,0.56054 -0.16,0.89397 -0.3235,1.56439 -1.089,3.86513 -2.5379,7.10333 -1.3576,3.03422 -3.2389,6.75092 -5.752,11.37933 -0.6122,0.44697 -1.4173,1.28618 -2.3518,2.51391 2.4674,-10.89018 4.0626,-16.87178 4.8045,-21.7183 0.053,-0.31224 0.1006,-0.61043 0.143,-0.8953 0.4578,-3.56769 0.044,-5.02393 -1.0291,-4.93569 z m -40.64026,9.44023 c -2.4254,-0.12041 -7.24965,5.65568 -8.67369,22.68981 -0.47943,-1.56532 -0.90699,-2.71306 -1.28823,-3.45742 -0.66517,-4.61442 -0.82704,-8.23116 -0.72889,-10.92063 0.16001,-4.3847 1.01478,-6.4489 1.57842,-7.05969 0.29167,-0.31607 0.53438,-0.35714 0.76605,-0.24939 0.23187,0.10783 0.4434,0.40178 0.56296,0.80227 0.23885,0.80008 0.19144,1.91841 -0.74385,2.99045 0.13559,0.34432 0.2721,0.68853 0.40951,1.03262 1.21469,-1.40266 1.46898,-3.44611 1.08776,-4.74077 -0.19147,-0.65024 -0.52552,-1.14916 -0.96199,-1.35276 -0.43591,-0.20334 -0.98621,-0.0778 -1.49263,0.46688 -0.99623,1.07143 -1.85001,3.58539 -2.01417,8.17332 -0.089,2.4885 0.13449,5.88153 0.65578,9.8434 -0.039,1.2e-4 -0.0761,0.007 -0.11232,0.0242 -0.0349,0.0165 -0.0608,0.0712 -0.0922,0.10395 -1.09229,-3.89117 -2.04815,-7.22076 -2.88145,-9.3505 -1.52802,-3.90529 -2.7715,-5.43835 -3.92417,-5.55471 -0.56678,-0.0572 -1.09593,0.30374 -1.44807,0.89511 -0.35247,0.59191 -0.53311,1.37173 -0.53992,2.14799 -0.0136,1.55106 0.72465,3.11482 2.14921,3.27734 0.0408,-0.43655 0.0832,-0.87323 0.12697,-1.31004 -1.11245,-0.12684 -1.47654,-1.15868 -1.46751,-2.08532 0.005,-0.46364 0.11561,-0.89457 0.28407,-1.17963 0.16838,-0.28493 0.38757,-0.46697 0.73933,-0.43157 0.72309,0.0728 1.90342,1.25996 3.38829,5.01683 0.93344,2.3617 1.94418,5.56446 3.21792,10.11136 -0.035,0.90331 0.0511,2.16476 0.29388,3.73339 -9.68325,-14.1285 -13.46011,-14.79662 -13.21679,-9.00472 0.21935,5.22117 4.69008,14.84662 11.16668,18.30297 -5.9203,8.2373 -4.27834,17.85133 -0.86594,22.03484 3.60464,4.41921 7.98633,2.28813 9.17904,-12.72449 0.4396,0.91688 0.9052,1.85319 1.39781,2.80563 -0.2716,-1.29608 -0.53554,-2.44656 -0.79261,-3.65236 9.37316,10.90896 14.01462,6.83965 14.41605,0.45074 0.41486,-6.60281 -3.19436,-15.97371 -11.4034,-17.1336 3.53032,-4.69806 4.79563,-10.9594 4.76417,-15.85873 -0.0318,-4.95332 -1.38408,-8.72992 -3.5361,-8.83675 z" fill="#fff" filter="url(#filter4690)" opacity=".5" />
    </g>
  </g>
</svg>
