<svg xmlns="http://www.w3.org/2000/svg" xmlns:inkscape="http://www.inkscape.org/namespaces/inkscape" xmlns:xlink="http://www.w3.org/1999/xlink" height="1080" viewBox="0 0 1920 1080" width="1920">
  <defs>
    <inkscape:path-effect bendpath1="m 162.28989,61.334397 h 75.60036" bendpath2="m 234.8242,61.267421 c 13.55403,24.466133 12.66804,51.206649 3.06605,77.839139" bendpath3="m 162.28989,139.10656 h 75.60036" bendpath4="m 162.79371,61.842402 c 12.09778,24.340783 8.93189,49.323538 -1.37872,77.155978" effect="envelope" id="path-effect3458" yy="false" />
    <inkscape:path-effect effect="powerstroke" id="path-effect2940" interpolator_type="CubicBezierSmooth" offset_points="0.25,5" start_linecap_type="zerowidth" />
    <inkscape:path-effect effect="powerstroke" end_linecap_type="zerowidth" id="path-effect2938" interpolator_type="CubicBezierSmooth" offset_points="0.31,5 | 0.73,5" start_linecap_type="zerowidth" />
    <inkscape:path-effect effect="powerstroke" id="path-effect2487" interpolator_type="CubicBezierSmooth" offset_points="0.37,5" start_linecap_type="zerowidth" />
    <inkscape:path-effect effect="powerstroke" id="path-effect2473" interpolator_type="CubicBezierSmooth" offset_points="0.57,5" start_linecap_type="zerowidth" />
    <inkscape:path-effect effect="powerstroke" end_linecap_type="zerowidth" id="path-effect1668" interpolator_type="CubicBezierSmooth" offset_points="0.36,5 | 1.85,5" start_linecap_type="zerowidth" />
    <inkscape:path-effect effect="powerstroke" id="path-effect1657" interpolator_type="CubicBezierSmooth" offset_points="0.19,5" start_linecap_type="zerowidth" />
    <linearGradient id="linearGradient833">
      <stop offset="0" stop-color="#02534d" />
      <stop offset="1" stop-color="#02aca4" />
    </linearGradient>
    <clipPath id="clipPath847">
      <use xlink:href="#ellipse823" />
    </clipPath>
    <clipPath id="clipPath922">
      <use xlink:href="#ellipse882" />
    </clipPath>
    <clipPath id="clipPath828">
      <use xlink:href="#path790" />
    </clipPath>
    <clipPath id="clipPath1759">
      <use xlink:href="#path930" />
    </clipPath>
    <filter color-interpolation-filters="sRGB" height="1.5710977" id="filter4676" width="1.9739337" x="-0.48696686" y="-0.28554885">
      <feGaussianBlur stdDeviation="12.907243" />
    </filter>
    <filter color-interpolation-filters="sRGB" height="1.1340154" id="filter5074" width="1.2250765" x="-0.11253823" y="-0.067007716">
      <feGaussianBlur stdDeviation="4.0239016" />
    </filter>
    <linearGradient gradientUnits="userSpaceOnUse" id="linearGradient6172" x1="1274.9923" x2="1277.2557" y1="483.5751" y2="555.31348" xlink:href="#linearGradient833" />
    <linearGradient gradientUnits="userSpaceOnUse" id="linearGradient6174" x1="1334.2352" x2="1329.5259" y1="649.06873" y2="732.23145" xlink:href="#linearGradient833" />
  </defs>
  <g inkscape:groupmode="layer" inkscape:label="Drawing">
    <g>
      <path d="m 1556.356,588.48324 c -1.9342,6.54755 -4.1249,12.64255 -6.568,18.23798 -16.3981,37.55661 -51.4814,49.01069 -96.1997,11.02085 -13.3608,133.72353 159.9481,139.56252 219.8096,39.36203 4.5348,-7.59072 8.8749,-15.23287 13.022,-22.9179" fill="#f3b5cf" stroke="#e581b1" stroke-width="10" />
      <path d="m 1472.1713,693.61657 c 58.2515,32.02273 143.8873,14.07574 192.279,-23.00867 m -227.4546,-648.064108 c 176.4065,160.479028 277.5353,732.952898 18.7855,633.379828" fill="none" stroke="#e581b1" stroke-width="5" />
    </g>
    <path d="m 1416.5012,647.89574 c 32.7548,74.24722 74.8517,152.289 121.0893,223.78969 l 107.5532,-45.62965 c -57.734,-66.48296 -119.8557,-141.60797 -167.0897,-211.47376 z" fill="#f3e488" stroke="#e9d461" stroke-width="10" />
    <g>
      <path d="m 866.79241,710.45544 c 1.9511,-5.75767 2.65196,-11.53138 2.139,-17.60191 -64.97355,-1.777 -15.84166,58.0382 -2.139,17.60191 z m -86.14695,-338.03452 c 49.48955,-215.93454 277.21514,-255.69408 416.72184,20.50127 l -61.6871,11.39963 c -98.7965,-61.52467 -224.43778,20.19319 -145.45656,233.99221 56.13686,151.96025 -26.66553,245.89259 -168.85412,181.30788 -160.47449,-72.8905 -74.96473,-228.42527 44.88876,-141.1034 -17.9497,-60.83521 -124.27294,-137.41441 -85.61282,-306.09759 z" fill="#f3b5cf" />
      <path d="m 868.74536,692.64621 c -64.7875,-1.56968 -15.65561,58.24552 -1.95295,17.80923 23.29188,-68.73392 -131.59056,-139.75338 -86.14695,-338.03452 49.48955,-215.93454 277.21514,-255.69408 416.72184,20.50127 l -61.6871,11.39963 c -98.7965,-61.52467 -224.43778,20.19319 -145.45656,233.99221 56.13686,151.96025 -26.66553,245.89259 -168.85412,181.30788 -160.47449,-72.8905 -74.96473,-228.42527 44.57557,-141.69156" fill="none" stroke="#e581b1" stroke-width="10" />
      <path d="m 827.7477,658.05079 c -94.86021,16.81686 -77.64454,104.43142 -24.4448,152.02713 m 88.0032,29.75763 c 242.0881,-89.30061 -90.78018,-370.24156 120.6157,-437.09142 m 159.7392,-4.60296 c -176.40705,-246.28938 -436.97332,-87.08349 -302.68377,132.93134 115.17465,188.69772 30.77881,248.09668 -22.22119,231.59668 -43.17766,-13.4421 -63.12476,-74.27148 -6.5,-101 -24.5,18.5 -22.5,50 1,59" fill="none" stroke="#e581b1" stroke-width="5" />
    </g>
    <path d="m 1386.7104,548.23117 c 72.763,112.63453 -56.1708,179.35135 -135.4993,72.50319 -40.3866,-54.39575 -40.526,-168.84191 -9.2893,-186.36551 29.6289,-16.62185 99.9391,55.02125 125.2521,97.83189 z" fill="#f3e488" stroke="#e9d461" stroke-width="10" />
    <g>
      <path d="m 1252.2395,636.40254 -149.5679,-12.62396 c -11.1547,91.87095 -7.4346,195.34916 -7.4346,281.41831 0,41.72576 151.4435,42.75433 143.2622,9.99771 -17.2617,-69.11297 -32.1687,-138.79398 -43.7644,-211.29272 31.1955,-13.72738 49.2325,-35.3251 57.5047,-67.49934 z" fill="#f3e488" />
      <path fill="#e9d461" inkscape:original-d="m 1163.8263,713.45349 c 50.5175,-11.37302 77.6819,-35.31237 88.4132,-77.05095 l -149.5679,-12.62396 c -11.1547,91.87095 -7.4346,195.34916 -7.4346,281.41831 0,41.72576 151.4435,42.75433 143.2622,9.99771 -17.2617,-69.11297 -32.1687,-138.79398 -43.9885,-210.98348" inkscape:path-effect="#path-effect2487" />
    </g>
    <path d="m 988.3397,672.81629 c -19.15251,74.4077 -43.4676,178.94241 -54.02995,264.15116 -5.84409,47.14557 148.87395,56.72642 143.78105,2.44941 -6.76,-72.04551 -5.879,-165.2585 -0.1797,-237.54689 17.8238,-11.42151 34.8627,-28.26815 49.1603,-48.26808 101.0958,130.05002 359.1645,219.49492 496.2082,-307.34438 l -226.7213,145.93262 c -16.3377,39.67752 -42.5122,60.86851 -89.034,64.16972 9.619,-204.95779 -163.695,-211.77925 -244.2886,-111.8576 -58.1305,72.07144 -34.356,151.4491 -27.2581,205.79389 -16.0963,1.50268 -44.94914,12.07428 -47.6379,22.52015 z" fill="#faf5ab" />
    <g>
      <use transform="matrix(.29833646 30726e-8.01729034.24440478 766.83007 331.59597)" xlink:href="#g3426" />
      <use transform="rotate(359.2599 27757.571-63276.962)scale(.27356453)" xlink:href="#g3426" />
      <use transform="rotate(358.43581 16287.074-26912.258)scale(.27356454)" xlink:href="#g3426" />
      <use transform="rotate(4.3512679-4453.8043 10249.925)scale(.26294931)" xlink:href="#g3426" />
      <use transform="rotate(6.0921453-2540.8756 7595.6862)scale(.26294931)" xlink:href="#g3426" />
      <use transform="matrix(.29683275.02790622-.01734279.2614643 757.17719 435.55405)" xlink:href="#g3426" />
      <use transform="matrix(.2945045.04642776-.03367163.25986647 813.15175 372.77497)" xlink:href="#g3426" />
    </g>
    <path fill="#e9d461" inkscape:original-d="m 1043.8236,716.42365 c 59.0138,-11.9556 123.6399,-98.3985 127.3295,-177.37574" inkscape:path-effect="#path-effect2938" />
    <path fill="#e9d461" inkscape:original-d="m 1037.3908,675.1447 c 1.7302,-52.44222 -42.00612,-146.51933 25.8449,-230.64245 80.5936,-99.92166 253.9076,-93.10019 244.2886,111.8576 46.5218,-3.30121 72.6963,-24.4922 89.034,-64.16972 l 226.7213,-145.93262 c -137.0437,526.8393 -395.1124,437.3944 -496.7781,307.26502" inkscape:path-effect="#path-effect2940" />
    <path d="m 1036.1585,650.39844 c -16.2772,1.40038 -45.13004,11.97198 -47.8188,22.41785 -19.15251,74.4077 -43.4676,178.94241 -54.02995,264.15116 -5.84409,47.14557 148.87395,56.72642 143.78105,2.44941 -6.76,-72.04551 -5.879,-165.2585 -0.2198,-237.53963" fill="none" stroke="#e9d461" stroke-width="10" />
    <g>
      <path d="m 1348.3832,568.15622 c 52.0918,123.56157 -86.4707,166.86777 -146.034,47.8641 -30.3233,-60.5841 -10.5808,-173.31463 23.2251,-185.1459 32.0661,-11.22238 88.8621,71.54463 106.354,118.10147 z" fill="#faf5ab" />
      <path fill="#e9d461" inkscape:original-d="m 1348.3832,568.15622 c 52.0918,123.56157 -86.4707,166.86777 -146.034,47.8641 -30.3233,-60.5841 -10.5808,-173.31463 23.2251,-185.1459 32.0661,-11.22238 88.8621,71.54463 106.354,118.10147 -13.7523,-2.60902 -27.3997,-3.83856 -40.2483,4.39019 -22.3345,-26.53534 -63.6901,-21.1126 -63.7607,21.08289 -14.7414,7.05528 -23.7219,31.35058 -10.157,66.71058" inkscape:path-effect="#path-effect1657" />
      <path d="m 1219.0512,580.4897 -23.3623,-102.87667 m 107.226,71.5759 -49.728,-111.662 m 1.058,100.32214 -34.0483,-105.33193" fill="none" stroke="#e9d461" stroke-width="5" />
    </g>
    <g>
      <path d="m 1294.0496,805.15599 c -65.3923,-5.28118 -122.5121,130.30356 -73.9617,139.47309 88.2407,16.66569 176.327,-61.18899 224.6512,-138.87823 32.7962,-52.72533 -55.5476,-88.24303 -107.5756,-84.52982 -62.4851,4.45953 -56.7366,48.82521 -16.4832,83.91025 -8.9511,0.9104 -17.8416,0.73453 -26.6307,0.0247 z" fill="#faf5ab" />
      <path fill="#e9d461" inkscape:original-d="m 1368.4478,789.05572 c -23.2881,15.79227 -49.2579,18.13064 -74.3982,16.10027 -65.3923,-5.28117 -122.5121,130.30356 -73.9617,139.47309 88.2407,16.66569 176.327,-61.18899 224.6512,-138.87823 32.7962,-52.72533 -55.5476,-88.24303 -107.5756,-84.52982 -62.4851,4.45953 -56.7366,48.82521 -16.3739,83.74614" inkscape:path-effect="#path-effect2473" />
    </g>
    <g>
      <path d="m 1077.5732,472.29667 c 13.5307,-2.55067 43.7673,47.64849 35.991,84.71214 -7.4456,35.48727 -56.9536,34.37141 -62.6097,12.17651 -9.7963,-38.44093 15.1585,-94.7283 26.6187,-96.88865 z" fill="#fff" filter="url(#filter4676)" transform="translate(-162.84701-80.277705)scale(1.1523589)" />
      <g id="g3426" transform="matrix(-1.1338432.16715247-.25876374 1.83091 1347.9293 300.75262)" inkscape:path-effect="#path-effect3458">
        <path fill="#f3b5cf" inkscape:original-d="m 187.54743,112.66423 c 16.63719,-5.20663 19.78427,17.62668 -0.44572,9.85276 2.06828,23.36744 -19.43433,13.65176 -11.07416,-2.05244 -15.54691,5.09274 -22.94836,-21.072745 5.6372,-6.0836 -5.63145,-32.185483 9.71177,-15.488809 5.88268,-1.71672 z m 38.54557,12.76677 c 10.375,11.371 -6.723,22.41 -8.051,3.32 -17.928,10.375 -18.177,-10.458 -2.49,-9.628 -9.877,-10.541 8.3,-26.228 6.972,2.241 23.655,-16.517 16.019,1.992 3.569,4.067 z m -8.993,-39.731 c 12.5,13.7 -8.1,27 -9.7,4 -21.6,12.5 -21.9,-12.6 -3,-11.6 -11.9,-12.7 10,-31.6 8.4,2.7 28.5,-19.9 19.3,2.4 4.3,4.9 z" />
        <path fill="none" stroke="#69c8c3" stroke-width=".9" inkscape:original-d="m 215,66.2 c -3.8,-4 10.2,-9.1 -3,16.3 14.4,-25.5 18.3,-11.7 12.6,-12.2" />
        <path fill="none" stroke="#69c8c3" stroke-width=".9" inkscape:original-d="m 224.35,109.246 c -3.154,-3.32 8.466,-7.553 -2.49,13.529 11.952,-21.165 15.189,-9.711 10.458,-10.126" />
        <path fill="none" stroke="#69c8c3" stroke-width=".9" inkscape:original-d="m 170.10056,106.70669 c -4.91731,1.64829 -3.7005,-12.304753 12.69466,9.03115 -16.00364,-22.397944 -2.69769,-20.238265 -5.38805,-15.5809" />
        <path fill="#69c8c3" inkscape:original-d="m 188.80603,124.86749 c -8.39001,-8.47589 -11.62298,-14.44331 -10.59538,-15.31246 1.0276,-0.86915 6.24779,3.95057 10.59538,15.31246 z m 27.99097,6.12451 c 3.652,-9.877 7.221,-14.691 8.3,-14.193 1.079,0.498 -0.83,6.474 -8.3,14.193 z m -10.897,-38.592 c 4.4,-11.9 8.7,-17.7 10,-17.1 1.3,0.6 -1,7.8 -10,17.1 z" />
      </g>
      <path d="m 1099.5665,448.87108 c -1.4896,-0.10378 -3.7858,1.51406 -6.7187,5.55079 -3.3025,4.54532 -8.0143,13.24559 -11.8457,26.41601 -0.169,-1.88256 -0.3623,-3.34682 -0.6094,-4.18555 0.4099,-5.36743 1.2064,-9.67566 2.1211,-13.00781 1.5161,-5.52363 3.3864,-8.4597 4.1465,-9.25976 0.4914,-0.51727 0.882,-0.68048 1.1386,-0.65821 0.2567,0.0223 0.3857,0.19385 0.4297,0.47266 0.044,0.27881 0,0.72671 -0.2793,1.40234 -0.2818,0.67563 -0.8087,1.55073 -1.666,2.5 l 0.3984,1.26172 c 0.9793,-1.08428 1.6623,-2.15965 2.0918,-3.18945 0.4296,-1.0298 0.6005,-2.04073 0.4786,-2.8125 -0.122,-0.77178 -0.5373,-1.24034 -1.0762,-1.28711 -0.5389,-0.0468 -1.197,0.29367 -1.8828,1.01562 -1.1859,1.24824 -3.1175,4.48476 -4.7246,10.33985 -0.8644,3.14889 -1.4774,7.38595 -1.8946,12.18945 -0.079,0.005 -0.1599,0.0304 -0.2461,0.0918 -0.034,0.0239 -0.068,0.0824 -0.1015,0.11523 -0.3114,-4.20162 -0.6563,-7.6578 -1.2012,-10.16601 -0.4501,-2.07167 -0.9922,-3.43562 -1.6152,-4.26172 -0.6231,-0.8261 -1.3441,-1.09717 -2.0645,-0.93164 -1.4323,0.3291 -2.6911,2.27467 -3.1445,4.16601 -0.2267,0.94567 -0.2449,1.944 0.09,2.61524 0.3347,0.67124 0.9779,0.94378 1.875,0.75 l 0.1895,-1.64258 c -0.7021,0.15165 -1.0258,-0.0704 -1.168,-0.35547 -0.1422,-0.28512 -0.1487,-0.70125 -0.018,-1.24805 0.2622,-1.09358 1.0996,-2.44244 1.9961,-2.64843 0.4624,-0.10626 0.9407,0.0327 1.4375,0.6914 0.4968,0.65869 0.9949,1.85342 1.418,3.80078 0.5926,2.72755 0.9346,6.24128 1.2812,11.24219 -0.3209,1.1633 -0.5783,2.76307 -0.7089,4.70703 -4.0326,-6.49638 -6.8039,-9.55001 -9.2071,-10.49023 -2.6401,-1.03297 -4.4374,0.85256 -5.1836,3.99609 -1.4861,6.26059 1.4601,17.71792 9.2598,19.4961 -7.4775,10.23411 -9.2368,19.74381 -8.0137,25.63867 0.1288,0.58536 0.2892,1.12933 0.4746,1.6289 1.7812,4.94336 5.9118,5.53451 9.6914,-0.83203 0.3149,-0.52897 0.6291,-1.1073 0.9414,-1.73828 1.8074,-3.68901 3.4815,-8.89609 5.3086,-16.14844 0.3497,1.00901 0.7299,2.03138 1.1465,3.06641 -0.055,-1.69878 -0.095,-2.86378 -0.1445,-4.42578 9.4531,10.13515 16.3794,2.37527 18.5,-5.88281 2.2949,-8.93652 0.1631,-19.32756 -10.2305,-17.17383 10.0105,-12.82074 13.0334,-27.02388 10.5449,-30.15625 -0.311,-0.39155 -0.7183,-0.61775 -1.2148,-0.65235 z m 7.4082,61.01172 c -1.155,-0.17935 -2.8883,2.25324 -4.6758,6.61914 -0.2292,0.55633 -0.4536,1.14021 -0.6738,1.7461 -2.3849,6.53002 -4.0338,15.42469 -2.875,23.36718 -9.2165,-3.00749 -15.2042,5.52042 -15.6543,12.79102 -0.4283,6.91963 4.3594,12.6463 15.0195,5.11914 -0.2894,1.17835 -0.5723,2.39592 -0.8457,3.65625 0.6534,-1.14801 1.2252,-2.21924 1.8282,-3.32031 -0.5413,19.43656 5.8213,23.59116 10.2109,20.45312 4.4876,-3.20809 7.315,-14.45653 2.3672,-27.3457 8.9115,2.74123 15.2566,-7.92641 15.666,-15.3457 0.3886,-7.04197 -4.6488,-10.2949 -19.2285,3.18945 0.6846,-1.86632 1.1858,-3.44776 1.4179,-4.57422 2.5107,-4.57402 4.6413,-7.81002 6.3711,-10.00781 2.8103,-3.57036 4.5748,-4.31901 5.1192,-4.12305 0.4806,0.17302 0.6402,0.52433 0.6836,0.91211 0.043,0.38778 -0.046,0.89236 -0.2637,1.41797 -0.4352,1.05123 -1.2939,2.0064 -2.1621,1.72266 l -0.4981,1.6289 c 1.3231,0.43242 2.758,-1.03239 3.4844,-2.78711 0.3632,-0.87737 0.5717,-1.87103 0.4746,-2.73828 -0.097,-0.86727 -0.5149,-1.52694 -1.205,-1.77539 -1.1463,-0.41266 -3.1452,0.80914 -6.1133,4.58008 -1.5961,2.02781 -3.5891,5.26257 -5.7793,9.17773 -0.024,-0.0655 -0.053,-0.12043 -0.088,-0.16406 -0.051,-0.0631 -0.1232,-0.0879 -0.209,-0.0859 3.2215,-8.25676 5.4139,-14.76334 5.9863,-18.38476 v -0.004 c 0.1022,-0.6564 0.17,-1.25123 0.2051,-1.78515 0.1044,-1.50241 -0.044,-2.57623 -0.4101,-3.22071 -0.3657,-0.64447 -0.9569,-0.79036 -1.5372,-0.52539 -1.1604,0.52996 -2.3005,2.51724 -2.4804,4.78711 v 0.004 0.004 c -0.046,0.62541 -0.016,1.26387 0.1075,1.89258 0.029,0.15387 0.062,0.3084 0.1015,0.46094 l 0.9902,-1.00391 c -0.031,-0.11895 -0.06,-0.23537 -0.082,-0.35156 v -0.004 -0.004 c -0.091,-0.46687 -0.1098,-0.90613 -0.08,-1.3125 0.1205,-1.5199 0.8667,-2.63798 1.42,-2.89063 0.2766,-0.12632 0.5008,-0.0828 0.6875,0.2461 0.1866,0.32893 0.3266,1.0135 0.2402,2.25781 v 0.004 0.002 c -0.029,0.44584 -0.085,0.96135 -0.1757,1.54687 v 0.004 c -0.5657,3.57716 -2.4012,9.75499 -6.1523,19.18945 -0.5844,0.66676 -1.3065,1.71034 -2.1231,3.13086 1.259,-9.61042 2.0868,-16.33005 2.2969,-21.04492 0.023,-0.58319 0.034,-1.12685 0.037,-1.63281 0.046,-3.61855 -0.5021,-5.33902 -1.4004,-5.47852 z m -40.8984,22.58594 c -1.2827,0.0995 -2.7108,1.45697 -4.0254,4.54492 -1.6426,3.85851 -3.2083,10.88819 -3.3203,21.15821 -0.5368,-1.22178 -1.0299,-2.25252 -1.4395,-2.89844 -1.1834,-4.58287 -1.7338,-8.24812 -1.8887,-11.07617 -0.2434,-4.44478 0.5163,-6.78314 0.9825,-7.48438 0.2159,-0.32476 0.4,-0.41629 0.6386,-0.38477 0.2387,0.0315 0.4997,0.25176 0.6719,0.61329 0.1722,0.36152 0.2528,0.84706 0.2051,1.35547 -0.048,0.50842 -0.206,1.05533 -0.6152,1.70117 l 0.6132,0.97461 c 0.6078,-0.95903 0.9513,-2.0197 1.0391,-2.95508 0.088,-0.93538 -0.062,-1.73089 -0.3379,-2.31055 -0.2761,-0.57964 -0.6797,-0.96181 -1.1758,-1.02734 -0.4961,-0.0655 -1.1172,0.25376 -1.625,1.01758 -1.0138,1.52514 -1.6978,4.4234 -1.4394,9.14062 0.1381,2.52254 0.7163,5.80313 1.5859,9.51563 -0.043,0.0463 -0.082,0.1055 -0.1172,0.17968 -1.3174,-3.07733 -2.85,-6.95945 -3.7851,-8.60156 -1.9495,-3.4234 -3.2651,-4.69493 -4.543,-4.4375 -0.5929,0.11945 -1.1661,0.73542 -1.5098,1.5 -0.3437,0.76458 -0.4927,1.63576 -0.4648,2.44336 0.056,1.61519 0.9009,2.98745 2.5644,2.66406 l 0.2032,-1.64062 c -1.2834,0.24947 -1.6927,-0.69006 -1.7246,-1.61524 -0.016,-0.46259 0.083,-0.92021 0.2128,-1.20898 0.1299,-0.28879 0.2552,-0.45027 0.5215,-0.50391 0.6669,-0.13434 1.9699,0.7663 3.8692,4.10157 1.2156,2.13462 2.7276,5.35653 4.5332,9.65039 0.085,0.79837 0.2644,1.76658 0.5371,2.86132 -11.0376,-10.50611 -15.0451,-10.82555 -14.6699,-5.19726 0.3548,5.32334 5.8776,14.07363 13.1484,15.20898 -5.7702,10.57868 -3.1539,20.00336 0.707,22.50781 3.9814,2.5826 8.2207,-1.48995 8.6153,-16.34179 0.515,0.7347 1.0568,1.4762 1.6289,2.22265 -0.3573,-1.15759 -0.6883,-2.18803 -1.0293,-3.26757 10.3192,7.13524 15.0575,1.57323 15.2031,-4.53125 0.155,-6.49952 -4.2835,-14.60102 -13.125,-12.92774 5.6573,-9.77794 4.1284,-21.64151 0.9902,-24.35156 -0.4983,-0.43033 -1.0517,-0.64482 -1.6347,-0.59961 z" fill="#fff" filter="url(#filter5074)" opacity=".5" />
    </g>
    <g>
      <path d="m 1701.4855,815.3673 -11.1937,99.0446 c 5.7241,11.2626 1.8426,31.9393 -13.4779,24.4988 l -71.8092,35.8437 -242.7998,-1.9138 -0.3535,-10.6066 104.8446,-28.6499 -1.0344,-87.6721 229.8993,-41.15133 z" fill="#6c5228" />
      <path d="m 1679.1828,908.90247 c -35.5108,-6.7744 -123.6595,-0.35196 -207.7646,0.70675 -32.4451,0.40842 -59.7472,3.16699 -87.796,12.29379 l -6.0831,35.66923 229.6654,-0.53282 60.8359,-28.38952 c 5.6878,-2.65425 8.7143,-0.2933 11.6668,3.88464 8.7891,6.06135 10.1942,-15.32161 -0.5244,-23.63207 z" fill="#eded86" />
      <path d="m 1361.8514,962.234 242.6454,2.9296 72.1555,-36.6309 c 11.529,13.479 12.9978,-2.9825 6.3033,-16.1348 l 12.6053,-107.63723 m 5.9246,10.60663 -11.1937,99.0446 c 5.7241,11.2626 1.8426,31.9393 -13.4779,24.4988 l -71.8092,35.8437 -242.7998,-1.9138 -0.3535,-10.6066 104.8446,-28.6499 -1.0344,-87.6721 229.8993,-41.15133 z m -96.4808,159.3871 -0.5079,-9.5908" fill="none" stroke="#24170d" stroke-width="5" />
      <path d="m 1679.1828,908.90247 12.5167,-107.91708 -16.2412,-23.52058 -217.3877,62.15779 c 0.3143,23.32887 1.7245,48.15775 13.3476,69.98662 -32.4451,0.40842 -59.7472,3.16699 -87.796,12.29379 l -6.0831,35.66923 229.6654,-0.53282 -29.6165,-50.29369 c 43.829,-1.27633 81.3045,-1.71404 101.5948,2.15674 z" fill="#eded86" />
      <path d="m 1675.4583,777.46481 16.2412,23.52058 -12.5167,107.91708 c -13.304,-30.54498 -13.0078,-75.0946 -3.7245,-131.43766 z" fill="#fdfdc9" />
      <path d="m 1471.4182,909.60922 c -11.6231,-21.82887 -13.0333,-46.65775 -13.3476,-69.98662 l 217.3877,-62.15779 16.2412,23.52058 -12.5167,107.91708 c -35.5108,-6.7744 -123.6595,-0.35196 -207.7646,0.70675 -32.4451,0.40842 -59.7472,3.16699 -87.796,12.29379 l -6.0831,35.66923 229.6654,-0.53282 60.8359,-28.38952 c 4.9173,-2.29466 7.8454,-0.84096 10.4563,2.2946 m -294.8745,-9.04149 226.4991,-0.13181 c 12.1768,-7.46645 26.2896,-12.67425 42.4663,-15.47414" fill="none" stroke="#d8b941" stroke-width="5" />
      <path d="m 1675.4583,777.46481 c -9.2833,56.34306 -9.5795,100.89268 3.7245,131.43766 m -69.0615,12.86873 -2.9168,35.26822" fill="none" stroke="#d8b941" stroke-width="3" />
      <path d="m 1676.1657,814.933 c -3.7876,23.96865 -3.3703,46.43705 0.3823,71.17187 -1.6422,-23.81135 -1.6177,-46.00971 -0.3823,-71.17187 z m 8.7402,-24.1152 -2.6186,39.52968 5.0154,-35.53809 z m -76.3711,149.92215 -0.1509,4.17214 16.462,-5.78073 z m 0.6464,-10.70711 -76.8559,2.59834 76.8818,1.10413 23.1085,-5.78073 z m -229.519,13.75 45.1913,3.84052 -45.8636,-0.13805 z m 3.1768,-15 22.3681,2.84052 -23.394,1.2155 z" fill="#d8b941" />
      <path d="m 1493.2944,879.38418 c 1.0098,-0.7385 4.9474,6.91055 3.1349,7.66055 -1.8125,0.75 -4.4555,-6.69481 -3.1349,-7.66055 z m 84.6631,-12.69863 c -1.1178,-7.7672 1.3137,-7.22654 2.4303,0.48053 1.1165,7.7071 4.5677,10.85245 3.7888,19.23239 -0.5865,6.31045 4.7965,8.60863 4.4429,13.64677 -0.2375,3.38512 -1.4979,3.55008 -1.3258,0.26516 0.3909,-7.46189 -6.4597,-9.70793 -5.3529,-13.16887 3.8548,-12.05333 -3.239,-15.28458 -3.9833,-20.45598 z m -29.5132,-5.28311 c -1.7344,-0.55184 -3.0771,-9.83629 -2.0493,-10.7432 1.0625,-0.9375 3.7065,11.2705 2.0493,10.7432 z m 21.0373,25.32157 c 1.0318,-0.54758 5.1313,8.60077 4.2854,18.60057 l -1.8219,0.97699 c 0.016,-11.22397 -3.28,-19.14423 -2.4635,-19.57756 z m -2.558,-7.25096 c 0.2355,1.19045 1.7039,-0.54469 0.192,-5.55715 -1.8972,-6.28992 -4.1042,-4.4182 -2.7747,-2.18859 1.3296,2.22966 2.0075,4.83872 2.5827,7.74574 z m -25.1188,-41.95753 c -3.3385,-10.92323 0.4273,-12.3828 0.5667,-9.23753 0.1763,3.97401 1.2521,9.46499 2.002,11.38531 2.0873,5.34484 -0.1553,5.74874 -2.5687,-2.14778 z m 7.6921,36.54931 c -0.1671,-4.37114 2.2263,-4.56302 2.3598,-0.0581 0.3296,11.12283 7.5538,10.19488 6.5698,31.4685 -0.1693,3.66028 -2.7801,2.45054 -2.462,-1.45163 1.4582,-17.88655 -6.0739,-19.65751 -6.4676,-29.95881 z m 6.0534,-52.58624 c 1.5205,-2.26573 4.1563,-1.11286 1.7678,1.67939 -2.5953,3.034 -2.9518,5.31532 -0.7311,9.56053 0.6097,1.16553 -0.816,1.79965 -1.5942,0.45723 -2.2221,-3.83328 -1.7945,-8.19232 0.5575,-11.69715 z m -29.6772,86.40337 c -1.7267,-4.28173 -1.8078,-8.19406 -0.5586,-8.28636 1.3104,-0.0968 1.2118,5.02371 3.2118,8.21121 z m -11.8163,0.50146 c -3.7668,-7.70604 -4.5452,-14.69997 -3.1702,-14.76247 1.375,-0.0625 2.4174,8.12345 6.3803,14.52177 z m -15.6378,-64.98748 c 0.1897,-4.37537 2.4286,-2.80983 2.1302,0.5785 -0.3784,4.29566 1.028,6.33245 2.2742,11.13719 0.8286,3.1944 -0.6039,2.88441 -1.3437,0.53594 -1.1964,-3.7981 -3.2518,-7.84362 -3.0607,-12.25163 z m 12.5348,-2.19003 c 0.3879,-3.06738 3.1521,-4.03189 2.1565,0.37102 -0.9955,4.40289 1.134,9.81477 2.7227,15.30121 0.856,2.95633 -1.0197,3.76611 -2.0169,0.22559 -1.804,-6.40557 -3.384,-11.77316 -2.8623,-15.89782 z m 5.9081,23.23682 c 1.2865,0.40731 0.5336,1.67284 1.7418,3.4257 2.3647,3.43079 -1.9843,5.85301 2.0816,10.44923 3.4025,3.84637 4.7953,16.52316 3.3016,16.78563 -1.9619,0.34473 -1.0969,-10.71959 -4.396,-14.56687 -4.7134,-5.49659 0.2916,-8.42732 -2.5878,-11.77303 -1.6247,-1.88775 -1.6768,-4.80687 -0.1412,-4.32066 z m -13.5791,3.77348 c -3.039,-5.06207 0.522,-6.18334 2.2738,-1.61206 2.5416,6.6325 0.3135,10.01166 3.1699,13.95734 2.5901,3.57774 1.1821,6.01873 -1.9754,1.27255 -3.4381,-5.16781 -0.6292,-8.88874 -3.4683,-13.61783 z m 38.6984,13.97195 c -1.8834,0.36408 0.456,11.81181 1.6554,11.62728 1.625,-0.25 0.9768,-12.1361 -1.6554,-11.62728 z m -4.901,-14.11201 c 2.0159,2.56292 -0.1108,5.76613 1.4799,8.68287 1.0193,1.86881 3.187,0.95234 1.9446,-1.64276 -1.0945,-2.28609 0.2846,-4.90875 -1.7978,-8.29069 -1.7793,-2.88958 -3.66,-1.33436 -1.6267,1.25058 z m -5.2268,-12.08081 c -0.1841,4.26254 2.1595,5.64664 2.4116,1.10356 0.5643,-10.17202 -5.2054,-14.73004 -4.9402,-21.69863 0.1473,-3.8722 -2.0623,-4.86368 -2.0198,0.1455 0.042,4.9672 4.9048,12.19781 4.5484,20.44957 z m 28.9085,-6.72417 c 1.1227,-0.54697 3.6717,8.58655 2.2031,9.20635 -1.5664,0.66108 -3.3625,-8.64144 -2.2031,-9.20635 z m 9.1683,-21.50006 c -0.4958,4.64802 3.8933,3.4041 2.9074,12.56567 -1.1959,11.11256 3.2457,16.62304 2.5164,11.81967 -1.6968,-11.17603 2.2832,-16.57455 -2.0827,-21.74809 -4.3659,-5.17355 2.8633,-11.23955 1.09,-12.53399 -1.3249,-0.96713 -4.0882,6.68203 -4.4311,9.89674 z m 53.9435,14.20046 c -2.7801,-5.30635 -0.6339,-6.16341 1.5265,-1.3225 3.0154,6.75679 -0.5923,6.97807 0.3757,10.58121 1.0637,3.95904 -0.8724,6.43264 -2.6408,-0.16679 -1.3359,-4.98595 3.8843,-3.08789 0.7386,-9.09192 z m 20.9237,32.20439 c -2.0783,-4.77178 2.4555,-11.43433 2.9153,10.27077 0.4454,21.03069 -3.4135,21.06766 -2.5339,13.57488 0.9109,-7.75885 -1.4755,-9.60908 -1.4755,-14.03442 0,-4.10545 3.5447,-4.18466 1.0941,-9.81123 z m -18.8654,-6.41775 c -3.5671,-3.84461 0.391,-5.63397 2.6707,-1.48854 4.2566,7.74039 -2.3339,8.21457 -0.4369,10.82141 5.0002,6.87113 -1.4087,8.23132 1.129,15.4333 1.828,5.18778 -0.8352,4.74778 -2.0389,1.04632 -2.7323,-8.4016 4.0584,-12.15407 0.1946,-15.25425 -5.8704,-4.71013 4.5472,-4.02075 -1.5185,-10.55824 z m -39.0334,-52.64814 c -3.802,5.94326 4.5911,11.7756 5.4292,24.53086 0.5068,7.71306 3.1222,7.1676 1.9403,0.43371 -2.8956,-16.49787 -8.9076,-19.36234 -5.5368,-23.98319 4.1229,-5.65193 1.2869,-5.85787 -1.8327,-0.98138 z m 22.6942,19.77589 c -4.2071,7.06479 1.5814,6.01319 -0.1719,10.56179 -1.4253,3.69775 1.8086,13.02698 3.1345,12.40824 1.65,-0.76999 -2.9087,-7.3491 -0.8689,-11.85406 2.1636,-4.77851 -4.7043,-4.88513 -0.8416,-10.08181 1.8365,-2.47066 -0.1776,-2.83856 -1.2521,-1.03416 z m 13.7074,-29.83053 c -2.4668,-4.37171 -1.681,28.21585 0.8923,22.71273 2.407,-5.14754 2.6254,-16.47852 -0.8923,-22.71273 z m 14.8705,-4.72326 c 2.033,-0.61873 3.8396,4.80549 -0.7053,10.73488 -4.9317,6.43395 5.2121,4.03509 0.9646,13.79631 -2.6972,6.19838 7.1362,6.74973 3.1775,15.62319 -1.7191,3.8536 3.4681,10.80453 1.3069,16.36104 -1.3367,3.43657 -4.5915,1.95993 -2.6031,-1.69134 3.3277,-6.11081 -3.6133,-10.12118 0.017,-16.40903 3.1657,-5.48324 -6.5348,-6.64068 -3.4472,-13.7002 4.2639,-9.74902 -7.2505,-7.54917 -0.9651,-15.22504 4.9981,-6.1039 -0.8105,-8.55694 2.2547,-9.48981 z m -19.7381,95.80554 c -1.4178,0.14443 -7.4948,-29.3309 -3.9247,-29.52011 1.4998,-0.0795 1.8107,7.16233 2.8159,14.53732 1.0187,7.47475 2.7194,14.81873 1.1088,14.98279 z m 41.1832,-7.56231 c -2.7116,-5.51302 0.3347,-6.44271 2.485,2.42505 2.1768,8.97698 -0.7595,9.07843 -0.9454,4.83877 -0.1465,-3.33984 -0.5026,-5.15534 -1.5396,-7.26382 z m -2.5282,-16.84955 c -4.0499,-6.95789 4.5806,-5.97969 -0.7318,-11.68842 -6.549,-7.03756 5.2965,-4.45742 -1.0282,-11.54131 -6.9818,-7.81987 5.3143,-4.34155 0.8968,-11.40156 -2.1969,-3.51116 -0.779,-4.54125 1.4584,-1.28479 5.8935,8.57767 -6.0196,7.39692 -0.7302,12.68635 6.715,6.71503 -3.3958,3.87875 1.0282,11.54131 4.4203,7.65621 -3.059,4.82234 0.8568,11.68842 2.4017,4.21118 0.7617,4.31514 -1.75,0 z m -2.4765,-71.37757 c -1.4209,2.36991 -1.2053,9.08701 0.916,11.73866 2.1213,2.65166 -0.4999,7.73161 -0.146,11.62069 0.3536,3.88909 1.9084,2.56092 2.4319,-0.93566 2.0157,-13.46429 -2.548,-11.06651 -1.5998,-16.87957 1.0969,-6.72507 -0.8334,-6.82547 -1.6017,-5.54412 z m -59.9403,53.451 c -3.4472,5.21494 2.0123,11.2782 1.7471,15.52084 -0.2566,4.10465 8.8588,23.29418 9.2371,32.08399 0.1655,3.84432 -2.828,4.20832 -3.1346,-0.47212 -1.6872,-25.7562 -9.8031,-26.66954 -8.4307,-32.54436 1.423,-6.09099 -3.7135,-10.32421 -1.4134,-15.11899 1.993,-4.15447 3.8555,-2.2848 1.9945,0.53064 z m -101.9151,15.11643 c -0.062,2.80835 -2.2367,2.70218 -2.2097,-0.17678 0.095,-10.13303 -3.5923,-12.24144 -3.0083,-20.2739 0.3089,-4.24945 2.3874,-4.58278 1.9064,1.50312 -0.4992,6.31812 3.4852,11.12265 3.3116,18.94756 z" fill="#d8b941" />
      <path d="m 1687.9797,938.71694 c -2.6153,2.08722 -6.3178,2.5482 -11.1658,0.19376 l -49.3403,24.62831 0.576,-5.08098 -8.5154,-0.92843 57.1181,-28.9969 c 3.8988,4.55821 6.6471,5.69243 8.3182,4.68853 l -0.2763,3.69606 z" fill="#6c5228" />
      <path d="m 1619.5342,957.5296 57.1181,-28.9969 c 3.8988,4.55821 6.6471,5.69243 8.3182,4.68853 m 3.0092,5.49571 c -2.6153,2.08722 -6.3178,2.5482 -11.1658,0.19376 l -49.3403,24.62831" fill="none" stroke="#24170d" stroke-width="5" />
    </g>
    <g>
      <path d="m 1292.0059,131.79821 c -56.2024,261.1959 100.0394,456.15738 50.594,554.15514 -27.2693,54.04612 -74.1288,19.63244 -63.4727,-11.4689 5.9755,-17.44022 20.8593,-14.69714 23.8065,2.33397 30.0075,-33.53479 -60.4513,-65.10183 -39.3353,39.94296 29.2665,145.59125 332.3399,-2.1437 216.3754,-259.10213 z" fill="#f3b5cf" stroke="#e581b1" stroke-width="10" />
      <path d="m 1340.0378,773.50821 c 169.1047,-107.89539 -48.4349,-427.24808 -59.9991,-553.73787 m 11.9672,-87.97213 c 0,293.36032 213.9264,325.95971 149.5882,592.11081" fill="none" stroke="#e581b1" stroke-width="5" />
      <path d="m 1652.6195,351.53868 c 45.2438,-304.299503 -431.7022,-313.797829 -332.0815,47.71092 -14.1355,5.76074 -28.0635,6.53692 -24.6139,22.88089 7.2842,34.51199 90.088,119.24013 260.5464,47.93481 z" fill="#faf5ab" />
      <path d="m 1320.4217,399.54308 c -99.5044,-361.802229 377.4416,-352.303903 332.1978,-48.0044" style="fill:none;stroke:#e9d461;stroke-miterlimit:20;stroke-width:10" />
      <g>
        <path d="m 1321.917,372.12633 c -9.6548,1.08455 -16.1884,4.69399 -22.596,15.33001 1.7843,-11.7511 10.2687,-20.37009 20.2511,-20.5793 z m -3.3109,-11.60799 c -9.1829,-0.65793 -16.1719,2.39078 -25.3458,10.37458 4.6571,-11.01193 14.2622,-16.30393 24.6154,-16.2233 z m 8.7731,21.97468 c -9.0231,3.61507 -14.2121,7.31473 -18.6269,18.48365 -0.255,-11.70277 5.2202,-18.93549 14.4538,-22.76292 z" />
        <g clip-path="url(#clipPath828)">
          <path d="m 1345.1914,250.33414 c -12.8607,-1.66345 -23.4342,18.09649 -38.8291,47.58196 0.5352,35.37628 5.0952,71.2516 13.5833,101.11427 7.9205,-2.69918 19.1864,-12.59417 23.8752,-23.30696 12.7153,-51.09808 13.0684,-123.87624 1.3706,-125.38927 z" fill="#fff" id="path790" />
          <g clip-path="url(#clipPath922)">
            <ellipse cx="1271.4801" cy="516.46161" fill="url(#linearGradient6172)" id="ellipse882" rx="14.459796" ry="47.346836" transform="rotate(353.04734)" />
            <path d="m 1322.2474,376.53809 26.9501,23.75428 6.6878,-26.89417 z" fill="#84d2d4" />
            <path d="m 1322.2474,376.53809 31.558,-14.24417 1.4567,19.92619 z" fill="#3cbeb7" />
            <ellipse cx="1242.4924" cy="583.70557" rx="9.9745941" ry="34.363586" transform="rotate(350.41861)" />
            <ellipse cx="1196.0349" cy="667.08496" fill="#fff" rx="7.0775228" ry="18.772625" transform="rotate(345.32785)" />
            <ellipse cx="1132.4725" cy="784.08923" fill="#fff" rx="3.123132" ry="4.7347856" transform="rotate(341.03308)" />
          </g>
        </g>
        <path d="m 1313.9613,283.28184 c -8.4174,1.61275 -16.7175,0.61691 -25.3494,-4.76595 5.8956,8.60476 13.2455,12.13941 21.379,11.92421 m -0.2343,0.4371 c -10.0757,6.00706 -19.5631,6.91671 -31.4778,2.29953 8.4686,8.34846 17.4105,10.44139 26.5011,7.23258 m 1.2302,-8.09299 c -7.2667,14.21702 -16.1622,19.17642 -30.6796,18.88122 15.1846,5.97724 25.9713,1.96757 33.6447,-11.96701 18.4879,-33.57286 25.9561,-46.28947 34.3565,-45.27061 11.6907,1.41793 9.4762,71.51175 0.4891,121.76349 15.0171,-46.72616 22.2915,-127.68235 0.9227,-130.42821 -10.8284,-1.39143 -19.1564,8.71911 -38.7334,47.02112 z" />
      </g>
      <path d="m 1325.0381,462.72863 c 20.969,-14.34931 42.4134,-18.05309 66.1601,-8.94847 -22.6547,-0.70241 -41.6272,2.41383 -58.4167,15.01156 m -12.4938,-47.4252 c 6.2418,4.29324 11.7527,2.21583 13.1183,-4.80033 3.0277,12.10842 -5.8705,16.30242 -13.1183,4.80033 z" fill="#e9d461" />
      <path fill="#e9d461" inkscape:original-d="m 1343.8208,375.72341 c -12.7406,34.57196 -53.5356,19.69055 -47.8967,46.40708 7.2844,34.51196 90.088,119.24013 260.5464,47.93481" inkscape:path-effect="#path-effect1668" />
      <g>
        <path d="m 1522.8742,399.40316 c 12.931,5.88675 20.1151,13.73461 24.1755,29.00362 1.9325,-18.32332 -6.6722,-29.20129 -18.7456,-35.35532 z m 16.0775,-22.63525 c 14.1182,-2.20784 24.0565,1.00823 35.6153,11.80677 -5.5804,-14.66769 -19.4751,-22.22995 -34.3576,-19.54568 z m -7.5675,12.05524 c 13.9985,2.36081 24.0837,9.48851 31.6277,24.13028 -0.3588,-15.74169 -10.5806,-28.30749 -27.4157,-31.11733 z" />
        <g clip-path="url(#clipPath1759)">
          <path d="m 1443.1615,408.1845 c -15.1965,-19.42232 -22.3258,-48.33727 -20.1977,-75.00355 14.7551,-184.89094 119.4582,-38.91361 135.4289,-3.81534 -5.928,38.52892 -18.2509,71.99968 -43.5077,85.81773 -24.7099,-9.04904 -46.2358,-10.70826 -71.7235,-6.99884 z" fill="#fff" id="path930" />
          <g clip-path="url(#clipPath847)">
            <ellipse cx="1325.5291" cy="687.19562" fill="url(#linearGradient6174)" id="ellipse823" rx="27.605644" ry="58.230499" transform="rotate(346.73991)" />
            <path d="m 1447.6764,383.98744 41.2344,27.18884 10.4544,-35.07962 z" fill="#84d2d4" />
            <path d="m 1447.6764,383.98744 51.6035,-19.81944 -0.9173,25.91168 z" fill="#3cbeb7" />
            <ellipse cx="1315.6919" cy="699.92694" rx="17.358099" ry="40.992798" transform="rotate(346.53402)" />
            <ellipse cx="1184.5914" cy="905.61584" fill="#fff" rx="12.901333" ry="25.43181" transform="rotate(335.95227)" />
            <ellipse cx="1185.569" cy="913.66949" fill="#fff" rx="4.9552217" ry="6.6155972" transform="rotate(337.15147)" />
          </g>
        </g>
        <path d="m 1551.7029,319.39269 c 16.2113,-0.63888 31.0476,-5.79764 39.8519,-20.04709 -13.6082,9.34843 -29.9722,10.91339 -45.8875,8.99315 m 19.9995,28.59369 c 16.4677,1.87608 34.928,-3.80507 44.8618,-18.60105 -17.8613,10.56778 -40.6423,13.10476 -55.4511,5.33988 m -132.1137,9.50968 c 6.1391,-54.55471 26.5192,-85.9958 40.0858,-86.74144 47.1189,-2.58972 83.4412,74.81438 91.5125,87.11296 12.4243,18.93152 46.8496,27.32882 67.9117,9.38023 -23.3173,6.3199 -49.9639,0.39942 -59.5742,-15.80623 -41.7179,-70.34759 -69.7464,-92.11441 -100.411,-90.42905 -16.5405,0.90908 -42.7798,29.88508 -39.5248,96.48353 z" />
        <path d="m 1422.5117,414.48068 c 27.7113,-17.18986 74.3127,-13.79938 99.6147,4.3161 -30.8481,-11.7397 -65.89,-13.08586 -99.6147,-4.3161 z" fill="#e9d461" />
      </g>
      <path d="m 1582.6232,180.56232 c 7.7252,-73.08334 47.406,-117.575845 63.2495,-118.896138 15.8435,-1.320294 104.9352,121.143058 12.5436,230.080878 z" fill="#faf5ab" stroke="#e9d461" stroke-width="10" />
      <path d="m 1549.788,606.72122 c 40.5311,-12.58306 103.5549,8.05988 123.6099,50.38288 148.2724,-248.18899 88.3826,-551.36215 -121.8763,-610.625116 -364.7509,-102.807617 -412.6309,106.438766 -174.3132,167.409426 13.2338,-31.28436 43.8451,-60.22069 74.7058,-72.78152 110.7675,152.9463 137.4757,374.91377 97.8738,465.61433 z" fill="#f3b5cf" />
      <path d="m 1326.6696,197.12892 c -113.7503,-136.531346 17.0799,-205.3743633 125.2446,-56.02203 110.7675,152.9463 137.4757,374.91377 97.8738,465.61433 m 123.6099,50.38288 c 148.2724,-248.18899 88.3826,-551.36215 -121.8763,-610.625116 -364.7509,-102.807617 -412.6309,106.438766 -174.3132,167.409426 13.2338,-31.28436 43.8451,-60.22069 74.7058,-72.78152" fill="none" stroke="#e581b1" stroke-width="10" />
      <path d="m 1313.3349,24.369252 c 210.8675,27.53422 317.9642,408.858498 243.7031,558.784338 m -46.4643,-547.67491 c 139.4435,85.26932 229.8086,270.14707 204.8992,535.05395 m -278.4772,-547.988838 c 134.1766,122.061998 224.8029,482.474548 146.6449,604.222038" fill="none" stroke="#e581b1" stroke-width="5" />
    </g>
  </g>
</svg>