<?xml version="1.0" encoding="UTF-8" standalone="no"?>
<!-- Created with Inkscape (http://www.inkscape.org/) -->

<svg
   xmlns:dc="http://purl.org/dc/elements/1.1/"
   xmlns:cc="http://creativecommons.org/ns#"
   xmlns:rdf="http://www.w3.org/1999/02/22-rdf-syntax-ns#"
   xmlns:svg="http://www.w3.org/2000/svg"
   xmlns="http://www.w3.org/2000/svg"
   xmlns:xlink="http://www.w3.org/1999/xlink"
   xmlns:sodipodi="http://sodipodi.sourceforge.net/DTD/sodipodi-0.dtd"
   xmlns:inkscape="http://www.inkscape.org/namespaces/inkscape"
   id="svg2"
   version="1.1"
   inkscape:version="0.48.5 r"
   width="744.09448"
   height="1052.3622"
   sodipodi:docname="Starstroke Gaze.svg"
   inkscape:export-filename="/home/parclytaxel/Pictures/Starstroke Gaze.png"
   inkscape:export-xdpi="828.39105"
   inkscape:export-ydpi="828.39105">
  <metadata
     id="metadata8">
    <rdf:RDF>
      <cc:Work
         rdf:about="">
        <dc:format>image/svg+xml</dc:format>
        <dc:type
           rdf:resource="http://purl.org/dc/dcmitype/StillImage" />
        <dc:title></dc:title>
      </cc:Work>
    </rdf:RDF>
  </metadata>
  <defs
     id="defs6">
    <inkscape:path-effect
       effect="envelope"
       id="path-effect3912"
       is_visible="true"
       yy="false"
       xx="true"
       bendpath1="m -92.975383,34.004973 224.355273,0"
       bendpath2="M 182.4334,37.226167 C 83.662662,139.28541 60.107912,260.02461 77.474204,378.93059"
       bendpath3="m -92.975383,371.27052 224.355273,0"
       bendpath4="M 37.403181,40.555327 C -88.983304,132.96642 -128.88017,247.0992 -86.201672,377.92883"
       bendpath4-nodetypes="cc"
       bendpath2-nodetypes="cc" />
    <inkscape:path-effect
       effect="skeletal"
       id="path-effect4811"
       is_visible="true"
       pattern="m 204.57864,567.40115 c -17.0815,0 -33.25,1.5 -51,5 17.75,3 33.9185,5 51,5 l 310,0 0,-10 z"
       copytype="single_stretched"
       prop_scale="1"
       scale_y_rel="false"
       spacing="0"
       normal_offset="0"
       tang_offset="0"
       prop_units="false"
       vertical_pattern="false"
       fuse_tolerance="0"
       pattern-nodetypes="scsccs" />
    <inkscape:path-effect
       effect="skeletal"
       id="path-effect4779"
       is_visible="true"
       pattern="m 381.42641,640.93102 c -17.0815,0 -33.25,1.5 -51,5 17.75,3 33.9185,5 51,5 l 505,0 0,-10 z"
       copytype="single_stretched"
       prop_scale="1"
       scale_y_rel="false"
       spacing="0"
       normal_offset="0"
       tang_offset="0"
       prop_units="false"
       vertical_pattern="false"
       fuse_tolerance="0"
       pattern-nodetypes="scsccs" />
    <inkscape:path-effect
       effect="skeletal"
       id="path-effect4757"
       is_visible="true"
       pattern="m 271,0 c -17.0815,0 -33.25,1.5 -51,5 17.75,3 33.9185,5 51,5 l 260,0 0,-10 z"
       copytype="single_stretched"
       prop_scale="1"
       scale_y_rel="false"
       spacing="0"
       normal_offset="0"
       tang_offset="0"
       prop_units="false"
       vertical_pattern="false"
       fuse_tolerance="0"
       pattern-nodetypes="scsccs" />
    <inkscape:path-effect
       effect="skeletal"
       id="path-effect4725"
       is_visible="true"
       pattern="m 307.36753,661.54329 c -17.0815,0 -33.25,1.5 -51,5 17.75,3 33.02952,5 51,5 l 50,0 9,-10 z"
       copytype="single_stretched"
       prop_scale="1"
       scale_y_rel="false"
       spacing="0"
       normal_offset="0"
       tang_offset="0"
       prop_units="false"
       vertical_pattern="false"
       fuse_tolerance="0"
       pattern-nodetypes="scsccs" />
    <inkscape:path-effect
       effect="skeletal"
       id="path-effect4693"
       is_visible="true"
       pattern="m 169,664 c -17.0815,0 -33.25,1.5 -51,5 17.75,3 33.9185,5 51,5 l 320,0 c 17.08151,0 35.5,-1.5 51,-5 -15.5,-3.25 -33.91849,-5 -51,-5 z"
       copytype="single_stretched"
       prop_scale="1"
       scale_y_rel="false"
       spacing="0"
       normal_offset="0"
       tang_offset="0"
       prop_units="false"
       vertical_pattern="false"
       fuse_tolerance="0"
       pattern-nodetypes="scsscss" />
    <inkscape:path-effect
       effect="skeletal"
       id="path-effect4638"
       is_visible="true"
       pattern="m 409,-100 c -17.0815,0 -33.25,1.5 -51,5 17.75,3 33.9185,5 51,5 l 48,0 c 24.14797,0 45.29137,-1.000017 66.5,-1.000017 l 7.5,0 c 13.17089,0 27.32911,1.000017 40.5,1.000017 l 464.5,0 c 25.5815,0 89.75,-1.75 114,-5 -24.25,-3 -88.4185,-5 -114,-5 l -464.5,0 c -13.17088,0 -27.32911,0.999983 -40.5,0.999983 l -7.5,0 C 502.10203,-99.000017 481.39797,-100 457,-100 z"
       copytype="single_stretched"
       prop_scale="1"
       scale_y_rel="false"
       spacing="0"
       normal_offset="0"
       tang_offset="0"
       prop_units="false"
       vertical_pattern="false"
       fuse_tolerance="0"
       pattern-nodetypes="scsssssscssssss" />
    <inkscape:path-effect
       effect="skeletal"
       id="path-effect4607"
       is_visible="true"
       pattern="m 252.47875,-399.25126 c -17.0815,0 -33.25,1.5 -51,5 17.75,3 33.9185,5 51,5 l 240,0 c 17.08151,0 35.5,-1.5 51,-5 -15.5,-3.25 -33.91849,-5 -51,-5 z"
       copytype="single_stretched"
       prop_scale="1"
       scale_y_rel="false"
       spacing="0"
       normal_offset="0"
       tang_offset="0"
       prop_units="false"
       vertical_pattern="false"
       fuse_tolerance="0"
       pattern-nodetypes="scsscss" />
    <linearGradient
       inkscape:collect="always"
       id="linearGradient3865">
      <stop
         style="stop-color:#ac6510;stop-opacity:1"
         offset="0"
         id="stop3867" />
      <stop
         style="stop-color:#db7e11;stop-opacity:1"
         offset="1"
         id="stop3869" />
    </linearGradient>
    <clipPath
       clipPathUnits="userSpaceOnUse"
       id="clipPath3884">
      <use
         x="0"
         y="0"
         xlink:href="#path3836"
         id="use3886"
         width="1"
         height="1" />
    </clipPath>
    <linearGradient
       inkscape:collect="always"
       xlink:href="#linearGradient3865"
       id="linearGradient4461"
       gradientUnits="userSpaceOnUse"
       x1="458.57339"
       y1="359.65094"
       x2="447.34311"
       y2="442.98166" />
    <clipPath
       clipPathUnits="userSpaceOnUse"
       id="clipPath4494">
      <use
         x="0"
         y="0"
         xlink:href="#path3828"
         id="use4496"
         width="1"
         height="1" />
    </clipPath>
    <clipPath
       clipPathUnits="userSpaceOnUse"
       id="clipPath4562">
      <use
         x="0"
         y="0"
         xlink:href="#path3830"
         id="use4564"
         width="1"
         height="1" />
    </clipPath>
    <clipPath
       clipPathUnits="userSpaceOnUse"
       id="clipPath4665">
      <path
         style="font-size:medium;font-style:normal;font-variant:normal;font-weight:normal;font-stretch:normal;text-indent:0;text-align:start;text-decoration:none;line-height:normal;letter-spacing:normal;word-spacing:normal;text-transform:none;direction:ltr;block-progression:tb;writing-mode:lr-tb;text-anchor:start;baseline-shift:baseline;color:#000000;fill:none;stroke:#ff0000;stroke-width:1;stroke-miterlimit:4;stroke-dasharray:none;marker:none;visibility:visible;display:inline;overflow:visible;enable-background:accumulate;font-family:Sans;-inkscape-font-specification:Sans"
         d="m 558.0625,-24.03125 c -22.68074,-8.67002 -33.47509,-22.270591 -35.4375,-40.3125 L 515.8344,-45.005988 395,-94.000018 l -29.5,59 187.5,25 z m -20.1875,-111.6875 c -17.00032,26.83671 -25.45927,51.332738 -23.1875,72.21875 l 11.8125,-16.500018 71.5,9 23,-81.500002 -76.5,-14 z"
         id="path4667"
         inkscape:connector-curvature="0"
         sodipodi:nodetypes="cccc" />
    </clipPath>
    <clipPath
       clipPathUnits="userSpaceOnUse"
       id="clipPath4669">
      <path
         style="fill:none;stroke:#ff0000;stroke-width:1;stroke-miterlimit:4;stroke-dasharray:none"
         d="m 543.10546,-108.247 c -5.09277,-4.35082 -9.33501,-9.54945 -12.9033,-15.29782 -1.15127,-1.85465 -2.24272,-3.75918 -3.28082,-5.70165 l -35.59836,55.239983 31.82299,48.075098 c 18.74819,0.79676 37.45789,-0.358587 55.92957,-2.548754 z"
         id="path4671"
         inkscape:connector-curvature="0"
         sodipodi:nodetypes="csccccc" />
    </clipPath>
  </defs>
  <sodipodi:namedview
     pagecolor="#ffffff"
     bordercolor="#666666"
     borderopacity="1"
     objecttolerance="10"
     gridtolerance="10"
     guidetolerance="10"
     inkscape:pageopacity="0"
     inkscape:pageshadow="2"
     inkscape:window-width="1364"
     inkscape:window-height="698"
     id="namedview4"
     showgrid="true"
     inkscape:zoom="0.51313132"
     inkscape:cx="372.04724"
     inkscape:cy="526.18109"
     inkscape:window-x="0"
     inkscape:window-y="0"
     inkscape:window-maximized="1"
     inkscape:current-layer="layer2"
     inkscape:snap-nodes="true"
     inkscape:object-paths="false"
     inkscape:object-nodes="false"
     showguides="false"
     inkscape:guide-bbox="true"
     inkscape:snap-smooth-nodes="false">
    <inkscape:grid
       type="xygrid"
       id="grid4592"
       empspacing="5"
       visible="true"
       enabled="false"
       snapvisiblegridlinesonly="true"
       spacingx="10px"
       spacingy="10px" />
  </sodipodi:namedview>
  <g
     inkscape:groupmode="layer"
     id="layer2"
     inkscape:label="Drawing"
     transform="translate(0,584.3622)"
     style="display:inline">
    <path
       sodipodi:nodetypes="cccccccc"
       inkscape:connector-curvature="0"
       id="path4901-2"
       d="m 494.80979,-76.159265 c 3.11829,31.985042 12.90919,58.649919 33.89828,92.477642 -14.0186,1.047945 -28.05684,2.84399 -42.12475,5.153692 -6.06652,-10.823311 -10.31859,-20.3708754 -14.06291,-31.353251 -1.50372,10.8813166 -2.2617,21.298609 -2.27376,34.250104 -12.45509,2.361517 -24.9364,5.05343 -37.45085,7.913862 -3.65133,-44.599155 10.14051,-76.816805 17.15338,-107.429389 z"
       style="fill:#ebd730;fill-opacity:1;stroke:#c7b418;stroke-width:10;stroke-linecap:butt;stroke-linejoin:miter;stroke-miterlimit:20;stroke-opacity:1;stroke-dasharray:none;display:inline" />
    <path
       style="fill:#ebd730;fill-opacity:1;stroke:#c7b418;stroke-width:10;stroke-linecap:butt;stroke-linejoin:miter;stroke-miterlimit:20;stroke-opacity:1;stroke-dasharray:none"
       d="M 232.24264,536.53375 C 206.55635,339.24948 -85.539105,377.59768 -15,708.36218 c 11.6238263,-1.83459 23.3558556,-2.6778 35.028226,-2.45069 0.541028,-19.53552 3.692182,-38.99243 8.800174,-55.04692 2.375109,19.07723 6.989954,38.16723 15.161772,57.06271 11.669513,1.76182 23.158965,4.67954 34.29345,8.8354 2.07583,-19.38542 5.348083,-37.83395 10.5565,-54.84078 2.138177,21.60469 5.882256,43.07704 12.285048,65.43937 14.94413,8.40352 28.93001,19.40679 41.46062,33.24355 -40.86144,-213.16652 5.24264,-265.31371 69.24264,-206.31371 z"
       id="path4899"
       inkscape:connector-curvature="0"
       transform="translate(0,-584.3622)"
       sodipodi:nodetypes="ccccccccccc" />
    <path
       sodipodi:nodetypes="csscc"
       inkscape:connector-curvature="0"
       id="path4825"
       d="m 231.65538,64.562008 c -18.79978,41.526502 -3.6384,102.921362 0.90812,153.606952 2.70242,30.12719 96.64624,31.50313 97.60586,-3.71845 1.38049,-50.66916 -27.20712,-84.94768 -55.49139,-118.136865 z"
       style="fill:#e8b812;fill-opacity:1;stroke:#ddab00;stroke-width:10;stroke-miterlimit:4;stroke-opacity:1;stroke-dasharray:none" />
    <path
       sodipodi:nodetypes="csscc"
       inkscape:connector-curvature="0"
       id="path4823"
       d="m 371.74689,107.07067 c -18.79978,24.07534 -20.56864,82.69193 -15.09188,137.88465 8.20242,82.66087 91.0508,116.68033 94.95941,87.45669 1.61402,-12.06758 -27.34925,-27.98327 -22.37438,-201.25558 z"
       style="fill:#e8b812;fill-opacity:1;stroke:#ddab00;stroke-width:10;stroke-miterlimit:4;stroke-opacity:1;stroke-dasharray:none" />
    <path
       style="fill:#efc536;fill-opacity:1;stroke:none"
       d="m 597.68398,-116.69332 c -7.80172,29.11642 -45.13859,33.13888 -66.49795,1.09989 -18.60331,35.4841 -17.49291,70.06568 7.30246,84.20853 -31.2051,1.497787 -61.16788,-3.446424 -91.61989,-17.480219 45.41855,165.791399 -79.01039,201.914309 -153.31279,168.436379 -10.92869,28.40803 -27.54701,47.99712 -57.90728,51.32255 -2.47487,65.05382 19.30818,129.70754 18.37438,161.53406 -0.95962,32.70638 -94.75699,-8.22984 -97.45941,-36.99138 -4.94974,-52.67945 0.2921,-112.46056 19.09188,-146.27059 4.6973,-8.44775 12.06023,-11.94047 23.83809,-11.34754 -48.11567,-88.58419 -4.86351,-256.64812 113.23943,-181.61759 5.18967,-61.02086 0.97521,-134.64762 -1.26844,-193.615 -8.75744,-230.1621 317.71792,-236.44519 308.7175,-5.67544 -1.6965,43.49807 -10.10912,76.39847 -30.80419,107.07658 6.86042,3.31636 11.46985,7.51291 8.30621,19.31977 z"
       id="path3058"
       inkscape:connector-curvature="0"
       sodipodi:nodetypes="scccccsssccsscs" />
    <g
       id="g4498">
      <path
         transform="matrix(0.998516,-0.1613019,0.1613019,0.998516,-61.137812,-520.68922)"
         d="m 511.62328,401.4567 c 0,47.1822 -34.92676,85.43094 -78.0111,85.43094 -43.08434,0 -78.0111,-38.24874 -78.0111,-85.43094 0,-47.18221 34.92676,-85.43095 78.0111,-85.43095 43.08434,0 78.0111,38.24874 78.0111,85.43095 z"
         sodipodi:ry="85.430946"
         sodipodi:rx="78.011101"
         sodipodi:cy="401.4567"
         sodipodi:cx="433.61218"
         id="path3828"
         style="fill:#ffffff;stroke:none"
         sodipodi:type="arc" />
      <g
         clip-path="url(#clipPath4494)"
         id="g4484">
        <g
           id="g3875"
           clip-path="url(#clipPath3884)"
           transform="translate(0.35355342,3.535534)">
          <path
             transform="matrix(1.0982319,-0.41620282,0.41620282,1.0982319,-229.02902,-446.40745)"
             d="m 531.33652,402.86218 c 0,31.64727 -24.32729,57.30244 -54.33652,57.30244 -30.00923,0 -54.33652,-25.65517 -54.33652,-57.30244 0,-31.64726 24.32729,-57.30244 54.33652,-57.30244 30.00923,0 54.33652,25.65518 54.33652,57.30244 z"
             sodipodi:ry="57.302441"
             sodipodi:rx="54.336517"
             sodipodi:cy="402.86218"
             sodipodi:cx="477"
             id="path3836"
             style="fill:url(#linearGradient4461);fill-opacity:1;stroke:none"
             sodipodi:type="arc" />
          <path
             sodipodi:nodetypes="ccccc"
             inkscape:connector-curvature="0"
             id="path3863"
             d="m 395.55647,-168.36832 22.44402,31.09487 32.14195,-44.38491 -4.59264,-6.99517 z"
             style="fill:#f78e13;fill-opacity:1;fill-rule:evenodd;stroke:none" />
          <path
             sodipodi:nodetypes="ccccc"
             inkscape:connector-curvature="0"
             id="path3861"
             d="m 385.52819,-175.97965 60.54223,-16.57224 1.51461,5.98589 -52.46328,34.4707 z"
             style="fill:#e68412;fill-opacity:1;fill-rule:evenodd;stroke:none" />
          <path
             sodipodi:type="arc"
             style="fill:#000000;stroke:none"
             id="path3840"
             sodipodi:cx="477"
             sodipodi:cy="402.86218"
             sodipodi:rx="53.955269"
             sodipodi:ry="59.208679"
             d="m 530.95527,402.86218 c 0,32.70005 -24.1566,59.20868 -53.95527,59.20868 -29.79867,0 -53.95527,-26.50863 -53.95527,-59.20868 0,-32.70005 24.1566,-59.20868 53.95527,-59.20868 29.79867,0 53.95527,26.50863 53.95527,59.20868 z"
             transform="matrix(0.89972904,-0.23336139,0.23336139,0.89972904,-54.683268,-455.6536)" />
          <path
             transform="matrix(0.92741989,-0.33935857,0.33935857,0.92741989,-105.72797,-417.90273)"
             d="m 468.69147,373.61218 c 0,16.34851 -10.04739,29.60159 -22.44147,29.60159 -12.39408,0 -22.44147,-13.25308 -22.44147,-29.60159 0,-16.3485 10.04739,-29.60159 22.44147,-29.60159 12.39408,0 22.44147,13.25309 22.44147,29.60159 z"
             sodipodi:ry="29.601589"
             sodipodi:rx="22.441475"
             sodipodi:cy="373.61218"
             sodipodi:cx="446.25"
             id="path3842"
             style="fill:#ffffff;stroke:none"
             sodipodi:type="arc" />
          <path
             sodipodi:type="arc"
             style="fill:#ffffff;stroke:none"
             id="path3844"
             sodipodi:cx="446.25"
             sodipodi:cy="373.61218"
             sodipodi:rx="18.715094"
             sodipodi:ry="23.055386"
             d="m 464.96509,373.61218 c 0,12.73314 -8.37903,23.05539 -18.71509,23.05539 -10.33606,0 -18.71509,-10.32225 -18.71509,-23.05539 0,-12.73314 8.37903,-23.05538 18.71509,-23.05538 10.33606,0 18.71509,10.32224 18.71509,23.05538 z"
             transform="matrix(0.13854988,-0.49547693,0.49547693,0.13854988,225.38597,-22.538901)" />
          <path
             transform="matrix(0.27828019,0.05877421,-0.05877421,0.27828019,345.64569,-308.62074)"
             d="m 464.78722,373.61218 c 0,13.44013 -8.2994,24.3355 -18.53722,24.3355 -10.23782,0 -18.53722,-10.89537 -18.53722,-24.3355 0,-13.44012 8.2994,-24.3355 18.53722,-24.3355 10.23782,0 18.53722,10.89538 18.53722,24.3355 z"
             sodipodi:ry="24.335501"
             sodipodi:rx="18.53722"
             sodipodi:cy="373.61218"
             sodipodi:cx="446.25"
             id="path3846"
             style="fill:#ffffff;stroke:none"
             sodipodi:type="arc" />
        </g>
      </g>
      <path
         d="m 366.43371,-231.96669 c -14.63202,-5.6677 -24.2175,-15.28848 -26.00497,-30.93449 5.94651,12.56539 17.05291,20.06595 28.98766,24.35817 z m -6.22115,12.45787 c -15.16116,-4.04432 -25.73527,-12.74343 -29.21216,-28.10258 7.27661,11.84492 19.13223,18.27105 31.46267,21.24106 z m -1.68242,13.31561 c -17.87619,-2.32251 -29.55273,-9.91902 -34.87764,-24.73911 8.30717,10.11143 19.15912,14.98477 30.60853,16.48063 44.31173,-128.50392 206.97751,-47.251 152.88247,65.85505 34.08906,-125.15739 -113.63858,-172.88809 -148.61336,-57.59657 z"
         style="fill:#000000;stroke:none"
         id="path4479"
         inkscape:connector-curvature="0"
         sodipodi:nodetypes="ccccccccccccc" />
    </g>
    <path
       style="fill:#ddab00;fill-opacity:1;stroke:none"
       d="m 309.93097,493.50069 c -0.25442,13.16881 -0.41015,25.95182 -0.60985,38.88333 -0.19971,12.9315 -0.43239,26.0089 -1.02823,39.85684 3.79921,-13.29939 6.53945,-26.29283 8.4391,-39.27434 1.89965,-12.98151 2.94843,-25.95354 3.20768,-39.27173 0.21181,-10.88155 0.22225,-21.7526 0.14091,-32.59068 -0.27202,-38.22651 -2.1723,-76.32847 -3.61974,-114.34625 -0.93387,-25.14545 2.11838,-50.51728 10.81123,-73.86093 7.33127,-19.73835 18.72829,-38.00077 33.5431,-52.85879 13.81326,-13.87655 30.56305,-24.84397 48.73958,-32.24798 17.87015,-7.27914 37.1373,-11.16516 56.4537,-11.53024 19.18546,-0.3575 38.45527,2.75493 56.40544,9.39825 18.07019,6.68667 34.82406,17.0077 48.6191,30.37134 10e-6,1e-5 2e-5,2e-5 2e-5,3e-5 14.805,14.31096 26.15814,32.18233 33.42698,51.54599 1e-5,10e-6 1e-5,2e-5 2e-5,4e-5 8.72751,23.18576 11.67625,48.46188 10.72575,73.50206 0,10e-6 0,3e-5 0,4e-5 -0.77314,19.41944 -2.90873,38.7369 -8.05023,57.17485 -4.64141,16.7088 -11.91501,32.68908 -21.52808,47.104 l 8.32062,5.54684 c 10.20735,-15.317 17.9191,-32.25397 22.84255,-49.97407 5.39232,-19.47872 7.64702,-39.55852 8.40754,-59.4619 0,-1e-5 0,-3e-5 0,-4e-5 1.04388,-26.09559 -2.11455,-52.67197 -11.3548,-77.40285 -10e-6,-1e-5 -10e-6,-3e-5 -10e-6,-4e-5 -7.74938,-20.68704 -19.90539,-39.78323 -35.83559,-55.22043 0,0 -10e-6,-1e-5 -10e-6,-1e-5 -14.8583,-14.36952 -32.77435,-25.42182 -52.10566,-32.56516 -19.17924,-7.08608 -39.66787,-10.40481 -60.06188,-10.01717 -20.532,0.38513 -40.99339,4.51664 -60.03639,12.26671 -19.38874,7.89071 -37.24318,19.59299 -52.05357,34.45256 -15.87387,15.95127 -28.0343,35.40628 -35.83334,56.43656 -10e-6,10e-6 -10e-6,2e-5 -2e-5,3e-5 -9.19113,24.84477 -12.44924,51.50314 -11.42881,77.72053 1.44864,38.09674 3.34659,76.09551 3.61275,114.03668 0.0714,10.78363 0.058,21.56643 -0.14986,32.32593 z"
       id="path4572"
       inkscape:connector-curvature="0"
       transform="translate(0,-584.3622)"
       sodipodi:nodetypes="cssc"
       inkscape:path-effect="#path-effect4779"
       inkscape:original-d="m 308.29289,572.24086 c 11.22184,-65.53301 5.8218,-155.63982 3.17157,-225.29289 -8.75743,-230.1621 317.71792,-236.44519 308.7175,-5.67544 -1.6965,43.49807 -10.10912,76.39847 -30.4142,106.85741" />
    <path
       style="fill:#ddab00;fill-opacity:1;stroke:none"
       d="m 273.10213,101.21892 c -6.14923,-5.036159 -11.58178,-10.542474 -16.18771,-16.774314 -3.60807,-4.847412 -6.68368,-10.195582 -9.14003,-16.031814 -2.45635,-5.836233 -4.29817,-12.163591 -5.23676,-19.020022 -1.04556,6.818757 -0.89577,13.747208 0.34639,20.457929 1.24217,6.710722 3.57909,13.209182 6.95723,19.194131 4.30422,7.585062 10.06778,14.28742 16.90808,19.91353 4.16883,3.42884 8.61445,6.50015 13.23122,9.21098 13.02199,7.67296 27.42208,12.74234 42.15981,15.43971 15.27775,2.81206 31.04452,3.10732 46.43345,0.64989 0,0 1e-5,0 1e-5,0 15.40215,-2.44982 30.45722,-7.78574 43.752,-16.23149 13.85287,-8.82901 25.44306,-21.065929 33.53597,-35.351684 9.64465,-17.127435 14.30104,-36.5291 15.42434,-55.79146 1.54432,-26.21154103 -2.71916,-52.290541 -9.57184,-77.223684 l -9.6456,2.638616 c 6.60816,24.273727 10.75954,49.2727031 9.23554,73.983612 -1.12673,18.07977 -5.35646,36.039527 -14.14433,51.465735 -7.27339,12.852665 -17.75353,23.920405 -30.20583,31.844155 -11.98102,7.65145 -25.77212,12.50746 -39.96006,14.79177 0,10e-6 -10e-6,10e-6 -10e-6,10e-6 -14.20728,2.27767 -28.84487,1.99546 -43.04591,-0.61072 -13.6992,-2.52936 -27.00736,-7.19082 -38.88402,-14.21596 -4.19175,-2.48899 -8.21428,-5.26962 -11.96194,-8.33892 z"
       id="path4574"
       inkscape:connector-curvature="0"
       sodipodi:nodetypes="cc"
       inkscape:path-effect="#path-effect4757"
       inkscape:original-d="M 242.53763,49.39277 C 240.41631,161.11564 510.5311,183.61806 446.89149,-49.02007" />
    <path
       style="fill:#ddab00;fill-opacity:1;stroke:none"
       d="m 183.50431,697.5919 c 0.48824,1.57603 1.01262,3.13176 1.57383,4.6677 2.3494,6.44302 5.3655,12.55766 9.13489,18.27298 3.7694,5.71531 8.2933,11.03909 13.67637,15.75287 -3.03896,-6.42754 -5.40532,-12.67123 -7.53196,-18.82849 -2.12663,-6.15726 -4.01088,-12.23164 -5.92932,-18.3943 -0.45659,-1.47028 -0.91388,-2.94592 -1.37418,-4.43041 -3.59408,-11.5912 -5.88851,-23.61682 -7.07131,-35.76314 -2.58403,-26.9645 -0.0815,-54.59254 9.44102,-79.65844 4.19828,-11.0263 9.74863,-21.49691 17.2015,-30.27658 6.75716,-7.9501 15.12271,-14.55124 24.58005,-18.24997 4.79206,-1.89895 9.88048,-3.1003 15.03915,-3.599 5.6495,-0.55217 11.42853,-0.24818 17.13223,0.70572 14.45543,2.37741 28.22252,8.97209 41.05856,17.05077 l 5.35342,-8.44636 c -13.48216,-8.60219 -28.48017,-15.66848 -44.75133,-18.46556 -6.46567,-1.09547 -13.11808,-1.43036 -19.75238,-0.79843 -6.06828,0.58352 -12.06333,2.00332 -17.75905,4.25436 0,0 0,0 0,0 -11.24208,4.492 -20.92714,12.04111 -28.53859,21.09387 -8.33379,9.90118 -14.45562,21.34325 -18.91594,33.19099 -10.11058,26.80029 -12.8134,55.93028 -10.0419,84.16433 1.23377,12.76088 3.66274,25.45115 7.47494,37.75709 z"
       id="path4675"
       inkscape:connector-curvature="0"
       transform="translate(0,-584.3622)"
       sodipodi:nodetypes="cc"
       inkscape:path-effect="#path-effect4811"
       inkscape:original-d="M 207.8894,736.28545 C 146.85128,652.79654 188.14153,461.41036 313.11185,540.61843" />
    <path
       style="fill:#ddab00;fill-opacity:1;stroke:none"
       d="m 289.25,702.36218 c -14,34.5 -31.75,46.75 -68,54 37.25,6.25 61.75,-12.25 77.25,-50.25 z"
       id="path4821"
       inkscape:connector-curvature="0"
       transform="translate(0,-584.3622)"
       sodipodi:nodetypes="cccc" />
    <path
       style="fill:none;stroke:#ddab00;stroke-width:10;stroke-miterlimit:4;stroke-opacity:1;stroke-dasharray:none"
       d="m 199.80383,721.94383 c -12.08822,-0.3562 -19.45115,3.13652 -24.14845,11.58427 -18.79978,33.81003 -24.04162,93.59114 -19.09188,146.27059 2.70242,28.76154 96.49979,69.69776 97.45941,36.99138 0.9338,-31.82652 -20.84925,-96.48024 -18.37438,-161.53406"
       id="path4765"
       inkscape:connector-curvature="0"
       transform="translate(0,-584.3622)"
       sodipodi:nodetypes="csssc" />
    <g
       id="g4739">
      <path
         style="fill:#efc536;fill-opacity:1;stroke:none"
         d="m 338.75,638.11218 c -37.13594,65.40717 -28.9557,105.81501 13.98615,110.51908 -10.65323,7.15915 -22.96429,12.26339 -37.73615,17.23092 -25.78916,8.67246 -19.7655,125.76771 21,109.5 70.15789,-27.99691 99,-118.5 99.5,-172.5 0.25424,-27.45791 -18.42638,-20.50152 -43.18612,-15.85299 2.2517,-13.77236 4.90335,-27.97515 9.49955,-39.99597 z"
         id="path4737"
         inkscape:connector-curvature="0"
         transform="translate(0,-584.3622)"
         sodipodi:nodetypes="ccsssccc" />
      <path
         inkscape:original-d="m 378,723.36218 c -15.5,23 -34.75,33 -63,42.5 -25.78916,8.67246 -19.7655,125.76771 21,109.5 70.15789,-27.99691 99,-118.5 99.5,-172.5 0.33909,-36.6217 -33.00431,-12.02513 -69,-13.79289"
         inkscape:path-effect="#path-effect4693"
         sodipodi:nodetypes="csssc"
         transform="translate(0,-584.3622)"
         inkscape:connector-curvature="0"
         id="path4677"
         d="m 332.29964,764.85541 c 7.53611,-3.07347 14.71387,-6.81188 21.29522,-11.55608 10.51081,-7.62168 18.87886,-17.89261 24.40514,-29.93715 -4.41746,4.90741 -9.0925,9.20363 -13.93241,12.97941 -4.83992,3.77578 -9.8459,7.03294 -15.02607,9.82418 -6.54852,3.56144 -13.36647,6.51924 -20.51294,9.41696 -4.93294,2.00018 -10.00252,3.80627 -15.1223,5.54024 -2.55255,0.90409 -4.69046,2.32048 -6.36081,3.99888 -1.94043,1.92843 -3.43433,4.04991 -4.58952,6.17307 -10e-6,10e-6 -10e-6,10e-6 -10e-6,2e-5 -2.94895,5.39245 -4.6061,11.111 -5.68716,16.62806 0,0 0,0 0,10e-6 -1.3808,6.83173 -2.02542,13.72554 -2.20426,20.55065 -0.19995,7.37322 0.13914,14.75969 1.01266,22.08319 0.83564,7.05521 2.18174,14.12466 4.27994,21.04834 0,0 0,10e-6 10e-6,2e-5 1.78196,5.96157 4.22388,11.97733 7.87915,17.5071 1.54922,2.34077 3.4005,4.60333 5.61945,6.63271 0,0 1e-5,1e-5 1e-5,1e-5 2.00412,1.83916 4.37207,3.42164 7.06803,4.55839 1e-5,0 2e-5,0 3e-5,1e-5 2.66977,1.10122 5.5335,1.64563 8.41343,1.60458 3.22372,-0.0739 6.26946,-0.78252 9.01594,-1.90194 17.85414,-7.14924 33.75109,-18.53576 46.84959,-32.37424 13.02317,-13.75746 23.44987,-29.7147 31.66246,-46.57569 0,-10e-6 10e-6,-2e-5 10e-6,-2e-5 7.97236,-16.34334 13.97607,-33.59877 18.11102,-51.25579 0,-10e-6 0,-2e-5 0,-2e-5 3.59353,-15.29359 5.86772,-31.0194 6.02354,-46.89184 0,0 0,-10e-6 0,-2e-5 0.0847,-3.97216 -0.2446,-8.29661 -1.64966,-12.66855 -0.98132,-3.13825 -2.88753,-6.22027 -5.82995,-8.65983 -1.31419,-0.98873 -2.69305,-1.76378 -4.09236,-2.34886 -1.61881,-0.67686 -3.27529,-1.0967 -4.8947,-1.28975 -3.49655,-0.45613 -6.84056,-0.26976 -9.91277,0.16835 0,0 0,0 0,0 -7.86266,1.07313 -15.20577,3.31726 -22.23118,5.26447 -4.34911,1.19227 -8.63895,2.34706 -12.86681,3.33104 -4.22785,0.98398 -8.39463,1.79534 -12.52236,2.36397 4.05485,0.91538 8.40373,1.41926 12.8918,1.56998 4.48806,0.15072 9.11372,-0.0502 13.72979,-0.47479 7.54511,-0.68114 14.96281,-2.03235 22.00658,-2.50756 0,0 0,0 0,0 2.73222,-0.1649 5.25068,-0.24638 7.45518,0.14011 0.94543,0.18603 1.83026,0.40513 2.59077,0.6929 0.65739,0.24875 1.22316,0.55475 1.65309,0.94171 1.08377,0.73611 1.89348,2.25941 2.54046,3.98364 0.95984,2.69028 1.11678,5.92542 1.13254,9.40061 -0.12976,14.97003 -2.31616,29.96615 -5.76017,44.70274 -1e-5,10e-6 -1e-5,2e-5 -1e-5,2e-5 -3.9809,16.97446 -9.73488,33.52859 -17.36184,49.15191 -7.8714,16.09887 -17.72131,31.22449 -29.93211,44.08082 -12.23826,12.88374 -26.95177,23.4678 -43.29925,29.96691 -1.86143,0.71939 -3.7213,1.19096 -5.45829,1.19082 -1.51225,0.0243 -3.05177,-0.26718 -4.44082,-0.84568 0,0 -1e-5,-1e-5 -1e-5,-1e-5 -1.45079,-0.57936 -2.85436,-1.55122 -4.1749,-2.72656 0,0 0,-10e-6 -1e-5,-10e-6 -1.47908,-1.32368 -2.79743,-2.96817 -4.02068,-4.77854 -2.93439,-4.33677 -4.95897,-9.47049 -6.62711,-14.86097 -1.90005,-6.23197 -3.12557,-12.72686 -3.91819,-19.3247 -0.81568,-6.84059 -1.13253,-13.742 -0.94597,-20.62802 0.17935,-6.38852 0.75854,-12.70937 2.00796,-18.83181 0,0 1e-5,-1e-5 1e-5,-1e-5 1.05535,-5.00505 2.35921,-9.7672 4.62727,-13.75887 0,-10e-6 0,-10e-6 0,-2e-5 0.87547,-1.5295 1.78438,-2.88533 2.83455,-3.87612 0.87379,-0.80503 1.74578,-1.44726 2.56308,-1.6764 5.23991,-1.74982 10.50404,-3.62448 15.70592,-5.74598 z"
         style="fill:#ddab00;fill-opacity:1;stroke:none" />
      <path
         inkscape:original-d="m 338.75,638.11218 c -38.75,68.25 -28.15901,109.28033 19.84099,110.78033"
         inkscape:path-effect="#path-effect4725"
         sodipodi:nodetypes="cc"
         transform="translate(0,-584.3622)"
         inkscape:connector-curvature="0"
         id="path4673"
         d="m 320.5942,700.02188 c 0.60285,-4.92957 1.59729,-9.8611 2.72355,-14.76188 1.82909,-7.75926 4.12523,-15.40307 6.73756,-23.19013 2.61233,-7.78707 5.54739,-15.71892 8.69469,-23.95769 -5.34709,7.08537 -10.11892,14.09161 -14.2466,21.4056 -4.12768,7.314 -7.62538,14.93446 -10.27167,23.24174 -1.6264,5.01371 -2.93556,10.38024 -3.59088,16.0843 -0.77948,6.78465 -0.73802,13.73796 0.59593,20.67252 0,10e-6 0,10e-6 0,10e-6 0.97736,4.95315 2.77136,9.84026 5.5176,14.29852 0,0 0,0 0,0 2.63519,4.23441 6.09315,7.90387 10.12134,10.79478 5.8617,4.09826 12.43275,6.59041 19.12898,7.94892 4.79328,-2.44528 8.99069,-5.4893 12.74246,-8.66362 -9.54535,-0.41185 -19.05079,-2.21372 -26.03965,-7.40874 -2.97509,-2.13673 -5.54514,-4.85672 -7.4576,-7.94638 0,0 0,0 0,0 -2.04339,-3.25552 -3.40092,-7.03944 -4.2082,-10.98898 0,0 0,0 0,0 -1.18707,-5.64162 -1.17905,-11.54707 -0.44751,-17.52897 z"
         style="fill:#ddab00;fill-opacity:1;stroke:none" />
      <path
         sodipodi:nodetypes="cccc"
         transform="translate(0,-584.3622)"
         inkscape:connector-curvature="0"
         id="path4733"
         d="m 387.61063,687.67186 8.66206,-0.35356 c 0.24412,-12.25063 2.22728,-26.42317 5.54074,-40.30508 -6.83922,12.11193 -11.06525,25.07187 -14.2028,40.65864 z"
         style="fill:#ddab00;fill-opacity:1;fill-rule:evenodd;stroke:none" />
    </g>
    <g
       id="g4566">
      <path
         transform="matrix(0.97839239,0.17934291,-0.17934291,0.97839239,82.782103,-685.61467)"
         d="m 613.45806,387.32776 c 0,38.41635 -12.02723,69.55895 -26.86358,69.55895 -14.83634,0 -26.86358,-31.1426 -26.86358,-69.55895 0,-38.41635 12.02724,-69.55895 26.86358,-69.55895 14.83635,0 26.86358,31.1426 26.86358,69.55895 z"
         sodipodi:ry="69.558952"
         sodipodi:rx="26.863581"
         sodipodi:cy="387.32776"
         sodipodi:cx="586.59448"
         id="path3830"
         style="fill:#ffffff;stroke:none"
         sodipodi:type="arc" />
      <g
         clip-path="url(#clipPath4562)"
         id="g4557">
        <use
           x="0"
           y="0"
           xlink:href="#g3875"
           id="use4463"
           transform="matrix(0.34087819,0.08928563,-0.14029908,0.81850723,412.83288,-86.436796)"
           width="744.09448"
           height="1052.3622" />
      </g>
      <path
         sodipodi:nodetypes="cccccccccccscsc"
         inkscape:connector-curvature="0"
         d="m 616.94676,-231.53953 c 7.70489,-1.50856 13.61601,-5.86726 14.32482,-14.35882 -3.53752,5.4576 -8.09906,8.02783 -14.8563,8.90362 z m 0.75147,10.90234 c 6.85369,-0.63289 13.57907,-4.57747 15.49907,-13.0826 -4.16741,5.31807 -9.18045,7.14468 -15.56261,7.60194 z m -2.38676,11.93646 c 9.4937,-0.44967 16.77757,-4.406 19.11065,-13.02456 -3.65697,4.0435 -8.5395,6.42964 -13.90908,6.54743 0.34237,-38.89754 -9.35331,-57.41184 -21.26777,-58.74044 -23.00671,-2.56551 -53.49409,64.67705 -38.60049,120.93832 -6.20807,-59.31482 19.66294,-114.34794 37.23881,-113.52962 10.50744,0.48923 18.76497,17.90209 17.42788,57.80887 z"
         style="fill:#000000;stroke:none"
         id="path4554" />
    </g>
    <g
       id="g4887">
      <path
         style="fill:#ad047a;fill-opacity:1;fill-rule:evenodd;stroke:none;display:inline"
         d="m 578.87782,-109.88824 c -22.98098,20.15254 -40.12311,52.15433 -45.07286,78.67083 -96.52008,-47.7297 -9.37437,-122.51146 45.07286,-78.67083 z"
         id="path4845"
         inkscape:connector-curvature="0"
         sodipodi:nodetypes="ccc" />
      <path
         style="fill:#ff6600;fill-opacity:1;fill-rule:evenodd;stroke:none;display:inline"
         d="m 510.01333,-71.23265 c 16.43503,4.63173 24.88782,20.55635 22.02386,38.35839 -19.3094,-3.8462 -26.30939,-21.90864 -22.02386,-38.35839 z"
         id="path4847"
         inkscape:connector-curvature="0"
         sodipodi:nodetypes="ccc" />
      <path
         style="fill:#efc536;fill-opacity:1;stroke:none"
         d="m 560.64478,-152.97998 c 13.78023,21.01485 43.94874,10.4999 37.0392,36.28666 -7.80172,29.11642 -45.13859,33.13888 -66.49795,1.09989 -18.60331,35.4841 -17.49291,70.06568 7.30246,84.20853 -48.35748,2.32107 -93.73156,-10.82809 -142.65138,-48.72373 70.75531,-13.223837 117.35755,-34.71505 164.80767,-72.87135 z"
         id="path4837"
         inkscape:connector-curvature="0"
         sodipodi:nodetypes="cscccc" />
      <path
         clip-path="url(#clipPath4665)"
         inkscape:original-d="m 560.64478,-152.97998 c 13.78023,21.01485 43.94874,10.4999 37.0392,36.28666 -8.20264,30.612676 -53.94552,39.096104 -79.5482,-21.72854 -30.94784,-73.52324 105.26107,-100.49213 127.77516,-16.46838 10.42268,38.89797 -12.72025,114.977347 -67.42245,121.44468 -80.86467,9.560469 -129.13537,-5.585449 -182.65138,-46.66307"
         inkscape:path-effect="#path-effect4638"
         sodipodi:nodetypes="cssssc"
         inkscape:connector-curvature="0"
         id="path4590"
         d="m 602.79367,-129.25227 c -0.4605,-1.3415 -1.11206,-2.65068 -1.95898,-3.88554 -1.66231,-2.24772 -3.66124,-3.87159 -5.69151,-4.97243 -2.2612,-1.25568 -4.49877,-2.09239 -6.60249,-2.73439 -4.88576,-1.53383 -9.5495,-2.40776 -13.9596,-3.90393 -2.42816,-0.81885 -4.85556,-1.85476 -7.20683,-3.1912 -2.35127,-1.33644 -4.62717,-2.97275 -6.72948,-5.04022 2.26541,5.40655 6.3958,10.04116 11.3093,13.38961 4.40101,3.00096 9.13094,5.05443 13.389,7.08451 1.81009,0.88301 3.46304,1.70328 4.80403,2.6493 1.1238,0.82672 2.05745,1.6065 2.52165,2.41776 0.2711,0.37352 0.48266,0.83856 0.64831,1.36431 0.16433,0.52159 0.27515,1.10354 0.34268,1.70767 0.21342,1.84738 -0.2197,4.01256 -0.8054,6.3794 0,0 0,0 0,1e-5 -1.65862,6.11181 -5.31969,11.77291 -10.35546,15.29096 -2.2816,1.64297 -4.89827,2.859197 -7.66108,3.626724 -3.26437,0.906868 -6.64391,1.202749 -9.88662,0.917287 0,0 0,0 0,0 -4.03347,-0.301361 -7.92709,-1.522324 -11.59873,-3.306901 -3.67164,-1.78457 -7.1204,-4.13666 -10.247,-6.78766 -5.09277,-4.35082 -9.33501,-9.54945 -12.9033,-15.29782 -1.15127,-1.85465 -2.24272,-3.75918 -3.28082,-5.70165 -1.82279,-3.41077 -3.4237,-7.07574 -4.85996,-10.82778 0,0 0,0 0,0 -1.34605,-3.63187 -2.34897,-7.40325 -2.92767,-11.11923 -0.5787,-3.71597 -0.73274,-7.37136 -0.45153,-10.8633 0.0296,-0.3679 0.0653,-0.73499 0.10724,-1.10116 0.65531,-6.33192 3.18717,-12.52665 7.0719,-17.64782 3.98781,-5.30613 9.47009,-9.59576 15.53554,-12.88818 0,0 1e-5,0 1e-5,-1e-5 6.57659,-3.5512 13.88217,-5.86212 21.39007,-7.10856 0,0 0,0 0,0 7.89709,-1.29963 16.0064,-1.38037 23.92803,-0.23866 8.05977,1.16842 15.92757,3.59991 23.05084,7.36126 0,0 0,1e-5 0,1e-5 7.30737,3.85285 13.87137,9.13726 19.04112,15.51095 5.77627,7.07672 9.85507,15.59885 12.27438,24.57281 2.8116,10.30561 2.73631,21.48496 1.42165,32.57333 -1.56593,12.74952 -5.0786,25.270892 -10.42645,36.932488 0,6e-6 0,1.2e-5 -10e-6,1.8e-5 -5.36105,11.61633 -12.50768,22.406842 -21.83793,30.67896 -9.0758,8.068214 -20.46786,13.640372 -32.33713,15.000367 -18.10359,2.134054 -36.27916,3.269405 -54.32718,2.488764 -11.5443,-0.499065 -23.0404,-1.797529 -34.29898,-4.090248 -3.12184,-0.635737 -6.89385,-1.448488 -11.10201,-2.506028 -5.86835,-1.470623 -12.58924,-3.438296 -19.5945,-5.928828 -7.00527,-2.490531 -14.29123,-5.504729 -21.33553,-8.835126 -8.42299,-3.980454 -16.51089,-8.396201 -23.61495,-12.477192 -7.10406,-4.080992 -13.2317,-7.80786 -17.79118,-10.348995 3.66907,3.701167 9.03475,8.518198 15.5749,13.632004 6.54016,5.113806 14.26689,10.505907 22.55494,15.384333 6.94148,4.083814 14.27285,7.774356 21.4243,10.820704 7.15145,3.046348 14.11794,5.448754 20.25287,7.20218 4.39775,1.253989 8.35401,2.183478 11.63595,2.852141 11.83598,2.411466 23.85439,3.77514 35.8659,4.285879 18.74819,0.79676 37.45789,-0.358587 55.92957,-2.548754 14.13342,-1.714251 27.35267,-8.108905 37.81874,-17.467854 10.565,-9.47018 18.52308,-21.359207 24.2723,-33.974503 5.784,-12.617081 9.57517,-26.12178 11.26195,-39.88248 1.50379,-11.88245 1.49031,-24.33047 -1.68796,-36.37936 -2.7185,-10.20063 -7.43017,-19.96222 -14.173,-28.29115 -6.07527,-7.46411 -13.67275,-13.5956 -22.14158,-18.05217 -8.2269,-4.32368 -17.17266,-7.10517 -26.28472,-8.41127 -8.93966,-1.28806 -18.06561,-1.19718 -26.97794,0.2691 -10e-6,0 -2e-5,0 -2e-5,1e-5 -8.47344,1.3832 -16.81694,4.04766 -24.50382,8.16921 0,1e-5 -10e-6,1e-5 -2e-5,1e-5 -7.13296,3.80743 -13.69134,9.01745 -18.76382,15.64935 -4.97045,6.54664 -8.16184,14.40516 -9.05052,22.63922 -0.0468,0.47115 -0.0866,0.94201 -0.11956,1.41247 -0.31242,4.46543 0.10864,9.00666 1.09476,13.40266 0.98611,4.39599 2.532,8.6478 4.38983,12.62744 0,0 0,0 0,0 1.76701,3.85804 3.66954,7.65439 5.63286,11.31358 1.11813,2.08395 2.30363,4.13753 3.56295,6.14881 3.9347,6.28414 8.41645,12.16514 13.91449,17.43082 3.42126,3.295139 7.34585,6.285361 11.77918,8.658618 4.43333,2.373257 9.37896,4.133546 14.81885,4.833862 0,0 10e-6,0 10e-6,0 4.44185,0.526315 9.08155,0.210204 13.61135,-1.063499 3.81724,-1.073346 7.46695,-2.77957 10.76018,-5.096715 7.08405,-5.091314 12.03449,-12.607166 14.22358,-20.855246 0,0 0,0 0,0 0.82874,-2.91192 1.36324,-6.22474 1.10954,-9.82234 -0.0996,-1.34352 -0.37263,-2.69981 -0.82948,-4.0307 z"
         style="fill:#ddab00;fill-opacity:1;stroke:none" />
      <path
         sodipodi:nodetypes="ccc"
         inkscape:connector-curvature="0"
         id="path4624"
         d="m 561.25,-128.00002 c 0.75,5.875 4.375,7.75 10.25,5.625 -6.125,8.625 -14,4.75 -10.25,-5.625 z"
         style="fill:#ddab00;fill-opacity:1;fill-rule:evenodd;stroke:none" />
      <path
         clip-path="url(#clipPath4669)"
         sodipodi:nodetypes="cc"
         inkscape:connector-curvature="0"
         id="path4588"
         d="m 541.24669,-133.59343 c -33.45255,52.808216 -31.89976,95.222534 15.38394,113.297365"
         style="fill:none;stroke:#ddab00;stroke-width:8;stroke-linecap:butt;stroke-linejoin:miter;stroke-miterlimit:4;stroke-opacity:1;stroke-dasharray:none" />
    </g>
    <path
       style="fill:#ebd730;fill-opacity:1;stroke:#c7b418;stroke-width:10;stroke-miterlimit:20;stroke-opacity:1;stroke-dasharray:none"
       d="m 370.86702,-343.00002 c 34.68049,-2.3053 42.95644,21.47744 24.65304,65.75736 14.92868,-0.70845 29.96739,-0.97976 44.98355,-0.7983 8.06731,-15.2414 12.59096,-30.78315 16.13055,-49.76636 5.49939,15.56291 8.33992,31.72442 9.32056,50.5124 17.90951,0.83743 35.67898,2.33745 53.08041,4.52691 8.66473,-20.57539 13.73743,-42.08532 17.49813,-64.27902 7.27941,22.18416 10.71771,45.41602 11.83527,68.69604 12.91831,2.27948 25.546,4.97032 37.78139,8.0845 9.08325,-17.09552 15.3806,-33.17557 20.01213,-53.51706 4.36396,19.4902 5.01587,40.93194 4.00762,60.34568 12.91863,4.08283 25.27256,8.69477 36.92368,13.85206 63.01133,-182 -125.30402,-294.41421 -299.09335,-172.41421 z"
       id="path4895"
       inkscape:connector-curvature="0"
       sodipodi:nodetypes="cccccccccccccc" />
    <g
       id="g4907">
      <path
         sodipodi:nodetypes="cscccccscc"
         transform="translate(0,-584.3622)"
         inkscape:connector-curvature="0"
         id="path4901"
         d="m 326.26912,189.34877 c -86.45337,61.23993 -105.23484,208.93804 -37.82772,325.6906 9.4415,16.35315 -5.98017,48.36435 -37.82051,88.48158 13.8342,2.2582 27.65344,5.25779 41.47844,8.76784 6.50517,-10.17263 11.15485,-19.24205 15.36771,-29.77439 0.98884,10.88991 1.26053,21.25601 0.67702,34.06276 12.22548,3.42069 24.46172,7.17034 36.72304,11.0895 8.16629,-46.7788 -14.01029,-83.83606 -12.0476,-107.71537 6.4051,-77.92875 -26.45515,-151.32838 -13.37881,-235.00097 z"
         style="fill:#ebd730;stroke:#c7b418;stroke-width:10;stroke-linecap:butt;stroke-linejoin:miter;stroke-miterlimit:20;stroke-opacity:1;stroke-dasharray:none;fill-opacity:1" />
      <path
         sodipodi:nodetypes="sssss"
         inkscape:connector-curvature="0"
         id="path4903"
         d="m 277.17018,-70.147872 c 6.19269,8.529528 6.96225,14.437055 4.76754,21.297753 -4.32494,13.519735 64.36149,9.095918 60.65341,1.996664 -3.70805,-7.099251 -3.70805,-17.304424 -0.79458,-23.294417 4.95435,-10.185909 -70.69726,-8.361782 -64.62637,0 z"
         style="fill:#f6881d;stroke:#d27419;stroke-width:10;stroke-linecap:butt;stroke-linejoin:miter;stroke-miterlimit:20;stroke-opacity:1;stroke-dasharray:none;fill-opacity:1" />
      <path
         sodipodi:nodetypes="ccc"
         inkscape:connector-curvature="0"
         id="path4905"
         d="m 292.46771,-62.991003 c 12.09445,-1.280947 24.91804,-1.402643 36.47832,-0.421006 -11.3539,-3.108099 -24.73223,-3.01294 -36.47832,0.421006 z"
         style="fill:#d27419;fill-opacity:1;fill-rule:evenodd;stroke:none" />
    </g>
    <g
       id="g4619"
       transform="translate(-1,5)">
      <path
         style="fill:#efc536;fill-opacity:1;stroke:none"
         d="m 326.61225,-260.72184 c -51.50068,-94.76644 15.11963,-183.97582 28.40681,-181.86618 12.57662,1.9968 39.76487,50.38313 29.99752,112.04024 z"
         id="path4617"
         inkscape:connector-curvature="0"
         sodipodi:nodetypes="cscc" />
      <path
         inkscape:original-d="m 326.61225,-260.72184 c -51.50068,-94.76644 15.11963,-183.97582 28.40681,-181.86618 12.57662,1.9968 39.76487,50.38313 29.99752,112.04024"
         inkscape:path-effect="#path-effect4607"
         sodipodi:nodetypes="csc"
         inkscape:connector-curvature="0"
         id="path4576"
         d="m 305.3573,-304.69663 c 1.62214,8.13631 4.19472,15.85448 7.71986,23.18615 3.52514,7.33168 8.00792,14.28306 13.53509,20.78864 -2.67161,-8.05743 -4.72723,-15.76505 -6.54215,-23.32716 -1.81493,-7.5621 -3.39081,-14.98029 -4.91309,-22.60298 -1.51123,-7.56741 -2.42924,-15.24327 -2.70487,-22.94475 -0.70626,-19.19668 2.4157,-38.54442 8.78654,-56.73264 0,-1e-5 0,-1e-5 0,-1e-5 2.68857,-7.66667 5.94436,-15.12657 9.77872,-22.26344 3.16604,-5.88542 6.68311,-11.53487 10.68537,-16.75567 2.92849,-3.78461 5.9115,-7.31066 9.31436,-10.03126 1.13085,-0.88271 2.11861,-1.62536 3.03626,-2.02109 1e-5,0 1e-5,0 1e-5,-10e-6 0.72507,-0.13857 0.82271,-0.37585 0.18162,-0.24902 0.51503,-0.10878 1.44407,0.74321 2.85105,1.73426 1.88755,1.56894 3.57036,3.64523 5.24272,5.92864 4.87713,6.7232 8.41998,14.55986 11.35829,22.72529 3.40592,9.52889 5.74457,19.43115 7.07866,29.49424 1.0228,7.71501 1.84677,15.77922 2.50637,23.78601 0.6596,8.0068 1.15759,15.95359 1.74447,23.43365 2.74656,-6.952 4.79087,-14.94527 5.79496,-23.28924 1.00408,-8.34397 0.96031,-17.02716 -0.13601,-25.24819 -1.42998,-10.72312 -3.93207,-21.30535 -7.56899,-31.53414 -3.08191,-8.72346 -7.06012,-17.38951 -12.66439,-25.21341 -1.89303,-2.66498 -4.12468,-5.33519 -6.88923,-7.71042 -1.69124,-1.63571 -4.25321,-3.23728 -7.74982,-3.98299 -2.73962,-0.20636 -4.76584,0.30068 -5.96735,1.05827 -2.03283,0.97673 -3.71196,2.15085 -5.11038,3.31553 -4.31931,3.53031 -7.85178,7.62092 -10.96277,11.72493 -4.38517,5.73464 -8.19206,11.83311 -11.55482,18.10275 -4.08975,7.61597 -7.55465,15.55043 -10.40605,23.68714 -6.77617,19.31513 -10.0836,39.88695 -9.34296,60.4049 0.30561,8.25242 1.28816,16.4587 2.89853,24.53602 z"
         style="fill:#ddab00;fill-opacity:1;stroke:none" />
      <path
         sodipodi:nodetypes="ccc"
         transform="translate(0,-584.3622)"
         inkscape:connector-curvature="0"
         id="path4615"
         d="m 348.35355,188.59441 c -14.2604,23.67462 -18.16421,58.16422 -9.16421,86.41422 -3.51041,-28.96016 0.98223,-62.94366 9.16421,-86.41422 z"
         style="fill:#ddab00;fill-opacity:1;fill-rule:evenodd;stroke:none" />
    </g>
    <g
       transform="matrix(0.16744682,-1.118237e-6,2.2819395e-6,0.3357591,212.10379,-55.463981)"
       id="g3026"
       inkscape:path-effect="#path-effect3912">
      <path
         d="m 119.11129,44.623711 c 12.47548,-1.564397 21.54431,-0.181889 27.20403,4.15174 5.65972,4.333629 7.93003,11.616972 6.64086,22.328815 -14.27657,8.421795 -25.93948,13.914514 -34.96921,16.489566 -9.02972,2.575052 -15.42804,2.249463 -18.841115,-0.586013 -3.413072,-2.835475 -3.823407,-8.169586 -0.676299,-15.430481 3.147104,-7.260896 9.868804,-16.435981 20.641734,-26.953627 z"
         id="path6"
         inkscape:connector-curvature="0"
         style="fill:#d0e1f0"
         inkscape:original-d="M 44.153519,34.227167 C 78.315954,31.951637 111.16386,47.268868 131.37989,74.901494 87.530215,107.41619 46.746365,88.398371 44.153519,34.227167 z" />
      <path
         d="m -83.965884,350.05404 c 0.602456,-23.21601 4.04095,-46.23235 10.486703,-68.32143 4.129001,-14.2238 9.440438,-28.16526 15.734181,-41.73056 6.293742,-13.56531 13.56979,-26.75446 21.688802,-39.50326 3e-6,-1e-5 6e-6,-1e-5 1e-5,-2e-5 0.04988,-0.0794 0.09979,-0.15886 0.14974,-0.23827 2e-6,-1e-5 4e-6,-1e-5 5e-6,-1e-5 8.457177,-13.30672 17.986656,-26.26911 28.358096,-38.97409 10.3714398,-12.70497 21.58484,-25.15252 33.469348,-37.36604 5e-6,0 10e-6,-1e-5 1.4e-5,-1e-5 0.727316,-0.74854 1.457791,-1.49596 2.191407,-2.24228 5e-6,0 10e-6,-1e-5 1.4e-5,-1e-5 C 41.612629,107.98924 56.062684,94.767357 71.288233,81.936647 86.513782,69.105936 102.51482,56.666402 119.11129,44.623711 c 4.20458,4.700089 9.13805,9.301547 14.79196,13.732864 5.6539,4.431317 12.02825,8.692494 19.05293,12.747691 -18.63266,15.676335 -36.36262,31.892984 -52.83886,48.486024 0,0 -1e-5,1e-5 -1e-5,1e-5 -0.810298,0.81709 -1.617383,1.63502 -2.421215,2.45374 -4e-6,1e-5 -9e-6,1e-5 -1.4e-5,2e-5 -13.172453,13.40823 -25.539437,26.96717 -37.031654,40.50657 -11.492217,13.53941 -22.109665,27.05929 -31.702552,40.50846 -0.0567,0.0803 -0.113358,0.16054 -0.169982,0.2408 -2e-6,0 -4e-6,0 -5e-6,1e-5 -9.210793,12.87945 -17.640661,25.8148 -25.2885824,38.82713 -7.6479218,13.01232 -14.5138976,26.10163 -20.4901526,39.25653 -6.498811,14.25102 -11.802433,28.85587 -15.870346,43.7642 -4.067912,14.90834 -6.900116,30.12016 -8.500682,45.46096 -14.142599,-7.20076 -28.339969,-13.92983 -42.608009,-20.55468 z"
         id="path8"
         inkscape:connector-curvature="0"
         style="fill:#c6c6c6"
         inkscape:original-d="M -79.688062,347.70688 44.153519,34.227167 131.37989,74.901494 -29.15566,371.27052 z" />
      <path
         d="m -38.994398,353.14059 c -14.585169,-7.81055 -29.187259,-15.16877 -43.794547,-22.53079 -0.616297,6.45561 -1.006104,12.94341 -1.174482,19.44504 14.266407,6.62412 28.462162,13.35245 42.603157,20.55234 0.61004,-5.84356 1.398335,-11.66968 2.365872,-17.46659 z M 24.658898,209.1409 c -2.788585,-2.00394 -5.551154,-4.00906 -8.283026,-6.02069 -0.112476,-0.083 -0.224894,-0.16602 -0.337254,-0.24907 -12.228842,-9.04621 -23.7498547,-18.32021 -34.138095,-28.15468 -4.05769,5.35463 -7.956885,10.75836 -11.680848,16.21777 4.04124,3.60681 8.221952,7.13885 12.521739,10.61089 0.109331,0.0882 0.218739,0.17632 0.328223,0.26441 9.8595512,7.9199 20.2739188,15.56087 30.991011,23.19383 3.40253,-5.29861 6.934954,-10.58553 10.59825,-15.86246 z M 119.10113,44.629291 c -6.1611,4.471191 -12.24018,8.997905 -18.22791,13.578546 4.39441,4.949851 9.50015,9.793333 15.2885,14.472444 5.78835,4.679112 12.25933,9.193853 19.32799,13.51877 5.72136,-5.079771 11.54503,-10.11104 17.45928,-15.086427 C 145.92364,67.05701 139.54871,62.795392 133.8943,58.36361 128.23989,53.931828 123.30601,49.329881 119.10113,44.629291 z"
         id="path10"
         inkscape:connector-curvature="0"
         style="fill:#0f1149"
         inkscape:original-d="m -20.493965,355.27599 -52.509204,-24.48544 -6.681889,16.91739 50.526656,23.56096 8.664437,-15.99291 z m 75.915699,-140.17494 -69.842341,-32.56802 -6.697004,16.87586 67.916437,31.66996 8.622908,-15.9778 z M 44.146838,34.233994 37.478156,51.123061 122.72773,90.875589 131.37896,74.910999 44.146838,34.233994 z" />
      <path
         inkscape:connector-curvature="0"
         d="m 47.394325,220.41427 c -5.905816,8.38506 -11.489311,16.71506 -16.766849,25.00372 -3.957738,-7.499 -7.697969,-14.8928 -11.181465,-22.21867 1.698618,8.6357 3.748393,17.36362 6.110979,26.18213 -7.706979,1.80219 -15.394642,3.57847 -23.0643333,5.36578 7.5465503,0.55641 15.0896473,1.12788 22.6287413,1.72071 -3.247549,8.70002 -6.166183,17.38702 -8.754867,26.0344 -0.187408,0.62079 -0.372883,1.24185 -0.556426,1.86319 0.324925,-0.61443 0.651847,-1.22863 0.980758,-1.84261 4.048683,-7.57167 8.365561,-15.18494 12.942497,-22.84459 4.235782,7.59598 8.677502,15.30354 13.310959,23.1846 -3.079781,-9.16347 -5.877331,-18.19263 -8.373418,-27.11013 7.667581,-1.77998 15.35492,-3.58541 23.066032,-5.45243 -7.526433,-0.5805 -15.055851,-1.14902 -22.587401,-1.71193 3.69799,-9.38278 7.773971,-18.78203 12.244793,-28.17417 z m -78.522487,-65.29541 c -7.941244,7.39998 -15.628409,14.94066 -23.011187,22.69389 -1.582462,-7.90141 -2.638986,-15.85516 -3.151174,-23.80205 -1.560857,9.00276 -2.500874,18.12257 -2.801927,27.27601 -7.848632,1.05034 -15.694198,2.04853 -23.551274,3.0305 6.994092,1.48793 14.041425,2.85572 21.138829,4.10771 -1.852369,2.87259 -3.656343,5.77078 -5.409167,8.69589 -0.04894,0.0821 -0.09784,0.16419 -0.146694,0.24632 -3.782826,6.31476 -7.338529,12.76583 -10.649218,19.34212 4.737547,-6.45522 9.694506,-12.74016 14.840574,-18.86403 0.0665,-0.0797 0.133039,-0.15935 0.199608,-0.239 1.569907,-1.86909 3.158836,-3.72464 4.76601,-5.56776 0.563604,2.09806 1.163807,4.19053 1.80003,6.27677 0.02734,0.0889 0.05474,0.17781 0.0822,0.26669 1.756588,5.72412 3.769567,11.40833 5.998638,17.04904 -0.765716,-5.53681 -1.33593,-11.07876 -1.689043,-16.6135 -0.0058,-0.086 -0.01151,-0.17198 -0.01718,-0.25797 -0.214617,-3.42667 -0.339721,-6.85455 -0.375484,-10.28036 7.867536,-1.19046 15.739956,-2.4284 23.631861,-3.74666 -7.143689,-0.98656 -14.231955,-2.09492 -21.261551,-3.3292 6.095281,-8.97501 12.65638,-17.72688 19.60615,-26.28441 0,0 0,0 0,0 z m 88.917567,-28.59062 c -8.384351,7.7279 -16.505032,15.47929 -24.343327,23.24518 -1.361071,-6.90338 -2.338704,-13.77501 -2.912738,-20.5986 -1.561969,8.00714 -2.666208,16.13191 -3.305898,24.34168 -8.058712,1.73987 -16.05314,3.32247 -23.9990031,4.76425 6.9969961,0.77245 14.0796751,1.3932 21.2449651,1.86472 -6.433058,8.76982 -12.469461,17.613 -18.0533227,26.52021 6.8533287,-7.88252 14.0453587,-15.74052 21.5401157,-23.59124 1.754978,7.01185 3.890903,14.04867 6.369938,21.12852 -0.53281,-8.38718 -0.6267,-16.69365 -0.26932,-24.91478 8.105493,-1.87431 16.276171,-3.90526 24.527777,-6.10623 -7.348016,-0.0317 -14.608503,-0.21612 -21.778316,-0.55535 6.622179,-8.78028 13.628575,-17.4883 20.979129,-26.09836 0,0 0,0 0,0 z"
         style="fill:#d0e1f0"
         id="use15"
         inkscape:original-d="m 87.755629,226.11456 -15.29403,24.59039 -19.336369,-21.53314 13.643698,25.53335 -28.329683,5.96085 28.937728,0.94296 -9.00652,27.5223 15.322353,-24.57718 19.323162,21.56146 -13.643698,-25.53335 28.32968,-5.96085 -28.924519,-0.97128 8.978198,-27.53551 z M -43.659,164.83491 l -15.29403,24.59039 -19.336369,-21.53314 13.643698,25.53335 -28.329682,5.96085 28.937727,0.94296 -9.00652,27.5223 15.322353,-24.57718 19.323162,21.56146 -13.643698,-25.53335 28.329682,-5.96085 -28.924521,-0.97128 8.978198,-27.53551 z m 96.267264,-34.8962 -15.29403,24.59039 -19.336369,-21.53314 13.643698,25.53335 -28.3296825,5.96085 28.9377275,0.94296 -9.00652,27.5223 15.322353,-24.57718 19.323162,21.56146 -13.643698,-25.53335 28.329682,-5.96085 -28.924521,-0.97128 8.978198,-27.53551 z" />
    </g>
  </g>
</svg>
