<svg xmlns:inkscape="http://www.inkscape.org/namespaces/inkscape">
  <defs><inkscape:path-effect effect="skeletal" id="taper" pattern="m -134.17922,144.40586 1220.00002,0 c 17.0522,0 34.4291,1.19928 51,4 -16.5709,2.80071 -33.9478,4 -51,4 l -1220.00002,0 c -17.05221,0 -33.72895,-1.66608 -51,-4 17.27105,-2.56732 33.94779,-4 51,-4 z"/></defs>
  <g><path style="fill:#5c8dff;stroke:#2766f9;stroke-width:5.5" d="m 295.94188,316.21744 a 34.075275,34.075275 0 1 1 -68.15055,0 34.075275,34.075275 0 1 1 68.15055,0 z" transform="matrix(0.59545116,-1.48442,1.48442,0.59545116,-367.1317,274.04186)"/>
    <path style="fill:none;stroke:#2766f9;stroke-width:2.5" d="m 283.57207,316.21744 a 21.705465,21.705465 0 1 1 -43.41093,0 21.705465,21.705465 0 1 1 43.41093,0 z" transform="matrix(0.59545116,-1.48442,1.48442,0.59545116,-367.1317,274.04186)"/>
    <path fill="#2766f9" d="m 244.53474,77.1114 c 3.54448,0 6.41785,2.87337 6.41785,6.41785 0,3.54448 -2.87337,6.41785 -6.41785,6.41785 -3.54448,0 -6.41785,-2.87337 -6.41785,-6.41785 0,-3.54448 2.87337,-6.41785 6.41785,-6.41785 z m 17.15936,10.1643 c 0,-3.54448 2.87337,-6.41785 6.41785,-6.41785 3.54448,0 6.41785,2.87337 6.41785,6.41785 0,3.54448 -2.87337,6.41785 -6.41785,6.41785 -3.54448,0 -6.41785,-2.87337 -6.41785,-6.41785 z m 10.16429,-17.15937 c -3.54448,0 -6.41785,-2.87337 -6.41785,-6.41785 0,-3.54448 2.87337,-6.41785 6.41785,-6.41785 3.54448,0 6.41785,2.87337 6.41785,6.41785 0,3.54448 -2.87337,6.41785 -6.41785,6.41785 z M 254.69901,59.95204 c 0,3.54448 -2.87337,6.41785 -6.41785,6.41785 -3.54448,0 -6.41785,-2.87337 -6.41785,-6.41785 0,-3.54448 2.87337,-6.41785 6.41785,-6.41785 3.54448,0 6.41785,2.87337 6.41785,6.41785 z"/></g>
  <g><path style="fill:#f9f4b2;stroke:#d1b467;stroke-width:5.5" d="m 295.94188,316.21744 a 34.075275,34.075275 0 1 1 -68.15055,0 34.075275,34.075275 0 1 1 68.15055,0 z"/>
    <path style="fill:none;stroke:#d1b467;stroke-width:2.5" d="m 283.57207,316.21744 a 21.705465,21.705465 0 1 1 -43.41093,0 21.705465,21.705465 0 1 1 43.41093,0 z"/>
    <path fill="#d1b467" d="m 256.24684,321.2665 c 2.14556,0 3.88489,1.73932 3.88489,3.88489 0,2.14556 -1.73933,3.88489 -3.88489,3.88489 -2.14557,0 -3.88489,-1.73933 -3.88489,-3.88489 0,-2.14557 1.73932,-3.88489 3.88489,-3.88489 z m 10.66883,0.5707 c 0,-2.14556 1.73932,-3.88489 3.88489,-3.88489 2.14556,0 3.88489,1.73933 3.88489,3.88489 0,2.14557 -1.73933,3.88489 -3.88489,3.88489 -2.14557,0 -3.88489,-1.73932 -3.88489,-3.88489 z m 0.57071,-10.66882 c -2.14556,0 -3.88489,-1.73932 -3.88489,-3.88489 0,-2.14556 1.73933,-3.88489 3.88489,-3.88489 2.14557,0 3.88489,1.73933 3.88489,3.88489 0,2.14557 -1.73932,3.88489 -3.88489,3.88489 z m -10.66883,-0.57072 c 0,2.14556 -1.73932,3.88489 -3.88489,3.88489 -2.14556,0 -3.88489,-1.73933 -3.88489,-3.88489 0,-2.14557 1.73933,-3.88489 3.88489,-3.88489 2.14557,0 3.88489,1.73932 3.88489,3.88489 z"/></g>
  <g><path style="fill:#26cffa;stroke:#26a8fa;stroke-width:5.5" d="m 295.94188,316.21744 a 34.075275,34.075275 0 1 1 -68.15055,0 34.075275,34.075275 0 1 1 68.15055,0 z" transform="matrix(1.1487982,-0.74192054,0.74192054,1.1487982,-454.04024,36.231628)"/>
    <path style="fill:none;stroke:#26a8fa;stroke-width:2.5" d="m 283.57207,316.21744 a 21.705465,21.705465 0 1 1 -43.41093,0 21.705465,21.705465 0 1 1 43.41093,0 z" transform="matrix(1.1487982,-0.74192054,0.74192054,1.1487982,-454.04024,36.231628)"/>
    <path fill="#26a8fa" d="m 81.39987,214.39128 c 2.99956,0 5.43118,2.43162 5.43118,5.43117 0,2.99956 -2.43162,5.43118 -5.43118,5.43118 -2.99955,0 -5.43117,-2.43162 -5.43117,-5.43118 0,-2.99955 2.43162,-5.43117 5.43117,-5.43117 z m 9.17382,-9.17382 c 0,-2.99956 2.43162,-5.43118 5.43117,-5.43118 2.99956,0 5.43118,2.43162 5.43118,5.43118 0,2.99955 -2.43162,5.43117 -5.43118,5.43117 -2.99955,0 -5.43117,-2.43162 -5.43117,-5.43117 z m -9.17382,-9.17382 c -2.99956,0 -5.43118,-2.43162 -5.43118,-5.43117 0,-2.99956 2.43162,-5.43118 5.43118,-5.43118 2.99955,0 5.43117,2.43162 5.43117,5.43118 0,2.99955 -2.43162,5.43117 -5.43117,5.43117 z m -9.17382,9.17381 c 0,2.99956 -2.43162,5.43118 -5.43117,5.43118 -2.99956,0 -5.43118,-2.43162 -5.43118,-5.43118 0,-2.99955 2.43162,-5.43117 5.43118,-5.43117 2.99955,0 5.43117,2.43162 5.43117,5.43117 z"/></g>
  <path fill="#ccc" d="M 226.09593,349.65343 C 136.63662,163.97311 91.969016,104.12982 81.933064,80.711192 70.568654,54.192642 67.610525,26.352108 76.905621,22.857658 c 9.618003,-3.615846 25.453989,13.89746 38.714639,42.986064 12.1407,26.631889 29.9205,94.647458 110.47567,283.809708 z"/>
  <path fill="#a288c3" d="m 108.91994,81.774628 a 11.385125,33.456131 0 1 1 -22.770252,0 11.385125,33.456131 0 1 1 22.770252,0 z" transform="matrix(0.92524566,-0.45762939,0.45762939,0.92524566,-30.064895,37.58084)"/>
  <path fill="#f959b2" inkscape:path-effect="#taper" inkscape:original-d="m 33.356369,77.969056 c -13.055366,27.956364 20.656208,61.384634 77.513651,29.611864 88.95819,-49.711137 192.93248,4.06499 190.56999,43.69779 -3.69042,61.90994 -112.42832,22.9117 -110.52781,-0.76382 4.3238,-53.863552 185.39717,37.55338 171.8908,98.99086 -16.42141,74.69738 -189.4982,-6.79405 -125.79527,-36.17001"/></svg>
