<?xml version="1.0" encoding="UTF-8" standalone="no"?>
<!-- Created with Inkscape (http://www.inkscape.org/) -->

<svg xmlns:dc="http://purl.org/dc/elements/1.1/" xmlns:cc="http://creativecommons.org/ns#" xmlns:rdf="http://www.w3.org/1999/02/22-rdf-syntax-ns#" xmlns:svg="http://www.w3.org/2000/svg" xmlns="http://www.w3.org/2000/svg" xmlns:xlink="http://www.w3.org/1999/xlink" xmlns:sodipodi="http://sodipodi.sourceforge.net/DTD/sodipodi-0.dtd" xmlns:inkscape="http://www.inkscape.org/namespaces/inkscape" id="svg2" version="1.1" inkscape:version="0.48.5 r" width="556.41809" height="709.89856" sodipodi:docname="Floral Confusion.svg" inkscape:export-filename="/home/parclytaxel/Pictures/Floral Confusion.png" inkscape:export-xdpi="1035.212" inkscape:export-ydpi="1035.212">
  <sodipodi:namedview pagecolor="#ffffff" bordercolor="#666666" borderopacity="1" objecttolerance="10" gridtolerance="10" guidetolerance="10" inkscape:pageopacity="0" inkscape:pageshadow="2" inkscape:window-width="1364" inkscape:window-height="698" id="namedview4" showgrid="true" inkscape:zoom="0.75926341" inkscape:cx="278.20905" inkscape:cy="354.94928" inkscape:window-x="0" inkscape:window-y="0" inkscape:window-maximized="1" inkscape:current-layer="layer2" showguides="true" inkscape:guide-bbox="true" inkscape:object-nodes="false" inkscape:object-paths="false" fit-margin-top="0" fit-margin-left="0" fit-margin-right="0" fit-margin-bottom="0">
    <inkscape:grid type="xygrid" id="grid6721" empspacing="5" visible="true" enabled="false" snapvisiblegridlinesonly="true" spacingx="8px" spacingy="8px" originx="-170.61932px" originy="-30.042436px" />
  </sodipodi:namedview>
  <metadata id="metadata8">
    <rdf:RDF>
      <cc:Work rdf:about="">
        <dc:format>image/svg+xml</dc:format>
        <dc:type rdf:resource="http://purl.org/dc/dcmitype/StillImage" />
        <dc:title></dc:title>
      </cc:Work>
    </rdf:RDF>
  </metadata>
  <defs id="defs6">
    <linearGradient inkscape:collect="always" id="linearGradient6083">
      <stop style="stop-color:#f190d2;stop-opacity:1;" offset="0" id="stop6085" />
      <stop style="stop-color:#8b1b42;stop-opacity:1" offset="1" id="stop6087" />
    </linearGradient>
    <linearGradient inkscape:collect="always" id="linearGradient6075">
      <stop style="stop-color:#f4aadc;stop-opacity:1;" offset="0" id="stop6077" />
      <stop style="stop-color:#ba2459;stop-opacity:1" offset="1" id="stop6079" />
    </linearGradient>
    <linearGradient inkscape:collect="always" id="linearGradient6032">
      <stop style="stop-color:#f190d2;stop-opacity:1;" offset="0" id="stop6034" />
      <stop style="stop-color:#8b1b42;stop-opacity:1" offset="1" id="stop6036" />
    </linearGradient>
    <linearGradient inkscape:collect="always" id="linearGradient6024">
      <stop style="stop-color:#f6bbe3;stop-opacity:1;" offset="0" id="stop6026" />
      <stop style="stop-color:#ba2459;stop-opacity:1" offset="1" id="stop6028" />
    </linearGradient>
    <inkscape:path-effect effect="envelope" id="path-effect3130" is_visible="true" yy="false" xx="true" bendpath1="M 0,0 186.0526,0" bendpath2="M 284.99501,3.3166279 C 173.94784,80.954605 156.39807,176.31328 195.04736,280.446" bendpath3="m 0,279.27339 186.0526,0" bendpath4="M 164.15446,-1.658314 C -1.8468582,74.052913 -23.768625,170.58616 20.238221,280.10255" bendpath2-nodetypes="cc" bendpath4-nodetypes="cc" />
    <inkscape:path-effect effect="skeletal" id="path-effect7104" is_visible="true" pattern="m 455,199 c -15.7233,0 -31.44365,0.9948 -47,4 15.55635,3.35876 31.2767,4 47,4 l 128,0 c 15.7233,0 32.15076,-1.17157 47,-4 -14.67247,-3.0052 -31.2767,-4 -47,-4 z" copytype="single_stretched" prop_scale="1" scale_y_rel="false" spacing="0" normal_offset="0" tang_offset="0" prop_units="false" vertical_pattern="false" fuse_tolerance="0" pattern-nodetypes="scsscss" />
    <inkscape:path-effect effect="skeletal" id="path-effect6963" is_visible="true" pattern="m 338.87407,401.20482 c -15.7233,0 -31.44365,0.9948 -47,4 15.55635,3.35876 31.2767,4 47,4 l 150,0 c 15.7233,0 32.15076,-1.17157 47,-4 -14.67247,-3.0052 -31.2767,-4 -47,-4 z" copytype="single_stretched" prop_scale="1" scale_y_rel="false" spacing="0" normal_offset="0" tang_offset="0" prop_units="false" vertical_pattern="false" fuse_tolerance="0" pattern-nodetypes="scsscss" />
    <inkscape:path-effect effect="skeletal" id="path-effect6920" is_visible="true" pattern="m 446,334 c -15.7233,0 -31.44365,0.9948 -47,4 15.55635,3.35876 31.2767,4 47,4 l 199.75,0 0,-8 z" copytype="single_stretched" prop_scale="1" scale_y_rel="false" spacing="0" normal_offset="0" tang_offset="0" prop_units="false" vertical_pattern="false" fuse_tolerance="0" pattern-nodetypes="scsccs" />
    <inkscape:path-effect effect="skeletal" id="path-effect6888" is_visible="true" pattern="m 515,308 c -15.7233,0 -31.44365,0.9948 -47,4 15.55635,3.35876 31.2767,4 47,4 l 564.75,0 0,-8 z" copytype="single_stretched" prop_scale="1" scale_y_rel="false" spacing="0" normal_offset="0" tang_offset="0" prop_units="false" vertical_pattern="false" fuse_tolerance="0" pattern-nodetypes="scsccs" />
    <inkscape:path-effect effect="skeletal" id="path-effect6850" is_visible="true" pattern="m 331,450 c -15.7233,0 -31.44365,0.9948 -47,4 15.55635,3.35876 31.2767,4 47,4 l 327,0 c 15.7233,0 32.15076,-1.17157 47,-4 -14.67247,-3.0052 -31.2767,-4 -47,-4 z" copytype="single_stretched" prop_scale="1" scale_y_rel="false" spacing="0" normal_offset="0" tang_offset="0" prop_units="false" vertical_pattern="false" fuse_tolerance="0" pattern-nodetypes="scsscss" />
    <inkscape:path-effect effect="skeletal" id="path-effect6788" is_visible="true" pattern="m 357.73463,241.64675 c -15.7233,0 -31.44365,0.9948 -47,4 15.55635,3.35876 31.2767,4 47,4 l 184.75,0 c 19.9733,0 47.40076,-1.42157 66.25,-4 -18.67247,-2.7552 -45.2767,-4 -66.25,-4 z" copytype="single_stretched" prop_scale="1" scale_y_rel="false" spacing="0" normal_offset="0" tang_offset="0" prop_units="false" vertical_pattern="false" fuse_tolerance="0" pattern-nodetypes="scsscss" />
    <inkscape:path-effect effect="skeletal" id="path-effect6737" is_visible="true" pattern="m 376.79289,65.414214 c -15.7233,0 -31.44365,0.994796 -47,4 15.55635,3.358757 31.2767,4 47,4 l 194,0 c 15.7233,0 32.15076,-1.171573 47,-4 -14.67247,-3.005204 -31.2767,-4 -47,-4 z" copytype="single_stretched" prop_scale="1" scale_y_rel="false" spacing="0" normal_offset="0" tang_offset="0" prop_units="false" vertical_pattern="false" fuse_tolerance="0" pattern-nodetypes="scsscss" />
    <linearGradient id="linearGradient6413" inkscape:collect="always">
      <stop id="stop6415" offset="0" style="stop-color:#390733;stop-opacity:1" />
      <stop id="stop6417" offset="1" style="stop-color:#790f6b;stop-opacity:1" />
    </linearGradient>
    <clipPath id="clipPath6435" clipPathUnits="userSpaceOnUse">
      <use height="1" width="1" id="use6437" xlink:href="#path6363" y="0" x="0" />
    </clipPath>
    <clipPath id="clipPath6458" clipPathUnits="userSpaceOnUse">
      <path sodipodi:nodetypes="ccccc" inkscape:connector-curvature="0" id="path6460" d="m 534.14645,155.86225 c 16.53033,25.55025 46.18413,42.53768 78.73223,50.26256 l -22.79807,49.71244 -93.45637,-23.15685 z" style="fill:none;stroke:blue;stroke-width:1;stroke-linecap:butt;stroke-linejoin:miter;stroke-miterlimit:4;stroke-opacity:1;stroke-dasharray:none;stroke-dashoffset:7.8" />
    </clipPath>
    <linearGradient y2="204.81122" x2="569.51758" y1="130.27126" x1="569.32697" gradientUnits="userSpaceOnUse" id="linearGradient6526" xlink:href="#linearGradient6413" inkscape:collect="always" />
    <linearGradient inkscape:collect="always" xlink:href="#linearGradient6413" id="linearGradient6686" x1="467.80298" y1="198.11972" x2="515.42487" y2="196.78754" gradientUnits="userSpaceOnUse" />
    <clipPath clipPathUnits="userSpaceOnUse" id="clipPath6705">
      <use x="0" y="0" xlink:href="#path6501" id="use6707" width="1" height="1" />
    </clipPath>
    <clipPath clipPathUnits="userSpaceOnUse" id="clipPath6979">
      <use x="0" y="0" xlink:href="#path6975" id="use6981" width="1" height="1" />
    </clipPath>
    <clipPath clipPathUnits="userSpaceOnUse" id="clipPath3339">
      <path sodipodi:nodetypes="ccc" inkscape:connector-curvature="0" id="path3341" d="M 588,77.655142 C 586.01944,-70.535773 716.5524,10.393062 672.20711,165.80159 658.80137,124.65324 629.35966,94.792571 588,77.655142 z" style="fill:none;stroke:white" />
    </clipPath>
    <filter inkscape:collect="always" id="filter4289" x="-0.090964369" width="1.1819288" y="-0.10162583" height="1.2032517" color-interpolation-filters="sRGB">
      <feGaussianBlur inkscape:collect="always" stdDeviation="10.873392" id="feGaussianBlur4291" />
    </filter>
    <mask maskUnits="userSpaceOnUse" id="mask4293">
      <path style="fill:white;fill-opacity:1;fill-rule:nonzero;stroke:none;filter:url(#filter4289)" d="m 551.12908,252.06949 c 59.92015,-5.83614 76.48372,-30.32329 133.72883,-17.02482 8.69721,-62.3283 64.57923,-83.81465 134.67885,-38.95794 l 6.16171,234.67267 -281.10007,7.89917 z" id="path4295" inkscape:connector-curvature="0" sodipodi:nodetypes="cccccc" />
    </mask>
    <clipPath clipPathUnits="userSpaceOnUse" id="clipPath4339">
      <path style="fill:none;stroke:black" d="m 534.59283,294.32786 c 16.25407,2.84402 33.09058,1.8905 48.94205,-2.56282 L 557.5,353.59448 l -28.5,4.5 z" id="path4341" inkscape:connector-curvature="0" sodipodi:nodetypes="cc" />
    </clipPath>
    <filter inkscape:collect="always" id="filter6012" color-interpolation-filters="sRGB">
      <feGaussianBlur inkscape:collect="always" stdDeviation="8.1949359" id="feGaussianBlur6014" />
    </filter>
    <mask maskUnits="userSpaceOnUse" id="mask6016">
      <path style="fill:white;fill-opacity:1;fill-rule:nonzero;stroke:none;filter:url(#filter6012)" d="M 279.92285,448.11686 C 164.31001,582.60463 257.3358,708.77258 403.46341,617.04547 L 502.52852,792.05353 28.14731,781.40552 C 32.499203,594.06288 129.22359,431.46858 279.92285,448.11686 z" id="path6018" inkscape:connector-curvature="0" sodipodi:nodetypes="ccccc" />
    </mask>
    <linearGradient inkscape:collect="always" xlink:href="#linearGradient6024" id="linearGradient6030" x1="448.34259" y1="284.23724" x2="312.57031" y2="254.61131" gradientUnits="userSpaceOnUse" />
    <linearGradient inkscape:collect="always" xlink:href="#linearGradient6032" id="linearGradient6038" x1="448.34259" y1="284.23724" x2="312.57031" y2="254.61131" gradientUnits="userSpaceOnUse" />
    <linearGradient inkscape:collect="always" xlink:href="#linearGradient6075" id="linearGradient6081" x1="475.44385" y1="271.52893" x2="338.90311" y2="239.8035" gradientUnits="userSpaceOnUse" />
    <linearGradient inkscape:collect="always" xlink:href="#linearGradient6083" id="linearGradient6089" x1="475.44385" y1="271.52893" x2="338.90311" y2="239.8035" gradientUnits="userSpaceOnUse" />
    <linearGradient inkscape:collect="always" xlink:href="#linearGradient6075" id="linearGradient6097" x1="475.44385" y1="271.52893" x2="338.90311" y2="239.8035" gradientUnits="userSpaceOnUse" />
    <linearGradient inkscape:collect="always" xlink:href="#linearGradient6083" id="linearGradient6113" x1="475.44385" y1="271.52893" x2="338.90311" y2="239.8035" gradientUnits="userSpaceOnUse" />
    <linearGradient inkscape:collect="always" xlink:href="#linearGradient6413" id="linearGradient6150" x1="522.44232" y1="131.91556" x2="521.28204" y2="146.37421" gradientUnits="userSpaceOnUse" />
    <linearGradient inkscape:collect="always" xlink:href="#linearGradient6413" id="linearGradient6158" gradientUnits="userSpaceOnUse" x1="522.44232" y1="131.91556" x2="521.28204" y2="146.37421" />
    <linearGradient inkscape:collect="always" xlink:href="#linearGradient6075" id="linearGradient6242" gradientUnits="userSpaceOnUse" x1="475.44385" y1="271.52893" x2="338.90311" y2="239.8035" />
    <linearGradient inkscape:collect="always" xlink:href="#linearGradient6083" id="linearGradient6244" gradientUnits="userSpaceOnUse" x1="475.44385" y1="271.52893" x2="338.90311" y2="239.8035" />
    <linearGradient inkscape:collect="always" xlink:href="#linearGradient6075" id="linearGradient6246" gradientUnits="userSpaceOnUse" x1="475.44385" y1="271.52893" x2="338.90311" y2="239.8035" />
    <linearGradient inkscape:collect="always" xlink:href="#linearGradient6083" id="linearGradient6248" gradientUnits="userSpaceOnUse" x1="475.44385" y1="271.52893" x2="338.90311" y2="239.8035" />
    <linearGradient inkscape:collect="always" xlink:href="#linearGradient6413" id="linearGradient6250" gradientUnits="userSpaceOnUse" x1="467.80298" y1="198.11972" x2="515.42487" y2="196.78754" />
    <linearGradient inkscape:collect="always" xlink:href="#linearGradient6413" id="linearGradient6252" gradientUnits="userSpaceOnUse" x1="569.32697" y1="130.27126" x2="569.51758" y2="204.81122" />
    <linearGradient inkscape:collect="always" xlink:href="#linearGradient6024" id="linearGradient6254" gradientUnits="userSpaceOnUse" x1="448.34259" y1="284.23724" x2="312.57031" y2="254.61131" />
    <linearGradient inkscape:collect="always" xlink:href="#linearGradient6032" id="linearGradient6256" gradientUnits="userSpaceOnUse" x1="448.34259" y1="284.23724" x2="312.57031" y2="254.61131" />
  </defs>
  <g inkscape:label="Drawing" id="layer2" inkscape:groupmode="layer" transform="translate(-170.61932,-4.1534533)">
    <g id="g6179">
      <g id="g7114">
        <path sodipodi:nodetypes="ssccss" inkscape:connector-curvature="0" id="path6971-2" d="m 531.59102,260.39553 c 0.85579,-15.92665 -54.4269,-11.3411 -117.83313,-48.34987 -91.44716,-53.37561 -104.43152,-28.11449 -20.23379,23.13423 -115.18431,-32.27392 -155.17636,8.88424 30.50797,47.95795 -73.38772,14.64355 -71.06976,37.15072 10.74303,28.96716 45.56531,-4.55779 96.22489,-40.71079 96.81592,-51.70947 z" style="fill:url(#linearGradient6242);fill-opacity:1;stroke:url(#linearGradient6244);stroke-width:8;stroke-miterlimit:12;stroke-opacity:1;stroke-dasharray:none" />
        <path style="fill:url(#linearGradient6246);fill-opacity:1;stroke:none" d="m 441.79098,261.61542 c -12.72792,37.12312 25.8423,74.47992 72.28301,85.63835 12.85926,3.08973 21.41445,-2.62008 16.92601,-9.90929 -22.75345,-36.95152 -28.42885,-61.76431 -8.70711,-77.60355 z" id="path7112" inkscape:connector-curvature="0" sodipodi:nodetypes="csscc" />
        <path sodipodi:nodetypes="cssc" inkscape:connector-curvature="0" id="path7046" d="m 454.46475,306.32709 c -4.22497,-5.6186 -7.73928,-11.63817 -10.07908,-18.15653 -1.48393,-4.08155 -2.47023,-8.4029 -2.92481,-12.85809 -0.45457,-4.4552 -0.37857,-9.04398 0.33012,-13.69705 -2.3888,4.07704 -3.95447,8.74564 -4.61689,13.60677 -0.66242,4.86114 -0.42416,9.91471 0.69892,14.81626 1.78763,7.70071 5.47907,14.849 10.18109,21.10712 1.48823,1.98077 3.06801,3.88349 4.71887,5.70375 15.87687,17.54086 37.65324,28.88376 60.36653,34.29376 5.38503,1.53153 12.01626,1.78919 17.99329,-1.54154 2.13497,-1.19599 3.94,-3.32899 4.80872,-6.24403 0.59563,-3.18675 -0.11572,-6.03732 -1.53546,-8.11036 -5.00826,-8.14397 -9.69834,-16.40784 -13.4786,-25.00261 -0.89142,-2.0402 -1.73774,-4.08952 -2.50944,-6.14804 -1.71955,-4.58691 -3.19145,-9.23593 -4.07337,-13.98016 -0.9758,-5.34405 -1.25772,-10.80343 0.0297,-15.94044 1.24598,-5.2266 4.20451,-10.1785 7.91857,-14.43497 -4.96835,2.63066 -9.65874,6.91322 -12.48172,12.75788 -1.34484,2.8518 -2.21321,5.94397 -2.6504,9.10571 -0.43718,3.16175 -0.44388,6.3924 -0.10413,9.53529 0.57526,5.49559 2.00371,10.80123 3.85613,15.76397 0.83327,2.23239 1.74105,4.42119 2.69384,6.56647 4.0081,9.08112 8.86776,17.66796 13.98734,25.97156 0.43575,0.94026 0.82826,1.75589 0.57895,2.00555 0,0 0,0 0,0 0.0777,0.30204 -0.5314,0.79822 -1.22092,1.33356 -2.75519,2.02181 -7.36983,1.44482 -11.9435,0.58354 -21.38659,-5.18599 -41.8051,-15.72132 -56.29295,-31.87107 -1.48978,-1.66438 -2.91353,-3.38796 -4.25078,-5.1663 z" style="fill:url(#linearGradient6248);fill-opacity:1;stroke:none" inkscape:path-effect="#path-effect7104" inkscape:original-d="m 441.79098,261.61542 c -12.72792,37.12312 25.8423,74.47992 72.28301,85.63835 12.85926,3.08973 21.41445,-2.62008 16.92601,-9.90929 -22.75345,-36.95152 -28.42885,-61.76431 -8.70711,-77.60355" />
      </g>
      <path style="fill:#f4aadc;fill-opacity:1;stroke:#f190d2;stroke-width:8;stroke-miterlimit:4;stroke-opacity:1;stroke-dasharray:none;display:inline" d="m 473.90725,439.29106 c -37.52313,63.19058 -45.25019,146.72441 -12.87364,224.90036 7.81959,18.88106 -91.62713,22.00926 -94.29638,-0.70711 -9.78615,-83.28414 5.5533,-160.7818 43.28099,-221.77174 z" id="path6339" inkscape:connector-curvature="0" sodipodi:nodetypes="csscc" />
      <path style="fill:#f4aadc;fill-opacity:1;stroke:#f190d2;stroke-width:8;stroke-linecap:butt;stroke-linejoin:miter;stroke-miterlimit:4;stroke-opacity:1;stroke-dasharray:none;stroke-dashoffset:7.8" d="m 519.583,438.7665 c -16.7383,76.36752 -17.75417,159.70695 0.072,234.88686 6.85297,28.90166 104.63256,21.44399 94.59116,0 -35.68816,-76.2141 -54.9907,-156.09348 -58.94797,-236.71529 z" id="path6318" inkscape:connector-curvature="0" sodipodi:nodetypes="csscc" />
      <g id="g6020">
        <path style="fill:#69141d;fill-opacity:1;stroke:#3c0c11;stroke-width:8;stroke-linecap:butt;stroke-linejoin:miter;stroke-miterlimit:20;stroke-opacity:1;stroke-dasharray:none;stroke-dashoffset:7.8" d="m 215.15955,358.0261 c 3.34008,-124.6627 145.1115,-158.20696 207.61198,-42.5328 l -20.77979,12.8997 c -27.6845,-15.06388 -52.27198,31.92211 -31.35029,110.00292 50.39691,188.08384 -88.48655,256.91633 -161.77148,189.84591 -51.50876,-47.14084 -41.92091,-122.59742 8.73385,-142.54059 -17.72804,27.92815 -7.96726,73.8326 22.1402,72.47056 67.98075,-3.0754 -24.51577,-135.75842 5.9397,-236.92247 -13.91669,9.85147 -23.29053,21.95608 -30.52417,36.77677 z" id="path4345" inkscape:connector-curvature="0" sodipodi:nodetypes="cccsscscc" />
        <path sodipodi:nodetypes="cscscc" inkscape:connector-curvature="0" id="path5936" d="m 370.64145,438.39592 c 50.39691,188.08384 -88.48655,256.91633 -161.77148,189.84591 -51.50876,-47.14084 -41.92091,-122.59742 8.73385,-142.54059 -17.72804,27.92815 -7.96726,73.8326 22.1402,72.47056 19.83139,-0.89716 26.00601,-12.82405 25.5602,-31.7806 z" style="fill:#ba2459;fill-opacity:1;stroke:#8b1b42;stroke-width:8;stroke-linecap:butt;stroke-linejoin:miter;stroke-miterlimit:20;stroke-opacity:1;stroke-dasharray:none;stroke-dashoffset:7.8" mask="url(#mask6016)" />
      </g>
      <path sodipodi:nodetypes="cscsscssscscc" inkscape:connector-curvature="0" id="path7001" d="m 565.16184,291.29073 c -42.32503,4.72855 -80.77699,-16.49946 -92.18023,-45.87154 -2.96469,-7.63636 1.11603,-10.7343 7.89973,-13.62704 C 406.96173,39.54307 689.90631,13.110716 674.60272,199.39304 664.79323,318.79865 660.54171,510.89796 448.1215,464.07816 c -6.32281,-1.39362 -11.72056,-4.13036 -16.21345,-7.963 -37.5368,63.14233 -42.43543,146.46905 -10.05888,224.645 7.81959,18.88106 -93.04134,22.71637 -95.71059,0 -9.78615,-83.28414 4.13913,-160.78177 41.86677,-221.77174 2.35542,-3.80773 7.68002,-5.63973 15.53926,-4.70508 0.69341,-36.11991 -21.52464,-75.29023 8.1625,-122.89597 36.35899,-58.3046 118.19362,5.91282 163.17157,1.5 6.51397,-16.02218 9.33003,-29.46031 10.28316,-41.59664 z" style="fill:#f6bbe3;fill-opacity:1;stroke:none" />
      <path sodipodi:nodetypes="cccc" inkscape:connector-curvature="0" id="path6928" d="m 545.17678,353.59448 c 8.67677,-21.31066 13.59835,-42.37779 16.07322,-62 l 8.88388,-0.5 c -3.26256,24.06802 -10.20926,44.64645 -24.9571,62.5 z" style="fill:#f190d2;fill-opacity:1;fill-rule:nonzero;stroke:none" />
      <g inkscape:path-effect="#path-effect3130" transform="matrix(0.14164522,0,0.00809918,0.3066747,383.16828,325.15127)" id="g3001">
        <path inkscape:original-d="M 57.971125,11.315899 C 103.46878,-8.1918515 152.61997,-3.0631425 186.0526,31.273733 157.67521,161.30484 23.675977,141 57.971125,11.315899 z" d="m 182.89042,10.530658 c 12.2395,-2.2894153 23.12632,-3.8646547 32.48882,-4.641694 9.3625,-0.7770393 17.19943,-0.7551164 23.42234,0.2100553 6.22292,0.9651717 10.83367,2.8701792 13.821,5.9419567 2.98734,3.071778 4.35099,7.304633 4.13653,13.077333 -20.46913,14.720488 -38.89671,28.882547 -55.48562,41.050148 -4.87568,3.586888 -9.57994,7.009118 -14.11711,10.226081 -7.00144,4.979064 -13.60711,9.41793 -19.8439,13.20451 -6.23679,3.786581 -12.10582,6.922247 -17.61216,9.356423 -5.50635,2.434179 -10.65092,4.168019 -15.40124,5.192979 -4.75033,1.02496 -9.10672,1.3416 -12.98962,0.97041 -7.76579,-0.74237 -13.66655,-4.26382 -16.57597,-10.088351 -2.90942,-5.824528 -2.76114,-13.949078 1.58501,-23.439504 1.54337,-3.269828 3.58714,-6.67364 6.16879,-10.165918 5.94344,-8.006054 14.64797,-16.480114 26.34112,-25.040415 11.69314,-8.5603 26.37425,-17.204019 44.06201,-25.854014 z" id="path4" inkscape:connector-curvature="0" style="fill:#e42040" />
        <path inkscape:original-d="M 70.276716,38.219028 C 83.431165,-14.555289 155.31781,5.6863074 179.38269,46.8508" d="m 161.92911,29.866774 c 7.85102,-4.689968 15.26518,-8.299811 22.0671,-11.134428 6.80191,-2.834618 12.9985,-4.889556 18.54865,-6.340228 5.55015,-1.450672 10.45733,-2.294195 14.73907,-2.6316002 4.28174,-0.3374051 7.94006,-0.1671274 11.01141,0.4512852 6.14269,1.236826 9.97232,4.25168 11.60723,8.835815 0.81745,2.292067 1.07912,4.980779 0.73908,8.062792 -0.34004,3.082012 -1.28213,6.557499 -2.91958,10.435718" id="path6" inkscape:connector-curvature="0" style="fill:#d61a39" />
        <path inkscape:original-d="m 146.53147,83.828263 c 4.57066,-17.28521 6.8781,-38.707867 3.10659,-54.765227 C 121.73936,3.7435954 83.56396,8.6419724 67.53147,41.828263" d="m 179.80348,70.943666 c 1.34283,-1.312681 2.70699,-2.638583 4.08831,-3.971681 7.88272,-7.572021 16.24191,-15.372275 24.06912,-22.552546 7.82722,-7.180271 15.11015,-13.747593 20.62027,-19.170783 0.37115,-4.508906 -1.02205,-7.516681 -4.10633,-9.301131 -3.08429,-1.784449 -7.86122,-2.343367 -14.17508,-1.768483 -6.31387,0.574883 -14.16965,2.279897 -23.28062,5.218476 -9.11098,2.938579 -19.49048,7.100407 -30.59195,12.890171" id="path8" inkscape:connector-curvature="0" style="fill:#c41835" />
        <path inkscape:original-d="m 91.029573,27.582578 c 18.738827,6.806092 34.846967,5.209778 50.845947,-1.596065 -4.54915,28.613036 -37.35467,31.270283 -50.845947,1.596065 z" d="m 186.77406,23.520724 c 2.91229,2.871495 7.92187,4.141513 14.48888,3.980647 6.56701,-0.160865 14.70241,-1.739166 24.13724,-4.353167 -7.69893,5.240566 -15.07234,9.549328 -21.64867,12.536963 -6.57632,2.987635 -12.35058,4.643208 -16.61099,4.754776 -4.26041,0.111569 -6.99944,-1.324908 -7.35431,-4.22185 -0.35488,-2.896942 1.68693,-7.24423 6.98785,-12.697369 z" id="path10" inkscape:connector-curvature="0" style="fill:#b21631" />
        <path inkscape:original-d="m 76.034262,10.431813 c 15.74264,23.88909 53.264978,30.43934 78.264978,22.93934 12.5,131.999997 -119.239858,124.646447 -78.264978,-22.93934 z" d="m 195.0191,11.076233 c -3.98455,4.091492 -5.68823,7.733593 -5.49818,10.733579 0.19005,2.999985 2.27255,5.350081 5.75361,6.900018 3.48107,1.549937 8.35772,2.296367 14.06309,2.217337 5.70536,-0.07903 12.23582,-0.981581 19.00123,-2.591388 -15.05056,13.518912 -28.35523,26.704704 -40.44686,38.511765 -3.51431,3.446049 -6.90447,6.779521 -10.18389,9.969744 -6.08705,5.965797 -11.81873,11.35238 -17.24112,16.015969 -5.42239,4.663589 -10.53693,8.604413 -15.35911,11.734973 -4.82217,3.13056 -9.35352,5.45169 -13.55591,6.92319 -4.20239,1.47151 -8.07682,2.09391 -11.51148,1.86335 -3.43466,-0.23056 -6.42924,-1.31427 -8.79227,-3.22125 -2.36304,-1.90697 -4.09244,-4.63778 -4.93492,-8.12225 -0.84248,-3.484472 -0.79431,-7.722714 0.41555,-12.597876 1.20985,-4.875162 3.58587,-10.385994 7.35415,-16.376807 2.06327,-3.207316 4.53483,-6.524305 7.45097,-9.920481 7.00803,-8.114946 16.45868,-16.691346 28.64144,-25.432478 12.18277,-8.741133 27.10281,-17.64478 44.8437,-26.607395 0,0 0,0 0,0 z" id="path12" inkscape:connector-curvature="0" style="fill:#d61a39" />
        <path inkscape:original-d="m 66.773336,12.320129 c 28.774091,34.97341 69.862964,41.315814 98.719554,21.81195 12.5,132.000001 -137.219554,127.188051 -98.719554,-21.81195 z" d="m 187.1642,11.771165 c -5.09466,6.123808 -7.14492,11.54486 -6.65041,15.78799 0.4945,4.243131 3.51873,7.294647 8.44717,8.866203 4.92845,1.571556 11.75276,1.661179 19.90124,0.284192 8.14848,-1.376986 17.62044,-4.213899 27.96404,-8.23195 -14.3123,13.218037 -27.38173,26.182085 -39.61954,37.938716 -3.57242,3.442709 -7.05588,6.786321 -10.45772,10.000815 -6.58877,6.260006 -12.88946,11.960452 -18.92788,16.917534 -6.03842,4.957082 -11.81601,9.170715 -17.33084,12.526605 -5.51482,3.35589 -10.76885,5.85515 -15.70628,7.44384 -4.93743,1.58868 -9.55975,2.2676 -13.73032,2.02761 -4.17057,-0.23999 -7.88921,-1.39913 -10.92775,-3.44616 -3.03854,-2.04703 -5.39442,-4.9829 -6.76822,-8.72624 -1.3738,-3.743349 -1.76077,-8.294489 -0.84567,-13.511087 0.91509,-5.216598 3.13793,-11.096873 6.91958,-17.447336 1.9714,-3.235014 4.35486,-6.565396 7.18336,-9.961385 6.69385,-7.994554 15.76739,-16.360228 27.47004,-24.829177 11.70264,-8.46895 26.03715,-17.039058 43.0792,-25.64017 0,0 0,0 0,0 z" id="path14" inkscape:connector-curvature="0" style="fill:#e42040" />
        <path inkscape:original-d="M 85.708147,124.91211 C 101.43415,173.14764 109.02609,217.60559 114.39178,279.27339 157.71877,198.9578 178.96712,119.86013 182.26707,32.800615 134.54881,57.261049 130.14693,96.251866 85.708147,124.91211 z" d="m 101.4363,109.17906 c -2.073182,7.70085 -3.569632,15.44925 -4.469588,23.28106 -0.396171,3.82297 -0.637886,7.62386 -0.723925,11.40654 -0.40139,9.23088 -0.127918,18.75544 0.757664,28.54086 0.885583,9.78541 2.385249,19.83575 4.543569,30.10381 0.39955,1.87353 0.81608,3.75127 1.24979,5.633 2.38117,10.88368 5.60511,22.17594 9.68442,33.98979 4.0793,11.81384 9.01983,24.15085 14.81509,37.08283 0.99527,-11.7414 2.27787,-23.38596 4.03117,-34.99204 1.7533,-11.60607 3.97555,-23.17689 6.82883,-34.80187 0.4558,-1.84881 0.92141,-3.70653 1.39796,-5.57261 4.90643,-19.2878 11.39282,-39.18346 20.23564,-58.78244 1.66891,-3.81107 3.44991,-7.63462 5.34114,-11.45701 10.18401,-20.39316 23.26329,-40.208583 38.20349,-58.414063 0,-4e-6 0,-8e-6 1e-5,-1.2e-5 2.74711,-3.337422 5.55913,-6.613848 8.43053,-9.826019 12.57829,-14.05741 26.13923,-26.95195 40.41107,-38.849524 -16.29231,5.636865 -30.73885,11.79574 -44.22311,18.57462 -13.48426,6.778881 -25.97591,14.179582 -38.21903,22.002764 -4.97959,3.205923 -9.89613,6.484526 -14.80173,9.800519 -8.45335,5.744063 -16.90739,11.507436 -25.69868,17.000008 -8.79129,5.492571 -17.91905,10.715887 -27.79431,15.279787 z" id="path16" inkscape:connector-curvature="0" style="fill:#f3f3f3" />
        <path inkscape:original-d="M 57.83478,5.2256224 C 30.917399,73.110333 11.46863,160.00449 0,248.38422 46.23976,191.77927 78.73458,159.91745 124.25217,124.13205 87.021148,83.033071 88.303923,45.488005 57.83478,5.2256224 z" d="M 189.56921,6.692495 C 174.12507,13.483361 158.40653,20.949622 142.7852,29.329676 127.16387,37.70973 111.64015,47.003891 96.660632,57.547775 92.727188,60.332616 88.847221,63.204199 85.027048,66.168167 75.249683,73.791163 65.800192,81.95271 57.025702,90.760636 48.251211,99.568562 40.152501,109.02361 33.143143,119.2376 c -2.496341,3.66117 -4.849946,7.40572 -7.042088,11.24276 -5.596372,9.62091 -10.15647,19.93251 -13.578748,30.68767 -3.4222777,10.75517 -5.7063958,21.95306 -6.7798766,33.29731 -0.2048831,2.16541 -0.3663122,4.33599 -0.4836629,6.50969 -0.7471559,13.75368 0.1677895,27.60169 2.3702974,41.30823 5.4169871,-14.76287 12.1099481,-27.75398 19.6972811,-39.221 1.320105,-1.9752 2.6645,-3.9055 4.028488,-5.79394 4.105994,-5.7118 8.414392,-11.03824 12.858102,-16.04504 4.443711,-5.00679 9.02378,-9.69421 13.714722,-14.13091 9.381882,-8.87341 19.186488,-16.74323 29.538332,-24.16773 4.442817,-3.34327 9.040786,-6.66939 13.81832,-10.02571 10.40337,-7.22519 21.5721,-14.40307 33.8347,-21.93006 -3.46291,-12.239945 -2.25958,-24.02348 1.39858,-35.100708 1.218,-3.507282 2.69853,-6.914596 4.38689,-10.225636 2.96759,-5.810643 6.50247,-11.330155 10.35314,-16.610655 3.85067,-5.280499 8.01773,-10.322768 12.30427,-15.176152 4.28654,-4.853384 8.69292,-9.518068 13.06995,-14.033779 4.37703,-4.515711 8.7252,-8.882399 12.93737,-13.129445 z" id="path18" inkscape:connector-curvature="0" style="fill:#fcfcfc" />
      </g>
      <path inkscape:original-d="m 380.87868,472.09448 c 12.08579,-41.25736 -23.7481,-85.26083 10.82843,-140.70711 36.35899,-58.3046 118.19362,5.91282 163.17157,1.5" inkscape:path-effect="#path-effect6920" sodipodi:nodetypes="csc" inkscape:connector-curvature="0" id="path6337" d="m 374.57846,412.34736 c 1.4673,9.69236 3.49949,19.10092 5.03079,28.48502 0,0 0,0 0,0 0.84393,5.17571 1.53827,10.34098 1.82573,15.5538 0.28631,5.18232 0.17191,10.42777 -0.5563,15.7083 2.32482,-4.81283 3.83593,-10.10795 4.62889,-15.51912 0.79667,-5.4341 0.90664,-10.96546 0.62237,-16.41937 0,0 0,0 0,0 -0.51166,-9.86483 -2.20184,-19.51844 -3.641,-29.00727 -0.23417,-1.54395 -0.45796,-3.08491 -0.66623,-4.62356 -1.57415,-11.76581 -2.29619,-23.5791 -0.73071,-35.02907 1.7908,-13.41899 6.79344,-26.40443 14.00923,-37.99213 0,-1e-5 1e-5,-1e-5 1e-5,-1e-5 3.80779,-6.06503 8.61401,-11.4765 14.4152,-15.27281 5.13995,-3.41283 11.14796,-5.59471 17.35766,-6.6405 6.52177,-1.10416 13.32644,-0.9724 20.12757,-0.21295 7.36832,0.83288 14.7083,2.45739 22.02282,4.41369 10e-6,0 10e-6,10e-6 2e-5,10e-6 15.10696,4.04478 29.97536,9.61881 45.31844,14.34676 6.94861,2.14645 14.05102,4.13712 21.37662,5.49398 6.26846,1.17935 12.85171,1.86671 19.54968,1.23613 l -0.78114,-7.96178 c -5.59734,0.57572 -11.43652,-0.0802 -17.31749,-1.14165 -6.84698,-1.25715 -13.6477,-3.17377 -20.47151,-5.27184 -15.03914,-4.63554 -30.00207,-10.23681 -45.60205,-14.42847 0,0 0,0 -10e-6,-1e-5 -7.54423,-2.02922 -15.27333,-3.72765 -23.19019,-4.63545 -7.31284,-0.84784 -14.85758,-0.96046 -22.34778,0.27039 -7.20338,1.18942 -14.24228,3.77628 -20.45033,7.85545 -6.93086,4.60945 -12.5306,10.83527 -16.79575,17.71587 -10e-6,0 -10e-6,10e-6 -10e-6,10e-6 -7.77735,12.45502 -13.16008,26.49574 -15.14947,41.15801 -1.65596,12.48052 -0.93365,25.00732 0.7315,37.16959 0.21517,1.58915 0.4447,3.17192 0.68344,4.74898 z" style="fill:#f190d2;fill-opacity:1;stroke:none" />
      <path clip-path="url(#clipPath4339)" style="fill:#ba2459;fill-opacity:1;stroke:#8b1b42;stroke-width:8;stroke-miterlimit:20;stroke-opacity:1;stroke-dasharray:none" d="m 518.99393,51.21261 c 59.83177,53.16806 103.1842,114.59114 86.41984,202.94493 -2.06721,-14.95143 -5.69971,-27.0124 -11.79027,-38.94799 -7.69287,54.47714 -30.613,72.52397 -51.33033,121.81659 -4.25008,-37.56536 -0.56353,-66.74751 8.41596,-97.67831 -9.31542,13.17732 -18.08916,21.35991 -29.32307,30.05817 14.19562,-31.69471 20.64397,-56.03354 24.03058,-82.47962 -6.18359,9.49045 -13.77402,19.83112 -22.47553,28.44909 5.75927,-45.08398 -12.08062,-89.43272 -47.09598,-115.11409 z" id="path4325" inkscape:connector-curvature="0" sodipodi:nodetypes="cccccccccc" mask="none" />
      <path inkscape:original-d="m 418.66365,389.426 c -8.93645,34.13629 0.67724,68.30859 29.45785,74.65216 C 660.54171,510.89794 664.79323,318.79865 674.60272,199.39304 689.90631,13.110716 406.96173,39.54307 481.06769,231.81136" inkscape:path-effect="#path-effect6888" style="fill:#f190d2;fill-opacity:1;stroke:none" d="m 433.7474,452.45063 c -0.28953,-0.25951 -0.57423,-0.5241 -0.85389,-0.79369 0,-1e-5 0,-1e-5 0,-1e-5 -4.46075,-4.23636 -7.7931,-9.763 -10.18077,-15.72629 -2.84056,-7.07091 -4.34313,-14.67006 -4.90259,-22.52046 -0.55946,-7.85041 -0.17873,-15.95384 0.8535,-23.98418 -3.15281,7.4752 -5.26203,15.62499 -5.87889,23.96531 -0.61685,8.34032 0.25426,16.86554 2.93329,25.05065 2.30012,6.99315 6.15563,13.65663 11.62859,18.97733 0,0 0,0 0,0 0.35204,0.33814 0.71008,0.66935 1.07384,0.99351 5.3456,4.76376 11.89394,8.0435 18.84004,9.5716 23.29969,5.15069 47.30598,8.22122 71.37431,7.05565 2e-5,0 3e-5,0 4e-5,0 18.66375,-0.89974 37.39391,-4.5669 54.71096,-12.10995 14.99077,-6.55233 28.64892,-16.04535 40.06176,-27.74834 11.25614,-11.56161 20.30974,-25.04098 27.5039,-39.30816 7.5596,-14.98219 13.19048,-30.80617 17.58702,-46.85594 0,0 10e-6,-10e-6 10e-6,-2e-5 4.57849,-16.69861 7.86012,-33.68481 10.40569,-50.71742 2.53512,-16.95229 4.34146,-33.97197 5.84743,-50.97812 1.40817,-15.89432 2.53738,-31.77398 3.83765,-47.60155 1.72605,-20.65134 0.003,-41.93161 -7.19223,-61.67963 -5.86956,-16.04569 -15.53371,-30.75121 -28.33614,-42.192804 -10e-6,-1e-5 -2e-5,-2e-5 -3e-5,-3e-5 C 631.18905,85.269088 616.87614,77.607058 601.65543,73.247349 586.63819,68.943103 570.77651,67.762242 555.294,69.675885 c -15.3159,1.88457 -30.30722,6.835731 -43.58896,14.843488 -2e-5,8e-6 -3e-5,1.5e-5 -4e-5,2.3e-5 -13.40099,8.085532 -24.88675,19.378514 -32.94432,32.868684 -10e-6,2e-5 -2e-5,3e-5 -3e-5,4e-5 -9.0024,15.15326 -13.47312,32.63246 -14.02369,50.05675 -0.70452,22.65063 4.54212,44.9929 12.59837,65.80505 l 7.46472,-2.87712 c -7.73081,-20.14748 -12.80046,-41.44337 -12.06738,-62.66593 0.55262,-16.24262 4.64845,-32.44333 12.89898,-46.22127 1e-5,-1e-5 1e-5,-1e-5 2e-5,-2e-5 7.32491,-12.30447 17.89863,-22.680419 30.20816,-30.117595 10e-6,-4e-6 10e-6,-7e-6 2e-5,-1.1e-5 12.23214,-7.396221 26.17207,-11.983693 40.43479,-13.75242 14.42551,-1.78034 29.22508,-0.682729 43.17509,3.321715 14.11327,4.054171 27.38608,11.142698 38.28517,20.880231 10e-6,0 2e-5,1e-5 3e-5,2e-5 11.76211,10.47525 20.69759,24.10809 26.15014,38.97478 6.75743,18.34657 8.32673,38.49139 6.73108,58.27323 -1.30509,15.88596 -2.43284,31.74859 -3.83328,47.55045 -1.4997,16.91406 -3.28709,33.77453 -5.7906,50.50053 -2.51749,16.80903 -5.73343,33.48423 -10.20865,49.78444 0,10e-6 0,2e-5 -1e-5,4e-5 -4.30505,15.66562 -9.74453,30.99284 -17.01284,45.36566 -6.91567,13.66622 -15.49822,26.48615 -26.09074,37.32985 -10.69426,10.96736 -23.51077,19.87847 -37.53681,26.00262 -1e-5,10e-6 -3e-5,10e-6 -4e-5,2e-5 -16.21878,7.10763 -34.0122,10.55499 -51.90076,11.45054 -1e-5,0 -2e-5,0 -4e-5,0 -23.12015,1.15211 -46.42164,-1.85913 -69.2599,-6.87776 -5.63364,-1.24461 -10.98033,-3.90758 -15.23508,-7.72129 z" id="path6316" inkscape:connector-curvature="0" sodipodi:nodetypes="cssc" />
      <g id="g6709">
        <path d="m 470.85891,197.5958 c -13.71775,10.57457 -12.13943,13.22905 1.27199,3.55021 z m 1.96657,5.3271 c -13.15954,10.88447 -11.73667,13.56849 1.38635,3.68856 z" style="fill:black;fill-opacity:1;fill-rule:nonzero;stroke:none" id="path6390" inkscape:connector-curvature="0" />
        <path sodipodi:nodetypes="ccccc" inkscape:connector-curvature="0" id="path6501" d="m 479.96967,232.49093 c -5.5,-12.25 -9.19822,-26.9179 -10.57322,-39.0429 13.71447,-9.08274 21.7019,-18.15838 27.21967,-29.15533 6.98708,17.55824 9.17802,38.82439 4.43828,57.11349 -6.60258,5.3237 -14.46785,6.60368 -21.08473,11.08474 z" style="fill:white;stroke:none" />
        <g id="g6697" clip-path="url(#clipPath6705)">
          <path style="fill:url(#linearGradient6250);fill-opacity:1;fill-rule:nonzero;stroke:none" d="m 522.05876,191.49477 c 0,7.72223 -14.02629,13.98233 -31.3286,13.98233 -17.3023,0 -31.32859,-6.2601 -31.32859,-13.98233 0,-7.72223 14.02629,-13.98234 31.32859,-13.98234 17.30231,0 31.3286,6.26011 31.3286,13.98234 z" id="path6578" inkscape:connector-curvature="0" sodipodi:nodetypes="ccccc" sodipodi:cx="490.73016" sodipodi:cy="191.49477" sodipodi:rx="31.328596" sodipodi:ry="13.982334" sodipodi:type="arc" transform="matrix(0.10467062,0.99450694,-0.99450694,0.10467062,629.80799,-316.58365)" />
          <path transform="matrix(0.08219253,0.8295509,-0.8295509,0.08219253,611.22906,-231.63203)" sodipodi:type="arc" sodipodi:ry="14.146337" sodipodi:rx="30.972391" sodipodi:cy="191.49477" sodipodi:cx="490.73016" sodipodi:nodetypes="ccccc" inkscape:connector-curvature="0" id="path6688" d="m 521.70255,191.49477 c 0,7.8128 -13.86681,14.14633 -30.97239,14.14633 -17.10558,0 -30.97239,-6.33353 -30.97239,-14.14633 0,-7.81281 13.86681,-14.14634 30.97239,-14.14634 17.10558,0 30.97239,6.33353 30.97239,14.14634 z" style="fill:black;stroke:none" />
          <path transform="matrix(0.97291116,-0.16633305,0.16633305,0.97291116,-16.486927,85.133603)" d="m 497.91446,176.11096 c 0,7.32724 -2.50334,13.26714 -5.59137,13.26714 -3.08803,0 -5.59137,-5.9399 -5.59137,-13.26714 0,-7.32723 2.50334,-13.26713 5.59137,-13.26713 3.08803,0 5.59137,5.9399 5.59137,13.26713 z" sodipodi:ry="13.267136" sodipodi:rx="5.591373" sodipodi:cy="176.11096" sodipodi:cx="492.32309" id="path6690" style="fill:white;stroke:none" sodipodi:type="arc" />
          <path sodipodi:type="arc" style="fill:white;stroke:none" id="path6695" sodipodi:cx="492.32309" sodipodi:cy="176.11096" sodipodi:rx="6.395082" sodipodi:ry="11.476461" d="m 498.71817,176.11096 c 0,6.33828 -2.86317,11.47646 -6.39508,11.47646 -3.53191,0 -6.39508,-5.13818 -6.39508,-11.47646 0,-6.33827 2.86317,-11.47646 6.39508,-11.47646 3.53191,0 6.39508,5.13819 6.39508,11.47646 z" transform="matrix(0.32809469,-0.06908142,0.06908142,0.32809469,314.30526,168.15466)" />
        </g>
        <path sodipodi:nodetypes="scsscccc" inkscape:connector-curvature="0" d="m 468.62279,192.16059 c 17.99784,-12.87511 26.99087,-24.81896 30.07379,-37.87356 2.49298,12.00652 -6.59412,25.23222 -28.91325,41.48652 -12.3074,8.96308 -14.46917,5.90764 -1.16054,-3.61296 z m 26.73621,-25.50901 2.15854,-5.3489 c 7.21538,17.5589 9.77961,41.70821 3.53686,60.10351 2.34488,-19.48488 1.30414,-38.32325 -5.6954,-54.75461 z" style="fill:black;stroke:none" id="path6392" />
      </g>
      <path sodipodi:nodetypes="csssc" inkscape:connector-curvature="0" id="path4382-0" d="m 431.89438,456.06691 c -37.52313,63.19058 -42.42176,146.5173 -10.04521,224.69325 7.81959,18.88106 -93.04134,22.71637 -95.71059,0 -9.78615,-83.28414 4.13913,-160.78177 41.86677,-221.77174 2.35542,-3.80773 7.68002,-5.63973 15.61816,-4.82455" style="fill:none;stroke:#f190d2;stroke-width:8;stroke-miterlimit:4;stroke-opacity:1;stroke-dasharray:none;display:inline" />
      <g id="g6860">
        <path sodipodi:nodetypes="csscc" inkscape:connector-curvature="0" id="path6858" d="m 496.35954,450.93807 c -25.45585,79.19595 -32.98037,159.87852 -20.36397,240.00818 4.27294,27.13839 104.09692,23.7516 94.94471,0 C 539.12044,608.36819 529.30066,534.6812 532.12909,449.10964 z" style="fill:#f6bbe3;fill-opacity:1;stroke:none" />
        <path style="fill:#f190d2;fill-opacity:1;stroke:none" d="m 483.63881,516.72043 c 4.20931,-21.90665 8.78255,-43.70963 12.72073,-65.78236 -4.99843,10.06265 -9.08457,20.5859 -12.44661,31.35953 -3.36204,10.77363 -6.00057,21.79711 -8.13564,32.91251 -11.15371,58.06713 -12.92228,117.91817 -3.73304,176.35828 0.37752,2.30877 1.24513,4.45315 2.48378,6.31431 1.33485,1.98907 2.95135,3.63511 4.67415,4.9716 10e-6,0 10e-6,0 10e-6,0 4.18782,3.23989 8.90382,5.26921 13.50383,6.69225 10e-6,0 2e-5,0 3e-5,0 5.6461,1.7911 11.4162,2.87818 17.14395,3.55976 6.22408,0.74752 12.48503,1.03266 18.7219,0.92308 6.03378,-0.10276 12.09449,-0.57471 18.1112,-1.54057 1e-5,0 2e-5,0 3e-5,0 5.11353,-0.80928 10.31346,-1.99836 15.361,-3.9887 2.02992,-0.79815 4.08058,-1.7806 6.06119,-3.04324 1.63085,-1.01988 3.2527,-2.34707 4.67392,-4.06972 1e-5,-10e-6 1e-5,-2e-5 2e-5,-3e-5 1.23765,-1.48811 2.1711,-3.36847 2.5911,-5.54507 0.34984,-2.27363 0.0614,-4.44754 -0.69759,-6.33405 -14.80777,-38.43646 -25.91616,-78.31591 -32.17786,-118.9668 0,0 -10e-6,-10e-6 -10e-6,-2e-5 -2.78736,-18.06695 -4.62831,-36.27347 -5.68623,-54.54597 -0.64491,-11.13898 -1.29906,-22.53562 -2.04143,-33.81092 -0.74238,-11.2753 -1.57503,-22.42922 -2.63815,-33.07466 -1.84793,10.42292 -3.0234,21.61977 -3.5522,33.03219 -0.52879,11.41241 -0.40833,23.03814 0.24614,34.31627 1.07361,18.50077 2.94089,36.9592 5.76523,55.30172 10e-6,10e-6 10e-6,2e-5 10e-6,3e-5 6.36572,41.27732 17.62132,81.70938 32.61952,120.62464 0.2702,0.78446 0.41951,1.54387 0.28023,2.09054 -0.0542,0.55782 -0.43735,1.22153 -0.94012,1.89511 0,10e-6 0,10e-6 -10e-6,10e-6 -0.64282,0.84099 -1.62909,1.59706 -2.76718,2.35637 -1.39635,0.90723 -2.99014,1.65493 -4.69056,2.33895 -4.26205,1.70861 -8.90086,2.74309 -13.67767,3.5249 -5.58292,0.90022 -11.26645,1.33872 -16.97967,1.44023 -5.90182,0.10149 -11.798,-0.16497 -17.6276,-0.86705 -5.37891,-0.65413 -10.65787,-1.63444 -15.6705,-3.23944 0,0 -10e-6,0 -2e-5,0 -4.11189,-1.35276 -7.9873,-2.93606 -10.98206,-5.35417 -10e-6,0 -10e-6,-10e-6 -2e-5,-10e-6 -1.19531,-0.96223 -2.23626,-1.98231 -2.94753,-3.09371 -0.64479,-0.99278 -1.10387,-2.08309 -1.25819,-3.15211 -9.0577,-57.45041 -7.30284,-116.38325 3.69192,-173.60368 z" id="path6310" inkscape:connector-curvature="0" sodipodi:nodetypes="cssc" inkscape:path-effect="#path-effect6850" inkscape:original-d="m 496.35954,450.93807 c -25.45585,79.19595 -32.98037,159.87852 -20.36397,240.00818 4.27294,27.13839 104.09692,23.7516 94.94471,0 C 539.12044,608.36819 529.30066,534.6812 532.12909,449.10964" />
      </g>
      <g id="g6462">
        <path d="m 594.63401,215.38529 c 30.67234,15.65503 29.02446,20.10994 -2.6609,4.93326 z m 3.52447,-7.67199 c 32.19481,13.46519 30.73844,17.77471 -2.30833,4.98273 z" style="fill:black;fill-opacity:1;fill-rule:nonzero;stroke:none" id="path6379" inkscape:connector-curvature="0" />
        <g clip-path="url(#clipPath6458)" id="g6446">
          <path sodipodi:type="arc" style="fill:white;stroke:none" id="path6363" sodipodi:cx="551.5" sodipodi:cy="168.09448" sodipodi:rx="34.423981" sodipodi:ry="48" d="m 585.92398,168.09448 c 0,26.50967 -15.41214,48 -34.42398,48 -19.01184,0 -34.42398,-21.49033 -34.42398,-48 0,-26.50967 15.41214,-48 34.42398,-48 19.01184,0 34.42398,21.49033 34.42398,48 z" transform="matrix(1.0621093,0.33815375,-0.33815375,1.0621093,38.08823,-176.43206)" />
          <g id="g6427" clip-path="url(#clipPath6435)">
            <path sodipodi:type="arc" style="fill:url(#linearGradient6252);fill-opacity:1;stroke:none" id="path6384" sodipodi:cx="551.5" sodipodi:cy="168.09448" sodipodi:rx="36.757927" sodipodi:ry="50.874111" d="m 588.25793,168.09448 c 0,28.097 -16.45709,50.87411 -36.75793,50.87411 -20.30084,0 -36.75793,-22.77711 -36.75793,-50.87411 0,-28.09699 16.45709,-50.87411 36.75793,-50.87411 20.30084,0 36.75793,22.77712 36.75793,50.87411 z" transform="matrix(0.80419215,0.15734164,-0.15734164,0.80419215,137.43629,-34.109653)" />
            <path transform="matrix(0.6734415,0.10768502,-0.10768502,0.6734415,197.44824,14.504454)" d="m 589.34385,168.09448 c 0,28.097 -16.94327,50.87411 -37.84385,50.87411 -20.90058,0 -37.84385,-22.77711 -37.84385,-50.87411 0,-28.09699 16.94327,-50.87411 37.84385,-50.87411 20.90058,0 37.84385,22.77712 37.84385,50.87411 z" sodipodi:ry="50.874111" sodipodi:rx="37.843845" sodipodi:cy="168.09448" sodipodi:cx="551.5" id="path6386" style="fill:black;stroke:none" sodipodi:type="arc" />
            <path transform="matrix(0.97414956,-0.22590401,0.22590401,0.97414956,-28.476326,130.29774)" d="m 582.77897,177.71948 c 0,10.09541 -5.55344,18.27935 -12.40397,18.27935 -6.85053,0 -12.40397,-8.18394 -12.40397,-18.27935 0,-10.09541 5.55344,-18.27935 12.40397,-18.27935 6.85053,0 12.40397,8.18394 12.40397,18.27935 z" sodipodi:ry="18.279352" sodipodi:rx="12.403975" sodipodi:cy="177.71948" sodipodi:cx="570.375" id="path6409" style="fill:white;stroke:none" sodipodi:type="arc" />
            <path sodipodi:type="arc" style="fill:white;stroke:none" id="path6411" sodipodi:cx="570.375" sodipodi:cy="177.71948" sodipodi:rx="12.429778" sodipodi:ry="16.586329" d="m 582.80478,177.71948 c 0,9.16038 -5.565,16.58633 -12.42978,16.58633 -6.86478,0 -12.42978,-7.42595 -12.42978,-16.58633 0,-9.16037 5.565,-16.58633 12.42978,-16.58633 6.86478,0 12.42978,7.42596 12.42978,16.58633 z" transform="matrix(0.29488688,-0.07967207,0.07967207,0.29488688,371.74452,185.67302)" />
          </g>
        </g>
        <path sodipodi:nodetypes="scsscccc" inkscape:connector-curvature="0" d="m 604.02569,201.29428 c -31.86947,-9.96789 -57.27,-28.5898 -71.05602,-48.52303 -0.83882,17.31281 36.44838,43.37009 69.53033,53.32323 29.15997,8.77316 30.37649,4.22353 1.52569,-4.8002 z m -64.93935,-37.63434 -2.98676,-4.02636 c -10.81739,15.59036 -15.05272,39.57071 -6.24111,57.35013 -4.37864,-17.67544 -0.58162,-39.65625 9.22787,-53.32377 z" style="fill:black;stroke:none" id="path6377" />
      </g>
      <path sodipodi:nodetypes="csc" inkscape:connector-curvature="0" id="path6796" d="m 476.02985,240.41331 c 0.0561,-0.42792 0.17816,-0.83183 0.36958,-1.13595 0.48905,-1.28765 2.49779,-2.27348 4.76642,-3.68967 3.06834,-1.69588 6.4752,-3.2952 9.77915,-5.33622 3.83075,-2.35864 7.44651,-5.29229 10.1094,-8.84528 -4.12685,1.72853 -8.17231,2.88384 -12.24166,4.04251 -3.48465,0.98087 -7.1053,1.92594 -10.78551,3.42636 -2.75641,0.9606 -5.96766,2.7584 -8.39939,6.207 -0.81867,1.33412 -1.32972,2.78601 -1.52994,4.26553 -0.058,0.42848 -0.0903,0.85924 -0.0969,1.29024 0.005,2.37094 0.52342,4.46932 1.25177,6.22902 4.93198,12.5537 13.99878,22.98712 24.6855,30.66776 0,0 0,0 0,0 12.05149,8.69983 26.14303,14.263 40.65456,16.79325 0,0 0,0 0,0 16.25407,2.84402 33.09058,1.8905 48.94205,-2.56282 1.82439,-0.51418 3.63365,-1.0739 5.42663,-1.67744 3.68511,-1.24045 7.6155,-2.8729 11.54032,-4.86934 3.92481,-1.99645 7.8423,-4.35649 11.53563,-6.96711 3.69334,-2.61061 7.16152,-5.4699 10.24279,-8.39774 3.08127,-2.92783 5.77582,-5.92167 7.98315,-8.76842 -6.14625,3.66422 -13.40836,8.00934 -21.03718,11.85336 -3.81442,1.92201 -7.71302,3.72704 -11.56256,5.33807 -3.84955,1.61104 -7.64953,3.02771 -11.24852,4.23556 -1.66759,0.55965 -3.34896,1.0772 -5.04293,1.55093 -14.72005,4.13082 -30.37513,5.02513 -45.39776,2.38516 -13.42831,-2.36866 -26.41713,-7.46563 -37.34639,-15.39465 0,0 0,-1e-5 -1e-5,-1e-5 -9.62956,-7.02021 -17.77373,-16.25834 -21.9176,-27.08188 -0.4387,-1.24634 -0.77688,-2.32912 -0.71088,-3.18223 0.004,-0.12605 0.014,-0.25206 0.0303,-0.37599 z" style="fill:#f190d2;fill-opacity:1;stroke:none" inkscape:path-effect="#path-effect6788" inkscape:original-d="m 501.0544,221.40619 c -14.15196,11.35566 -33.67039,9.59489 -28.07279,24.013 17.25636,44.44832 96.45512,70.24648 157.28179,15.6658" />
      <path d="m 486.23745,267.45327 c 15.78464,-10.97703 30.83794,-12.57843 44.71967,-2.94454 -14.13299,-4.15596 -27.78984,-2.17983 -39.81066,7.36611 z m 0.64138,-24.95898 c 3.78585,2.45841 6.50541,1.42428 7.32341,-2.95392 2.38627,7.49739 -3.55371,10.06601 -7.32341,2.95392 z" style="fill:#f190d2;fill-opacity:1;fill-rule:nonzero;stroke:none" id="path6798" inkscape:connector-curvature="0" />
      <g id="g6123">
        <path style="fill:#69141d;fill-opacity:1;stroke:#3c0c11;stroke-width:8;stroke-linecap:butt;stroke-linejoin:miter;stroke-miterlimit:12;stroke-opacity:1;stroke-dasharray:none;stroke-dashoffset:7.8" d="m 432.61633,159.53515 c 17.05333,-17.07763 29.39521,-34.12356 38.21628,-52.00834 -17.01345,12.74569 -33.7193,22.52386 -54.2254,30.84493 25.59925,-47.920313 28.98581,-78.578952 77.96374,-104.499262 -15.12742,0.795941 -34.00663,3.621319 -50.04952,8.813708 52.47234,-47.078951 123.7798,-47.9972687 188.47079,9.495255 59.82882,53.171389 103.17783,114.596869 86.40857,202.949729 -2.06638,-14.95154 -5.69821,-27.01271 -11.78811,-38.94864 -7.6959,54.47671 -30.61703,72.52227 -51.3371,121.81373 -4.24799,-37.56559 -0.55982,-66.74754 8.42139,-97.67784 -9.31615,13.17681 -18.09035,21.35891 -29.32474,30.05654 14.19738,-31.69392 20.64708,-56.03239 24.03516,-82.47828 -6.18412,9.49011 -13.77512,19.83035 -22.47711,28.44784 5.76178,-45.08366 -12.07565,-89.43339 -47.08958,-115.11671 -13.89149,13.5934 -25.0728,34.16042 -32.21387,54.92191 -2.79762,-16.84554 -1.88117,-39.33118 3.64088,-54.41422 -48.50445,9.21855 -79.03408,40.55905 -128.65138,57.79965 z" id="path3060" inkscape:connector-curvature="0" sodipodi:nodetypes="cccccsccccccccccc" />
        <path style="fill:#ba2459;fill-opacity:1;stroke:#8b1b42;stroke-width:8;stroke-miterlimit:20;stroke-opacity:1;stroke-dasharray:none" d="m 632.99222,52.181441 c 59.82882,53.171389 103.17783,114.596869 86.40857,202.949729 -2.06638,-14.95154 -5.69821,-27.01271 -11.78811,-38.94864 -7.6959,54.47671 -30.61703,72.52227 -51.3371,121.81373 -4.24799,-37.56559 -0.55982,-66.74754 8.42139,-97.67784 -9.31615,13.17681 -18.09035,21.35891 -29.32474,30.05654 14.19738,-31.69392 20.64708,-56.03239 24.03516,-82.47828 -6.18412,9.49011 -13.77512,19.83035 -22.47711,28.44784 5.76178,-45.08366 -12.07565,-89.43339 -47.08958,-115.11671 z" id="path4115" inkscape:connector-curvature="0" sodipodi:nodetypes="cccccccccc" mask="url(#mask4293)" />
        <g id="g6783" clip-path="url(#clipPath3339)">
          <path sodipodi:nodetypes="cscc" inkscape:connector-curvature="0" id="path6781" d="m 598.15988,107.17772 c -9.46786,-45.758283 10.51588,-86.537975 20.14709,-89.602013 8.714,-2.772239 78.74963,62.772641 43.03585,155.164343 z" style="fill:#f6bbe3;fill-opacity:1;stroke:none" />
          <path inkscape:original-d="m 598.15988,107.17772 c -9.46786,-45.758283 10.51588,-86.537975 20.14709,-89.602013 8.714,-2.772239 78.74963,62.772641 43.03585,155.164343" inkscape:path-effect="#path-effect6737" style="fill:#f190d2;fill-opacity:1;stroke:none" d="m 593.21888,62.592604 c -1.19327,7.541695 -1.45649,15.23605 -0.66197,22.78226 0.79451,7.54621 2.64932,14.943746 5.60297,21.802856 0.16233,-7.50384 0.36374,-14.755344 0.78311,-21.946264 0.41938,-7.19092 1.06212,-14.320871 2.17958,-21.388763 0.87202,-5.515507 2.13067,-10.967989 3.77171,-16.29962 2.08789,-6.729867 4.67333,-13.229227 8.26998,-19.001815 1.25185,-1.994027 2.53107,-3.836402 3.99759,-5.330564 1.10033,-0.979345 1.83196,-1.794694 2.35778,-1.823234 -0.49962,0.09428 -0.71732,0.149029 -0.6886,0.09983 0.0248,-0.01261 0.1733,0.04503 0.44468,0.12691 0,0 0,10e-7 0,10e-7 0.79885,0.26255 1.68212,0.791794 2.69749,1.416557 3.15772,1.992189 6.06081,4.62476 8.93496,7.462462 8.93214,8.873173 16.19546,19.466326 22.01714,30.80201 7.67636,14.988602 12.53215,31.440781 14.00071,48.183333 0.5913,6.65302 0.63007,13.34913 0.16251,20.02208 -0.50116,7.15247 -1.31353,14.45747 -2.32567,21.72375 -1.01214,7.26629 -2.22149,14.49264 -3.42003,21.51566 3.8892,-5.89383 7.11303,-12.75938 9.43932,-20.06306 2.32628,-7.30368 3.75025,-15.03701 4.27801,-22.61971 0.49238,-7.07433 0.4528,-14.18968 -0.16491,-21.27979 -1.57126,-17.811868 -6.71011,-35.246242 -14.84992,-51.129916 -6.1148,-11.963653 -13.87037,-23.231056 -23.49389,-32.824762 -3.04412,-3.052246 -6.39519,-6.043528 -10.27891,-8.538596 -1.2067,-0.791283 -2.62777,-1.583559 -4.31089,-2.205656 -0.5852,-0.22343 -1.3174,-0.417589 -2.19574,-0.536463 -0.63386,-0.127164 -1.53621,-0.07468 -2.67158,0.221857 -2.63491,0.977006 -4.47417,2.478863 -5.68069,3.882758 -2.02579,2.113792 -3.65551,4.405924 -5.04908,6.679838 -4.06085,6.581512 -6.92838,13.701306 -9.11627,20.86312 -1.75366,5.697436 -3.0982,11.51769 -4.02939,17.402934 z" id="path4542" inkscape:connector-curvature="0" sodipodi:nodetypes="csc" />
          <path sodipodi:nodetypes="ccc" inkscape:connector-curvature="0" id="path6719" d="m 626.36954,56.253568 c 12.02764,22.305224 17.87466,49.734302 17.29841,77.758782 6.08411,-28.23527 -0.99577,-57.585837 -17.29841,-77.758782 z" style="fill:#f190d2;fill-opacity:1;fill-rule:nonzero;stroke:none" />
        </g>
        <path style="fill:#3c140c;fill-opacity:1;stroke:none" d="M 588,77.655142 C 630.93324,91.91681 663.3033,123.75996 672.20711,165.80159 656.73223,126.45108 627.26219,96.661239 588,77.655142 z" id="path3335" inkscape:connector-curvature="0" sodipodi:nodetypes="ccc" />
      </g>
      <g id="g6983">
        <path sodipodi:nodetypes="csscc" inkscape:connector-curvature="0" id="path6975" d="m 514.58482,332.90489 c -17.83835,-10.70909 -31.91776,-27.88593 -44.82028,-55.32864 -14.67385,-31.21021 -88.30586,9.713 -62.74244,43.79575 28.13891,37.51656 73.21922,43.05058 104.37284,30.64631 z" style="fill:#f6bbe3;fill-opacity:1;stroke:none" />
        <path style="fill:#f190d2;fill-opacity:1;stroke:none" d="m 473.07699,292.87577 c 4.12014,7.38955 8.93768,14.44778 14.63664,20.76023 3.76538,4.16904 7.94097,7.96488 12.45163,11.22915 4.51065,3.26427 9.35682,5.99675 14.41956,8.03974 -4.13162,-3.59398 -7.95045,-7.35941 -11.53043,-11.29347 -3.57999,-3.93406 -6.92003,-8.03689 -10.0334,-12.28685 -4.7428,-6.46724 -9.01253,-13.26877 -12.9496,-20.34466 -2.37605,-4.27037 -4.58926,-8.65682 -6.68698,-13.10558 -2.03243,-4.32845 -5.4107,-7.98316 -9.69074,-10.30205 0,0 0,0 0,0 -4.3095,-2.2486 -9.01023,-3.14275 -13.50875,-3.11263 0,0 -10e-6,0 -10e-6,0 -5.0888,0.005 -10.03944,0.95366 -14.68562,2.46374 -5.04344,1.6244 -9.84512,3.89372 -14.30571,6.66813 -4.47236,2.77246 -8.65473,6.09197 -12.32802,9.96715 -3.45068,3.62126 -6.45963,7.83192 -8.55672,12.60867 0,10e-6 0,10e-6 0,10e-6 -1.97688,4.49329 -2.96036,9.52868 -2.51471,14.6301 0.56357,5.56462 2.79981,10.71776 6.02803,14.97463 12.43353,16.58074 30.22944,29.08834 50.22665,34.72053 1.02144,0.28769 2.05193,0.55496 3.09037,0.80093 9.26333,2.18823 19.10072,2.71485 28.48694,1.45286 9.38621,-1.26199 18.29808,-4.31184 25.76882,-8.72809 -8.39807,1.812 -17.19453,2.80237 -26.07533,2.75303 -8.88079,-0.0493 -17.82951,-1.1383 -26.30245,-3.23532 -0.94247,-0.23264 -1.87874,-0.47919 -2.80824,-0.73911 -18.20764,-5.09152 -34.5903,-16.63394 -45.98688,-31.82499 -2.43239,-3.29022 -4.14687,-7.09189 -4.46275,-10.92024 -0.36174,-3.52188 0.41247,-7.24604 1.88693,-10.6964 1.60176,-3.73656 4.10201,-7.17716 7.0306,-10.2985 3.13874,-3.32482 6.7912,-6.21187 10.73828,-8.66977 3.945,-2.44734 8.15573,-4.44314 12.53284,-5.84758 0,0 0,0 10e-6,0 4.04728,-1.28499 8.17551,-2.10581 12.21843,-2.0798 10e-6,0 10e-6,0 10e-6,0 3.53263,0.0487 6.9818,0.62765 9.75409,2.16694 0,0 0,0 0,10e-6 2.67697,1.40226 4.89972,3.84015 6.22419,6.65159 2.15078,4.58748 4.44577,9.13794 6.93232,13.5976 z" id="path6937" inkscape:connector-curvature="0" sodipodi:nodetypes="cssc" inkscape:path-effect="#path-effect6963" inkscape:original-d="m 514.58482,332.90489 c -17.83835,-10.70909 -31.91776,-27.88593 -44.82028,-55.32864 -14.67385,-31.21021 -88.30586,9.713 -62.74244,43.79575 28.13891,37.51656 73.21922,43.05058 104.37284,30.64631" />
        <path style="fill:none;stroke:#f190d2;stroke-width:8;stroke-linecap:butt;stroke-linejoin:miter;stroke-miterlimit:20;stroke-opacity:1;stroke-dasharray:none;stroke-dashoffset:7.8" d="m 455.1471,360.91722 c -24.08235,-18.67157 -18.5784,-33.47094 -0.77473,-29.27738 -18.72062,-20.79138 -10.25869,-36.03635 9.41356,-24.52873 -5.99278,-24.21391 9.20316,-31.3528 24.61248,-7.77167" id="path6973" inkscape:connector-curvature="0" sodipodi:nodetypes="cccc" clip-path="url(#clipPath6979)" />
        <path style="fill:url(#linearGradient6254);fill-opacity:1;stroke:url(#linearGradient6256);stroke-width:8;stroke-miterlimit:12;stroke-opacity:1;stroke-dasharray:none" d="m 502.39849,280.19547 c 1.52552,-15.8765 -53.9012,-13.62231 -115.69322,-53.26756 -89.11906,-57.17805 -103.15538,-32.48594 -21.18977,22.26192 -113.72351,-37.09437 -155.41279,2.34374 28.46197,49.19978 -73.93909,11.54109 -72.57074,34.12588 9.51407,29.39375 45.71678,-2.63554 97.85345,-36.62383 98.90695,-47.58789 z" id="path6971" inkscape:connector-curvature="0" sodipodi:nodetypes="ssccss" />
      </g>
    </g>
  </g>
</svg>
