<svg xmlns="http://www.w3.org/2000/svg" xmlns:inkscape="http://www.inkscape.org/namespaces/inkscape" xmlns:xlink="http://www.w3.org/1999/xlink" height="700" viewBox="0 0 859.99996 700" width="860">
  <defs>
    <inkscape:path-effect effect="powerstroke" id="path-effect5045" interpolator_type="CubicBezierSmooth" offset_points="0.53,1.5 | 4,1.5" start_linecap_type="zerowidth" />
    <inkscape:path-effect effect="powerstroke" id="path-effect5007" interpolator_type="CubicBezierSmooth" offset_points="0.53,1.5 | 4,1.5" start_linecap_type="zerowidth" />
    <inkscape:path-effect effect="powerstroke" id="path-effect4916" interpolator_type="CubicBezierSmooth" offset_points="0.18,1.5 | 4,1.5" start_linecap_type="zerowidth" />
    <inkscape:path-effect effect="powerstroke" id="path-effect4830" interpolator_type="CubicBezierSmooth" offset_points="0.17,1.5 | 1,1.5" start_linecap_type="zerowidth" />
    <inkscape:path-effect effect="powerstroke" end_linecap_type="zerowidth" id="path-effect1027" interpolator_type="CubicBezierSmooth" offset_points="0.31,1.5 | 2.69,1.5" start_linecap_type="zerowidth" />
    <inkscape:path-effect effect="powerstroke" id="path-effect879" interpolator_type="CubicBezierSmooth" offset_points="0.37,1.5" start_linecap_type="zerowidth" />
    <clipPath id="clipPath4320">
      <use xlink:href="#path4306" />
    </clipPath>
  </defs>
  <g inkscape:groupmode="layer" inkscape:label="Drawing">
    <g>
      <path d="m 775.28504,351.96384 c 97.07811,21.18138 77.92604,78.37559 51.27946,37.69778 14.34194,36.81219 1.99338,57.49014 -7.73332,57.30387 -7.89969,-0.15127 -11.76293,-5.34883 -10.61804,-34.15787 -3.95907,36.40493 -20.8589,25.92743 -22.15944,0.22732 -2.00656,-39.65171 -42.38662,-44.06127 -47.64582,-62.94499 -5.06355,-20.45318 24.54398,-21.44653 36.87716,1.87389 z" style="stroke-linejoin:round;stroke-width:3;stroke:#5f2e11;fill:#a1541f" />
      <path d="m 743.99215,297.84816 c 16.16788,31.43907 35.36701,44.48563 60.29229,51.16434 31.99877,8.57404 -41.96841,65.08145 -66.95667,-28.34987 z" fill="#e8c43d" />
      <path d="m 770.63015,332.55351 c 10.02235,8.18541 21.05306,13.0825 33.65429,16.45899 4.56579,15.30984 -26.78975,27.68835 -48.08476,0.67839 z" fill="#f2de45" />
      <path d="m 787.52587,342.96011 c 5.48017,2.59382 10.6251,4.40893 16.75857,6.05239 3.47618,11.6562 -13.90384,21.51714 -31.89732,13.53756 z" fill="#f7eea3" />
      <path d="m 804.28444,349.0125 c 5.98239,20.05995 -50.4393,34.16918 -63.90602,-37.27475 l 3.61373,-13.88959 c 16.16788,31.43907 35.36701,44.48563 60.29229,51.16434 31.99877,8.57404 -41.96841,65.08145 -66.95667,-28.34987" fill="none" stroke="#c58016" stroke-width="3" />
    </g>
    <g>
      <path d="m 355.32296,632.17974 1.56798,-18.4139 -23.74905,-5.37203 c -32.40228,5.40378 -43.14262,28.20972 -19.59451,20.40761 -8.2189,8.40101 8.65053,18.52661 41.77558,3.37832 z" fill="#403f48" />
      <path fill="#232229" inkscape:original-d="m 324.36151,623.33225 c -26.41764,7.27151 -10.40076,27.76268 30.96145,8.84749 l 1.56798,-18.4139 -23.74905,-5.37203 c -32.40228,5.40378 -43.14262,28.20972 -19.53948,20.37528" inkscape:path-effect="#path-effect4916" />
      <path d="m 315.66121,543.71777 c 0.26175,50.69865 56.47579,57.84079 65.50905,10.63473 z" fill="#9d6c46" stroke="#734f31" stroke-width="3" />
      <use transform="rotate(23.259955 413.9775 362.77746)" xlink:href="#g4842" />
      <path d="m 371.06091,572.46958 c -6.96126,-26.56286 0.26427,-55.59117 -1.8004,-83.15836 m -17.76076,66.18911 v -66.02765 m 60.26079,57.22086 c -3.9111,17.2802 -21.84352,30.46434 -27.855,6.49549 -8.80915,25.93966 -28.38411,30.22116 -32.40579,2.3113 -4.88308,19.57343 -18.02682,16.85212 -26.59589,-6.82423 -16.10829,15.42735 -37.08573,11.20015 -37.69992,-17.86585 v -41.4714 h 122.2787 z" fill="#783e15" />
      <path d="m 351.49959,555.50035 1.6e-4,-66.02767 17.76076,-0.16146 c 2.06467,27.56719 -5.16086,56.5955 1.7989,83.19416 -8.30612,5.39207 -17.02436,0.59177 -19.55982,-17.00503 z" fill="#a1541f" />
      <path d="m 371.06091,572.46958 c -6.96126,-26.56286 0.26427,-55.59117 -1.8004,-83.15836 m -17.76076,66.18911 v -66.02765 m 60.26079,57.22086 c -3.9111,17.2802 -21.84352,30.46434 -27.855,6.49549 -8.80915,25.93966 -28.38411,30.22116 -32.40579,2.3113 -4.88308,19.57343 -18.02682,16.85212 -26.59589,-6.82423 -16.10829,15.42735 -37.08573,11.20015 -37.69992,-17.86585 v -41.4714 h 122.2787 z" style="stroke-linejoin:round;stroke-width:3;stroke:#5f2e11;fill:none" />
      <path d="m 539.09954,560.4006 c 14.55388,55.73245 61.8221,37.38249 56.80678,-3.80662" fill="#9d6c46" stroke="#734f31" stroke-width="3" />
      <path d="m 549.01591,639.18612 c 3.99727,8.09645 63.62133,-3.2378 42.95447,-21.0737 l -19.23593,-0.25203 c -39.2682,5.17458 -33.6612,15.89627 -20.63542,15.23082 -2.61046,1.90689 -4.01839,4.20052 -3.08312,6.09491 z" fill="#403f48" />
      <path fill="#232229" inkscape:original-d="m 562.24079,629.10655 c -7.92077,1.14275 -15.05401,6.37468 -13.22488,10.07957 3.99725,8.09646 63.62133,-3.2378 42.95447,-21.0737 l -19.23593,-0.25203 c -39.2682,5.17458 -33.6612,15.89627 -20.68323,15.266" inkscape:path-effect="#path-effect5045" />
      <use transform="rotate(353.47542 607.74822 696.39394)" xlink:href="#g5037" />
      <path d="m 562.54464,644.41831 c 5.23703,7.35554 68.12274,-12.94062 41.84715,-29.11836 h -22.61364 c -38.32608,12.86414 -29.91461,25.34362 -17.21012,22.65943 -2.25292,2.31916 -3.23145,4.76218 -2.02339,6.45893 z" fill="#403f48" />
      <path fill="#232229" inkscape:original-d="m 573.99324,632.35907 c -7.6372,2.39107 -13.84501,8.69342 -11.4486,12.05924 5.23703,7.35554 68.12274,-12.94062 41.84715,-29.11836 h -22.61364 c -38.32608,12.86414 -29.91461,25.34362 -17.20315,22.65226" inkscape:path-effect="#path-effect5007" />
      <path d="m 562.29156,556.96972 c -2.176,48.93031 55.358,53.05307 56.33523,2.32284" fill="#9d6c46" stroke="#734f31" stroke-width="3" />
      <g id="g5037">
        <path d="m 575.95194,589.52639 c 10.97406,3.00438 22.54918,1.70588 30.71023,-1.30439 l 1.6202,32.32045 c -7.74664,3.99582 -19.13228,5.18463 -30.63377,-0.95333 z" fill="#e8c43d" />
        <path d="m 597.49206,605.2726 9.82675,-4.34629 0.70131,14.5098 -10.00004,-1.84846 c -1.77846,-2.09473 -1.94759,-5.42843 -0.52802,-8.31505 z" fill="#f7eea3" />
        <path d="m 596.56313,590.64433 2.10674,33.1759 9.6125,-3.27778 -1.6202,-32.32045 z m -20.28325,10.572 c 8.07366,3.73247 21.81668,4.94877 31.49495,3.43792 l 0.3164,6.65953 c -9.37914,2.85231 -20.1953,3.8901 -31.10994,2.72569 z" fill="#f2de45" />
        <path d="m 575.95194,589.52639 c 10.97406,3.00438 22.54918,1.70588 30.71023,-1.30439 l 1.6202,32.32045 c -7.74664,3.99582 -19.13228,5.18463 -30.63377,-0.95333 z" fill="none" stroke="#c58016" stroke-width="3" />
      </g>
    </g>
    <g>
      <path d="m 641.7794,561.41861 c 7.72454,15.208 20.4993,14.58503 27.82046,3.88746 11.59399,14.39081 25.57279,6.63286 31.84396,-5.69838 6.68466,16.444 22.7887,11.11976 29.24211,-3.34993 4.46965,10.02518 16.54775,7.78962 18.24778,-17.12368 5.36934,15.86909 19.78849,-0.18103 5.50612,-28.51796 -21.19727,-42.05645 12.22808,-56.00097 -0.79783,-95.04487 -7.77489,-23.30448 -7.12526,-78.58526 -5.80902,-114.00012 l -405.09776,-39.7087 -45.70328,214.40285 c -0.87117,93.80708 25.03252,85.34387 34.86684,70.36454 5.9397,14.94841 17.09035,18.75497 27.79602,4.06299 5.33377,11.79394 17.67871,12.96243 24.60413,3.15969 10.47364,8.38126 20.07105,0.19993 24.9995,-14.16533 l 54.0278,19.52459 c 6.02965,12.08945 20.86301,14.19408 20.6294,-0.45861 4.69678,10.53242 15.52249,9.9921 19.25773,-1.07858 5.76598,17.1226 20.47226,15.3392 21.64593,1.69049 10.09697,17.19262 19.72356,14.88532 24.43438,4.90685 6.21279,10.91257 14.94623,7.37552 18.11701,-1.76409 11.78076,13.7634 26.75976,7.07427 32.97472,-4.97579 16.57412,21.78685 30.02706,20.41067 41.394,3.88658 z" fill="#783e15" />
      <path d="m 584.277,569.9921 c -19.73314,-52.10139 6.30397,-59.78859 -2.27425,-97.24359 -9.38038,-40.9575 3.98055,-49.51917 1.55171,-95.09088 -1.32032,-24.77279 4.02653,-39.02407 -4.10665,-61.94858 l 5.55822,-2.59054 c 10.22258,24.70172 5.85828,49.02135 7.22812,65.22588 4.63758,54.86042 -6.86072,79.39036 1.16803,97.85235 16.93586,38.94378 -14.02281,53.72263 6.98322,81.33529 -3.36585,6.31109 -8.41419,11.18528 -16.1084,12.46007 z m 114.69598,-79.68714 c 11.14261,-39.9597 -6.58811,-33.20882 -2.80613,-77.85924 2.48229,-29.30608 9.40499,-83.45347 6.06777,-110.18694 l 13.11461,-0.0732 c 12.11106,42.78632 -6.16854,78.92076 4.06277,112.15972 13.32252,43.28152 -11.59943,69.58429 -2.1336,96.94519 9.63683,27.85519 -0.1,41.08885 3.25875,56.51947 -6.85126,3.8946 -14.86061,2.21006 -19.09333,-8.20227 6.16718,-29.37064 -12.08197,-34.83525 -2.47084,-69.30273 z" fill="#a1541f" />
      <path d="m 701.44382,559.60769 c 6.16718,-29.37064 -12.08197,-34.83525 -2.47084,-69.30273 11.14261,-39.9597 -6.58811,-33.20882 -2.80613,-77.85924 2.48229,-29.30608 9.40499,-83.45347 6.06777,-110.18694 l 13.11461,-0.0732 c 12.11106,42.78632 -6.16854,78.92076 4.06277,112.15972 13.32252,43.28152 -11.59943,69.58429 -2.1336,96.94519 9.63683,27.85519 -0.1,41.08885 3.16547,56.4635 m -136.16687,2.23811 c -19.73314,-52.10139 6.30397,-59.78859 -2.27425,-97.24359 -9.38038,-40.9575 3.98055,-49.51917 1.55171,-95.09088 -1.32032,-24.77279 4.02653,-39.02407 -4.10665,-61.94858 l 5.55822,-2.59054 c 10.22258,24.70172 5.85828,49.02135 7.22812,65.22588 4.63758,54.86042 -6.86072,79.39036 1.16803,97.85235 16.93586,38.94378 -14.02281,53.72263 6.98322,81.33529 16.57412,21.78685 30.02706,20.41067 41.394,3.88658 7.72454,15.208 20.4993,14.58503 27.82046,3.88746 11.59399,14.39081 25.57279,6.63286 31.84396,-5.69838 6.68466,16.444 22.7887,11.11976 29.24211,-3.34993 4.46965,10.02518 16.54775,7.78962 18.24778,-17.12368 5.36934,15.86909 19.78849,-0.18103 5.50612,-28.51796 -21.19727,-42.05645 12.22808,-56.00097 -0.79783,-95.04487 -7.77489,-23.30448 -7.12526,-78.58526 -5.80902,-114.00012 l -405.09776,-39.7087 -45.70328,214.40285 c -0.87117,93.80708 25.03252,85.34387 34.86684,70.36454 5.9397,14.94841 17.09035,18.75497 27.79602,4.06299 5.33377,11.79394 17.67871,12.96243 24.60413,3.15969 10.47364,8.38126 20.07105,0.19993 24.9995,-14.16533 l 54.0278,19.52459 c 6.02965,12.08945 20.86301,14.19408 20.6294,-0.45861 4.69678,10.53242 15.52249,9.9921 19.25773,-1.07858 5.76598,17.1226 20.47226,15.3392 21.64593,1.69049 10.09697,17.19262 19.72356,14.88532 24.43438,4.90685 6.21279,10.91257 14.94623,7.37552 18.11701,-1.76409 11.78076,13.7634 26.75976,7.07427 32.97472,-4.97579" style="stroke-linejoin:round;stroke-width:3;stroke:#5f2e11;fill:none" />
      <path d="m 403.0434,324.63436 c 64.94229,79.60333 158.71333,82.07456 214.56915,-12.38848 12.52567,36.87897 41.25989,33.6796 54.71783,1.86063 l -1.14138,-27.45935 -269.64408,-3.06078 z" opacity=".15" />
    </g>
    <g>
      <path d="m 436.10758,619.02997 c -13.75199,53.49182 3.59831,51.26379 7.07725,38.62611 2.49451,14.35605 18.31597,0.008 18.52309,-40.75536 z" fill="#403f48" />
      <path fill="#232229" inkscape:original-d="m 443.53238,645.37934 c -4.90717,31.36334 17.92645,20.54624 18.17554,-28.47862" inkscape:path-effect="#path-effect4830" />
      <path d="m 436.10758,619.02997 c -13.75199,53.49182 3.59831,51.26379 7.08807,38.62189" fill="none" stroke="#232229" stroke-width="3" />
      <path d="m 426.38313,541.883 c -36.2022,65.31578 39.16432,85.38389 59.37826,-1.39399" fill="#9d6c46" stroke="#734f31" stroke-width="3" />
      <path d="m 499.47812,568.74525 c -15.59123,-22.90998 -4.72613,-46.54329 -9.09531,-75.43912 -3.20801,-21.21645 -17.32808,-52.5101 -50.76528,-73.95733 20.9942,28.76881 34.47405,47.46802 36.17524,73.72177 1.51602,23.39609 -6.18504,42.12491 3.4107,70.06713 m -89.57948,-144.57747 c 17.47191,78.58397 12.09701,109.28906 19.69021,130.16495 12.26841,33.72939 36.3861,37.21887 35.83264,2.93731 19.04976,27.48062 29.87791,25.18548 30.47668,5.39264 12.61782,25.84318 34.20423,15.41827 28.65252,-14.76483 9.87451,22.84408 24.50671,17.59807 24.63996,-8.00121 0.104,-19.97841 -27.7519,-93.96799 -58.03903,-124.79063" fill="#783e15" />
      <path d="m 499.47812,568.74525 c -15.59123,-22.90998 -4.72613,-46.54329 -9.09531,-75.43912 -3.20801,-21.21645 -17.32808,-52.5101 -50.76528,-73.95733 20.9942,28.76881 34.47405,47.46802 36.17524,73.72177 1.51602,23.39609 -6.18504,42.12491 3.4107,70.06713 3.31024,5.70027 13.92052,12.92457 20.27465,5.60755 z" fill="#a1541f" />
      <path d="m 499.47812,568.74525 c -15.59123,-22.90998 -4.72613,-46.54329 -9.09531,-75.43912 -3.20801,-21.21645 -17.32808,-52.5101 -50.76528,-73.95733 20.9942,28.76881 34.47405,47.46802 36.17524,73.72177 1.51602,23.39609 -6.18504,42.12491 3.4107,70.06713 m -89.57948,-144.57747 c 17.47191,78.58397 12.09701,109.28906 19.69021,130.16495 12.26841,33.72939 36.3861,37.21887 35.83264,2.93731 19.04976,27.48062 29.87791,25.18548 30.47668,5.39264 12.61782,25.84318 34.20423,15.41827 28.65252,-14.76483 9.87451,22.84408 24.50671,17.59807 24.63996,-8.00121 0.104,-19.97841 -27.7519,-93.96799 -58.03903,-124.79063" style="stroke-linecap:round;stroke-linejoin:round;stroke:#5f2e11;stroke-width:3;fill:none" />
      <g id="g4842">
        <path d="m 423.62781,594.41323 c 10.49761,1.06751 21.71721,-2.06335 28.55672,-8.21657 l 9.76893,30.62166 c -6.46927,6.20177 -14.99588,8.30755 -29.24926,6.98928 z" fill="#e8c43d" />
        <path d="m 441.8177,605.07533 c 2.39886,-2.20051 5.27187,-3.18928 8.73112,-2.67991 2.58546,2.5808 3.0179,5.74126 2.5514,9.14374 -2.01486,2.82703 -4.72579,3.91387 -8.38964,2.61842 -2.46806,-2.78487 -3.60076,-5.78512 -2.89288,-9.08225 z" fill="#f7eea3" />
        <path d="m 438.02361,593.16376 9.80561,30.78482 7.95783,-2.78031 -8.7023,-31.18742 z m -11.25102,11.47038 c 12.55043,2.70735 24.83679,-0.79409 29.17996,-6.3743 l 2.85478,9.10513 c -4.39037,5.06311 -14.91044,8.84714 -29.06825,6.91054 z" fill="#f2de45" />
        <path d="m 423.62781,594.41323 c 10.49761,1.06751 21.71721,-2.06335 28.55672,-8.21657 l 9.76893,30.62166 c -6.46927,6.20177 -14.99588,8.30755 -29.24926,6.98928 z" fill="none" stroke="#c58016" stroke-width="3" />
      </g>
    </g>
    <g>
      <path d="m 604.14265,206.01504 c 41.1285,39.03484 148.97124,-24.09961 146.14732,102.38746 l -178.17071,-2.35834 c -16.47397,-0.21806 -25.55584,-4.24841 -31.68659,-13.11472 z" fill="#e8c43d" />
      <path d="m 715.75274,230.43814 c -34.5334,-15.42176 -86.00274,-0.1193 -111.61009,-24.4231 l -15.89127,21.51419 c 60.72732,28.2789 137.84327,28.84784 127.50136,2.90891 z" fill="#f7eea3" />
      <path d="m 615.51185,306.61812 v -31.34458 l -30,-3.60512 v 34.49586 z m 52.93734,0.84872 v -29.34458 l -23.90768,-0.15128 v 28.94968 z m 60.94104,0.6051 v -28.94968 l -18.21024,-0.15128 v 28.94968 z" fill="#f2de45" />
      <path d="m 604.14265,206.01504 c 41.1285,39.03484 148.97124,-24.09961 146.14732,102.38746 l -178.17071,-2.35834 c -16.47397,-0.21806 -25.55584,-4.24841 -31.68659,-13.11472 z" fill="none" stroke="#c58016" stroke-width="3" />
      <path d="m 747.70871,273.32697 c -36.97335,9.69021 -162.01788,5.1038 -185.65111,-10.57775" fill="none" stroke="#c58016" stroke-width="9" />
      <use transform="matrix(.99471406.01083712-.12761316 1.0002197 88.377027-6.408218)" xlink:href="#g4706" />
      <g id="g4706">
        <path d="m 639.94951,312.64264 c 0,-12.71312 -33.37794,-18.4513 -32.7673,-2.43772 0.47564,12.47337 32.7673,13.13791 32.7673,2.43772 z m -24.83696,5.85324 c -6.47086,6.88902 -10.97527,15.37263 -10.41653,25.28369 l 8.50651,3.61153 c 0.55137,-9.90803 1.51884,-18.29205 5.77403,-27.84718 -0.91876,9.95076 -1.44205,19.90251 -1.02029,29.29721 10.48555,1.33704 20.50622,0.0465 28.62369,-4.92619 -2.51022,-9.46653 -7.50703,-17.82701 -13.14102,-24.86376" fill="#f2de45" />
        <path d="m 618.25032,312.08767 21.68645,0.12581 c 0.008,7.15059 -11.68709,9.14102 -20.96021,7.33044 z m 22.03432,35.24182 c -2.28008,-10.30456 -6.02368,-19.47868 -11.35192,-27.44123 l -4.04399,0.26108 c 3.68069,9.21807 5.01539,19.2308 5.24949,28.97551 z" fill="#e8c43d" />
        <path d="m 618.25032,312.08767 -1.11844,-11.48293 c -5.30665,0.26043 -10.46373,2.86736 -9.63587,11.42054 z m -3.13777,6.40821 c -6.47086,6.88902 -10.97527,15.37263 -10.41653,25.28369 l 8.50651,3.61153 c 0.55137,-9.90803 1.51884,-18.29205 5.77403,-27.84718 z" fill="#f7eea3" />
        <path d="m 607.18221,310.20492 c -0.61064,-16.01358 32.7673,-10.2754 32.7673,2.43772 0,10.70019 -32.29166,10.03565 -32.7673,-2.43772 z m 7.93034,8.29096 c -6.47086,6.88902 -10.97527,15.37263 -10.41653,25.28369 l 8.50651,3.61153 c 0.55137,-9.90803 1.51884,-18.29205 5.77403,-27.84718 -0.91876,9.95076 -1.44205,19.90251 -1.02029,29.29721 10.48555,1.33704 20.50622,0.0465 28.62369,-4.92619 -2.51022,-9.46653 -7.50703,-17.82701 -13.14102,-24.86376" fill="none" stroke="#c58016" stroke-width="3" />
        <path d="m 628.93272,319.88826 c 5.32824,7.96255 9.07184,17.13667 11.35192,27.44123 m -15.39591,-27.18015 c 3.68069,9.21807 5.01539,19.2308 5.24949,28.97551 m -22.70971,-37.09996 32.50826,0.18859" fill="none" stroke="#c58016" stroke-width="2" />
      </g>
      <path d="m 555.13598,124.09614 c -56.43105,-119.74121 -219.71151,-123.07492 -260.26659,-15.21982 l 27.33096,24.40048 c 108.42448,216.57372 258.86475,213.90274 282.11129,64.50424 -16.29119,-15.2451 -33.46323,-40.34464 -49.17566,-73.6849 z" fill="#429d9f" />
      <path d="m 538.96381,130.72598 c 21.61214,35.3509 41.85815,62.43769 62.47024,81.62091 1.46648,-5.27046 2.11844,-9.68702 2.87759,-14.56585 -16.29119,-15.2451 -33.46323,-40.34464 -49.17566,-73.6849 -56.43105,-119.74121 -219.71151,-123.07492 -260.26659,-15.21982 l 7.28755,6.29411 c 38.77437,-59.876935 163.22624,-104.80002 236.80687,15.55555 z" fill="#5ab4b7" />
      <path d="m 556.96728,348.29082 c -27.28745,11.43891 -54.34841,10.17709 -81.21664,0.57691 -0.27666,-10.99203 0.45714,-21.04213 1.37697,-31.63533 -4.35976,9.6869 -6.60857,19.14516 -7.74144,29.63878 -8.50826,-3.5934 -17.47034,-7.45241 -25.9786,-13.03691 -0.83462,-18.77672 4.49317,-32.13845 11.67426,-44.46503 32.93816,17.04152 64.0507,18.61964 89.40699,6.33421 7.86655,13.7214 12.11344,31.78568 12.47846,52.58737 z m 47.35126,-150.5033 c 5.17018,4.89001 10.29492,8.76662 15.24244,11.56751 -0.79483,49.87645 -15.50784,96.83925 -49.94482,131.49057 -3.05965,-18.62894 -7.26849,-34.63516 -16.53462,-49.99506 25.59312,-16.21375 44.21468,-47.94802 51.237,-93.06302 z m -282.11819,-64.51072 c 40.09346,80.08515 85.93213,130.19099 128.93144,153.99173 -8.31197,12.21703 -13.4916,26.28957 -15.16444,41.1337 -19.63749,-14.87779 -41.32358,-37.31493 -58.74287,-59.68797 l -59.18737,-23.01148 -23.16772,-136.82646 z" fill="#398984" />
      <path d="m 618.67399,226.46958 c 0.45682,-5.56904 0.79679,-11.45681 0.88699,-17.11455 -4.94752,-2.80089 -10.07226,-6.6775 -15.24244,-11.56751 -0.791,5.08181 -1.80576,9.82017 -2.88449,14.55937 5.70634,5.31076 11.44073,10.01577 17.23994,14.12269 z" fill="#429d9f" />
      <path d="m 428.03488,271.8806 c -8.55698,10.24195 -13.90392,19.88844 -19.39125,32.54323 m 16.3912,15.11117 c 3.11996,-14.88051 8.03552,-28.12903 15.42281,-38.70355 m 83.94468,21.51512 3.90359,53.48496 m -27.11084,-52.40029 -2.47807,51.47749 m 97.71265,-124.13535 c 7.18449,4.33618 13.8902,9.39051 19.76819,15.68644 m -31.36035,10.23723 c 8.15109,6.57464 16.08606,13.58154 22.64402,23.34245 m -30.21302,-11.83395 c 8.58589,7.6714 16.18815,17.50678 22.75705,29.61554 m -40.05258,-11.70004 c 9.23359,11.46232 16.374,25.25039 21.97894,40.74454 m -37.52113,-31.22638 c 7.9246,13.78564 12.17149,31.84992 12.53651,52.65161 -27.28745,11.43891 -54.34841,10.17709 -81.21664,0.57691 -0.27666,-10.99203 0.45714,-21.04213 1.37697,-31.63533 -4.35976,9.6869 -6.60857,19.14516 -7.74144,29.63878 -8.50826,-3.5934 -17.47034,-7.45241 -25.9786,-13.03691 -0.83462,-18.77672 4.49317,-32.13845 11.61949,-44.48518 m 98.02849,1.36135 c 9.29212,15.5 13.50096,31.50622 16.56061,50.13516 34.43698,-34.65132 49.14999,-81.61412 49.94482,-131.49057 -20.33042,-11.50944 -43.65317,-41.18308 -64.425,-85.25889 -56.43105,-119.7412108 -219.71151,-123.0749196 -260.26659,-15.21982 l 27.33096,24.40048 c 108.42448,216.57372 258.86475,213.90274 282.17006,64.51881 m -153.26767,89.48006 c -8.28292,12.20989 -13.46255,26.28243 -15.13539,41.12656 -19.63749,-14.87779 -41.32358,-37.31493 -58.74287,-59.68797 l -59.18737,-23.01148 -23.16772,-136.82646" style="fill:none;stroke-width:3;stroke:#375f66;stroke-miterlimit:20" />
    </g>
    <g>
      <path d="m 228.58927,613.65822 c -8.86841,15.36053 6.47974,29.97359 16.46273,29.97359 6.04061,0 37.94928,-25.60113 14.9296,-52.79687 25.73414,-21.61327 19.34531,-35.85224 -9.01052,-49.28011 -20.7231,13.91625 -28.75646,28.10074 -28.75646,41.34241 0,18.24491 15.72535,14.56508 6.37465,30.76098 z m 46.73523,17.61977 c 19.28596,-13.88328 30.4076,-33.85459 9.05282,-45.34226 16.56493,-21.24924 3.45098,-34.79061 -22.30817,-46.40551 m -5.45275,96.56516 c 52.70517,-8.81715 69.64778,-47.8153 51.62212,-68.76407 22.06352,13.18087 20.39801,-3.4937 2.84873,-12.49006 -73.25463,-37.5528 -131.17168,0.80441 -125.4512,11.13981 2.18065,3.93987 11.08895,-3.8361 17.98815,-4.90475 -27.43959,26.48292 -15.77102,55.96782 25.06132,71.65089" style="stroke-linejoin:round;stroke-width:3;stroke:#5f2e11;fill:#a1541f" />
      <path d="m 216.19977,495.95709 -0.6051,43.46524 c -0.0697,5.0083 3.4345,9.74494 7.39807,9.88249 21.48596,0.74565 42.97192,0.86607 64.45788,0 4.8918,-0.19718 8.34629,-5.91806 8.37907,-10.58887 l 0.6051,-43.11241 z" fill="#f2de45" />
      <path d="m 228.93783,495.98181 c -1.53713,16.88254 -1.35589,36.84868 1.14564,53.63475 l 17.51048,0.24527 c -3.10096,-14.56563 -4.0934,-37.78722 -2.80211,-54.1146 z" fill="#f7eea3" />
      <path d="m 267.88055,500.53152 c 0.14916,3.84201 1.18254,7.08695 3.35535,9.93804 3.26369,-2.59894 4.63129,-5.17572 5.71026,-9.44492 z m 28.09797,36.24319 c -9.13628,4.37583 -69.66212,4.32539 -80.31494,-0.49075 l 0.0622,-23.0702 c 4.75822,-1.93033 13.6498,0.28898 13.69799,10.48065 2.44331,-1.56114 4.13151,-3.46074 5.88779,-6.43061 2.34374,3.34374 4.51951,5.504 7.77031,7.04852 0.12396,-17.54309 24.85536,-14.49034 21.84778,-0.19129 3.23806,-1.72364 4.45678,-3.4411 6.16951,-5.78243 2.27829,3.20586 4.564,5.33797 7.77498,7.28357 0.23378,-11.57069 6.48284,-14.16309 17.42622,-11.61101 z" fill="#e8c43d" />
      <path d="m 215.40526,526.12097 c 1.52823,-1.03286 3.58148,-0.7962 4.83466,0.55726 1.25318,1.35345 1.33141,3.41881 0.1842,4.86318 -1.14721,1.44437 -3.17668,1.83567 -4.77866,0.92136 z m 80.82762,6.64272 c -1.04404,1.12133 -2.66676,1.49179 -4.09399,0.93464 -1.42722,-0.55715 -2.36979,-1.92901 -2.37801,-3.46111 -0.008,-1.5321 0.91956,-2.91401 2.34073,-3.48644 1.42117,-0.57243 3.04777,-0.21941 4.10378,0.89065 z m -37.84139,-0.89174 c 0,2.06389 -1.67312,3.73701 -3.73701,3.73701 -2.06389,0 -3.73701,-1.67312 -3.73701,-3.73701 0,-2.06389 1.67312,-3.73701 3.73701,-3.73701 2.06389,0 3.73701,1.67312 3.73701,3.73701 z" fill="#f7eea3" />
      <path d="m 231.95619,500.38024 c 0.19515,3.99777 1.1069,7.23823 3.35535,9.93804 2.8855,-2.67458 4.40438,-5.55391 5.33207,-9.52056 m -12.68745,16.6573 c -0.0219,7.11898 0.25124,14.32266 0.85464,21.2453 l 17.14533,1.26143 c -0.86255,-6.75162 -1.40438,-14.32175 -1.61535,-21.81094 -0.97293,1.86941 -1.12252,4.01326 -1.25893,6.16151 -2.80723,-1.80668 -5.52709,-3.83181 -7.77031,-7.04852 -1.58208,2.4697 -3.31859,4.80702 -5.88779,6.43061 -0.0927,-2.34415 -0.52011,-4.46512 -1.46759,-6.23939 z" fill="#f2de45" />
      <path d="m 271.2359,510.46956 -0.13676,7.86904 m -3.21859,-17.80708 c 0.14916,3.84201 1.18254,7.08695 3.35535,9.93804 3.26369,-2.59894 4.63129,-5.17572 5.71026,-9.44492 m -44.98997,-0.6444 c 0.19515,3.99777 1.1069,7.23823 3.35535,9.93804 2.8855,-2.67458 4.40438,-5.55391 5.33207,-9.52056 m -5.33207,16.46608 v -6.94552 m -19.64796,25.96568 c 10.65282,4.81614 71.17866,4.86658 80.31494,0.49075 m -80.25276,-23.56095 c 4.75822,-1.93033 13.6498,0.28898 13.69799,10.48065 2.44331,-1.56114 4.13151,-3.46074 5.88779,-6.43061 2.34374,3.34374 4.51951,5.504 7.77031,7.04852 0.12396,-17.54309 24.85536,-14.49034 21.84778,-0.19129 3.23806,-1.72364 4.45678,-3.4411 6.16951,-5.78243 2.27829,3.20586 4.564,5.33797 7.77498,7.28357 0.23378,-11.57069 6.48284,-14.16309 17.42622,-11.61101" fill="none" stroke="#c58016" stroke-width="2" />
      <path d="m 216.19977,495.95709 -0.6051,43.46524 c -0.0697,5.0083 3.4345,9.74494 7.39807,9.88249 21.48596,0.74565 42.97192,0.86607 64.45788,0 4.8918,-0.19718 8.34629,-5.91806 8.37907,-10.58887 l 0.6051,-43.11241 z" fill="none" stroke="#c58016" stroke-width="3" />
      <path d="m 353.9919,481.14831 c 64.36706,-53.83291 22.23744,-62.33463 41.81303,-86.86149 15.24405,-19.09973 21.19405,-61.39351 -63.30536,-111.96679 m -64.5455,221.67531 c 141.28539,-68.38731 49.88646,-94.63271 89.92732,-119.64181 32.01825,-19.99826 4.06732,-73.34845 -29.17621,-90.8148 -63.8081,48.3745 -77.93144,79.14236 -59.84008,106.32909 37.76473,56.75087 -29.81756,48.50526 -7.94812,104.45173 m -32.70194,-1.88553 c -39.67262,-29.62339 -53.74418,-62.91679 -43.64205,-89.49445 10.57916,-27.83269 -5.31244,-29.65419 -20.06961,-54.04506 -26.02544,42.27196 -28.78558,89.48475 14.70903,127.28888 m 73.52698,18.25763 c -15.18227,-13.83125 -23.16767,-32.52164 -25.4107,-55.50733 -4.77304,17.46001 -3.77324,37.70187 12.92235,54.96548 m -123.86853,-110.53858 c 4.5818,73.15268 74.9839,111.08101 136.77735,111.08101 143.72262,0 239.73312,-125.04152 141.02809,-228.97463 -100.65044,-105.98156 -303.433727,12.87214 -292.59462,119.25978 3.52305,34.57929 13.96325,33.19527 14.78918,-1.36616 z" style="stroke-linejoin:round;stroke-width:3;stroke:#5f2e11;fill:#a1541f" />
    </g>
    <g>
      <path d="m 226.6801,150.37914 c -160.71925,-31.5027 -188.829086,-51.631044 -180.304025,-124.837051 1.99692,-17.1478554 -3.754444,-18.5046254 -9.810708,-3.084885 -57.974496,147.607786 -6.877787,169.862526 173.921943,219.229856 z m 131.07147,-17.25106 c 160.2165,-5.40557 192.16218,-38.098024 194.1905,-98.5331 0.51453,-15.330763 5.78409,-18.136147 11.33023,-1.381053 45.85457,138.528363 5.95477,159.357343 -177.85188,195.076223 z" fill="#5e7a7a" />
      <path d="m 580.56362,121.34148 c -0.67438,14.60246 -4.31923,26.78737 -11.22683,37.22112 -30.71677,-12.61722 -48.16431,-28.30482 -55.56944,-53.83408 3.30497,-1.89779 6.34239,-3.88839 9.1315,-5.971877 14.94436,14.916237 33.68134,21.531167 57.66477,22.584837 z m -32.59453,-58.802737 c 2.46254,-8.543202 3.63445,-17.857084 3.97298,-27.943763 0.51453,-15.330763 5.78409,-18.136147 11.33023,-1.381053 2.90892,8.787964 5.47274,17.102261 7.6766,24.976741 -7.42454,5.787104 -14.58124,6.480996 -22.97981,4.348075 z m -41.70593,136.682277 c -8.63563,2.99449 -18.08005,5.85081 -28.36254,8.63572 l -12.70505,-85.88669 c 8.42181,-1.84237 16.06233,-3.89801 22.98903,-6.16724 -0.37331,27.46272 4.17793,53.6792 18.07856,83.41821 z m -427.803823,-92.12394 c -3.099532,-1.87543 -5.946258,-3.80484 -8.555016,-5.79818 -20.908208,7.824 -38.769335,22.7694 -49.179014,47.99613 4.30274,9.42338 10.635195,17.73479 19.044303,25.28112 4.752041,-31.13616 18.163535,-50.41487 38.689727,-67.47907 z" fill="#4b6060" />
      <path d="m 226.6801,150.37914 c -160.71925,-31.5027 -188.829086,-51.631044 -180.304025,-124.837051 1.99692,-17.1478554 -3.754444,-18.5046254 -9.810708,-3.084885 -57.974496,147.607786 -6.877787,169.862526 173.921943,219.229856 z m 131.07147,-17.25106 c 160.2165,-5.40557 192.16218,-38.098024 194.1905,-98.5331 0.51453,-15.330763 5.78409,-18.136147 11.33023,-1.381053 45.85457,138.528363 5.95477,159.357343 -177.85188,195.076223 z" fill="none" stroke="#435555" stroke-width="3" />
      <path d="m 327.72474,129.97508 79.36189,-4.33641 -27.22681,31.00049 31.31865,16.13161 -25.08924,22.51706 37.06678,29.05939 -83.46063,14.68358 z m -98.86223,7.87948 -78.19356,-11.89622 16.73802,31.25267 -26.63858,12.08922 17.83699,28.29464 -31.59753,23.56661 65.25458,22.68226 z m -206.304655,-77.379331 c 7.493715,2.007935 18.033527,2.480735 25.720337,1.878265 5.28517,-0.414237 5.695796,10.034296 0.4349,10.625492 -7.810346,0.877692 -19.431801,0.544382 -28.486159,-1.618696 -3.693461,-0.882365 -2.495436,-12.17828 2.330922,-10.885061 z m 118.038895,70.872661 c -12.08502,24.82369 -21.24302,49.50779 -20.70988,80.51624 0.13616,7.91942 -19.42772,4.03446 -19.18202,-3.71066 0.87667,-27.63583 9.74151,-57.05172 23.5513,-80.97098 3.92145,-6.79215 19.43421,-2.18915 16.3406,4.1654 z m 316.7585,-7.72644 c 1.41961,-9.64966 19.55563,-10.97722 18.78882,-3.65793 -2.80826,26.80517 -0.11698,57.41644 12.16798,83.26248 3.40019,7.15361 -17.54014,12.68975 -20.63207,5.58436 -11.26924,-25.89722 -14.38963,-57.558 -10.32473,-85.18891 z m -358.435836,-5.35274 c 3.939536,-5.46611 23.364736,0.5652 19.884206,5.96361 -15.06789,23.37078 -22.888401,51.33006 -24.756956,80.00095 -0.479569,7.35845 -20.781208,0.38633 -20.084353,-7.13141 2.7081,-29.21524 9.538871,-57.44034 24.957103,-78.83315 z m 323.409886,12.48509 c 1.03144,-8.1922 27.30321,-14.09237 26.09136,-5.87186 -4.01846,27.259 -0.75875,59.28409 11.3749,85.43268 3.10388,6.689 -21.72609,14.28725 -24.72068,7.0749 -10.81542,-26.0485 -16.20538,-59.15609 -12.74558,-86.63572 z" fill="#e8c43d" />
      <path d="m 407.08663,125.63867 -27.22681,31.00049 31.31865,16.13161 -25.08924,22.51706 37.06678,29.05939 -42.17114,7.36442 11.82138,-8.34034 -27.39215,-23.02914 18.70152,-23.70225 -22.90158,-15.0962 21.70488,-29.18771 -5.7718,-5.10228 z m -253.11983,95.08726 25.32972,-20.68565 -15.17876,-22.78266 20.85937,-15.81023 -16.34464,-32.60862 -17.96354,-2.88043 16.73802,31.25267 -26.63858,12.08922 17.83699,28.29464 -31.59753,23.56661 36.19089,12.52972 z m -115.815094,-158.191785 c 3.578955,0.128129 7.0772,0.05834 10.126486,-0.180651 5.28517,-0.414236 5.695796,10.034296 0.4349,10.625492 -3.142165,0.353103 -6.901164,0.510202 -10.861687,0.431009 z m 102.445044,68.813745 c -4.40214,9.04239 -8.4159,18.06625 -11.71435,27.38402 l -16.97324,-5.27726 c 3.45137,-9.20863 7.60803,-18.06403 12.34699,-26.27216 3.92145,-6.79215 19.43421,-2.18915 16.3406,4.1654 z m 316.7585,-7.72644 c 1.4196,-9.64966 19.55563,-10.97722 18.78882,-3.65793 -0.90029,8.59334 -1.23536,17.57786 -0.87032,26.67113 l -19.59726,3.63516 c -0.15439,-9.07613 0.41486,-18.05704 1.67876,-26.64836 z m -358.435836,-5.35274 c 3.939536,-5.46611 23.364736,0.5652 19.884206,5.96361 -5.34361,8.28811 -9.77574,17.1533 -13.35418,26.42266 l -19.576683,-8.11636 c 3.45354,-8.74014 7.741808,-16.90943 13.046657,-24.26991 z m 323.409886,12.48509 c 1.03143,-8.1922 27.30321,-14.09237 26.09136,-5.87186 -1.27271,8.63335 -1.81535,17.74478 -1.57724,26.99618 l -25.35725,4.26235 c -0.42654,-8.73391 -0.17454,-17.30375 0.84313,-25.38667 z" fill="#f2de45" />
      <path d="m 34.121101,73.363804 v -11.017726 l 8.167905,0.493187 v 10.470836 z m 421.584949,66.514836 18.87401,-4.8957 1.31428,20.71398 -19.77919,4.31919 z m -34.57283,7.02877 25.4584,-5.55352 0.63292,19.45946 -25.06087,5.09512 z m -305.04295,-3.76424 16.7619,5.53759 -7.63058,21.14811 -16.92426,-6.47415 z m -25.653221,-10.66802 18.795771,8.65895 -7.58012,20.12545 -18.989956,-11.05216 z" fill="#f7eea3" />
      <circle cx="465.90445" cy="126.85671" fill="#c58016" id="path4373" r="3.6306214" />
      <use transform="translate(-1.3025518 21)" xlink:href="#path4373" />
      <use transform="translate(2.3025518 46.941068)" xlink:href="#path4373" />
      <use transform="translate(9.0589315 73.092344)" xlink:href="#path4373" />
      <path d="m 22.557855,60.475229 c 7.493715,2.007935 18.033527,2.480735 25.720337,1.878265 5.28517,-0.414237 5.695796,10.034296 0.4349,10.625492 -7.810346,0.877692 -19.431801,0.544382 -28.486159,-1.618696 -3.693461,-0.882365 -2.495436,-12.17828 2.330922,-10.885061 z m 118.038895,70.872661 c -12.08502,24.82369 -21.24302,49.50779 -20.70988,80.51624 0.13616,7.91942 -19.42772,4.03446 -19.18202,-3.71066 0.87667,-27.63583 9.74151,-57.05172 23.5513,-80.97098 3.92145,-6.79215 19.43421,-2.18915 16.3406,4.1654 z m 316.7585,-7.72644 c 1.41961,-9.64966 19.55563,-10.97722 18.78882,-3.65793 -2.80826,26.80517 -0.11698,57.41644 12.16798,83.26248 3.40019,7.15361 -17.54014,12.68975 -20.63207,5.58436 -11.26924,-25.89722 -14.38963,-57.558 -10.32473,-85.18891 z m -358.435836,-5.35274 c 3.939536,-5.46611 23.364736,0.5652 19.884206,5.96361 -15.06789,23.37078 -22.888401,51.33006 -24.756956,80.00095 -0.479569,7.35845 -20.781208,0.38633 -20.084353,-7.13141 2.7081,-29.21524 9.538871,-57.44034 24.957103,-78.83315 z m 323.409886,12.48509 c 1.03144,-8.1922 27.30321,-14.09237 26.09136,-5.87186 -4.01846,27.259 -0.75875,59.28409 11.3749,85.43268 3.10388,6.689 -21.72609,14.28725 -24.72068,7.0749 -10.81542,-26.0485 -16.20538,-59.15609 -12.74558,-86.63572 z m -94.60456,-0.77872 79.36189,-4.33641 -27.22681,31.00049 31.31865,16.13161 -25.08924,22.51706 37.06678,29.05939 -83.46063,14.68358 z m -98.86223,7.87948 -78.19356,-11.89622 16.73802,31.25267 -26.63858,12.08922 17.83699,28.29464 -31.59753,23.56661 65.25458,22.68226 z" fill="none" stroke="#c58016" stroke-width="3" />
    </g>
    <g>
      <path d="m 223.90203,132.28908 c -5.45048,-22.51199 -1.02641,-53.322121 17.16473,-71.560095 5.75377,47.140015 82.24238,49.701105 99.95926,5.985023 11.76253,21.935713 11.76256,53.743672 -0.54076,75.348802 z" fill="#403f48" />
      <path d="m 236.27379,66.220384 c 1.47683,-1.931053 3.07339,-3.767396 4.79297,-5.491399 5.75377,47.140015 82.24238,49.701105 99.95926,5.985023 1.38891,2.590152 2.61382,5.317949 3.67384,8.150342 -23.84617,45.40715 -99.93949,47.71708 -108.42607,-8.643966 z" fill="#5e5965" />
      <path d="m 223.90203,132.28908 c -5.45048,-22.51199 -1.02641,-53.322121 17.16473,-71.560095 5.75377,47.140015 82.24238,49.701105 99.95926,5.985023 11.76253,21.935713 11.76256,53.743672 -0.54076,75.348802 z" fill="none" stroke="#232229" stroke-width="3" />
      <path d="m 242.13823,129.04121 c -4.44357,-76.051161 33.68915,-57.916822 47.1357,-78.160944 8.56348,22.371944 50.57062,21.102842 28.5182,83.418014 z" fill="#5e5965" stroke="#232229" stroke-width="3" />
      <path d="m 248.37643,126.61212 c -0.67407,-60.102671 28.08485,-49.378902 39.1964,-65.603405 10.49305,21.271865 38.15062,15.264697 24.2252,69.779365 z" fill="#403f48" />
      <path d="m 221.87227,153.5006 -7.80529,-23.84527 c 48.97186,-13.70471 93.08983,-9.27802 134.46115,10.65969 l -15.04806,20.47262 z" fill="#323138" stroke="#232229" stroke-width="3" />
      <g clip-path="url(#clipPath4320)">
        <path d="m 227.2725,82.120546 c 3.92756,0.445839 2.71265,23.382364 -1.49135,25.809544 -3.67504,2.12178 -8.45441,0.68308 -8.41916,-3.44366 0.0481,-5.635944 5.35207,-22.883338 9.91051,-22.365884 z m 125.61872,17.292893 c 3.49156,2.071161 1.33684,25.444941 -3.4359,25.544381 -4.24264,0.0884 -10.87166,-3.67869 -10.9196,-7.8053 -0.0366,-3.1493 11.4316,-19.473506 14.3555,-17.739081 z m -83.49201,5.162901 c -2.12152,-5.74512 12.28821,-26.418811 16.30401,-26.260631 5.33806,0.210263 14.37206,21.495601 10.8061,28.407201 -2.53603,4.91538 -24.53466,4.8278 -27.11011,-2.14657 z" fill="#7bd199" id="path4306" />
        <path d="m 356.28377,110.78855 c -6.09556,-7.5165 -12.66191,7.19381 -1.62368,7.16165 z m -136.82553,-20.0791 c 9.18866,-2.669704 5.22269,18.65579 -2.32122,6.515291 z m 60.17475,5.146789 c 1.33158,-9.143098 11.19326,-8.47814 10.62846,0.513654 -0.54572,8.688127 -11.95146,8.570467 -10.62846,-0.513654 z" fill="#f5af14" />
      </g>
    </g>
    <g>
      <path d="m 330.23254,159.93485 c 12.93787,-2.11304 15.78902,-8.19506 20.29683,-6.07374 2.39926,1.12907 1.64276,8.91088 -5.73583,15.38758" fill="#cc6b29" stroke="#783b1b" stroke-width="3" />
      <g>
        <path d="m 184.76483,247.36668 c -34.64937,26.48656 -56.92434,-1.44263 -56.69852,11.75485 11.7684,15.16344 35.60508,18.90141 59.80997,-6.80547 m 145.3397,-6.25758 5.71988,-14.94109 c 45.41095,39.03508 72.58525,5.67893 78.21664,15.43279 -17.43975,42.58723 -62.6547,20.04386 -83.93652,-0.4917 z" fill="#bb9a60" />
        <path d="m 187.87628,252.31606 c -24.20489,25.70688 -48.04157,21.96891 -59.80997,6.80547 0.4105,23.99086 34.88353,44.16756 70.80997,12.19453 m 134.3397,-25.25758 c 21.28182,20.53556 66.49677,43.07893 83.93652,0.4917 13.33376,23.09475 -51.48634,79.27643 -83.50477,6.36938" fill="#3e2723" />
        <path d="m 128.06631,259.12153 c 11.7684,15.16344 35.60508,18.90141 59.80997,-6.80547 m -3.11145,-4.94938 c -34.64937,26.48656 -56.92434,-1.44263 -56.69852,11.75485 0.4105,23.99086 34.88353,44.16756 70.80997,12.19453 m 218.27622,-24.76588 c -17.43975,42.58723 -62.6547,20.04386 -83.93652,-0.4917 m 5.71988,-14.94109 c 45.41095,39.03508 72.58525,5.67893 78.21664,15.43279 13.33376,23.09475 -51.48634,79.27643 -83.50477,6.36938" fill="none" stroke="#734f31" stroke-width="3" />
        <path d="m 166.71327,276.93333 c -15.70903,-3.52388 -18.449,14.34201 -11.96526,20.54789 7.32215,7.00836 20.02587,-0.29767 18.97503,-14.90009 l -2.41166,-0.19628 c -1.19984,9.82667 -8.43979,11.34473 -10.73189,8.46627 -3.46447,-4.35074 -0.0872,-10.67587 6.13378,-13.91779 z m 4.285,37.04527 c -3.41614,-19.39983 -20.80011,-17.5902 -17.0614,3.37698 z m 213.99083,-37.22621 c -18.97414,-3.53407 -21.47465,17.98974 -13.43528,25.14075 9.24807,8.22616 26.48867,0.0871 22.56886,-18.34043 l -2.73678,0.60972 c -1.11886,13.51381 -9.3837,13.90678 -13.13602,9.53239 -4.34099,-5.06066 -0.57181,-12.78619 6.73922,-16.94243 z m 6.75517,44.19377 c -4.94184,-23.09203 -25.68914,-20.16308 -20.29224,4.79257 z" fill="#e8c43d" />
        <path d="m 170.99827,313.9786 c -0.30207,-1.71541 -0.71334,-3.26499 -1.20957,-4.65014 l -16.36287,3.32184 c 0.0448,1.44269 0.20902,3.01147 0.51104,4.70528 z m 220.746,6.96756 c -0.43698,-2.04188 -0.99753,-3.88032 -1.65266,-5.51806 l -19.45779,4.69593 c 0.11686,1.72642 0.38223,3.59869 0.81821,5.6147 z" fill="#f2de45" />
        <path d="m 157.74661,301.26096 c -3.24946,1.92557 -5.37075,7.34023 -3.80974,16.09462 l 3.87028,-0.86586 c -1.04145,-4.77106 -1.21583,-10.05408 -0.0605,-15.22876 z m 4.54272,-21.03783 c 1.20083,-1.26107 2.70366,-2.39332 4.42394,-3.2898 -15.70903,-3.52388 -18.44899,14.342 -11.96526,20.54789 1.10714,1.05969 2.38004,1.8216 3.73732,2.30012 -5.66308,-9.48324 -1.71468,-16.15706 3.804,-19.55821 z m 213.02235,26.067 c -3.80865,2.44913 -6.11301,9.02891 -3.85965,19.4486 l 4.59881,-1.20674 c -1.45654,-5.67029 -1.89671,-11.99187 -0.73916,-18.24186 z m 4.52142,-25.40281 c 1.38343,-1.56336 3.1343,-2.98561 5.156,-4.13493 -18.97414,-3.53407 -21.47464,17.98973 -13.43528,25.14075 1.37277,1.22108 2.9311,2.07815 4.57811,2.59202 -7.19966,-11.11331 -2.7615,-19.28158 3.70117,-23.59784 z" fill="#f7eea3" />
        <path d="m 166.71327,276.93333 c -15.70903,-3.52388 -18.449,14.34201 -11.96526,20.54789 7.32215,7.00836 20.02587,-0.29767 18.97503,-14.90009 l -2.41166,-0.19628 c -1.19984,9.82667 -8.43979,11.34473 -10.73189,8.46627 -3.46447,-4.35074 -0.0872,-10.67587 6.13378,-13.91779 z m 218.27583,-0.18094 c -18.97414,-3.53407 -21.47465,17.98974 -13.43528,25.14075 9.24807,8.22616 26.48867,0.0871 22.56886,-18.34043 l -2.73678,0.60972 c -1.11886,13.51381 -9.3837,13.90678 -13.13602,9.53239 -4.34099,-5.06066 -0.57181,-12.78619 6.73922,-16.94243 z" style="stroke-linejoin:round;stroke-width:3;stroke:#c58016;fill:none" />
        <path d="m 158.98132,316.43837 c 1.08112,5.64369 7.49697,4.07505 6.44705,-1.21209 m 212.02144,9.04303 c 1.54226,6.71399 9.15997,4.55387 7.6707,-1.73433" fill="#e8c43d" stroke="#c58016" stroke-width="1.5" />
        <path d="m 170.99827,313.9786 c -3.41614,-19.39983 -20.80011,-17.5902 -17.0614,3.37698 z m 220.746,6.96756 c -4.94184,-23.09203 -25.68914,-20.16308 -20.29224,4.79257 z" style="fill:none;stroke-width:3;stroke:#c58016;stroke-miterlimit:20" />
        <path d="m 164.58073,287.70105 c 3.40503,-10.83838 10.95445,-11.05959 14.37184,-3.54743 -4.98537,2.04618 -9.80958,3.17885 -14.37184,3.54743 z m 220.6722,0.35599 c 4.94007,-1.13145 9.63305,-3.17272 13.86141,-5.80588 -6.06378,-4.66454 -11.5964,-3.31999 -13.86141,5.80588 z" fill="#3e2723" />
        <path d="m 164.58073,287.70105 c 4.56226,-0.36858 9.38647,-1.50125 14.37184,-3.54743 m 220.16177,-1.90246 c -4.22836,2.63316 -8.92134,4.67443 -13.86141,5.80588" fill="none" stroke="#734f31" stroke-width="3" />
      </g>
      <path d="m 179.39043,217.39561 c -0.62505,18.19896 1.50675,39.37591 10.51804,56.61665 l 17.25839,-15.92207 z" fill="#b66023" stroke="#783b1b" stroke-width="3" />
      <path d="m 323.51697,365.50326 c 16.77457,-10.44766 21.8436,-31.94207 18.50951,-44.45975 -5.69086,-21.36605 21.63886,-45.46291 -28.10695,-85.07612 -32.07376,13.58009 -44.65415,23.63398 -52.50582,74.50425 21.99708,21.97752 -4.62155,49.47195 15.17331,71.53548 2.21531,7.48416 7.58971,9.66108 14.19052,6.46869 -0.35197,2.95362 0.036,5.2732 1.73796,6.72753 5.39962,4.61405 12.32014,-7.70469 14.29259,-20.09493 8.2298,4.10009 13.48625,-0.34722 16.70888,-9.60515 z" fill="#cc6b29" />
      <path fill="#783b1b" inkscape:original-d="m 294.72719,307.07664 c 7.37458,11.5253 -5.57964,25.97032 1.25015,40.44325 7.97132,16.89194 -11.1494,41.11432 -3.46184,47.68345 6.82747,5.83419 16.0866,-15.40385 14.49561,-29.54599" inkscape:path-effect="#path-effect1027" />
      <path d="m 276.57608,381.96988 c -19.78392,-22.02629 6.83471,-49.52072 -15.16237,-71.49824 7.85167,-50.87027 20.43206,-60.92416 52.50582,-74.50425 49.74581,39.61321 22.41609,63.71007 28.10695,85.07612 3.33409,12.51768 -1.5132,33.74899 -18.26225,44.24686 m -19.49007,-93.69578 c 5.08771,19.13239 15.04816,37.74733 19.25562,56.95557 2.61652,-28.60985 0.21867,-43.93971 -13.80865,-61.58161 m -3.26151,107.86346 c 11.09071,6.00193 17.48464,-4.18236 19.32908,-20.16582 2.32155,-20.11794 0.80122,-33.62413 3.66809,-50.98025 4.13525,-25.03494 -10.50494,-38.26228 -13.48134,-57.34931 m -47.00045,54.73994 c 27.49811,28.04018 6.26299,56.93731 6.55087,73.0958 0.24205,13.58543 6.71943,18.44007 15.26253,14.26353" style="fill:none;stroke-width:3;stroke:#783b1b;stroke-miterlimit:20" />
      <g>
        <path d="m 155.46771,338.27975 c 2.87424,-9.3791 -0.88697,-25.15377 1.78054,-27.48784 3.63062,-3.1768 41.28388,3.92709 49.81264,-67.04229 l 108.70499,-18.56653 c 15.53234,89.47824 -57.36812,28.17045 -65.3447,154.51882 -0.78584,12.44767 -84.08151,15.41847 -88.01878,0.72436 -0.9827,-3.66747 -2.82858,-18.72806 1.92994,-31.13008 -10.20074,2.43189 -11.73887,-1.63733 -8.86463,-11.01644 z" fill="#bb9a60" />
        <path d="m 223.12754,318.73766 c 5.22927,-26.487 -8.21757,-30.35619 -14.55019,-17.94912 2.42348,-18.32269 -6.27384,-20.22288 -15.88496,-4.10528 -0.30138,-1.76882 -0.90893,-3.38636 -1.48621,-5.07954 -5.69601,8.29237 -13.69358,15.66476 -33.18611,19.37897 6.07988,7.68276 14.87804,19.93433 24.5314,19.93433 11.16618,0 27.16104,-17.33858 40.57607,-12.17936 z" fill="#9d6c46" />
        <path d="m 182.55147,330.91702 v 17.11067" style="fill:none;stroke-width:3;stroke:#734f31;stroke-miterlimit:20" />
        <path fill="#734f31" inkscape:original-d="m 232.94447,358.54094 c -13.20584,-10.39298 -55.26072,-12.42777 -68.61213,-9.24475 -10.20074,2.43189 -11.73887,-1.63733 -8.86463,-11.01644 2.87424,-9.3791 -0.88697,-25.15377 1.78054,-27.48784 3.63062,-3.1768 41.28388,3.92709 49.81264,-67.04229 l 108.70499,-18.56653 c 15.53234,89.47824 -57.36812,28.17045 -65.3447,154.51882 -0.78584,12.44767 -84.08151,15.41847 -88.01878,0.72436 -0.9827,-3.66747 -2.82858,-18.72806 1.92994,-31.13008" inkscape:path-effect="#path-effect879" />
        <path d="m 161.26721,310.51142 c 9.76001,6.51919 11.31426,15.2685 21.24008,15.2685 15.30414,0 23.0992,-22.13304 40.62025,-7.04226 -20.50629,-3.6078 -24.2208,16.32547 -40.82349,16.32547 -10.2788,0 -16.21167,-14.46006 -24.88988,-18.28113 -3.70466,-1.63118 -0.9505,-9.4791 3.85304,-6.27058 z" style="fill:#1d3131;stroke-width:3;stroke:#142222;stroke-miterlimit:20" />
        <path d="m 242.10204,379.53217 c -1.0661,4.44377 1.20545,7.14202 4.34843,9.3844 -1.68871,-2.91568 -3.059,-5.94562 -4.34843,-9.3844 z m -10.76407,-4.9366 c -0.89034,3.91898 1.13575,6.26756 3.92338,8.20609 -1.51592,-2.54603 -2.75302,-5.19586 -3.92338,-8.20609 z m -60.66399,17.46984 c 1.83915,-4.01388 3.72577,-6.86015 6.08571,-9.54893 -4.19513,1.47957 -6.40887,4.70813 -6.08571,9.54893 z m 45.72773,4.44186 c -1.75593,-3.79041 -2.56711,-7.25407 -3.04993,-10.60431 -1.51509,3.92668 -0.63012,7.86061 3.04993,10.60431 z m -16.84372,1.09285 c -0.55523,-4.3643 -0.26617,-8.09965 0.31601,-11.61663 -2.77171,3.45913 -3.13653,7.6901 -0.31601,11.61663 z m -12.31983,-1.98504 c 0.0694,-4.39894 0.88444,-8.05561 1.95931,-11.45458 -3.23398,3.0314 -4.1948,7.1679 -1.95931,11.45458 z m -18.50198,-19.56337 c 1.46942,-4.16346 3.09146,-7.16842 5.19908,-10.0592 -4.04447,1.85214 -5.95779,5.26733 -5.19908,10.0592 z m 49.40279,0.3675 c -1.80236,-3.76856 -2.65602,-7.22199 -3.17997,-10.56605 -1.46673,3.94499 -0.5335,7.86775 3.17997,10.56605 z m -15.36398,1.28167 c -0.6088,-4.35715 -0.36565,-8.09577 0.17328,-11.61963 -2.729,3.49292 -3.04183,7.72804 -0.17328,11.61963 z m -16.7688,-0.0953 c -0.54108,-4.36607 -0.23993,-8.10047 0.35364,-11.61554 -2.78289,3.45014 -3.16143,7.67989 -0.35364,11.61554 z" fill="#783b1b" />
      </g>
      <path d="m 190.11293,268.13405 c -18.19907,20.14417 14.2911,16.01674 28.98991,-18.58289 4.8642,15.39098 13.71036,28.64438 24.49391,34.21646 12.46249,6.43962 17.0087,2.92575 9.16879,-9.28567 -6.87142,-10.7029 -10.66928,-22.36495 -12.1746,-36.49942 3.05973,12.32146 8.79437,23.26276 16.48616,31.27931 9.28122,9.67309 20.78923,5.41131 7.29577,-19.78701 21.64144,28.65708 35.77191,23.90628 18.07618,-1.54201 8.22746,10.46648 17.07393,15.74063 20.98673,15.40039 2.81608,-0.24487 10.3535,-9.27326 15.77037,-23.17271 9.76275,17.79495 24.16973,21.06303 24.65258,9.08465 1.61405,-40.041 -0.51722,-60.80705 -8.39943,-74.33222 14.69624,5.32478 21.0101,0.77606 12.05162,-6.41551 -65.461,-52.54983 -227.21469,-26.7085 -151.97339,90.55287 -1.2816,3.43349 -3.06801,6.4753 -5.4246,9.08376 z" fill="#cc6b29" />
      <path d="m 335.9205,175.22404 c 14.69624,5.32478 20.5489,0.46495 11.59042,-6.72662 -65.461,-52.54983 -227.21469,-26.7085 -152.0667,90.50309 m 123.60985,-18.48104 c 9.76275,17.79495 24.32181,20.70406 24.80466,8.72568 2.56235,-63.56617 -4.31441,-78.55482 -28.65472,-93.11361 m -32.75496,91.80128 c 8.22746,10.46648 17.07393,15.74063 20.98673,15.40039 6.95869,-0.60509 42.7463,-54.8432 4.12929,-103.68153 m -60.65019,19.55181 c -15.95324,32.30015 -8.91536,70.17529 10.16222,90.05835 9.28122,9.67309 20.78923,5.41131 7.29577,-19.78701 21.64144,28.65708 35.77191,23.90628 18.07618,-1.54201 -23.58624,-33.91944 11.25696,-39.7139 -6.51408,-57.69503 -21.49514,-21.74926 16.58705,-21.17822 -2.39589,-47.41654 37.10308,29.67272 -6.7171,28.89712 16.68353,48.90053 17.08963,14.6086 -21.94492,39.6769 13.21317,71.61143 m -70.22787,-87.65395 c -31.72677,28.01021 -17.99002,93.42443 10.38884,108.08836 12.46249,6.43962 17.0087,2.92575 9.16879,-9.28567 -6.87142,-10.7029 -10.6532,-22.30031 -12.15852,-36.43478 m -15.85008,-74.74815 c -36.05402,28.48596 -14.483,82.51924 -34.64401,104.83503 -18.19907,20.14417 14.28481,15.98541 28.98362,-18.61422" style="stroke-linecap:round;stroke-linejoin:round;stroke:#783b1b;stroke-width:3;fill:none" />
    </g>
  </g>
</svg>