<svg xmlns="http://www.w3.org/2000/svg" xmlns:inkscape="http://www.inkscape.org/namespaces/inkscape" xmlns:xlink="http://www.w3.org/1999/xlink" height="1080" viewBox="0 0 1920 1080" width="1920">
  <defs>
    <inkscape:path-effect effect="skeletal" id="path-effect4316" pattern="m 1000.1505,650.53824 c -10.02809,0 -19,0.25 -30,2.25 10.96016,1.94454 19.97191,2.25 30,2.25 h 27 v -4.5 z" />
    <inkscape:path-effect effect="skeletal" id="path-effect4241" pattern="m 741.03571,862.31672 c -10.02809,0 -30,0.25 -41,2.25 10.96016,1.94454 30.97191,2.25 41,2.25 h 283.99999 v -4.5 z" />
    <inkscape:path-effect effect="skeletal" id="path-effect4165" pattern="m 856.5,804.5 v 3 h 90 l -1.17678,-3 z" />
    <inkscape:path-effect effect="skeletal" id="path-effect4116" pattern="m 929.94686,786.07312 c -10.02809,0 -19,0.25 -30,2.25 11.54395,2.07427 14.19894,2.25 30,2.25 h 147.99994 v -4.5 z" />
    <inkscape:path-effect effect="skeletal" id="path-effect4063" pattern="m 1017.5,718 v 3 h 27 c 0,0 16.6768,-0.5 24,-1.5 -7.25,-1 -15.9845,-1.45032 -24,-1.5 z" />
    <inkscape:path-effect effect="skeletal" id="path-effect4004" pattern="m 968.7241,848.52814 c -10.02809,0 -30,0.25 -41,2.25 10.96016,1.94454 30.97191,2.25 41,2.25 h 54 v -4.5 z" />
    <inkscape:path-effect effect="skeletal" id="path-effect3984" pattern="m 966.7241,859.84184 c -10.02809,0 -30,0.25 -41,2.25 10.96016,1.94454 30.97191,2.25 41,2.25 h 138 c 6.3775,0 23.4441,-0.65901 30.25,-2.25 -6.8943,-1.5026 -23.8725,-2.25 -30.25,-2.25 z" />
    <inkscape:path-effect effect="skeletal" id="path-effect3960" pattern="m 1041,762 c 2.9079,-2.95711 5.1745,-4.5 9,-4.5 h 243 v 4.5 z" />
    <inkscape:path-effect effect="skeletal" id="path-effect3940" pattern="m 1042,728 c -10.0281,0 -19,0.25 -30,2.25 10.9602,1.94454 19.9719,2.25 30,2.25 h 55 V 728 Z" />
    <inkscape:path-effect effect="skeletal" id="path-effect3879" pattern="m 974.58196,792.43521 c -10.02809,0 -28,0.25 -39,2.25 10.96016,1.94454 28.97191,2.25 39,2.25 H 1112.582 c 6.3775,0 12.4441,-0.65901 19.25,-2.25 -6.8943,-1.5026 -12.8725,-2.25 -19.25,-2.25 z" />
    <inkscape:path-effect effect="skeletal" id="path-effect3820" pattern="m 935,810 c -10.02809,0 -19,0.25 -30,2.25 10.96016,1.94454 19.97191,2.25 30,2.25 h 58 V 810 Z" />
    <inkscape:path-effect effect="skeletal" id="path-effect4331" pattern="m 1065.3881,691.42911 c -8.36,0 -16.375,0.625 -25,2 8.625,1.5 16.64,2 25,2 h 55.9999 c 8.36,0 16.75,-0.625 25,-2 -8.25,-1.625 -16.64,-2 -25,-2 z" />
    <linearGradient id="linearGradient4171">
      <stop offset="0" stop-color="#128200" />
      <stop offset="1" stop-color="#5bca41" />
    </linearGradient>
    <clipPath id="clipPath4167">
      <ellipse cx="1020.576" cy="654.98462" rx="6.1824803" ry="17.15004" transform="matrix(0.70493662,-0.30767551,0.30767551,0.70493662,144.28174,497.90162)" />
    </clipPath>
    <linearGradient gradientUnits="userSpaceOnUse" id="linearGradient4177" x1="1021.5867" x2="1021.2853" y1="642.80634" y2="665.25372" xlink:href="#linearGradient4171" />
    <clipPath id="clipPath4199">
      <ellipse cx="1020.576" cy="654.98462" rx="7.2059293" ry="14.168404" transform="rotate(-24.638714,1031.6633,645.56519)" />
    </clipPath>
    <linearGradient gradientUnits="userSpaceOnUse" id="linearGradient4209" x1="1021.9671" x2="1021.476" y1="645.29028" y2="666.27991" xlink:href="#linearGradient4171" />
    <clipPath id="clipPath4258">
      <path d="m 979.3769,672.5386 c 3.14797,-25.48617 21.413,-20.20889 29.6556,-48.17793 C 1058.5,640.75 1070,668.75 1053,704.75 c -17,36 -99.4962,24.8272 -73.6231,-32.2114 z" />
    </clipPath>
    <clipPath id="clipPath4293">
      <path d="m 1066.4661,627.54004 c -9.5689,-5.91785 -20.5894,0.16465 -31.0573,-4.68458 28.0598,101.90187 80.1098,80.82221 31.0573,4.68458 z" />
    </clipPath>
    <clipPath id="clipPath3851">
      <path d="m 1124.6533,791.50043 16.2635,-53.38656 -101.2931,-26.16295 c -21.1419,88.68523 0.3678,78.22682 85.0296,79.54951 z" />
    </clipPath>
    <clipPath id="clipPath3855">
      <path d="m 1032.7188,789.6875 c 1.2692,-8.01665 4.5748,-15.08864 8.3124,-19.5 l 77.0814,-10.86043 -4.9497,-31.11269 -108.1874,7.42462 z" />
    </clipPath>
    <clipPath id="clipPath3913">
      <path d="m 1036.0507,802.74747 c 0.8921,1.50082 1.2654,3.42704 1.5039,5.46479 0.3343,3.1616 0.1223,6.44729 -0.2286,9.78548 l 22.5956,3.85889 c 4.2686,-3.30302 7.5442,-7.86276 9.221,-13.0305 1.7133,-20.8944 -25.521,-38.28541 -33.0919,-6.07866 z" />
    </clipPath>
    <clipPath id="clipPath3917">
      <path d="m 1035.5625,813.78125 c 5.1184,-3.43755 8.0063,-6.46093 10.7187,-9.75 l 11.75,1.03125 c 2.2507,4.52159 3.938,10.26677 5.1876,17.375 l 73.4554,8.66091 -115.2585,-122.32947 -50.02776,79.54951 z" />
    </clipPath>
    <clipPath id="clipPath4143">
      <path d="m 917.40625,782.46875 c 12.23185,-14.50164 25.52637,-19.65291 36.90625,-18.5625 L 898.875,740.75 l -10.5,65.5 h 47 l 0.34824,-25.091 -18.25219,3.97747 z" />
    </clipPath>
    <clipPath id="clipPath4148">
      <path d="m 917.97037,771.69371 c 0.27706,3.60688 0.29035,7.3942 0.81165,11.28859 l 75.76367,11.87689 -25.27907,-69.65001 z" />
    </clipPath>
    <clipPath id="clipPath4217">
      <path d="m 922.21875,784.90625 c 36.43135,-3.56917 36.24189,68.56329 89.56295,55.91712 44.8035,-10.62607 48.7597,-42.3056 16.5933,-104.32337 10.8036,-3.52978 19.4813,-15.68533 24,-27.625 9.9936,-8.59803 19.1375,-1.21941 25.0696,-9.79964 -2.8056,13.51353 -8.0598,22.16112 -20.8303,28.66155 59.3086,56.67864 20.743,124.78604 -48.7264,132.46068 -29.81086,3.29336 -52.50568,-18.26221 -59.13565,-41.26545 -7.29364,-25.30587 -12.60093,-28.09044 -24.60365,-31.8512 z" />
    </clipPath>
    <clipPath id="clipPath4346">
      <path d="m 1024.7812,627.25 c 12.4925,-30.88564 12.3714,-58.20222 7.8126,-78.15625 L 933.75,616.75 Z" />
    </clipPath>
    <clipPath id="clipPath4356">
      <path d="m 996.7182,608.72054 c 12.4213,2.43084 24.0018,8.61653 34.648,15.95942 l 28.9404,-132.2857 -108.54087,33.94113 z" />
    </clipPath>
  </defs>
  <g inkscape:groupmode="layer" inkscape:label="Drawing">
    <path d="M 1012.3551,516.52608 C 1004.7104,514.47274 977.90563,532.65486 971.07322,587 939.63299,525.09136 925.43414,570.76078 936.09099,616.2019 910.56282,595.92157 901.59225,610.67194 929,664.78033 c -27.34099,-10.73744 -12.72487,19.26777 19.24784,39.23744" fill="#52c458" stroke="#2c972f" stroke-width="4.5" />
    <g>
      <path d="m 1108.2748,744.68249 c -9.2847,-7.67394 -26.8063,-13.88807 -53.5257,-14.04125 l -2.6856,14.90479 c 16.3873,0 20.2806,7.19181 45.4091,4.01023 z" fill="#c693c9" />
      <path d="m 1115.6663,754.7218 c -3.6497,-11.46857 -23.0434,-23.86343 -60.9172,-24.08056" fill="none" stroke="#995fa0" stroke-width="4.5" />
    </g>
    <path d="m 938.24231,763.83488 c 0.47086,-11.52785 6.18171,-11.62947 11.93243,-2.38648 5.83363,-11.93243 11.75565,-9.72272 14.49568,2.56326 10.16467,-12.02082 17.85445,-6.80591 13.43504,11.04854 -14.39221,6.35655 -39.04346,-1.11083 -39.86315,-11.22532 z" fill="#52c458" stroke="#2c972f" stroke-width="3" />
    <g>
      <path d="m 1095.7226,880.52895 h -59.5952 c -4.3261,0 3.3677,-35.64868 17.1082,-57.38549 9.4973,-15.02426 40.1445,9.86028 33.7019,42.83676 8.135,5.14187 11.684,14.54873 8.7851,14.54873 z" fill="#c693c9" />
      <path fill="#995fa0" inkscape:original-d="m 1072.9613,863.28065 c 17.2693,-3.25 27.0406,17.2483 22.7613,17.2483 h -59.5952 c -4.3261,0 3.3677,-35.64868 17.1082,-57.38549 9.4973,-15.02426 40.1445,9.86028 33.5269,42.75331" inkscape:path-effect="#path-effect4241" />
      <path d="m 1077.112,845.27071 c 10.4795,4.69106 9.5654,14.66583 4.5707,14.66583 -4.4533,0 -6.7226,-5.60897 -1.3272,-7.04693 -3.5783,2.32541 -1.6245,5.77715 1.2308,5.77715 2.9585,0 5.0638,-6.50528 -4.4743,-13.39605 z m -11.652,24.08816 c 10.1721,-2.47172 16.1022,5.53179 16.4955,10.29328 h -1.7821 c -0.5701,-5.95863 -6.2817,-10.12852 -14.7134,-10.29328 z" fill="#995fa0" />
    </g>
    <path d="m 922.2187,784.90625 c 4.6207,5.04695 6.9406,8.23087 -0.7139,10.70437 -4.1039,1.32615 -20.1749,3.47859 -20.7153,-0.0882 -0.8758,-5.78045 12.916,-29.09035 17.484,-29.86885 1.6608,-0.28305 1.9079,4.69015 2.2264,10.06091 24.2025,-23.52839 52.0182,-15.62938 61.8991,7.04272 14.2994,-24.64366 44.0959,-18.10104 38.5889,-42.72742 C 928.0538,752.06206 898.0092,618.07791 991.75,600 l 5,-3.75 c 42.3268,-10.91172 86.8107,20.79289 86.5607,72.54289 28.7812,-8.06066 19.4044,42.84835 -35.7139,60.74264 29.7166,55.41483 29.5735,120.30121 -44.9194,120.30121 -57.2756,0 -40.3051,-56.21498 -80.4587,-64.93049 z" fill="#c693c9" />
    <path d="m 996.75,596.25 c 42.3268,-10.91172 86.8107,20.79289 86.5607,72.54289 28.7812,-8.06066 19.4044,42.84835 -35.7139,60.74264" fill="none" stroke="#995fa0" stroke-width="4.5" />
    <g>
      <path d="m 922.21875,784.90625 c 36.43135,-3.56917 36.24189,68.56329 89.56295,55.91712 44.8035,-10.62607 48.7597,-42.3056 16.5933,-104.32337 10.8036,-3.52978 19.4813,-15.68533 24,-27.625 9.9936,-8.59803 19.1375,-1.21941 25.0696,-9.79964 -2.8056,13.51353 -8.0598,22.16112 -20.8303,28.66155 59.3086,56.67864 20.743,124.78604 -48.7264,132.46068 -29.81086,3.29336 -52.50568,-18.26221 -59.13565,-41.26545 -7.29364,-25.30587 -12.60093,-28.09044 -24.60365,-31.8512 z" fill="#dbecb4" />
      <path fill="#98d27c" inkscape:original-d="m 1077.3536,699.08839 c -3.8635,19.21446 -12.8714,28.59879 -40.8953,36.38173" inkscape:path-effect="#path-effect4063" />
      <path fill="#98d27c" inkscape:original-d="m 1056.4493,727.58839 c 59.4736,56.82716 20.908,124.93456 -48.5614,132.6092 -29.81086,3.29336 -52.50568,-18.26221 -59.13565,-41.26545 -7.75616,-26.91064 -13.26606,-28.35304 -26.97009,-32.58443" inkscape:path-effect="#path-effect4165" />
      <path d="m 942.25243,801.12746 c 5.33124,-5.26538 11.58495,-9.34936 17.63831,-10.49275 m -12.17091,25.71198 c 5.642,-6.01352 12.52713,-10.81062 19.17091,-12.06554 m -7.10584,35.64089 c 2.59304,-8.81448 7.27933,-17.27104 13.48754,-21.56923 m 6.80855,37.41092 c -0.4031,-8.63166 1.07362,-17.41626 5.09839,-23.24856 m 48.71892,-74.67101 c 9.2821,-11.86656 17.9657,-16.71592 29.9897,-22.46283 m -21.429,46.14849 c 14.7371,1.14061 28.1714,-4.65427 40.4608,-12.85522 m -38.9911,26.33701 c 13.7552,10.16546 27.7278,7.06428 41.3572,0.48934 m -47.9603,26.84701 c 10.5697,9.13428 21.9581,9.45506 33.4542,6.25939" style="stroke-width:2;clip-path:url(#clipPath4217);fill:none;stroke:#98d27c" />
    </g>
    <path d="m 1069.5892,689.43778 c 1.5911,1.32582 3.0419,1.03792 4.1025,-1.03921 0.6187,4.02166 -3.2628,4.66312 -4.1025,1.03921 z" fill="#995fa0" />
    <path fill="#995fa0" inkscape:original-d="M 1026.8687,739.35355 C 929.36872,757.60355 896.04289,618.45711 991.75,600" inkscape:path-effect="#path-effect3960" />
    <path clip-path="url(#clipPath4143)" fill="#995fa0" inkscape:original-d="m 922.21875,784.90625 c 4.62069,5.04695 6.94053,8.23087 -0.71397,10.70437 -4.1039,1.32615 -20.17485,3.47859 -20.71527,-0.0882 -0.87583,-5.78045 12.916,-29.09034 17.48394,-29.86885 2.42537,-0.41335 1.83599,10.38302 2.73814,17.02592" inkscape:path-effect="#path-effect4116" />
    <path d="m 915.68457,781.02336 c 25.16794,-29.8382 56.15867,-22.49363 66.7965,2.02529" style="stroke-width:4.5;clip-path:url(#clipPath4148);fill:none;stroke:#995fa0" />
    <path d="m 980.05178,786.85355 c -7.29182,-10.53401 -2.74632,-26.43566 8.42049,-19.61872 -4.69346,-14.03185 3.82798,-15.42677 13.41793,-8.75 -0.1582,-10.61984 9.0488,-6.55856 12.7197,-0.6267 -8.2933,6.68147 -25.41798,9.50182 -34.55812,28.99542 z" fill="#52c458" stroke="#2c972f" stroke-width="3" />
    <g>
      <path d="m 1010.3949,810.35488 c 30.4056,16.97056 30.6431,41.95673 16.1476,64.50579 5.3301,4.98527 6.2563,11.90724 3.6174,11.90724 h -56.55076 c -1.87067,0 -0.84394,-2.76313 1.23229,-8.31968 7.81411,-20.91261 21.21991,-23.87499 18.13471,-48.05692 z" fill="#c693c9" />
      <path fill="#995fa0" inkscape:original-d="m 992.97614,830.39131 c 3.0852,24.18193 -10.3206,27.14431 -18.13471,48.05692 -2.07623,5.55655 -3.10296,8.31968 -1.23229,8.31968 h 56.55076 c 4.2949,0 -0.8536,-18.3356 -19.0615,-16.39106" inkscape:path-effect="#path-effect3984" />
      <path fill="#995fa0" inkscape:original-d="m 1010.3949,810.35488 c 30.4056,16.97056 30.6431,41.95673 16.1474,64.40738" inkscape:path-effect="#path-effect4004" />
      <path d="m 996.02355,878.28423 c 7.18775,-0.88019 11.13355,2.54619 11.32105,7.99388 h -1.616 c -0.2216,-4.86135 -2.9924,-7.01034 -9.70505,-7.99388 z m 11.25995,-3.0494 c 8.7346,-0.65922 14.2272,4.84429 14.3705,11.04328 h -1.8446 c -0.1326,-5.83363 -4.5317,-9.44102 -12.5259,-11.04328 z m 20.9602,-31.2058 c -10.9231,7.07798 -7.1531,19.40847 -2.5562,19.40847 5.0279,0 6.5651,-8.42234 0.4804,-9.01831 3.9307,2.97595 2.4999,7.39331 -0.3554,7.39331 -2.9585,0 -6.0628,-8.96501 2.4312,-17.78347 z" fill="#995fa0" />
    </g>
    <path fill="#995fa0" inkscape:original-d="m 975.45381,804.93546 c 5.65685,-51.44202 52.29819,-34.64824 45.58069,-65.40738" inkscape:path-effect="#path-effect3940" />
    <g>
      <path d="m 1025.7745,743.46007 c -19.0024,16.58579 -38.12528,34.36626 -21.6461,46.86985 15.2834,11.59626 33.6447,-1.28122 35.7488,17.42029 2.9577,-2.6393 4.899,-5.05811 7.1988,-8.11805 1.9838,3.8318 2.9454,8.37545 3.3418,13.32259 3.6676,-3.82367 5.5818,-8.17646 7.3577,-12.84588 2.5852,3.78754 4.5456,8.55621 6.0792,14.36285 9.772,-14.1338 2.6473,-35.61379 -18.7509,-36.40632 -24.0381,-0.8903 -23.8649,-13.55114 -12.3743,-27.69327 z" fill="#c693c9" />
      <path clip-path="url(#clipPath3917)" fill="#995fa0" inkscape:original-d="m 1025.7745,743.46007 c -19.0024,16.58579 -38.12529,34.36627 -21.6461,46.86985 17.5009,13.27882 39.0378,-5.53338 35.4347,27.90884 -1.7615,16.34941 4.8527,12.77844 18.981,1.83884 16.8539,-13.05007 11.0718,-41.10434 -13.4403,-42.0122 -24.0381,-0.8903 -23.8649,-13.55114 -12.3743,-27.69327" inkscape:path-effect="#path-effect3879" />
      <path d="m 1034.3204,811.91814 c 6.5193,-4.37836 9.212,-7.57106 12.7556,-12.28598 1.9838,3.8318 2.9454,8.37545 3.3418,13.32259 3.6676,-3.82367 5.5818,-8.17646 7.3577,-12.84588 3.6302,5.31847 6.0282,12.57152 7.6746,21.93732" style="stroke-width:4.5;clip-path:url(#clipPath3913);fill:none;stroke:#995fa0" />
    </g>
    <g>
      <path d="m 1097.4726,749.55626 c -25.1285,3.18158 -29.0218,-4.01023 -45.4091,-4.01023 -12.4834,0 -25.5478,13.10846 -18.4328,32.6068 2.1984,-5.40996 5.2273,-9.83356 8.5979,-12.45721 1.0669,5.30654 2.2636,9.55654 4.5743,14.44302 1.8125,-5.1875 3.5917,-9.01364 6.2792,-13.01364 1.5,4.4375 2.9804,8.0625 5.4804,12.125 1.5625,-5.625 3.721,-10.92514 6.6964,-9.96967 52.5826,16.88552 67.581,-16.59603 30.6502,-31.73855 z" fill="#c693c9" />
      <path clip-path="url(#clipPath3855)" fill="#995fa0" inkscape:original-d="m 1097.4726,749.55626 c -25.1285,3.18158 -29.0218,-4.01023 -45.4091,-4.01023 -14.6504,0 -30.1009,18.05435 -12.7682,43.31899" inkscape:path-effect="#path-effect3820" />
      <path d="m 1030.5115,789.33363 c 1.6287,-10.28661 6.2181,-19.35768 11.7171,-23.63801 1.0669,5.30654 2.2636,9.55654 4.5743,14.44302 1.8125,-5.1875 3.5917,-9.01364 6.2792,-13.01364 1.5,4.4375 2.9804,8.0625 5.4804,12.125 1.5625,-5.625 3.721,-10.92514 6.6964,-9.96967 56.1817,18.04125 69.4581,-21.41527 22.3326,-34.56807" style="stroke-width:4.5;clip-path:url(#clipPath3851);fill:none;stroke:#995fa0" />
    </g>
    <g>
      <g clip-path="url(#clipPath4293)">
        <ellipse cx="1024.4685" cy="689.79871" fill="#fff" rx="10.358122" ry="32.968708" transform="rotate(-22.392464,947.20934,571.42579)" />
        <g>
          <ellipse cx="1020.576" cy="654.98462" fill="url(#linearGradient4177)" rx="6.1824803" ry="17.15004" transform="matrix(0.70493662,-0.30767551,0.30767551,0.70493662,144.28174,497.90162)" />
          <g clip-path="url(#clipPath4167)">
            <path d="m 1065.7425,644.59899 6.6291,-4.37521 1.6353,6.0546 -7.6457,0.61872 z" fill="#77ee5f" />
            <path d="m 1066.9799,648.35549 7.4247,0.1326 -0.7071,-3.97748 -7.3805,1.81197 z" fill="#d1f5c4" />
          </g>
          <path d="m 1063.1303,638.53116 c 0.5096,5.10986 2.2734,9.42572 5.5105,13.09964 -0.125,-5.19849 -2.2322,-9.39506 -5.5105,-13.09964 z" />
          <ellipse cx="1020.576" cy="654.98462" fill="#fff" rx="2.3612561" ry="7.9737878" transform="matrix(0.74228684,-0.20151953,0.20151953,0.74228684,172.01172,361.73191)" />
        </g>
        <path d="m 1015.8593,671.4607 c 3.9554,-28.34577 21.2203,-16.59842 18.9623,17.29913 -1.1867,-25.05887 -10.7102,-44.84937 -18.9623,-17.29913 z" transform="rotate(-22.392464,947.20934,571.42579)" />
      </g>
      <path d="m 1035.4088,622.85546 c 16.3315,2.38725 22.9551,-2.25152 31.0573,4.68458 -10.1388,-3.5847 -22.6889,1.64905 -31.0573,-4.68458 z" fill="#995fa0" />
    </g>
    <path d="m 1061.7777,704.51831 c 0.8438,2.625 2.3754,4.10669 4.7192,4.91919 -0.021,-1.97826 0.1013,-3.72011 0.4407,-5.59375 z" fill="#fff" stroke="#96b4b5" stroke-width="1.20000005" />
    <path fill="#995fa0" inkscape:original-d="m 1060.375,689.125 c 11.4675,-13.25547 23.5036,-8.6727 20.516,2.13362 -5.5824,20.19242 -16.4275,7.21603 -28.516,17.61638" inkscape:path-effect="#path-effect4331" />
    <g>
      <g clip-path="url(#clipPath4258)">
        <ellipse cx="1024.4685" cy="689.79871" fill="#fff" rx="28.891142" ry="40.550804" transform="rotate(-12.230221,944.03013,739.59453)" />
        <g>
          <ellipse cx="1020.576" cy="654.98462" fill="url(#linearGradient4209)" rx="7.2059293" ry="14.168404" transform="rotate(-24.638714,1031.6633,645.56519)" />
          <g clip-path="url(#clipPath4199)">
            <path d="m 1014.75,659.5625 13.25,0.25 -0.02,0.72598 -10.48,8.21152 z" fill="#77ee5f" />
            <path d="m 1016.625,664.375 11.6875,-3.8125 -8.75,9.4375 z" fill="#d1f5c4" />
          </g>
          <path d="m 1024.1875,651.6875 c 0.6009,5.91215 2.7688,11.94876 6.6875,16.5 -0.1326,-6.37998 -2.7354,-11.88626 -6.6875,-16.5 z" />
          <ellipse cx="1020.576" cy="654.98462" fill="#fff" rx="2.6432767" ry="6.5579371" transform="rotate(-15.748077,1018.4414,653.76834)" />
        </g>
        <path d="m 987.0935,690.19197 c -21.59623,-37.63974 16.2784,-82.16684 43.6266,-43.51598 -27.594,-27.40981 -55.4807,0.87441 -43.6266,43.51598 z" />
      </g>
      <path d="m 979.3769,672.5386 c -1.10203,-25.48617 17.788,-20.33389 29.6556,-48.17793 -3.3447,26.32044 -23.83973,23.86422 -29.6556,48.17793 z" fill="#995fa0" />
    </g>
    <g>
      <path d="m 954.97674,613.57338 c 25.94378,-14.44316 49.80696,-8.00925 70.65296,4.7329 19.4986,-56.83648 -4.06,-99.30519 -13.2746,-101.7802 -5.0848,-1.36575 -18.64611,6.22081 -29.16883,27.44657 l -3.56674,52.40908 -26.33184,4.34054 z" fill="#52c458" />
      <path clip-path="url(#clipPath4346)" fill="#2c972f" inkscape:original-d="m 954.97674,613.57338 c 28.94112,-16.11181 55.29316,-6.24394 77.67066,9.25696" inkscape:path-effect="#path-effect4316" />
      <path d="m 1022.7071,626.39645 c 24.6348,-60.90594 -0.7105,-107.2807 -10.352,-109.87037 -5.738,-1.5412 -22.27011,8.31765 -33.04918,36.31158" style="stroke-width:4.5;clip-path:url(#clipPath4356);fill:none;stroke:#2c972f" />
    </g>
    <path d="m 976.88947,721.09153 c -47.16993,-37.65987 -110.26324,-13.51816 -57.85408,-8.3085 -32.2377,7.83515 -16.94454,22.36485 12.73313,14.56891 -23.15102,15.91358 4.05634,15.89429 45.12095,-6.26041 z" style="stroke-miterlimit:8;stroke:#e2ec8b;fill:#b2d964;stroke-width:4.5" />
  </g>
</svg>