<svg xmlns="http://www.w3.org/2000/svg" xmlns:inkscape="http://www.inkscape.org/namespaces/inkscape" xmlns:xlink="http://www.w3.org/1999/xlink" height="672" viewBox="0 0 493.33334 672" width="493.33334">
  <defs>
    <inkscape:path-effect bendpath1="m -33.5,-25.4 h 67" bendpath2="m 28.102839,-27.567628 c -6.195096,17.8415383 -6.124582,36.7964511 -0.521454,54.876724" bendpath3="m -33.5,24.8 h 67" bendpath4="m -24.631703,-26.809207 c -6.677468,18.1508037 -6.771029,36.1589845 -2.993923,54.259829" effect="envelope" id="path-effect271" yy="false" />
    <inkscape:path-effect effect="powerstroke" id="path-effect5712" interpolator_type="CubicBezierSmooth" offset_points="0.18,2.5 | 4,2.5" start_linecap_type="zerowidth" />
    <inkscape:path-effect effect="powerstroke" id="path-effect5710" interpolator_type="CubicBezierSmooth" offset_points="0.25,2.5" start_linecap_type="zerowidth" />
    <inkscape:path-effect effect="powerstroke" end_linecap_type="zerowidth" id="path-effect5699" interpolator_type="CubicBezierSmooth" offset_points="0.26,2.5 | 2.74,2.5" start_linecap_type="zerowidth" />
    <inkscape:path-effect effect="powerstroke" end_linecap_type="zerowidth" id="path-effect5697" interpolator_type="CubicBezierSmooth" offset_points="0.62,2.5 | 2.65,2.5" start_linecap_type="zerowidth" />
    <inkscape:path-effect effect="powerstroke" end_linecap_type="zerowidth" id="path-effect5647" interpolator_type="CubicBezierSmooth" offset_points="0.72,1.5 | 1.67,1.5" start_linecap_type="zerowidth" />
    <linearGradient id="linearGradient5332">
      <stop offset="0" stop-color="#9f6600" />
      <stop offset="1" stop-color="#ee9800" />
    </linearGradient>
    <inkscape:path-effect effect="powerstroke" end_linecap_type="zerowidth" id="path-effect5320" interpolator_type="CubicBezierSmooth" offset_points="0.23,1.9 | 0.8,1.9" start_linecap_type="zerowidth" />
    <inkscape:path-effect effect="powerstroke" id="path-effect914" interpolator_type="CubicBezierSmooth" offset_points="0.4,2.5" start_linecap_type="zerowidth" />
    <inkscape:path-effect effect="powerstroke" end_linecap_type="zerowidth" id="path-effect908" interpolator_type="CubicBezierSmooth" offset_points="0.4,2.5 | 1.8,2.5" start_linecap_type="zerowidth" />
    <linearGradient gradientUnits="userSpaceOnUse" id="linearGradient5428" x1="-62.871532" x2="-108.60241" y1="295.30612" y2="299.32886" xlink:href="#linearGradient5332" />
    <clipPath id="clipPath5444">
      <use xlink:href="#path5334" />
    </clipPath>
    <clipPath id="clipPath5460">
      <use xlink:href="#ellipse8253" />
    </clipPath>
    <linearGradient gradientUnits="userSpaceOnUse" id="linearGradient5605" x1="151.21864" x2="195.67555" y1="183.49567" y2="182.74637" xlink:href="#linearGradient5332" />
    <clipPath id="clipPath5627">
      <use xlink:href="#path5487" />
    </clipPath>
    <clipPath id="clipPath5643">
      <use xlink:href="#path5481" />
    </clipPath>
    <clipPath id="B">
      <use xlink:href="#A" />
    </clipPath>
  </defs>
  <g transform="translate(-47.553345-1.1174941)" inkscape:groupmode="layer" inkscape:label="Drawing">
    <path d="m 412.95218,375.22571 c 76.08576,-78.81753 175.04733,-17.03209 154.02463,74.46372 -11.91073,51.83836 17.55718,78.05432 48.74625,85.83147 -13.75917,9.43856 -30.77966,8.82633 -46.71294,-1.63029 5.79574,32.04401 17.1837,51.72045 40.63479,67.20069 -40.33583,-3.59542 -67.81857,-19.53044 -88.74719,-63.07793 -1.50272,20.95378 2.01668,36.69154 11.15669,53.24334 -16.20199,-10.05521 -27.47832,-20.84834 -37.55895,-40.8005 -0.0722,20.62735 4.65035,38.28572 14.88741,55.63039 -44.11962,-22.38361 -61.54487,-76.00997 -42.55067,-140.89997 20.71904,-70.78258 -5.10426,-90.31575 -36.78822,-71.69261 z" style="stroke-width:5;stroke:#835c45;fill:#b27d5e;stroke-miterlimit:20" />
    <path d="m 424.62004,387.51818 c 42.77978,-31.19712 88.61615,-5.69499 70.77813,62.4362 -8.799,33.60722 -10.21192,68.46903 -0.25627,102.20894 m -75.68919,-169.76248 c 65.14202,-51.98852 121.92742,-6.16291 100.65002,66.82651 -7.67292,26.32098 -9.08302,59.32848 2.79499,92.78602" style="stroke-width:2.5;stroke:#835c45;fill:none;stroke-miterlimit:20" />
    <path d="m 328.7745,349.93498 c 92.4765,-4.24293 106.617,-66.36445 57.88341,-54.25356 123.86611,-87.75577 85.07472,-121.31867 20.61841,-61.28239 55.49476,-73.08168 59.5349,-118.10088 48.83133,-123.87266 -10.61654,-5.72488 -37.32243,28.05103 -82.76361,105.06119 36.33284,-97.73583 42.74347,-123.090711 32.7223,-125.45187 -9.8393,-2.318302 -34.77279,19.9345 -48.88904,61.38194 -20.64378,60.61255 -8.67581,106.19844 -38.30214,174.86797 z" style="stroke-width:5;stroke:#b8ac6a;fill:#e3d076;stroke-miterlimit:20" />
    <path d="m 261.99968,329.72353 c -60.21048,-13.59465 -106.99316,-36.17595 -150.49256,-69.65414 -22.455248,-17.2821 -50.611941,56.93185 -21.008471,71.03754 53.425841,25.45676 113.656271,33.47557 170.812991,31.27899 z" fill="#e3d076" stroke="#b8ac6a" stroke-width="5" />
    <g>
      <path d="m 381.50569,428.28382 -67.94635,-13.10984 c -20.48933,61.28875 55.61562,88.57811 -20.97127,204.95192 -13.04744,19.8256 68.75755,19.7381 75.49167,1.98971 17.73936,-46.75369 20.2674,-98.16352 7.84986,-138.70058 -0.98813,-3.22573 -7.68297,-5.20641 -15.36347,-4.11248 4.2894,-16.42518 17.21488,-30.40199 20.93956,-51.01873 z" fill="#e3d076" />
      <path fill="#b8ac6a" inkscape:original-d="m 359.40745,487.74651 c 0.85069,-20.36501 17.74849,-35.38608 22.09824,-59.46269 l -67.94635,-13.10984 c -20.48933,61.28875 55.61562,88.57811 -20.97127,204.95192 -13.04744,19.8256 68.75755,19.7381 75.49167,1.98971 17.73936,-46.75369 20.2674,-98.16352 7.84986,-138.70058 -0.98813,-3.22573 -7.68297,-5.20641 -15.4808,-4.06527" inkscape:path-effect="#path-effect914" />
    </g>
    <path d="m 392.25192,462.48089 c 25.45848,42.07631 69.53979,70.25211 48.9566,175.77152 -3.89786,19.9823 80.6519,19.87352 78.91405,-0.61159 -5.04424,-59.45947 -23.58722,-98.13647 -52.80385,-147.22579 -1.72544,-2.89906 -8.50086,-5.05569 -17.40277,-3.87185 -0.45591,-28.63605 15.70107,-93.62106 -41.37589,-125.18923 -69.12582,-38.23216 -84.59903,-54.36092 -75.18976,-170.98099 12.42759,-154.029717 -230.50547,-131.925643 -169.43696,30.2004 -4.72514,3.41134 -9.66741,6.03971 -14.14526,7.43904 l 17.37243,41.09734 c 27.0838,4.52255 61.30154,4.50937 84.10791,1.34342 -25.18375,97.72348 47.78665,194.29432 141.0035,192.02773 z" fill="#ecdd88" />
    <g clip-path="url(#B)" transform="matrix(-.68462452.12655515.17952686.966735 419.94296 413.02744)" inkscape:path-effect="#path-effect271">
      <path fill="#339943" id="A" inkscape:original-d="m -33.5,24.8 c 8,-13.5 8.8,-24.9 6.4,-36.8 9.1,-8.7 21.5,-13.1 34.9,-12.6 3.4,12.1 9.1,19.4 25.7,23.2 -15.5,5.7 -21.8,0.1 -35.7,5.6 -13.9,5.5 -14.3,13.9 -31.3,20.6 z" />
      <path fill="#fff" inkscape:original-d="m -24.4,20.8 c 5.9,-12.9 7.3,-27.4 3,-39 l 6.8,-3.4 c 3.4,10.9 3.6,22.6 -0.2,34.8 l 8.3,-6.4 c 0.8,-4.6 1,-8.8 0.6,-14 2.5,4.1 5.1,7.5 8.2,10.3 l 10.1,-1 c -9.4,-6.7 -15.9,-15.3 -19.7,-26.2 l 7.5,-1.3 c 3.9,11.6 10.5,21.9 24.3,27.1 z" />
    </g>
    <path fill="#b8ac6a" inkscape:original-d="m 450.60179,493.9263 c -5.18345,-22.46163 20.81744,-97.79509 -42.06173,-132.57235 -69.12582,-38.23216 -84.59903,-54.36092 -75.18976,-170.98099 12.42759,-154.029717 -230.50547,-131.925643 -169.54063,30.47051" inkscape:path-effect="#path-effect5710" />
    <path fill="#b8ac6a" inkscape:original-d="m 378.32167,430.5683 c 16.21566,65.21379 88.11229,78.3663 62.88685,207.68411 -3.89785,19.9823 80.6519,19.87352 78.91405,-0.61159 -5.04424,-59.45947 -23.58722,-98.13647 -52.80385,-147.22579 -1.72544,-2.89906 -8.50086,-5.05569 -17.35593,-3.75983" inkscape:path-effect="#path-effect5712" />
    <g>
      <g clip-path="url(#clipPath5460)">
        <ellipse cx="308.04379" cy="34.577988" fill="#fff" id="ellipse8253" rx="37.551029" ry="44.574081" transform="rotate(29.434029)" />
        <g clip-path="url(#clipPath5444)">
          <ellipse cx="-87.579498" cy="284.52267" fill="url(#linearGradient5428)" id="path5334" rx="32.849319" ry="27.673628" transform="rotate(290.49089)" />
          <path d="m 230.63621,183.10908 26.97768,33.19497 14.29039,-16.14642 z" fill="#ffcd75" />
          <path d="m 230.63621,183.10908 43.52143,5.81521 -3.58333,16.92993 z" fill="#e39100" />
          <ellipse cx="-88.839867" cy="282.45874" rx="26.468311" ry="22.298002" transform="rotate(290.49089)" />
          <ellipse cx="292.40851" cy="40.92831" fill="#fff" rx="9.0538645" ry="12.917549" transform="rotate(26.948258)" />
          <ellipse cx="308.49509" cy="47.27932" fill="#fff" rx="2.9833243" ry="4.0966282" transform="rotate(27.734958)" />
        </g>
      </g>
      <path transform="rotate(209.43403)scale(1-1)" inkscape:original-d="m -343.41131,49.592198 c -15.12466,-56.8508728 53.71661,-87.349068 71.66354,-26.484574" inkscape:path-effect="#path-effect5320" />
    </g>
    <path d="m 165.23532,232.29732 c 3.4323,2.08029 5.53997,1.20626 6.69735,-2.31046 1.27145,6.01163 -3.53165,8.04701 -6.69735,2.31046 z" fill="#b8ac6a" />
    <path d="m 161.00107,255.54193 c 18.93842,0.6362 30.60946,-4.71091 38.29121,-14.3945 -5.56658,14.58825 -18.86721,18.61088 -36.21727,19.16276" fill="#b8ac6a" />
    <g>
      <g clip-path="url(#clipPath5643)">
        <path d="m 164.01183,140.22661 c -11.89237,2.08595 -14.89222,46.05125 -0.21562,80.26115 5.12713,-4.17669 9.77552,-8.83212 13.75153,-14.15994 10.95474,-27.78484 -1.76078,-68.1666 -13.53591,-66.10121 z" fill="#fff" id="path5481" />
        <g clip-path="url(#clipPath5627)">
          <ellipse cx="173.31015" cy="178.82446" fill="url(#linearGradient5605)" id="path5487" rx="29.9459" ry="11.64255" transform="rotate(86.495021 173.31015 178.82447)" />
          <path d="m 175.18096,180.75154 -10.83778,28.25184 -6.02767,-13.86552 z" fill="#ffcd75" />
          <path d="m 175.18096,180.75154 -18.19103,4.43857 1.62525,13.63279 z" fill="#e39100" />
          <ellipse cx="189.1433" cy="-162.99968" rx="23.630432" ry="9.1871853" transform="rotate(86.495021)" />
          <ellipse cx="189.69417" cy="142.33757" fill="#fff" rx="3.481636" ry="10.947628" transform="rotate(7.8120872)" />
          <ellipse cx="199.67601" cy="149.94535" fill="#fff" rx="1.110869" ry="3.3135615" transform="rotate(9.7893529)" />
        </g>
      </g>
      <path inkscape:original-d="m 176.37325,152.94561 c -3.38393,-8.28302 -7.939,-13.4947 -12.36142,-12.719 -10.33371,1.81256 -13.95312,35.24613 -5.09518,66.42364" inkscape:path-effect="#path-effect5647" />
    </g>
    <path d="m 332.84799,148.74222 c 8.4579,42.65744 -29.08125,47.40435 -30.06197,90.71788 8.28397,-14.7311 14.34401,-20.11205 25.82343,-24.20916 -18.07578,29.18261 -18.19167,56.62375 -2.50154,90.29709 -1.07898,-16.04973 1.20048,-28.25584 8.07197,-39.72735 1.55731,31.36646 10.12106,44.54716 32.9657,59.16119 -8.68027,-19.92664 -10.45403,-38.00744 -8.50412,-58.25857 7.2148,15.34018 14.11315,24.48473 24.48006,30.96405 -36.36414,-87.36848 16.19069,-163.08169 -56.21996,-201.9834 z m -32.41118,-45.45866 c -31.18216,5.59128 -40.42836,29.6417 -75.41848,39.01007 7.1238,-7.21735 13.56714,-17.17083 16.37462,-28.62655 -14.79473,13.03003 -26.54347,20.31214 -46.19076,25.1817 9.39982,-8.03178 13.95326,-14.5913 17.95607,-25.54341 -29.30427,25.44368 -61.22968,32.34182 -95.33719,20.64823 29.36614,-5.86241 45.69857,-16.99206 59.71163,-38.077458 -24.41429,8.990208 -41.15958,3.384692 -60.29594,-17.973415 60.91792,6.212593 72.98426,-41.024191 133.28387,-31.812181 30.60975,4.676271 50.08838,20.829131 64.00333,42.200391 z" style="stroke-width:5;stroke:#835c45;fill:#b27d5e;stroke-miterlimit:20" />
    <ellipse cx="142.98085" cy="214.04604" rx="19.223923" ry="13.730537" style="stroke-width:4;stroke:#835c45;fill:none;stroke-miterlimit:20" transform="rotate(358.11774)" />
    <path fill="#b8ac6a" inkscape:original-d="m 177.54775,206.32782 c -8.04418,11.19503 -18.83786,18.89027 -27.77967,21.68458 l 17.37243,41.09734 c 46.89952,6.63164 94.50769,4.21519 127.96013,-12.07027" inkscape:path-effect="#path-effect5697" />
    <path d="m 392.52475,462.63055 c -93.84729,2.12563 -167.01966,-95.19632 -140.77816,-193.24417" fill="none" stroke="#b8ac6a" stroke-width="5" />
    <ellipse cx="243.63329" cy="189.26776" rx="24.622278" ry="15.611875" style="stroke-width:4;stroke:#835c45;fill:none;stroke-miterlimit:20" transform="rotate(6.1599879)" />
    <g>
      <path d="m 350.27961,352.73133 c 89.24455,24.6031 121.9274,-30.08559 71.83896,-33.66155 144.9529,-45.08384 118.46191,-89.00957 38.58245,-51.88492 75.39825,-52.3039 93.18114,-93.85899 84.79108,-102.66167 -8.32185,-8.73109 -44.17449,15.11433 -111.22992,74.26695 64.81311,-81.68008 78.76029,-103.8034 69.9629,-109.1518 -8.63763,-5.25129 -39.23663,8.18635 -65.49417,43.2249 -38.39898,51.24024 -41.13612,98.29135 -90.5714,154.41074 z" style="stroke-width:5;stroke:#b8ac6a;fill:#ecdd88;stroke-miterlimit:20" />
      <path d="m 395.22676,326.37831 c 70.2682,-26.93885 72.36912,-84.98876 9.49945,-38.45772 43.84945,-63.23833 28.41453,-82.44548 5.74823,-59.09514 l -5.74823,59.09514 z" fill="#ecdd88" />
      <path d="m 388.00252,358.96278 c 16.29506,-11.11331 13.69836,-24.56732 -0.77024,-29.75666 78.02167,-25.37461 82.666,-89.52062 17.49393,-41.28553 49.64103,-71.59077 23.30308,-86.75108 -3.49149,-47.61907" style="stroke-width:5;stroke:#b8ac6a;fill:none;stroke-miterlimit:20" />
    </g>
    <g transform="translate(.35355339)">
      <path d="m 286.47206,332.12254 c 61.51644,-19.00891 119.50391,-47.06971 162.44137,-84.69037 21.31235,-18.67332 61.13348,50.32699 33.40768,67.83744 -52.69655,33.28095 -129.19425,54.07476 -186.36085,48.92275 z" fill="#ecdd88" />
      <path fill="#b8ac6a" inkscape:original-d="m 286.47206,332.12254 c 61.51644,-19.00891 119.50391,-47.06971 162.44137,-84.69037 21.31235,-18.67332 61.13348,50.32699 33.40768,67.83744 -52.69655,33.28095 -129.19425,54.07476 -186.36085,48.92275" inkscape:path-effect="#path-effect5699" />
      <path d="m 455.86393,256.32388 c 3.3864,18.65597 10.07991,33.61008 24.22015,45.92647 -15.51028,-7.37618 -24.86883,-27.79214 -24.22015,-45.92647 z" fill="#b8ac6a" />
    </g>
    <path d="m 143.9504,52.451383 c 61.04533,21.251845 72.50642,2.04732 130.15664,18.539936 62.55511,17.895812 65.10259,60.262831 117.53394,71.551231 -36.16623,-51.451857 -34.38336,-83.499392 -14.3786,-128.021761 -34.99786,-34.220172 -74.51506,-49.886543 -121.23755,-49.080753 -20.70538,33.83979036 -44.45382,61.302457 -112.07443,87.011347 z" fill="#339943" />
    <path d="m 262.9238,67.253493 c 11.57462,-9.625682 21.48922,-20.282729 33.28784,-34.78424 -3.48875,15.536116 -5.53328,29.521081 -4.99884,43.913848 z m 93.31772,-70.8184119 c -18.24407,43.1631909 -23.13188,85.9050519 0.63856,130.4623889 l -36.83302,-32.611604 c -7.48767,-37.923977 -1.53586,-73.9454 13.4223,-111.842341 z m -74.37966,-29.7590291 c -17.67052,40.5780033 -58.27571,75.26206 -102.22992,95.143399 14.95296,2.008682 30.2592,2.839745 46.21017,1.521723 37.50045,-22.278288 63.89642,-53.062535 82.47943,-90.930935 z" fill="#fff" />
    <path d="m 143.9504,52.451383 c 61.04533,21.251845 72.50642,2.04732 130.15664,18.539936 62.55511,17.895812 65.10259,60.262831 117.53394,71.551231 -36.16623,-51.451857 -34.38336,-83.499392 -14.3786,-128.021761 -34.99786,-34.220172 -74.51506,-49.886543 -121.23755,-49.080753 -20.70538,33.83979036 -44.45382,61.302457 -112.07443,87.011347 z" style="stroke-width:5;stroke:#30763c;fill:none;stroke-miterlimit:20" />
    <g>
      <path d="m 282.50574,116.50586 c 2.69411,-26.279816 24.0134,-57.514857 33.21048,-57.514857 9.19709,0 49.74493,61.214097 8.71733,122.126557 z" fill="#ecdd88" />
      <path d="m 316.09894,94.340643 c 6.28923,18.524857 5.72225,35.694657 -0.97754,53.645097 10.45937,-15.2725 10.22205,-38.11012 0.97754,-53.645097 z" fill="#b8ac6a" />
      <path fill="#b8ac6a" inkscape:original-d="m 282.50574,116.50586 c 2.69411,-26.279816 24.0134,-57.514857 33.21048,-57.514857 9.19709,0 49.74493,61.214097 8.71733,122.126557" inkscape:path-effect="#path-effect908" />
    </g>
    <path d="m 168.74128,209.59245 c 8.93146,-2.76463 17.53916,-2.47822 28.53064,1.98856" style="stroke-width:4;stroke:#835c45;fill:none;stroke-miterlimit:20" />
  </g>
</svg>