<svg xmlns="http://www.w3.org/2000/svg" xmlns:inkscape="http://www.inkscape.org/namespaces/inkscape" xmlns:sodipodi="http://sodipodi.sourceforge.net/DTD/sodipodi-0.dtd" xmlns:xlink="http://www.w3.org/1999/xlink" height="1500" viewBox="0 0 1250 1500" width="1250">
  <defs>
    <linearGradient id="forehead">
      <stop offset="0" stop-color="#be40c0" stop-opacity=".6" />
      <stop offset="1" stop-color="#be40c0" stop-opacity=".4" />
    </linearGradient>
    <linearGradient id="plot">
      <stop offset="0" stop-color="#be40c0" stop-opacity=".25" />
      <stop offset="1" stop-color="#be40c0" stop-opacity=".35" />
    </linearGradient>
    <linearGradient id="hindleg">
      <stop offset="0" stop-color="#be40c0" />
      <stop offset="1" stop-color="#be40c0" stop-opacity=".8" />
    </linearGradient>
    <linearGradient id="magic">
      <stop offset="0" stop-color="#a2d0e7" stop-opacity=".25" />
      <stop offset="0.47227943" stop-color="#a2d0e7" stop-opacity=".75" />
      <stop offset="0.63710719" stop-color="#a2d0e7" stop-opacity=".75" />
      <stop offset="1" stop-color="#a2d0e7" stop-opacity=".25" />
    </linearGradient>
    <inkscape:path-effect effect="powerstroke" id="path-effect4532" interpolator_type="CubicBezierSmooth" offset_points="0.29,0.75" start_linecap_type="zerowidth" />
    <inkscape:path-effect effect="powerstroke" end_linecap_type="zerowidth" id="path-effect4530" interpolator_type="CubicBezierSmooth" offset_points="0.26,0.75 | 0.8,0.75" start_linecap_type="zerowidth" />
    <inkscape:path-effect effect="powerstroke" end_linecap_type="zerowidth" id="path-effect4528" interpolator_type="CubicBezierSmooth" offset_points="0.36,0.75 | 0.63,0.75 | 0.5,0.75" start_linecap_type="zerowidth" />
    <inkscape:path-effect effect="powerstroke" end_linecap_type="zerowidth" id="path-effect4526" interpolator_type="CubicBezierSmooth" offset_points="0.26,0.75 | 0.78,0.75" start_linecap_type="zerowidth" />
    <inkscape:path-effect effect="powerstroke" id="path-effect4524" interpolator_type="CubicBezierSmooth" offset_points="0.34,0.75 | 1.8,0.75" start_linecap_type="zerowidth" />
    <inkscape:path-effect effect="powerstroke" end_linecap_type="zerowidth" id="path-effect4517" interpolator_type="CubicBezierSmooth" offset_points="0.22,0.75 | 0.47,0.75 | 0.84,0.75" start_linecap_type="zerowidth" />
    <inkscape:path-effect effect="powerstroke" end_linecap_type="zerowidth" id="path-effect4508" interpolator_type="CubicBezierSmooth" offset_points="0.14,3 | 1.76,3" start_linecap_type="zerowidth" />
    <inkscape:path-effect effect="powerstroke" id="path-effect4613" interpolator_type="CubicBezierSmooth" offset_points="0.41,3 | 6.999,3" start_linecap_type="zerowidth" />
    <inkscape:path-effect effect="powerstroke" end_linecap_type="zerowidth" id="path-effect4659" interpolator_type="CubicBezierSmooth" offset_points="0.37,3 | 2.75,3" start_linecap_type="zerowidth" />
    <inkscape:path-effect effect="powerstroke" id="path-effect4653" interpolator_type="CubicBezierSmooth" offset_points="0.37,3 | 6.8,3" start_linecap_type="zerowidth" />
    <inkscape:path-effect effect="powerstroke" id="path-effect4558" interpolator_type="CubicBezierSmooth" offset_points="0.33,3 | 0.78,3" start_linecap_type="zerowidth" />
    <inkscape:path-effect effect="powerstroke" id="path-effect4529" interpolator_type="CubicBezierSmooth" offset_points="0.33,3 | 0.78,3" start_linecap_type="zerowidth" />
    <inkscape:path-effect effect="powerstroke" end_linecap_type="zerowidth" id="path-effect4523" interpolator_type="CubicBezierSmooth" offset_points="0.24,3 | 2,3 | 3.75,3" start_linecap_type="zerowidth" />
    <inkscape:path-effect effect="powerstroke" id="path-effect4639" interpolator_type="CubicBezierSmooth" offset_points="0.24,3 | 0.9,3" start_linecap_type="zerowidth" />
    <linearGradient id="maneyellow">
      <stop offset="0" stop-color="#f2f3bb" />
      <stop offset="1" stop-color="#fafae4" />
    </linearGradient>
    <linearGradient id="manepink">
      <stop offset="0" stop-color="#b81096" />
      <stop offset="1" stop-color="#e39fd5" />
    </linearGradient>
    <linearGradient id="maneblue">
      <stop offset="0" stop-color="#6f08a2" />
      <stop offset="1" stop-color="#c69bdb" />
    </linearGradient>
    <inkscape:path-effect effect="powerstroke" end_linecap_type="zerowidth" id="path-effect4579" interpolator_type="CubicBezierSmooth" offset_points="0.8,3 | 1.83,3" start_linecap_type="zerowidth" />
    <inkscape:path-effect effect="powerstroke" id="path-effect4577" interpolator_type="CubicBezierSmooth" offset_points="0.7,3" start_linecap_type="zerowidth" />
    <linearGradient id="wingfill">
      <stop offset="0" stop-color="#f8c3e3" />
      <stop offset="1" stop-color="#c287e8" />
    </linearGradient>
    <linearGradient id="wingstroke">
      <stop offset="0" stop-color="#f18ac5" />
      <stop offset="1" stop-color="#a340ea" />
    </linearGradient>
    <inkscape:path-effect effect="powerstroke" id="path-effect4510" interpolator_type="CubicBezierSmooth" offset_points="0.32,3" start_linecap_type="zerowidth" />
    <inkscape:path-effect effect="powerstroke" end_linecap_type="zerowidth" id="path-effect4566" interpolator_type="CubicBezierSmooth" offset_points="0.11,3 | 2.74,3 | 2.53,3" start_linecap_type="zerowidth" />
    <inkscape:path-effect effect="powerstroke" end_linecap_type="zerowidth" id="path-effect4538" interpolator_type="CubicBezierSmooth" offset_points="0.23,3 | 12.49,3" start_linecap_type="zerowidth" />
    <linearGradient id="ear">
      <stop offset="0" stop-color="#be40c0" stop-opacity="0" />
      <stop offset="0.24893056" stop-color="#be40c0" stop-opacity=".25" />
      <stop offset="0.77925223" stop-color="#be40c0" stop-opacity=".25" />
      <stop offset="1" stop-color="#be40c0" stop-opacity="0" />
    </linearGradient>
    <linearGradient id="eye">
      <stop offset="0" stop-color="#53037a" />
      <stop offset="1" stop-color="#bb6dd3" />
    </linearGradient>
    <linearGradient id="tongue">
      <stop offset="0" stop-color="#9c5e34" stop-opacity=".6" />
      <stop offset="1" stop-color="#9c5e34" stop-opacity="0" />
    </linearGradient>
    <linearGradient id="lollipop">
      <stop offset="0" stop-color="#c04096" stop-opacity=".7" />
      <stop offset="1" stop-color="#c04096" stop-opacity=".2" />
    </linearGradient>
    <linearGradient id="foreleg">
      <stop offset="0" stop-color="#be40c0" stop-opacity=".6" />
      <stop offset="1" stop-color="#be40c0" stop-opacity=".35" />
    </linearGradient>
    <clipPath id="clipPath3982">
      <path d="m 883.17637,386.43967 c 22.23337,8.40102 48.26004,24.09374 65.2306,39.47331 86.93873,-139.21126 50.29721,-161.85987 -65.2306,-39.47331 z" />
    </clipPath>
    <linearGradient gradientUnits="userSpaceOnUse" id="linearGradient3953" x1="699.98969" x2="529.72668" y1="808.7113" y2="719.68878" xlink:href="#wingstroke" />
    <linearGradient gradientUnits="userSpaceOnUse" id="linearGradient3995" x1="189.9391" x2="304.70868" y1="1002.2086" y2="675.61914" xlink:href="#manepink" />
    <linearGradient gradientUnits="userSpaceOnUse" id="linearGradient4003" x1="189.9391" x2="304.70868" y1="1002.2086" y2="675.61914" xlink:href="#maneblue" />
    <linearGradient gradientUnits="userSpaceOnUse" id="linearGradient4011" x1="189.9391" x2="304.70868" y1="1002.2086" y2="675.61914" xlink:href="#maneyellow" />
    <clipPath id="clipPath4015">
      <path d="m 464.23411,725.56183 c 19.6893,-5.05781 35.81823,-28.35983 37.98586,-50.21677 l -81.22576,-153.23695 -298.37454,56.20068 -83.602329,676.02651 355.491329,33.237 z" />
    </clipPath>
    <linearGradient gradientTransform="translate(-140.81022,-4.3352603)" gradientUnits="userSpaceOnUse" id="linearGradient4047" x1="678.98456" x2="541.23602" y1="776.69275" y2="704.31885" xlink:href="#wingfill" />
    <linearGradient gradientTransform="translate(-1.5327459)" gradientUnits="userSpaceOnUse" id="linearGradient4055" x1="539.70709" x2="401.95856" y1="772.35748" y2="699.98358" xlink:href="#wingstroke" />
    <filter id="filter4987">
      <feGaussianBlur stdDeviation="10.258204" />
    </filter>
    <filter height="1.129388" id="filter5112" width="1.2394598" x="-0.11972986" y="-0.06469398">
      <feGaussianBlur stdDeviation="7.8149024" />
    </filter>
    <linearGradient gradientUnits="userSpaceOnUse" id="linearGradient5124" x1="683.84668" x2="688.75037" y1="962.30365" y2="1062.4274" xlink:href="#foreleg" />
    <filter height="1.6656784" id="filter5184" width="1.0974855" x="-0.048742771" y="-0.33283922">
      <feGaussianBlur stdDeviation="12.304704" />
    </filter>
    <filter id="filter4295">
      <feGaussianBlur stdDeviation="3.1355064" />
    </filter>
    <filter id="filter4399">
      <feGaussianBlur stdDeviation="4.5663056" />
    </filter>
    <filter id="filter4423">
      <feGaussianBlur stdDeviation="3.0104331" />
    </filter>
    <filter id="filter4601">
      <feGaussianBlur stdDeviation="1.8994654" />
    </filter>
    <filter height="1.2348053" id="filter4681" width="1.2454296" x="-0.12271479" y="-0.11740272">
      <feGaussianBlur stdDeviation="5.123129" />
    </filter>
    <filter id="filter4803">
      <feGaussianBlur stdDeviation="4.7323312" />
    </filter>
    <filter id="filter4843">
      <feGaussianBlur stdDeviation="4.7037573" />
    </filter>
    <filter height="1.2551297" id="filter4881" width="1.0784492" x="-0.039224636" y="-0.12756483">
      <feGaussianBlur stdDeviation="2.6613036" />
    </filter>
    <linearGradient gradientUnits="userSpaceOnUse" id="linearGradient5262" x1="398.79465" x2="571.45502" y1="366.81033" y2="320.18307" xlink:href="#manepink" />
    <linearGradient gradientUnits="userSpaceOnUse" id="linearGradient5264" x1="398.79465" x2="571.45502" y1="366.81033" y2="320.18307" xlink:href="#maneblue" />
    <linearGradient gradientUnits="userSpaceOnUse" id="linearGradient5266" x1="398.79465" x2="571.45502" y1="366.81033" y2="320.18307" xlink:href="#maneyellow" />
    <linearGradient gradientUnits="userSpaceOnUse" id="linearGradient5268" x1="688.35352" x2="607.6601" y1="543.22852" y2="551.53247" xlink:href="#manepink" />
    <linearGradient gradientUnits="userSpaceOnUse" id="linearGradient5270" x1="688.35352" x2="607.6601" y1="543.22852" y2="551.53247" xlink:href="#maneyellow" />
    <linearGradient gradientUnits="userSpaceOnUse" id="linearGradient5272" x1="688.35352" x2="607.6601" y1="543.22852" y2="551.53247" xlink:href="#maneblue" />
    <linearGradient gradientUnits="userSpaceOnUse" id="linearGradient5274" x1="985.21521" x2="775.83807" y1="486.85233" y2="386.73605" xlink:href="#manepink" />
    <linearGradient gradientUnits="userSpaceOnUse" id="linearGradient5276" x1="985.21521" x2="775.83807" y1="486.85233" y2="386.73605" xlink:href="#maneyellow" />
    <linearGradient gradientUnits="userSpaceOnUse" id="linearGradient5278" x1="985.21521" x2="775.83807" y1="486.85233" y2="386.73605" xlink:href="#maneblue" />
    <clipPath id="clipPath4143">
      <path d="m 979.0625,315.75 c -2.61552,0.39746 -5.4385,1.45144 -8.6875,3.0625 -6.498,3.22211 -14.60097,8.78432 -24.5,16.75 -19.79807,15.93137 -46.67765,41.51501 -80.25,77.03125 L 863.34375,415 866,417.03125 l 49.59375,38.1875 2.53125,1.9375 1.78125,-2.625 c 27.79386,-40.74437 47.01824,-72.38852 58.15625,-94.90625 5.569,-11.25886 9.11618,-20.21958 10.71875,-27.09375 0.80129,-3.43709 1.12698,-6.35661 0.84375,-8.9375 -0.28323,-2.58089 -1.31699,-4.99079 -3.34375,-6.46875 -2.02676,-1.47796 -4.60323,-1.77246 -7.21875,-1.375 z" />
    </clipPath>
    <filter id="filter4179">
      <feGaussianBlur stdDeviation="4.0529659" />
    </filter>
    <linearGradient gradientUnits="userSpaceOnUse" id="linearGradient4756" x1="927.63049" x2="934.32422" y1="686.48511" y2="642.23511" xlink:href="#lollipop" />
    <filter id="filter4794">
      <feGaussianBlur stdDeviation="0.96315702" />
    </filter>
    <filter id="filter4936">
      <feGaussianBlur stdDeviation="1.7766686" />
    </filter>
    <linearGradient gradientUnits="userSpaceOnUse" id="linearGradient4583" x1="884.75879" x2="891.58832" y1="648.05249" y2="662.14209" xlink:href="#tongue" />
    <filter height="1.1207474" id="filter4630" width="1.2203245" x="-0.11016224" y="-0.060373694">
      <feGaussianBlur stdDeviation="1.471604" />
    </filter>
    <clipPath id="clipPath8425">
      <use xlink:href="#ellipse5115" />
    </clipPath>
    <clipPath id="clipPath8522">
      <use xlink:href="#path3828" />
    </clipPath>
    <linearGradient gradientUnits="userSpaceOnUse" id="linearGradient8561" x1="793.96466" x2="795.06787" y1="586.16376" y2="637.62225" xlink:href="#eye" />
    <linearGradient gradientUnits="userSpaceOnUse" id="linearGradient10719" x1="737.43982" x2="723.24658" y1="492.48663" y2="381.59299" xlink:href="#ear" />
    <clipPath id="clipPath10985">
      <path d="m 725.58138,497.39434 c 118.7978,91.04498 85.82106,-236.92142 -9.0901,-116.35775 -15.93678,57.61823 10.70281,81.54324 9.0901,116.35775 z" />
    </clipPath>
    <filter color-interpolation-filters="sRGB" height="1.2234664" id="filter12311" width="1.3608244" x="-0.18041221" y="-0.1117332">
      <feGaussianBlur stdDeviation="5.417093" />
    </filter>
    <linearGradient gradientUnits="userSpaceOnUse" id="linearGradient4518" x1="699.98969" x2="529.72668" y1="808.7113" y2="719.68878" xlink:href="#wingstroke" />
    <linearGradient gradientUnits="userSpaceOnUse" id="linearGradient4537" x1="699.98969" x2="529.72668" y1="808.7113" y2="719.68878" xlink:href="#wingfill" />
    <clipPath id="clipPath4549">
      <path d="M 727.66112,757.75555 C 716.5961,746.18418 699.88744,734.61063 680.27516,723.788 c -19.61349,-10.82329 -42.10105,-20.86857 -63.96315,-29.05477 -20.42277,-7.64725 -40.27663,-13.65341 -55.65938,-16.77517 -7.43222,-1.50828 -13.94123,-2.36684 -18.90864,-2.33663 -2.43341,0.0148 -4.63064,0.24214 -6.44625,0.78803 -1.80435,0.54251 -3.73007,1.55562 -4.73762,3.51703 l -3e-5,5e-5 c -0.85097,1.65663 -0.94345,3.69202 -0.76908,5.62168 0.181,2.00292 0.69387,4.34233 1.47213,6.93982 1.53857,5.13503 4.221,11.62498 7.91796,19.11748 7.19508,14.58202 18.46529,33.41128 32.96248,53.49152 27.23693,37.7262 67.81287,82.42668 112.70385,105.65918 20.27742,10.4942 37.75287,12.17482 51.81509,7.10378 13.64467,-4.92045 23.39873,-15.97649 28.94348,-29.71671 3.89166,-9.64376 5.72343,-20.646 5.33898,-31.76789 -0.76287,-22.06992 -10.18874,-35.89295 -15.68873,-41.97736 z" />
    </clipPath>
    <clipPath id="clipPath4563">
      <path d="m 676.7793,890.08398 -1.0293,2.3379 c -32.63371,74.10781 -36.7038,164.48222 -29.42188,244.09572 7.28193,79.6135 25.88397,148.3414 39.32813,179.7129 1.55155,3.6204 4.85118,6.2046 9.01758,8.3164 4.16639,2.1117 9.34883,3.7598 15.24414,5.0722 11.79062,2.625 26.43606,3.8626 40.92383,3.8164 14.48776,-0.046 28.77712,-1.3711 39.88672,-4.0312 5.55479,-1.3301 10.31615,-2.9752 14.01367,-5.1172 3.69752,-2.1419 6.591,-4.9473 7.20898,-8.7578 0.37071,-2.2858 -0.37337,-3.8829 -1.31055,-6.1641 -0.93717,-2.2812 -2.30295,-5.0366 -4.03906,-8.3418 -3.47221,-6.6103 -8.42545,-15.3841 -14.23437,-26.1816 -11.61784,-21.595 -26.63932,-51.2514 -39.76563,-87.252 -26.2526,-72.001 -44.91126,-169.268 -13.57812,-278.09957 l 0.85156,-2.95703 -63.0957,-16.44922 z" />
    </clipPath>
    <clipPath id="clipPath4618">
      <path d="m 919.04077,368.78981 c -28.13676,-20.10274 -60.4538,-28.54159 -95.10327,-14.94606 l 67.62531,186.72133 -191.09625,-59.96469 -7.90742,-177.91718 231.76293,-2.71402 z" />
    </clipPath>
    <clipPath id="clipPath4565">
      <path d="m 628.90374,350.51331 c -6.71254,8.88367 -10.02585,21.88003 -8.7282,39.41483 l 31.97492,111.58161 -53.42476,9.21116 -23.33495,-162.11649 z" />
    </clipPath>
    <linearGradient gradientUnits="userSpaceOnUse" id="linearGradient4582" x1="688.35352" x2="607.6601" y1="543.22852" y2="551.53247" xlink:href="#manepink" />
    <clipPath id="clipPath4601">
      <path d="m 636.60156,289.12891 c -1.85049,-0.0948 -3.77805,0.2711 -5.61914,0.9414 -7.36433,2.6812 -15.34413,9.90234 -23.21094,18.66407 -7.8668,8.76172 -15.38992,19.09749 -20.71093,28.1289 -2.66051,4.51571 -4.77075,8.69271 -6.10157,12.29102 -1.33081,3.5983 -2.2794,6.54328 -0.98242,9.63086 0.94172,2.24184 2.05386,3.92329 3.76953,4.93164 1.71568,1.00834 3.7029,0.90417 5.08594,0.53515 2.76608,-0.73802 4.47898,-1.83416 5.9375,-1.76757 1.45852,0.0666 3.5351,0.82877 6.87891,6.20507 3.3438,5.37631 7.47867,15.08587 12.31445,31.45313 l 1.40234,4.74609 52.94141,-51.17187 0.0742,-1.15625 c 0.93274,-14.32213 0.39517,-22.28932 -1.48242,-27.40039 -0.9388,-2.55554 -2.35475,-4.46655 -4.11524,-5.61914 -1.76048,-1.15259 -3.63822,-1.46487 -5.20117,-1.5879 -3.1259,-0.24604 -5.00245,-0.0377 -6.44726,-1.20898 -1.44482,-1.17126 -3.4355,-4.65082 -4.30274,-13.9668 -0.50917,-5.46957 -2.01492,-9.49444 -5.07617,-11.83007 -1.53062,-1.16782 -3.3038,-1.72361 -5.1543,-1.81836 z" />
    </clipPath>
    <clipPath id="clipPath4614">
      <path d="m 687.74219,234.49219 c -2.52896,-0.36975 -4.0092,0.66723 -6.10352,1.93164 -2.09432,1.2644 -4.52566,3.08983 -7.28125,5.48047 -5.51118,4.78128 -12.27836,11.81492 -19.39258,20.87109 -14.22842,18.11234 -29.81554,44.304 -38.7832,76.4082 l -0.91016,3.26368 3.34961,0.50976 54.86524,8.35742 1.07031,-1.04687 c 25.04627,-24.50179 31.08496,-52.87619 29.67383,-75.11719 -0.70557,-11.1205 -3.23152,-20.72801 -6.17383,-27.76562 -1.47116,-3.51881 -3.03539,-6.39109 -4.625,-8.5586 -1.58961,-2.1675 -2.9483,-3.93322 -5.68945,-4.33398 z" />
    </clipPath>
    <clipPath id="clipPath4627">
      <path d="m 648.60547,209.84766 c -1.71386,-0.0978 -3.53687,0.0966 -5.44336,0.46289 -3.81299,0.7326 -8.06986,2.25838 -12.6582,4.36914 -9.1767,4.22151 -19.65403,10.81824 -29.5293,18.45117 -9.87527,7.63293 -19.12658,16.28 -25.75977,24.72266 -6.63319,8.44265 -11.00211,16.69571 -9.65625,24.32226 0.90002,5.10007 4.8148,8.18907 9.08399,9.87695 4.26919,1.68789 9.22355,2.58108 14.2793,4.15039 10.11149,3.13864 20.48943,8.2641 26.2246,26.6504 l 1.13672,3.64257 21.50196,-12.90234 0.36914,-0.5293 c 12.4712,-17.9732 18.53971,-41.67459 20.625,-61.56054 1.04264,-9.94298 1.0795,-18.92198 0.32422,-25.85743 -0.37765,-3.46772 -0.94249,-6.41887 -1.75586,-8.82226 -0.81338,-2.40339 -1.71277,-4.45451 -3.95313,-5.68164 -1.4702,-0.80529 -3.0752,-1.19711 -4.78906,-1.29492 z" />
    </clipPath>
    <clipPath id="clipPath4670">
      <path d="m 562.88867,708.62695 -2.99609,0.0801 c -50.96781,1.34572 -85.16243,15.20194 -107.76367,36.13477 -22.60125,20.93283 -33.4312,48.71539 -38.44922,77.29687 -5.01802,28.58149 -4.287,58.0742 -3.65039,82.88867 0.63661,24.81447 0.76008,45.20369 -3.69532,53.92969 -1.141,2.23468 -3.03283,3.42796 -6.01953,4.25195 -2.98669,0.824 -6.88862,1.05961 -10.95507,1.20313 -4.06646,0.14352 -8.28842,0.20113 -12.18946,0.97266 -3.90103,0.77153 -7.73989,2.37976 -10.0293,5.91601 -27.66869,42.7375 -58.58213,118.9918 -80.07421,192.5742 -10.74604,36.7912 -19.11273,72.8851 -23.45899,103.7715 -4.34626,30.8864 -4.82337,56.4651 0.88281,72.9316 1.33058,3.8397 4.77474,6.4356 9.16602,8.5703 4.39128,2.1348 9.96409,3.8138 16.38867,5.1641 12.84917,2.7007 29.09269,4.0394 45.28906,4.0645 16.19638,0.025 32.3052,-1.2619 44.9004,-3.9551 6.29759,-1.3467 11.71456,-3.0282 15.93359,-5.2071 4.21903,-2.1788 7.52329,-4.9459 8.46875,-8.9257 0.4854,-2.0433 0.15672,-3.8138 -0.25586,-6.5 -0.41258,-2.6862 -1.07495,-6.064 -1.88672,-10.1426 -1.62353,-8.1573 -3.84743,-19.0984 -5.84375,-32.3906 -3.99263,-26.5845 -7.06711,-62.5437 -2.51758,-103.9805 9.09908,-82.8736 48.53712,-187.6473 172.76953,-283.54296 l 1.20704,-0.93164 -0.041,-1.52344 -5.17969,-192.65039 z" />
    </clipPath>
    <clipPath id="clipPath4559">
      <path d="m 481.06836,591 c -1.58453,-0.032 -2.59632,0.52203 -3.72852,1.17578 -1.13219,0.65375 -2.31142,1.52675 -3.59375,2.61914 -2.56466,2.18478 -5.51761,5.25548 -8.60742,9.10156 -6.17961,7.69217 -12.88181,18.46814 -17.39258,31.125 -9.02154,25.31373 -8.84515,58.55666 22.48829,87.19336 l 2.42187,2.21289 38.4707,-50.49218 0.10547,-0.79102 c 2.47977,-18.66348 -2.30116,-38.69668 -8.76562,-54.25976 -3.23224,-7.78155 -6.88731,-14.4366 -10.41211,-19.29493 -1.76241,-2.42916 -3.483,-4.41038 -5.21289,-5.89648 -1.72989,-1.4861 -3.47032,-2.64691 -5.77344,-2.69336 z" />
    </clipPath>
    <clipPath id="clipPath4575">
      <path d="m 534,594 c -2.375,0 -3.596,1.20827 -5.03906,2.54883 -1.44306,1.34056 -2.95037,3.12131 -4.57422,5.33008 -3.24771,4.41753 -6.91686,10.53571 -10.51172,17.78906 -7.18973,14.5067 -14.05885,33.50123 -15.86133,52.04101 l -0.11914,1.22657 0.77735,0.95507 42.99414,52.95899 2.34765,-2.125 c 32.56659,-29.48943 32.33399,-62.64278 22.85352,-87.60156 -4.74024,-12.4794 -11.66879,-23.01726 -17.83985,-30.50782 -3.08553,-3.74527 -5.97697,-6.72435 -8.375,-8.83398 -1.19901,-1.05482 -2.26748,-1.89158 -3.25,-2.52539 C 536.41983,594.62205 535.79167,594 534,594 Z" />
    </clipPath>
    <clipPath id="clipPath4588">
      <path d="m 506.08594,652.20898 c -3.31758,0.26758 -6.82267,1.58378 -10.55274,3.49414 -9.94685,5.09431 -21.61226,14.95847 -32.07226,26.32032 -10.46001,11.36185 -19.63638,24.14383 -24.13282,35.42187 -2.24821,5.63903 -3.38997,10.94811 -2.5625,15.7461 0.82748,4.79798 4.06115,8.9322 9.2129,10.90234 8.57535,3.2794 12.6265,6.35895 14.50781,8.80078 1.8813,2.44183 1.96582,4.35423 2.08984,6.91016 0.12403,2.55593 0.28041,6.1786 3.23438,8.88476 2.95397,2.70617 7.62476,4.16152 16.125,5.21094 16.03564,1.97972 34.10611,-8.46489 48.54492,-21.10547 7.2194,-6.32029 13.50837,-13.26505 18.06641,-19.80469 4.55803,-6.53963 7.54687,-12.52619 7.54687,-17.93554 0,-11.88743 -1.75421,-18.60183 -5.42383,-22.69727 -3.66962,-4.09543 -8.62879,-4.59172 -12.77148,-5.15039 -4.1427,-0.55867 -7.70089,-1.12039 -11.02344,-4.20703 -3.32255,-3.08664 -6.68418,-9.14087 -8.91992,-21.4375 -0.45685,-2.51265 -1.39192,-4.6781 -2.90625,-6.31445 -1.51434,-1.63635 -3.57522,-2.61723 -5.70703,-2.93946 -1.06591,-0.16111 -2.15,-0.1888 -3.25586,-0.0996 z" />
    </clipPath>
    <linearGradient gradientUnits="userSpaceOnUse" id="linearGradient4935" x1="845.56061" x2="921.63867" y1="499.68646" y2="543.039" xlink:href="#forehead" />
    <filter id="filter4764">
      <feGaussianBlur stdDeviation="5.0409798" />
    </filter>
    <linearGradient gradientUnits="userSpaceOnUse" id="linearGradient5471" x1="506.16208" x2="533.3396" y1="808.55359" y2="926.19946" xlink:href="#plot" />
    <filter id="filter5687">
      <feGaussianBlur stdDeviation="5.3740171" />
    </filter>
    <radialGradient cx="480.18546" cy="1243.068" fx="480.18546" fy="1243.068" gradientTransform="matrix(0.47653599,-0.07768907,0.25766034,1.5804594,-11.630076,-650.90399)" gradientUnits="userSpaceOnUse" id="radialGradient5539" r="146.04468" xlink:href="#hindleg" />
    <filter height="1.1367788" id="filter5237" width="1.2631552" x="-0.13157763" y="-0.068389416">
      <feGaussianBlur stdDeviation="12.677388" />
    </filter>
    <radialGradient cx="686.23804" cy="943.15704" fx="686.23804" fy="943.15704" gradientTransform="matrix(-0.26516858,1.9779306,-3.3804509,-0.4531955,4090.2666,-22.852162)" gradientUnits="userSpaceOnUse" id="radialGradient5697" r="163.01695" xlink:href="#torso" />
    <linearGradient id="torso">
      <stop offset="0" stop-color="#be40c0" />
      <stop offset="0.58583248" stop-color="#be40c0" />
      <stop offset="1" stop-color="#be40c0" stop-opacity=".8" />
    </linearGradient>
    <filter id="filter4738">
      <feGaussianBlur stdDeviation="7.2843133" />
    </filter>
    <filter id="filter4761">
      <feGaussianBlur stdDeviation="6.9115221" />
    </filter>
    <filter id="filter4258">
      <feGaussianBlur stdDeviation="6.4527869" />
    </filter>
    <filter id="filter4702">
      <feGaussianBlur stdDeviation="7.6271375" />
    </filter>
    <clipPath id="clipPath4544">
      <path d="m 719.91693,322.40661 c -0.86836,-0.0431 -1.71187,0.095 -2.49024,0.32031 -1.04177,0.30154 -2.07918,0.79209 -3.09375,1.39454 -4.0006,2.37552 -8.81526,7.20637 -13.80273,13.48437 -10.82665,13.62808 -22.49345,34.02371 -30.89258,56.00586 -10.24636,26.81672 -14.3561,52.27483 -12.34766,74.26563 1.1586,12.68579 4.241,23.21753 8.18946,31.91015 3.78762,8.33855 8.48893,14.64317 12.83398,19.2793 -0.56207,6.99338 -0.66406,13.61978 -0.37109,19.97265 0.90178,19.55468 5.46087,36.29645 11.10351,53.4629 11.08916,33.73625 26.48828,69.37109 26.48828,132.39062 -1e-5,10.3246 -0.83992,17.3688 -2.32421,21.92774 -0.73583,2.26003 -1.58045,3.75054 -2.4375,4.72851 -0.82606,0.94259 -1.69271,1.44578 -2.65235,1.68164 -0.9995,0.24565 -2.27188,0.24085 -3.91211,-0.13672 -1.64573,-0.37884 -3.54631,-1.10654 -5.72851,-2.1875 -4.3816,-2.17044 -9.5191,-5.56915 -15.47657,-9.74414 -11.7951,-8.266 -26.51553,-19.37923 -43.43554,-28.35351 -16.96989,-9.00074 -36.37706,-15.98633 -57.76368,-15.98633 -32.69845,0 -72.78723,19.59311 -90.65624,61.91601 -9.00212,21.32159 -12.27404,48.1993 -6.38868,80.91211 5.8824,32.69638 20.89965,71.17304 48.36524,115.78711 0.0947,0.15382 0.12691,0.27984 0.1289,0.42969 0.002,0.17365 -0.0365,0.47112 -0.22851,0.92773 -0.40715,0.96794 -1.32484,2.24042 -2.86914,3.80079 -3.0807,3.11276 -7.86658,6.60029 -13.10352,10.20312 -5.21012,3.58438 -10.78945,7.23311 -15.19726,10.58399 -2.22019,1.68782 -4.22903,3.36358 -5.78125,4.97851 -1.48253,1.54243 -2.89555,3.37918 -3.35743,5.39063 -18.66413,81.28188 -7.88077,167.51028 7.9961,235.19338 8.16247,34.7965 17.82187,65.3274 26.02344,88.707 4.18357,11.9257 8.03487,22.1206 11.16406,30.1719 2.15832,5.5532 4.81044,12.0775 6.96875,17.6308 1.75071,4.4862 5.26292,8.2225 9.6914,11.293 4.4385,3.0775 9.96977,5.6093 16.1211,7.6387 12.59108,4.1538 28.13344,6.3248 43.41211,6.5508 15.72586,0.2326 31.34722,-1.5826 43.99609,-5.5196 6.51876,-2.029 12.32973,-4.6456 17.02149,-7.9004 4.69919,-3.26 8.36208,-7.224 10.41992,-11.957 0.61159,-1.4067 0.54525,-2.8687 0.26953,-4.125 -0.27243,-1.2413 -0.80981,-2.56 -1.4668,-3.8945 -1.33251,-2.7065 -3.49262,-6.132 -6.11328,-10.209 -5.59666,-8.7069 -13.27688,-20.3752 -22.30078,-37.2383 -19.70638,-36.8258 -42.15477,-91.8445 -59.43945,-175.2363 -9.5399,-46.0261 -9.42464,-79.0819 -5.15625,-104.7793 4.24154,-25.5356 12.89472,-45.24858 21.7539,-62.25978 11.41937,-21.92722 21.34659,-36.751 30.12696,-57.47851 31.04972,19.84416 69.12089,28.16856 104.72265,25.50976 -1.58468,8.14214 -3.62212,17.88299 -6.39258,30.1836 -1.71889,7.63175 -5.4621,23.44672 -9.58984,40.66403 -4.86023,20.2726 -7.73043,32.5947 -10.51563,45.1739 -0.95489,4.3127 -1.94722,8.878 -2.95117,13.6308 -5.6927,26.9496 -13.0937,65.8461 -16.39843,108.0195 -3.35647,42.8335 -3.04459,94.5779 9.83593,148.5586 0.90947,3.8115 3.682,6.8875 7.39258,9.336 3.69789,2.4402 8.58469,4.4323 14.29688,6.0156 10.798,2.9931 24.81751,4.5905 39.30664,4.6699 14.1424,0.077 28.62174,-1.2977 40.38867,-4.2187 5.93923,-1.4743 11.19809,-3.3465 15.45703,-5.6797 4.21786,-2.3106 7.64695,-5.1787 9.46094,-8.8067 1.09212,-2.1842 1.47763,-4.5385 1.38086,-6.9882 -0.0953,-2.4128 -0.66189,-4.9922 -1.4961,-7.6817 -1.68924,-5.4462 -4.77781,-12.2212 -8.23047,-20.0136 -7.86621,-17.7533 -17.11018,-39.817 -24.24804,-71.8399 -7.16521,-32.1457 -11.02979,-69.4238 -10.53516,-113.0332 0.49268,-43.437 5.26243,-88.3856 12.5625,-132.63476 3.42727,-20.77427 7.27912,-41.76789 10.4336,-58.59961 25.2585,-17.47447 42.11328,-44.47455 42.11328,-80.31055 0,-60.78563 -32.97554,-120.78797 -36.86328,-172.60546 2.80201,0.40991 5.65967,0.80309 8.60546,1.16406 0.50417,0.0618 1.00954,0.1237 1.51563,0.18359 11.39041,1.3479 22.44673,2.22758 30.93359,2.44336 4.03518,0.10259 7.52717,0.0549 10.03321,-0.19141 1.17793,-0.11581 2.32281,-0.29007 3.23632,-0.59179 0.4268,-0.14097 1.04984,-0.38873 1.60938,-0.84571 0.2926,-0.23896 0.65451,-0.60643 0.92383,-1.12695 0.28449,-0.54982 0.42574,-1.19942 0.35742,-1.87695 -0.52149,-5.17172 1.02615,-9.90821 5.08789,-13.23047 3.66345,-2.99646 9.81575,-5.1454 18.99609,-4.42578 2.17151,0.17022 4.42029,-0.46002 6.56446,-1.41211 2.1913,-0.97302 4.46075,-2.36677 6.77148,-4.06055 4.44677,-3.25952 9.15222,-7.70704 13.3457,-12.35547 4.04825,-4.48744 7.70476,-9.26191 10.02149,-13.24414 1.1154,-1.91726 2.03095,-3.83618 2.4375,-5.52929 0.20011,-0.83341 0.3308,-1.83175 0.14844,-2.83985 -0.19753,-1.09188 -0.78532,-2.24357 -1.97657,-2.98633 -18.3347,-11.43173 -27.45054,-25.95413 -28.19726,-42.82421 -0.72723,-16.42979 6.47385,-35.55454 21.83203,-56.4629 5.86793,-7.98849 6.85412,-17.06473 4.05664,-26.24414 -2.74031,-8.99167 -9.08372,-18.05473 -17.83594,-26.58398 -17.34621,-16.90424 -44.88392,-32.40388 -75.36133,-41.38086 -29.85298,-8.79306 -62.95006,-11.42712 -91.80859,-2.35547 -0.002,-0.006 -0.004,-0.0117 -0.006,-0.0176 -6.44875,-16.74 -23.25866,-48.00852 -29.19141,-73.39062 -0.26186,-1.1203 -0.72257,-2.24027 -1.51562,-3.16406 -0.82349,-0.95926 -1.90308,-1.58336 -3.12695,-1.82618 -0.29316,-0.0582 -0.58555,-0.093 -0.875,-0.10742 z" />
    </clipPath>
    <clipPath id="clipPath5172">
      <path d="m 748.4375,469.90628 c 0,0 2.20531,-1.61638 5.58469,-6.63184 3.18353,-4.72481 7.8448,-13.51048 8.14163,-26.02417 0.23147,-9.75819 -1.66239,-20.81613 -7.513,-36.00343 -6.44875,-16.74 -23.25855,-48.00987 -29.1913,-73.39197 -0.26186,-1.1203 -0.72318,-2.23906 -1.51623,-3.16285 -0.82349,-0.95926 -1.90251,-1.58401 -3.12638,-1.82683 -1.17262,-0.23264 -2.32822,-0.0871 -3.36605,0.21333 -1.04177,0.30153 -2.07861,0.79147 -3.09318,1.39392 -4.0006,2.37552 -8.8153,7.20719 -13.80277,13.48519 -10.82665,13.62808 -22.49386,34.02301 -30.89299,56.00516 -10.24636,26.81672 -14.35575,52.27404 -12.34731,74.26484 1.1586,12.68579 4.24056,23.21799 8.18902,31.91061 6.49482,14.29849 15.68518,22.65448 21.13725,26.78027 5.84257,4.42131 8.85912,5.45652 8.85912,5.45652 z" />
    </clipPath>
    <clipPath id="clipPath5578">
      <path d="m 949.98438,693.16992 -7.81446,3.37696 0.29883,0.6875 51.76172,119.70312 c 0.79892,2.25514 3.50464,3.43323 5.69922,2.48047 2.19451,-0.95276 3.18211,-3.73388 2.08011,-5.85742 l 0.023,0.0488 -52.04882,-120.43946 z" />
    </clipPath>
    <clipPath id="clipPath5645">
      <path d="m 946.94531,626.31445 c -4.84149,-0.0633 -9.23756,1.94728 -12.63086,4.32422 -4.49519,3.14881 -7.82043,7.30031 -9.55664,9.64063 -1.60567,2.16437 -2.22585,3.17338 -2.42187,3.5 -2.48729,-0.75273 -4.90215,-1.48828 -8.73242,-1.48828 -5.92162,0 -10.79056,2.73339 -14.13672,6.75 -3.35788,4.03069 -5.22412,9.3662 -5.40821,14.94921 -0.42526,12.89729 7.80968,26.11591 25.20118,33.83008 13.12766,5.82289 15.41518,8.4753 22.00781,10.95703 2.72157,1.02451 4.99226,1.3072 7.22461,0.69336 2.45432,-0.67488 4.69761,-2.40877 7.01172,-4.9414 1.3195,-1.44411 2.46546,-4.09904 3.40039,-6.82618 1.14668,-3.34474 2.12714,-7.25183 2.88086,-10.67382 1.7482,-7.93703 2.7371,-15.23674 3.09765,-18.11133 0.43133,-3.43893 0.52549,-4.75161 0.52735,-4.77735 1.00138,-3.54627 1.71518,-7.58713 1.63476,-12.23046 -0.22534,-13.01064 -7.03844,-22.17092 -15.13086,-24.77735 -1.69201,-0.54496 -3.35492,-0.79726 -4.96875,-0.81836 z" />
    </clipPath>
    <clipPath id="clipPath5694">
      <path d="m 908.9395,683.71095 1.07718,1.89454 c -3.81561,-1.09017 -7.47178,-2.34982 -10.68856,-3.90432 l 0.28848,22.98048 68.23581,13.08147 9.01561,-96.16652 -78.48885,1.41421 -4.5962,53.9169 6.19945,3.4219 c 2.69281,1.3013 5.73984,2.39548 8.95708,3.36134 z" />
    </clipPath>
    <clipPath id="clipPath6271">
      <path d="m 887.54492,633.17383 -0.33203,0.11719 c 0,0 -11.39157,3.99674 -14.02734,16.64843 l -0.16797,0.81055 0.82422,0.0879 c 8.21343,0.87112 11.4192,4.70694 13.33203,8.44141 0.95641,1.86723 1.55066,3.71186 2.23047,5.17578 0.3399,0.73196 0.69861,1.37773 1.19922,1.88476 0.5006,0.50704 1.19167,0.85157 1.96484,0.85157 1.8111,0 3.76087,-1.29307 5.49023,-3.32032 1.72937,-2.02724 3.20118,-4.85786 3.71875,-8.16992 1.03515,-6.62411 -1.87906,-15.08942 -13.92968,-22.3457 l -0.30274,-0.18164 z" />
    </clipPath>
    <clipPath id="clipPath5221">
      <path d="m 1004.2532,345.7932 c -31.5783,30.10126 -8.7715,50.64841 -42.35199,78.65675 -33.58049,28.00834 -95.06465,-10.34004 -75.21275,-49.65256 19.8519,-39.31252 46.63483,-21.03627 63.02752,-58.43318 16.39269,-37.39691 86.11552,-0.67227 54.53722,29.42899 z" />
    </clipPath>
    <filter color-interpolation-filters="sRGB" height="1.1371252" id="filter5564" width="1.1413385" x="-0.070669254" y="-0.06856262">
      <feGaussianBlur stdDeviation="3.8142083" />
    </filter>
    <linearGradient gradientUnits="userSpaceOnUse" id="linearGradient5661" x1="901.94757" x2="991.86102" y1="420.80945" y2="308.30945" xlink:href="#magic" />
    <filter color-interpolation-filters="sRGB" height="1.0521008" id="filter5991" width="1.0535182" x="-0.026759104" y="-0.026050406">
      <feGaussianBlur stdDeviation="1.6663968" />
    </filter>
    <mask id="mask5995">
      <path d="m 976.28906,290.56055 c -13.74727,-0.41445 -28.9979,6.42799 -35.73047,21.78711 -7.15188,16.31571 -13.89304,18.35573 -25.14062,23.38476 -11.24759,5.02904 -26.63352,12.72844 -37.65625,34.55664 -6.19409,12.2661 -6.1329,25.50389 -1.69531,36.52539 4.43758,11.02151 12.75926,20.01363 22.77734,26.46289 20.03617,12.89853 48.64134,16.21648 69.46094,-1.14843 18.56902,-15.48779 22.86025,-31.73545 25.33398,-44.28907 2.47373,-12.55361 3.41923,-21.37153 17.51563,-34.80859 6.8475,-6.52719 10.8272,-14.50685 11.1797,-22.49609 0.3524,-7.98925 -2.7597,-15.29447 -7.291,-21.04297 -9.0627,-11.49702 -23.63084,-18.47572 -38.75394,-18.93164 z" style="fill:none;stroke-width:28;stroke:#fff;filter:url(#filter5991)" sodipodi:type="inkscape:offset" inkscape:original="M 975.98828 300.55664 C 965.16849 300.23045 954.83951 304.67675 949.7168 316.36328 C 933.32411 353.76019 906.5394 335.48435 886.6875 374.79688 C 866.8356 414.10939 928.3199 452.45756 961.90039 424.44922 C 995.48088 396.44088 972.67561 375.89423 1004.2539 345.79297 C 1025.964 325.09835 999.79181 301.27426 975.98828 300.55664 z " inkscape:radius="10" />
    </mask>
    <clipPath id="clipPath6052">
      <path d="M 1014.4142,812 C 995.01041,780.06066 1010.2929,778.97487 997.56066,757.26777 984.82843,735.56066 955.5,743.85355 958,765.5 c 2.5,21.64645 12.97088,17.0387 21.75,57.75 8.77912,40.7113 54.068,20.68934 34.6642,-11.25 z" />
    </clipPath>
    <filter color-interpolation-filters="sRGB" height="1.1058826" id="filter9116" width="1.1752205" x="-0.087610272" y="-0.052941303">
      <feGaussianBlur stdDeviation="2.2395592" />
    </filter>
    <filter color-interpolation-filters="sRGB" height="1.0540837" id="filter9392" width="1.0808124" x="-0.040406191" y="-0.027041855">
      <feGaussianBlur stdDeviation="1.3687964" />
    </filter>
    <mask id="mask9396">
      <path d="m 979.00391,734.63086 c -1.46913,-0.10476 -2.93372,-0.10135 -4.38086,0.008 -14.88499,1.12279 -28.55694,14.68809 -26.55664,32.00781 1.44183,12.48424 6.12584,19.53506 9.90234,25.76368 3.7765,6.22862 7.80538,13.46843 12.00586,32.94726 2.60385,12.0748 8.35872,21.12937 16.19336,26.19727 7.83463,5.06789 17.31023,5.68355 25.12503,2.62695 7.8148,-3.0566 14.2157,-9.73051 16.7324,-18.45117 2.5167,-8.72067 0.9235,-19.06555 -5.0645,-28.92188 -9.0709,-14.93104 -9.3035,-20.07718 -9.4785,-26.29297 -0.1749,-6.21578 -0.01,-15.88421 -7.2969,-28.30664 -6.38717,-10.88953 -16.8977,-16.84484 -27.18159,-17.57812 z" style="fill:none;stroke-width:28;stroke:#fff;filter:url(#filter9392)" sodipodi:type="inkscape:offset" inkscape:original="M 975.375 744.60938 C 965.25837 745.37249 956.59375 753.32387 958 765.5 C 960.5 787.14645 970.97088 782.5387 979.75 823.25 C 988.52912 863.9613 1033.8179 843.93934 1014.4141 812 C 995.01027 780.06066 1010.2928 778.97468 997.56055 757.26758 C 991.9902 747.77072 983.24349 744.01584 975.375 744.60938 z " inkscape:radius="10" />
    </mask>
  </defs>
  <g inkscape:groupmode="layer" inkscape:label="Drawing">
    <g>
      <g>
        <path d="m 943.15625,696.9375 51.78125,119.75 c 0.63895,1.80359 2.93822,2.80393 4.69337,2.04194 1.75513,-0.76199 2.59433,-3.12485 1.71293,-4.82319 l -51.75005,-119.75 z" fill="#f9f9f9" stroke="#e6e6e6" stroke-width="1.5" />
        <path clip-path="url(#clipPath5578)" d="m 981.22463,800.8153 -28.26815,-90.18698 30.4184,-1.76799 -81.56554,-63.36864 z" filter="url(#filter4936)" opacity=".4" />
      </g>
      <path d="m 913.604,643.04116 c -21.5589,0 -30.5517,37.89867 5.9595,54.09355 21.1119,9.36436 25.6773,17.5148 35.3863,6.88899 4.4822,-4.90554 8.5515,-27.51876 9.7253,-40.00568 1.0558,-3.68973 1.6979,-7.58154 1.6198,-12.09517 -0.4117,-23.77082 -24.1318,-38.03331 -43.5977,-7.2501 -2.5669,-0.77387 -5.0829,-1.63159 -9.0932,-1.63159 z" fill="#fe56c7" />
      <path fill="#e30198" inkscape:original-d="m 953.98634,693.98696 c 3.72986,-17.80146 12.58692,-25.98942 12.30852,-42.06411 -0.4117,-23.77082 -24.04624,-37.94976 -43.51211,-7.4478" inkscape:path-effect="#path-effect4524" />
      <path fill="#e30198" inkscape:original-d="M 946.35116,684.06792 C 942.20425,670.79697 923.06431,679.36281 914.9906,663.6156" inkscape:path-effect="#path-effect4526" />
      <path fill="#e30198" inkscape:original-d="m 921.09473,664.50351 c 24.35381,0.3474 36.38508,-24.50967 26.60155,9.44108" inkscape:path-effect="#path-effect4517" />
      <path fill="#e30198" inkscape:original-d="m 957.5,648.875 c 1.875,9.875 -0.05,19.34867 -6.25,30.875" inkscape:path-effect="#path-effect4528" />
      <path fill="#e30198" inkscape:original-d="m 936.6363,645.14294 c -12.47103,2.50318 -13.73995,-2.10178 -23.03235,-2.10178 -21.55882,0 -30.55165,37.89867 5.95956,54.09355 21.11188,9.36436 25.67731,17.5148 35.38627,6.88899 4.48227,-4.90554 8.55151,-27.51876 9.716,-39.97338" inkscape:path-effect="#path-effect4532" />
      <path d="m 899.65538,681.02575 c 20.46514,9.88975 60.00792,7.82343 42.3676,27.22778" fill="none" stroke="#e30198" stroke-width="1.5" />
      <path fill="#e30198" inkscape:original-d="m 909.375,675.75 c 14.16421,7.18306 30.14018,6.81857 38.375,19.375" inkscape:path-effect="#path-effect4530" />
      <path clip-path="url(#clipPath5645)" d="m 929.55202,623.73555 c -16.97078,16.11995 -27.31577,52.76969 2.88684,50.98158 -23.46669,-14.42735 4.86677,-4.14382 18.78947,-19.91222 -11.5138,35.74041 -1.46103,39.1713 7.58285,5.41908 2.72015,-10.15174 -3.98943,-18.57849 -22.39499,-16.25723 7.22543,-11.01878 17.84049,-20.42343 29.92766,-27.66429 z m -39.19797,26.01156 c 9.39307,32.33381 45.15896,30.52746 60.513,44.61705 5.8025,-15.72689 14.24708,-28.92489 25.62713,-38.67923 17.77103,36.86054 -15.15025,72.2775 -42.60689,60.35553 32.71824,-36.66907 -57.43063,-12.59434 -43.53324,-66.29335 z" fill="url(#linearGradient4756)" filter="url(#filter4794)" />
      <path clip-path="url(#clipPath5694)" d="m 898.04966,674.55639 c 5.05253,6.83937 10.1144,12.63217 16.89106,18.51866 -7.77126,-3.91758 -13.83928,-10.10445 -16.89106,-18.51866 z m 31.85938,10.18923 c -11.55407,-4.173 -20.45355,-11.34152 -25.75546,-20.83191 8.22878,8.74582 15.54159,14.70431 25.75546,20.83191 z m 18.67471,-54.84052 c -0.27886,-3.6717 16.73573,2.68015 16.51829,23.82492 -5.31892,-23.52857 -16.28314,-20.72874 -16.51829,-23.82492 z m 0.86623,13.18241 c -10.7856,15.27405 -19.71014,12.0444 -31.19837,18.52351 9.84338,-2.84579 25.10887,-3.00876 31.19837,-18.52351 z m -5.34126,46.10099 c 8.17361,2.49932 8.48488,12.8534 4.41758,16.549 2.54275,-6.69923 1.23022,-12.72198 -4.41758,-16.549 z m -6.25662,-58.12508 c -6.55132,5.90162 -8.14042,12.74729 -10.56916,12.09651 -2.52917,-0.67769 2.35562,-7.57851 10.56916,-12.09651 z" fill="#fff" />
      <path d="m 902.10355,650.77145 c 1.20488,4.0939 0.60068,9.3085 -4.71783,14.25444 6.75,-4.1875 7.40533,-10.37944 4.71783,-14.25444 z" fill="#fff" opacity=".5" />
    </g>
    <g>
      <path d="m 979.00391,734.63086 c -1.46913,-0.10476 -2.93372,-0.10135 -4.38086,0.008 -14.88499,1.12279 -28.55694,14.68809 -26.55664,32.00781 1.44183,12.48424 6.12584,19.53506 9.90234,25.76368 3.7765,6.22862 7.80538,13.46843 12.00586,32.94726 2.60385,12.0748 8.35872,21.12937 16.19336,26.19727 7.83463,5.06789 17.31023,5.68355 25.12503,2.62695 7.8148,-3.0566 14.2157,-9.73051 16.7324,-18.45117 2.5167,-8.72067 0.9235,-19.06555 -5.0645,-28.92188 -9.0709,-14.93104 -9.3035,-20.07718 -9.4785,-26.29297 -0.1749,-6.21578 -0.01,-15.88421 -7.2969,-28.30664 -6.38717,-10.88953 -16.8977,-16.84484 -27.18159,-17.57812 z" fill="#a2d0e7" fill-opacity=".25" mask="url(#mask9396)" sodipodi:type="inkscape:offset" inkscape:original="M 975.375 744.60938 C 965.25837 745.37249 956.59375 753.32387 958 765.5 C 960.5 787.14645 970.97088 782.5387 979.75 823.25 C 988.52912 863.9613 1033.8179 843.93934 1014.4141 812 C 995.01027 780.06066 1010.2928 778.97468 997.56055 757.26758 C 991.9902 747.77072 983.24349 744.01584 975.375 744.60938 z " inkscape:radius="10" />
      <path d="M 1014.4142,812 C 995.01041,780.06066 1010.2929,778.97487 997.56066,757.26777 984.82843,735.56066 955.5,743.85355 958,765.5 c 2.5,21.64645 12.97088,17.0387 21.75,57.75 8.77912,40.7113 54.068,20.68934 34.6642,-11.25 z" style="fill-opacity:.088;stroke:#a2d0e7;stroke-width:15;fill:#a2d0e7;clip-path:url(#clipPath6052);filter:url(#filter9116)" />
      <g fill="#fff">
        <path sodipodi:arg1="1.4432868" sodipodi:arg2="2.2286849" sodipodi:cx="965.78656" sodipodi:cy="753.83081" sodipodi:r1="3.7426946" sodipodi:r2="0.4678368" sodipodi:sides="4" sodipodi:type="star" />
        <path transform="rotate(358.69332 992.77789 755.59332)" sodipodi:arg1="1.6020362" sodipodi:arg2="2.3874343" sodipodi:cx="992.77789" sodipodi:cy="755.59332" sodipodi:r1="5.4827523" sodipodi:r2="0.68534404" sodipodi:sides="4" sodipodi:type="star" />
        <path transform="rotate(6.7352513-2365.5916 4644.213)scale(.55234026)" sodipodi:arg1="0.53021577" sodipodi:arg2="1.3156139" sodipodi:cx="982.34808" sodipodi:cy="837.79449" sodipodi:r1="5.9424324" sodipodi:r2="0.74280399" sodipodi:sides="4" sodipodi:type="star" />
        <path transform="rotate(8.5251927 861.56998 821.8654)" sodipodi:arg1="1.2722974" sodipodi:arg2="2.0576956" sodipodi:cx="981.07166" sodipodi:cy="787.91718" sodipodi:r1="2.2194674" sodipodi:r2="0.27743343" sodipodi:sides="4" sodipodi:type="star" />
        <path transform="rotate(6.7352521 1011.0848 1071.2774)" sodipodi:arg1="0.45066133" sodipodi:arg2="1.2360595" sodipodi:cx="962.90265" sodipodi:cy="798.19653" sodipodi:r1="6.0878978" sodipodi:r2="0.76098722" sodipodi:sides="4" sodipodi:type="star" />
        <path sodipodi:arg1="0.83620187" sodipodi:arg2="1.6216" sodipodi:cx="977.92865" sodipodi:cy="775.56909" sodipodi:r1="7.3845277" sodipodi:r2="0.92306596" sodipodi:sides="4" sodipodi:type="star" />
        <path transform="rotate(354.93605 1284.789 854.58611)" sodipodi:arg1="-0.88506682" sodipodi:arg2="-0.099668652" sodipodi:cx="1000.6938" sodipodi:cy="815.67114" sodipodi:r1="5.4817505" sodipodi:r2="0.68521881" sodipodi:sides="4" sodipodi:type="star" />
        <path transform="rotate(8.5251927 856.32646 815.5106)" sodipodi:arg1="2.677945" sodipodi:arg2="3.4633432" sodipodi:cx="982.30902" sodipodi:cy="806.30194" sodipodi:r1="1.9764235" sodipodi:r2="0.24705294" sodipodi:sides="4" sodipodi:type="star" />
        <path transform="rotate(6.7352521 1014.589 1079.5977)" sodipodi:arg1="1.5232132" sodipodi:arg2="2.3086114" sodipodi:cx="963.60974" sodipodi:cy="821.35431" sodipodi:r1="3.7165172" sodipodi:r2="0.46456465" sodipodi:sides="4" sodipodi:type="star" />
        <path transform="rotate(6.7352521 1014.089 1071.1006)" sodipodi:arg1="1.4876551" sodipodi:arg2="2.2730533" sodipodi:cx="970.50409" sodipodi:cy="791.83252" sodipodi:r1="2.3060627" sodipodi:r2="0.28825784" sodipodi:sides="4" sodipodi:type="star" />
      </g>
    </g>
    <ellipse cx="498.65335" cy="1320.1578" fill-rule="evenodd" filter="url(#filter5184)" opacity=".3" rx="302.93555" ry="44.270187" transform="matrix(.92473873-.00702313.00879354.73855972 21.790104 351.71003)" />
    <path d="m 603.08904,764.53798 c 47.86582,34.11893 22.51044,140.71608 -57.67295,99.21864 C 459.07867,819.07428 385.01837,691.3681 392.4184,676.96203 c 7.37336,-14.35414 147.28891,31.49811 192.26427,78.53161 z" fill="url(#linearGradient4047)" stroke="url(#linearGradient4055)" stroke-width="6" />
    <g>
      <path d="m 565.07018,901.3572 c -249.65509,192.7101 -159.68099,422.7873 -163.35151,438.2382 -5.04589,21.2404 -127.17007,20.8437 -134.39306,0 -21.45087,-61.9017 47.66279,-282.2197 102.33335,-366.6647 6.73636,-10.4051 32.96549,-0.1107 39.34689,-12.6088 20.90664,-40.9462 -50.88446,-243.2872 150.96525,-248.6167 z" fill="#f8c3e3" stroke="#f18ac5" stroke-width="6" />
      <g clip-path="url(#clipPath4670)">
        <path d="M 585.50894,725.45239 C 400.55759,740.77986 477.68516,960.71661 417.0096,986.72044 366.43779,1008.3941 262.61047,1225.1277 236.04287,1383.5114 l 346.32707,25.4481 z" fill="#be40c0" filter="url(#filter4987)" opacity=".4" />
        <path d="M 593.98198,732.48364 C 479.41815,748.08031 447.32696,920.86205 500.72254,1022.3988 622.83238,1015.896 673.46175,819.18884 593.98198,732.48364 Z" fill="#be40c0" filter="url(#filter5112)" opacity=".1" />
      </g>
    </g>
    <path d="m 895.90429,525.96041 c 47.0226,4.94974 88.74195,34.64824 111.01581,67.88225 18.3848,-84.85281 -56.56859,-125.86501 -111.01581,-67.88225 z" fill="#6f08a2" stroke="#670592" stroke-width="6" />
    <g>
      <path d="m 887.45989,633.99856 c 23.75756,14.30562 10.74423,32.44312 5.10915,32.44312 -4.60404,0 -1.78821,-14.56109 -18.64841,-16.34929 2.55458,-12.26197 13.53926,-16.09383 13.53926,-16.09383 z" fill="#f60" stroke="#cb4607" stroke-width="1.5" />
      <path clip-path="url(#clipPath6271)" d="m 871.36605,631.18852 c 22.79773,7.078 24.85421,28.53644 19.15933,58.49981 l -29.37763,-37.29682 z" fill="url(#linearGradient4583)" filter="url(#filter4630)" />
      <path d="m 897.77798,647.27449 c 1.87134,4.34268 1.68734,9.1181 -0.4305,13.78751 3.19715,-3.94032 3.3554,-10.19835 0.4305,-13.78751 z" fill="#fff" opacity=".5" />
    </g>
    <g>
      <path d="m 385.58971,391.17426 c -16.76197,-18.17504 -48.39328,-32.5596 -45.02246,-44.28723 52.75638,-183.54788 249.26147,-166.42859 282.26512,-58.59224 4.09614,13.38376 2.54731,43.972 -7.69035,46.81832 -116.42398,32.36873 -52.97895,94.70066 -52.97895,182.90308 0,87.47988 -142.97499,85.55921 -143.7207,13.1773 -0.32996,-32.02759 16.66962,-44.16126 35.23974,-44.70407 -5.70523,-15.02988 -27.02026,-38.87381 -34.60696,-45.73798 -9.39307,26.73411 -50.35238,-34.12546 -33.48544,-49.57718 z" fill="url(#linearGradient5262)" />
      <path d="m 615.14202,335.11311 c -116.42398,32.36872 -52.97895,94.70066 -52.97895,182.90308 0,87.47988 -142.97499,85.55921 -143.7207,13.1773 -0.24464,-23.74578 9.03674,-36.5559 21.50401,-41.92299 -16.33588,39.04501 4.75991,78.47499 43.48665,78.47499 40.70951,0 66.56742,-54.58078 16.65667,-120.64482 -42.98293,-56.89409 32.59379,-127.71957 124.53237,-133.83445 -0.95686,10.68274 -3.95155,20.30983 -9.48005,21.84689 z" fill="url(#linearGradient5264)" />
      <path d="m 370.0425,281.73012 c 74.709,-111.88617 224.36978,-86.29531 252.78987,6.56467 -51.57583,-38.64367 -183.44521,-50.76651 -252.78987,-6.56467 z" fill="url(#linearGradient5266)" />
      <path fill="#670592" inkscape:original-d="m 458.39995,526.91539 c 1.10949,30.41531 41.69311,26.34432 41.69311,-7.12541 0,-33.46973 -82.37323,-58.72912 -81.65069,11.40351 0.74571,72.38191 143.7207,74.30258 143.7207,-13.1773 0,-88.20242 -63.44503,-150.53435 52.97895,-182.90308 10.23766,-2.84632 11.78649,-33.43456 7.69035,-46.81832 -33.00365,-107.83635 -229.50874,-124.95564 -282.26512,58.59224 -3.37082,11.72763 28.26049,26.11219 45.02246,44.28723" inkscape:path-effect="#path-effect4653" />
      <path fill="#670592" inkscape:original-d="m 466.04046,309.9711 c -48.62202,24.35484 -84.39809,79.303 -84.74919,93.71901 -0.27573,11.32093 18.08706,43.7273 29.83589,44.28677 15.17342,0.72254 13.07841,-85.40536 85.26012,-127.89018" inkscape:path-effect="#path-effect4659" />
      <path d="m 453.45794,486.27167 c -8.31058,-16.58324 -19.97761,-32.24026 -34.87877,-45.73193" fill="none" stroke="#670592" stroke-width="6" />
      <path d="m 504.64636,583.1073 c 39.2691,-36.02721 49.58933,-86.33382 19.4527,-131.25354 36.02876,43.269 22.66432,96.27987 -12.44826,129.79387 z M 367.16549,355.49634 c 38.48437,-51.8355 98.34016,-72.88928 159.29266,-65.07146 -55.75103,-2.76623 -118.72336,18.0422 -159.29266,65.07146 z m 70.61934,-104.53707 c 36.54775,-26.12777 89.11333,-21.81119 121.00146,6.76419 -34.66495,-23.68553 -82.27791,-27.7711 -121.00146,-6.76419 z m 186.66834,65.45632 c -55.0152,0.64608 -127.80525,40.90947 -147.57083,93.95835 14.94389,-57.21433 90.0034,-97.50986 147.57291,-98.57042 z" fill="#670592" fill-rule="evenodd" />
    </g>
    <g>
      <path d="m 635.68899,311.3535 c 24.04164,-34.64823 24.15658,-93.25738 16.26346,-97.58074 -15.55377,-8.51939 -87.68124,43.84062 -83.4386,67.88226 2.81462,15.94951 37.47667,1.76776 49.49748,40.30508 z" fill="#64c6e5" stroke="#428fab" stroke-width="6" />
      <path d="m 621.91516,311.76426 c -6.40615,-13.81778 -20.88119,-29.37945 -34.14964,-40.71696 15.15447,8.11613 29.62668,22.74109 37.65826,37.43131 z m 1.68347,-7.11825 c 2.69712,-18.921 1.55312,-41.03977 -1.25822,-55.21358 5.65623,13.12834 7.49188,35.32993 5.43449,50.72473 z" fill="#428fab" />
      <path d="m 562.86127,319.00289 c 23.48266,-59.24856 64.66763,-86.34393 115.96821,-97.90463 54.55202,99.34972 -60.69364,199.0607 -115.96821,97.90463 z" style="filter:url(#filter4803);clip-path:url(#clipPath4627);fill:#40a0c0;opacity:.45" />
      <path d="m 619.07199,339.99132 c 17.67767,-63.28605 61.57976,-103.50362 68.2358,-102.53048 8.1534,1.19205 33.94112,62.93251 -14.84924,110.66222 z" fill="#64c6e5" stroke="#428fab" stroke-width="6" />
      <path d="m 670.97125,318.77162 c 8.98179,-5.00404 17.13335,-17.216 20.23143,-27.11277 -0.96426,11.94108 -8.66536,23.71547 -20.23143,27.11277 z m -14.42196,-6.09099 c 15.16589,-11.58948 26.89438,-38.00615 30.58944,-57.80347 0.49808,22.44268 -11.67935,48.44671 -30.58944,57.80347 z" fill="#428fab" fill-rule="evenodd" />
      <path d="m 603.3237,354.40751 c 45.6232,-138.80173 142.97743,-118.87134 76.5896,10.11561 z" style="filter:url(#filter4681);clip-path:url(#clipPath4614);fill:#40a0c0;opacity:.45" />
      <path d="m 582.74177,357.62305 c -5.01744,-11.94441 57.35017,-94.89361 61.10408,-54.56854 3.59235,38.58958 25.22999,-7.32295 21.54163,49.31118 l -48.54773,46.92641 c -19.5,-66 -27.62454,-26.25852 -34.09798,-41.66905 z" fill="#64c6e5" stroke="#428fab" stroke-width="6" />
      <path d="m 603.50434,351.15607 c 6.86416,-16.79914 16.25722,-25.83092 31.97254,-31.06937 -12.10261,6.86417 -22.57948,17.70231 -31.97254,31.06937 z" fill="#428fab" />
      <path d="m 551.30058,340.67919 c 52.38439,-3.25145 86.7052,25.28902 88.51156,77.67341 l 66.83526,-86.7052 -82.73121,-71.5318 z" style="filter:url(#filter4843);clip-path:url(#clipPath4601);fill:#40a0c0;opacity:.45" />
    </g>
    <g>
      <path d="m 661,617.5 c -10.25,-13 -28.25,-36 -24.5,-52.75 -29.25,-24 -40.23363,-64.4618 -23.01637,-90.73363 C 601.82766,450.87126 599.07179,424.99292 603.25,406 l 114.76213,-27.79854 8.93083,277.89077 z" fill="url(#linearGradient5268)" />
      <path d="m 620.10725,376.73332 c 3.40712,-46.85897 47.96591,-51.22854 97.60613,-25.78184 19.94265,10.22305 0.44572,57.58865 -17.08202,98.94771 -7.68258,16.47824 -74.64262,-3.33287 -98.88329,-27.93554 -0.0296,-13.98683 6.09602,-37.64298 18.35918,-45.23033 z" fill="url(#linearGradient5270)" />
      <path d="m 652.3033,606.63173 c 24.16524,1.31226 56.92756,19.46391 73.80618,38.91163 l 2.01184,89.10487 C 722.46447,663.93755 680.94239,652.54847 671.75,692.5 645,682.75 628.5,626 661,617.5 Z" fill="url(#linearGradient5272)" />
      <path d="m 657.51343,647.90922 c 7.34564,-17.2972 31.35582,-17.89577 39.92052,-2.34825 -10.49503,-11.52815 -30.86682,-10.95305 -39.92052,2.34825 z m 2.74216,-147.64898 c -11.29808,-7.69743 -24.72038,-23.49719 -27.8651,-34.89728 -0.26501,13.47392 14.27617,30.22548 27.8651,34.89728 z M 644.00874,350.69603 c 12.02844,2.92868 24.63883,11.09692 30.14401,20.43661 -4.34277,-13.15607 -15.96611,-20.30889 -30.14401,-20.43661 z m -3.57641,36.7859 c 9.38994,19.74505 28.83571,39.45913 45.32181,46.35649 l -0.87218,2.69137 C 666.23355,428.35515 645.54148,409.9622 640.43233,387.48193 Z M 604.9892,510.02211 c 16.97444,24.96847 43.04138,40.61428 65.2662,49.29984 -25.03485,-5.10915 -51.30058,-22.38821 -63.82111,-41.51434 z" fill="#670592" fill-rule="evenodd" />
      <path fill="#670592" inkscape:original-d="m 681.21875,625.4375 c -45.56055,-31.26185 -51.14854,46.25163 -9.63349,67.88619 10.01608,-41.26943 49.56131,-28.56245 57.52449,41.32454 L 717.71338,350.95148 C 663.75706,323.29225 615.80422,330.8596 620.17554,389.92814" inkscape:path-effect="#path-effect4523" />
      <path fill="#670592" inkscape:original-d="M 646.5,573 C 608.42167,545.93903 594.12651,501.39383 614.05561,474.00312" inkscape:path-effect="#path-effect4558" />
      <path d="M 662.41205,618.22835 C 651.19835,605.90601 632.38388,582.81974 636.6005,565.23522" fill="none" stroke="#670592" stroke-width="6" />
      <path clip-path="url(#clipPath4565)" fill="#670592" inkscape:original-d="M 629.75,495 C 597.54256,464.48908 590.10841,400.81728 622.46734,373.70204" inkscape:path-effect="#path-effect4529" />
    </g>
    <g>
      <path d="m 678.49552,893.63119 c -64.61445,146.73281 -16.50316,359.76221 9.91902,421.41751 8.94854,20.8811 117.30786,20.1515 120.57601,0 2.34874,-14.4824 -135.95388,-187.2037 -72.84926,-406.38933 z" fill="#f8c3e3" stroke="#f18ac5" stroke-width="6" />
      <rect clip-path="url(#clipPath4563)" fill="url(#linearGradient5124)" fill-rule="evenodd" height="515.89594" width="216.763" x="617.052" y="854.04626" />
    </g>
    <path d="m 641.85826,904.17441 c -25.18829,62.26138 -75.8855,96.51579 -48.29205,229.64329 36.06514,174.0001 93.47695,219.1478 89.23726,228.8991 -14.45083,33.2369 -123.55494,29.6243 -135.11561,0 -11.41472,-29.2503 -88.6612,-210.3841 -52.02312,-369.94223 2.18397,-9.51115 46.10053,-28.71193 40.03917,-38.55778 -109.89163,-178.5038 -16.86477,-254.04206 46.12418,-254.04206 82.96418,0 136.73064,108.43178 136.73064,25.06844 0,-126.99842 -61.99853,-143.76484 -27.10601,-254.314 46.72896,-148.05026 283.79826,-32.14313 241.73408,25.12226 -30.61035,41.67236 -31.54867,79.45217 7.19665,103.60999 5.34108,3.33018 -23.56643,37.82467 -35.49046,36.88997 -18.64465,-1.4615 -28.60199,8.06569 -27.30288,20.94927 0.25513,2.53015 -26.94872,1.60461 -57.45886,-2.92592 2.59779,53.7914 37.09065,114.99653 37.09065,176.0723 0,100.48359 -134.52573,128.02998 -215.36364,73.52737" fill="#f8c3e3" />
    <g>
      <g clip-path="url(#clipPath8522)">
        <path d="m 879,554.67157 c 2.75,8.75 3.0625,27.01593 0.3125,38.01593 -21.00058,-1.67678 -38.04467,3.65229 -61.78328,3.65229 C 787.0564,596.33979 751.6694,559.78539 748,532 c 43.75,-13 98.75,-7.07843 131,22.67157 z" fill="#fff" id="path3828" />
        <g clip-path="url(#clipPath8425)">
          <ellipse cx="817.76324" cy="608.87653" fill="url(#linearGradient8561)" id="ellipse5115" rx="36.669109" ry="54.145248" transform="rotate(356.79204)" />
          <path d="m 811.22561,577.63965 9.66062,23.98381 48.33192,-34.32747 z" fill="#ddc7ed" />
          <path d="m 806.64966,568.55473 62.56849,-1.25874 -58.8965,19.29416 z" fill="#c086df" />
          <ellipse cx="823.0578" cy="608.41858" rx="29.38415" ry="47.913441" transform="rotate(356.79204)" />
          <ellipse cx="1023.5649" cy="-75.194252" fill="#fff" rx="16.345062" ry="11.103685" transform="rotate(37.438842)" />
          <ellipse cx="333.10342" cy="970.30963" fill="#fff" opacity=".6" rx="2.2405944" ry="2.8319793" transform="rotate(323.30979)" />
          <ellipse cx="978.82446" cy="181.88899" fill="#fff" opacity=".85" rx="6.7833495" ry="6.1895695" transform="rotate(23.375199)" />
          <ellipse cx="451.5325" cy="906.95624" fill="#fff" opacity=".65" rx="4.8544693" ry="5.8645945" transform="rotate(331.47555)" />
          <ellipse cx="18.376165" cy="1011.0482" fill="#fff" opacity=".55" rx="2.0368345" ry="2.3616242" transform="rotate(305.17746)" />
        </g>
        <path d="m 733.41892,548.6757 c 48.47146,-14.072 116.59679,-14.39842 160.5355,3.51641 l -11.09277,-38.25862 -145.3554,-11.75105 z" fill="#7140c0" filter="url(#filter4881)" opacity=".35" />
      </g>
      <path d="M 745,520.5 C 787,506 873.5,516.25 891,556.75 862.75,517.25 788,512.5 745,520.5 Z m 16.8712,41.6028 2.52384,3.60008 c -7.56151,0.45404 -17.38286,3.60404 -24.38604,7.45884 4.91467,-6.10542 14.99149,-10.46371 21.8622,-11.05892 z m -4.75,-6.875 2.14884,3.60008 c -7.56151,0.95404 -15.75786,4.22904 -21.88604,8.58384 5.03967,-6.35542 12.99149,-10.83871 19.7372,-12.18392 z m -3.9962,-6.8528 1.875,3.75 c -6.125,0.625 -15,4.375 -21.625,9.125 5,-6 13.375,-11.375 19.75,-12.875 z m -6.50862,-11.10088 c -7.02557,3.58103 -18.62222,4.11136 -28.01911,0.88388 9.31738,0.85355 21.84188,-1.33103 27.02906,-4.479 -8.3085,2.12132 -20.85076,2.22335 -28.62893,-0.87024 24.92827,1.27843 40.39814,-8.99638 72.83202,-8.99638 41.94754,0 80.32304,11.40396 103.6,44.53154 -24.85222,-25.84823 -56.08585,-40.48831 -103.6,-40.48831 -10.38059,0 -28.68402,2.20785 -40.1545,5.48211 5.26303,21.11128 24.80642,49.78061 60.02872,62.02148 l -10.5624,-2.15469 c -25.15699,-8.70295 -46.33615,-34.14243 -52.52486,-55.93039 z M 880.75,555.04289 c 3.5,7.875 2.23483,28.25261 -0.26517,37.87761 l -2.625,-0.25 c 2.25,-9.375 3.01517,-31.37761 -0.98483,-40.87761 z" />
      <path d="m 906.79248,601.47379 c 0.0876,3.90569 2.86052,6.36775 6.17187,6.47415 -4.20386,4.28847 -10.16051,-1.21757 -6.17187,-6.47415 z m -111.51832,-9.35471 c 30.64671,14.19392 59.93748,-4.64038 96.61605,3.29312 -30.79684,-12.52234 -58.74105,6.95688 -96.61605,-3.29312 z" fill="#f18ac5" fill-rule="evenodd" />
    </g>
    <g transform="matrix(.55112854 0 0 .91736513 322.85247 28.851606)">
      <g transform="matrix(-1 0-.02067954 1 2683.2241 433.62382)">
        <path d="m 2176.904,360.98799 c -59.308,-37.58475 -102.7808,61.25394 0,118.4506 108.6665,-58.30024 61.8831,-155.66749 0,-118.4506 z" fill="#20d7ce" />
        <path d="m 2240.7207,383.7709 c -6.1288,-26.58424 -33.1143,-41.24751 -63.8167,-22.78291 l 22.2315,9.02895 c -5.71,3.7674 -13.1591,6.31591 -20.9263,7.50585 l -48.9962,-16.63479 3.8176,26.3415 -15.3556,26.4715 28.3466,16.15105 c 10.7739,2.00442 19.2961,6.33943 26.6369,14.80487 l 20.7973,24.83026 c 12.2605,-8.274 21.8963,-17.0723 29.2398,-25.98367 l -17.8497,-13.87263 17.5818,-40.23783 z" fill="#62dee5" />
        <path d="m 2144.8846,410.96164 c 3.0809,10.83951 16.7178,25.7277 27.7739,33.69528 11.0944,-8.16852 21.2196,-12.62181 32.1874,-15.02604 l 33.5401,-13.37388 -15.9583,-26.86395 5.4353,-27.81105 -28.7275,8.43494 c -5.5301,3.96518 -12.9207,6.71697 -20.9263,7.50585 -13.6323,8.56116 -25.1327,19.09774 -33.3246,33.43885 z" fill="#92dae1" />
        <path d="m 2133.0306,387.2295 11.854,23.73214 27.7739,33.69528 38.1941,-34.97485 -32.6434,-32.15928 -33.3246,33.43885 1.137,18.89041 26.6369,14.80487 32.1874,-15.02604 6.0067,-19.94881 11.5751,-20.28902 -23.2922,-19.37611 -20.9263,7.50585 z" fill="#a8fdf9" fill-rule="evenodd" />
      </g>
      <path d="m 567.74297,840.31457 c -9.21387,4.55707 -10.81503,13.64089 -4.68208,20.41907 -6.23772,3.14162 -8.74423,10.89451 -2.34104,16.25722 1.69075,-13.78613 13.65607,-13.78613 13.00578,-2.73121 -5.8526,-4.16185 -9.62428,-1.95087 -7.28324,10.7948 -2.73122,-10.14452 -15.86705,-11.31504 -18.98845,0.13005 13.39596,-5.98266 14.69047,7.52373 4.0318,6.89307 -20.69017,-1.2242 -34.40758,5.31466 -35.89595,20.15896 -1.57701,15.72835 16.23873,15.40345 16.23873,1.82666 0,-9.14909 -9.24211,-7.8984 -9.24211,-2.47572 0,2.06835 2.85216,-1.35523 2.85216,1.72755 0,3.68242 -4.38906,3.76164 -4.38906,-0.39959 0,-7.97196 5.41622,-16.27482 25.70569,-13.51381 32.95035,4.48392 29.09822,-16.93909 44.5821,-13.25284 1.18742,-3.4969 -1.06119,-7.16242 -6.57907,-5.87491 2.5839,-27.56634 -26.22285,-12.10674 -17.01526,-39.9593 z" fill="#e4d14b" id="path3870-6" />
      <use transform="rotate(180 496.09876-53e-7)scale(1-1)" xlink:href="#path3870-6" />
    </g>
    <path d="m 820.10672,654.22354 c 2.47623,53.88364 37.11518,115.21852 37.11518,176.4235 0,100.74163 -135.25559,128.17995 -216.0232,73.1148" fill="none" stroke="#f18ac5" stroke-width="6" />
    <g>
      <path d="m 827.50748,860.03475 c -89.83967,361.09785 21.05577,434.36085 8.05067,460.37105 -11.55991,23.1198 -115.15611,22.5624 -120.69998,-0.6713 -42.66895,-178.8203 47.12817,-357.93995 39.25282,-431.81104 z" fill="#f8c3e3" />
      <path fill="#f18ac5" inkscape:original-d="m 827.50748,860.03475 c -89.83967,361.09785 21.05577,434.36085 8.05067,460.37105 -11.55991,23.1198 -115.15611,22.5624 -120.69998,-0.6713 -42.66895,-178.8203 47.12817,-357.93995 39.25282,-431.81104" inkscape:path-effect="#path-effect4566" />
    </g>
    <path fill="#f18ac5" inkscape:original-d="m 654.8359,837.42774 c -0.85246,117.36347 -97.11307,123.45974 -61.26969,296.38996 36.06514,174.0001 93.47695,219.1478 89.23726,228.8991 -14.45083,33.2369 -123.55494,29.6243 -135.11561,0 -11.41472,-29.2503 -88.6612,-210.3841 -52.02312,-369.94223 2.18397,-9.51115 46.10053,-28.71193 40.03917,-38.55778 -109.89163,-178.5038 -16.86477,-254.04206 46.12418,-254.04206 82.96418,0 136.73064,108.43178 136.73064,25.06844 0,-126.99842 -61.99853,-143.76484 -27.10601,-254.314 46.72896,-148.05026 283.79826,-32.14313 241.73408,25.12226 -30.61035,41.67236 -31.54867,79.45217 7.19665,103.60999 5.34108,3.33018 -23.56643,37.82467 -35.49046,36.88997 -18.64465,-1.4615 -28.602,8.06569 -27.30288,20.94927 0.44094,4.37289 -81.13954,-1.57657 -120.00853,-18.56827" inkscape:path-effect="#path-effect4538" />
    <g clip-path="url(#clipPath4544)" transform="translate(.024479.351199)">
      <path d="m 701.5896,447.25433 c 99.71098,16.6185 218.93064,98.26591 252.16764,178.46821 C 1098.7604,461.70521 879.60349,273.8959 701.5896,447.25433 Z" fill="url(#linearGradient4935)" filter="url(#filter4764)" />
      <path d="m 539.56457,732.65896 c -51.37321,110.87849 46.69026,208.58081 11.01347,246.38728 -18.06089,19.13901 -41.18498,12.15922 -44.7977,-15.89595 L 385.83815,740.60694 Z" fill="url(#linearGradient5471)" filter="url(#filter5687)" />
      <path d="M 642.88549,1415.8592 C 491.54822,1215.0809 562.10953,1047.0812 467.2546,976.30556 334.08524,1247.4991 458.95598,1457.7542 642.88549,1415.8592 Z" fill="url(#radialGradient5539)" filter="url(#filter5237)" opacity=".4" />
      <path d="m 809.24855,1359.104 c -153.17918,-205.9249 8.93404,-394.19391 -36.8497,-499.99995 -3.29486,-7.61442 -53.76041,17.74538 -103.63288,-53.64718 -52.20942,-74.7379 -126.17391,-156.13086 -168.06897,-55.99146 184.63079,47.51513 103.29255,205.22666 103.29255,282.89309 0,216.915 96.09663,366.6695 205.259,326.7455 z" fill="url(#radialGradient5697)" filter="url(#filter4738)" opacity=".4" />
      <path d="m 750.53459,792.89322 c 23.08507,145.64717 -112.9437,136.39249 -129.26157,18.90386 -3.36976,-24.26227 -66.8936,-69.82006 -114.95595,-67.95173 l 17.88203,-56.7116 z" style="filter:url(#filter4761);fill:#be40c0;opacity:.25;fill-rule:evenodd" />
      <path d="m 671.10359,714.04576 c 126.01235,99.00451 49.06954,-69.01327 88.29187,-56.40609 12.95449,4.16394 68.3827,111.50428 68.3827,152.30722 0,45.665 -23.78929,99.85976 -13.95647,162.66455 204.61411,-53.93035 217.95381,-275.8351 148.60606,-411.19526 -70.03537,131.45155 -255.0578,57.3385 -255.0578,-7.22543 0,-65.43746 -52.57036,-71.73719 -19.50869,-218.20809 -109.43252,104.07971 -100.39999,312.34759 -16.75767,378.0631 z" fill="#be40c0" filter="url(#filter4258)" opacity=".3" />
      <path d="M 902.07851,834.53757 C 853.66811,697.25433 703.75723,623.55492 645.23122,493.49711 l -12.28325,79.47977 c 52.44638,43.95118 173.54942,82.24597 255.05781,89.59537 z" fill="#be40c0" filter="url(#filter4702)" opacity=".5" />
    </g>
    <g>
      <path d="m 508.25861,672.75 c 4.75,-35.75 -18.49821,-78.57351 -27.25,-78.75 -8.49755,-0.17136 -69.75,70.25 -8.75,126 z" fill="#64c6e5" stroke="#428fab" stroke-width="6" />
      <path d="m 485.25,616 c 9.53033,13.42678 15.19454,37.85876 10.68934,53.83363 C 496.87132,654.89429 492.39645,630.07843 485.25,616 Z" fill="#428fab" fill-rule="evenodd" />
      <path d="M 529.26301,682.80346 C 499.63873,595.73698 454.1185,613.07804 492.4133,728.3237 Z" style="filter:url(#filter4601);clip-path:url(#clipPath4559);fill:#40a0c0;opacity:.6" />
      <path d="m 501,672 c 3.5,-36 27,-75 33,-75 6,0 71.5,68 8,125.5 z" fill="#64c6e5" stroke="#428fab" stroke-width="6" />
      <path d="m 540.75,627.25 c 1.25,14.25 -3.75,34.5 -16.25,44.5 15.75,-6.75 21.25,-31.25 16.25,-44.5 z" fill="#428fab" />
      <path d="m 502.74066,699.90663 c 18.90387,-55.68976 52.86311,-60.85548 99.62849,-35.25317 -16.50591,100.25936 -73.76307,114.65998 -99.62849,35.25317 z" style="filter:url(#filter4423);clip-path:url(#clipPath4575);fill:#40a0c0;opacity:.7;fill-rule:evenodd" />
      <path d="m 447.05089,741.29077 c -34.8233,-13.31718 61.82077,-112.91228 67.95174,-79.19187 9.19554,50.57557 38.09198,6.65393 38.09198,52.95547 0,16.57076 -41.97915,59.42648 -70.79057,55.86949 -33.04824,-4.08005 0.18462,-16.08092 -35.25315,-29.63309 z" fill="#64c6e5" stroke="#428fab" stroke-width="6" />
      <g clip-path="url(#clipPath4015)">
        <path d="m 507.46447,698.82843 c 9.11904,19.33601 -11.82584,29.22758 -22.6863,26 C 279.82767,663.92003 281.389,950.21669 376,1052 409.79553,1088.3575 352.23777,1255 261,1255 61.667497,1255 31.371969,991.18465 187.98844,983.86226 -52.096355,810.24899 333.43566,329.81762 507.46447,698.82843 Z" fill="url(#linearGradient3995)" />
        <path d="m 261,1255 c 91.23777,0 148.79553,-166.6425 115,-203 C 281.389,950.21669 279.82767,663.92003 484.77817,724.82843 313.58381,619.21965 116.9335,819.96816 259.39307,962.42773 373.3047,1076.3394 325.1445,1211.3439 209.46467,1248.1493 224.44875,1253.6405 245.40112,1255 261,1255 Z" fill="url(#linearGradient4003)" />
        <path d="m 286.88129,572.4881 c 75.85866,-26.9844 160.74493,-0.54073 220.58318,126.34033 3.02762,6.41978 2.9892,16.18509 -3.47707,21.11077 C 456.18627,657.71441 377.56641,573.19963 286.88129,572.4881 Z m -155.69077,429.0864 c 16.27008,-11.18404 37.17072,-17.8122 62.77443,-17.8122 122.74412,0 115.36338,168.718 24.77308,168.718 -75.18741,0 -91.3113,-133.3263 9.29682,-100.9322 -21.54727,-27.2022 -64.54196,-44.8368 -96.84433,-49.9736 z" fill="url(#linearGradient4011)" />
        <path fill="#670592" inkscape:original-d="m 203,1061 c -27,17 -22.02859,69 28,69 79.35016,0 76.00168,-146.2377 -37.03505,-146.2377 C 30.177258,983.7623 58.848266,1255 261,1255 c 91.23777,0 148.79553,-166.6425 115,-203 -94.611,-101.78331 -96.17233,-388.07997 108.77817,-327.17157 10.86046,3.22758 31.80534,-6.66399 22.6863,-26 C 333.43566,329.81762 -52.457627,810.33931 188.02974,983.98606" inkscape:path-effect="#path-effect4613" />
        <path d="m 291.08026,862.8717 c -9.51714,71.15394 29.09841,138.6427 70.90222,172.3857 l -9.21357,-15.2529 C 321.24617,991.44128 288.61398,936.13088 291.08026,862.8717 Z m -163.39887,141.2506 6.23223,-4.0858 c 42.42641,6.3641 85.00432,28.4247 103.27209,64.4247 -23.73223,-34.0711 -66.48782,-53.8536 -109.50432,-60.3389 z m -18.21015,168.1106 5.29289,8.0252 c 36.76956,17.6776 107.81371,19.136 134.97488,-4.5607 -26.584,15.7427 -90.38299,20.4142 -140.26777,-3.4645 z m 102.95369,77.33 c 150.62636,-41.2092 150.47161,-189.6234 59.22539,-286.13563 97.67515,92.11883 95.40917,247.42243 -49.74011,288.17113 z m 16.67766,-610.11186 c 43.84063,-27.93071 117.73329,-33.23401 153.79574,-13.43503 -36.76957,-13.78857 -107.12669,-9.19238 -153.79574,13.43503 z m -36.76955,77.07465 c 99.45552,-82.35126 232.16465,-81.81903 310.63549,4.00153 l -4.1047,3.77664 C 423.56127,641.67897 296.04982,640.45715 192.33304,716.52569 Z m -26.58837,233.45207 c -15.99665,-66.3704 13.39985,-143.96253 52.9341,-185.35433 -32.96216,40.85209 -63.63782,123.99623 -52.9341,185.35433 z m 66.67868,-44.6125 c 8.52826,-72.70261 54.40656,-136.43292 104.66716,-170.23951 -43.11146,33.90324 -91.79517,103.29558 -104.66716,170.23951 z" fill="#670592" fill-rule="evenodd" />
      </g>
      <path d="m 447.25,728.5 c 39.5,-5.5 53,-35.5 55.75,-64.5 3.5,26.75 -13.75,68 -55.75,64.5 z m 32.75,9 c 18.5,-1.5 42.25,-13.5 52.75,-25.5 -8,15.75 -33.25,28 -52.75,25.5 z" fill="#428fab" />
      <path d="m 405.66675,740.26894 c 72.03906,4.59824 131.81615,-18.39295 166.04748,-67.95174 l 36.7859,26.5676 -128.23974,135.90347 z" style="filter:url(#filter4399);clip-path:url(#clipPath4588);fill:#40a0c0;opacity:.7" />
    </g>
    <g>
      <path d="M 745.65625,766.44141 C 790.4934,804.28794 766.4097,909.58932 686.22631,868.09188 599.88889,823.40954 525.82859,695.70336 533.22862,681.29729 c 7.37336,-14.35414 147.28891,31.49811 192.26427,78.53161 z" fill="url(#linearGradient4537)" />
      <path d="M 723.51137,782.33455 C 680.42594,740.47435 617.77974,703.76652 546.7777,678.9866 M 716.36542,847.492 c -23.97791,-6.51784 -58.55374,-21.10523 -124.17593,-60.53028 m -37.89305,-54.04213 c 58.01516,33.19281 112.45009,61.36308 167.96305,87.71921" fill="none" stroke="url(#linearGradient3953)" stroke-width="3" />
      <path fill="url(#linearGradient4518)" inkscape:original-d="M 745.65625,766.44141 C 790.4934,804.28794 766.4097,909.58932 686.22631,868.09188 599.88889,823.40954 525.82859,695.70336 533.22862,681.29729 c 7.37336,-14.35414 147.28891,31.49811 192.26427,78.53161 -7.52735,14.82903 0.0342,32.9482 11.81238,40.55696 -16.90684,8.10661 -19.20229,29.35632 -8.19239,39.02996 -17.67767,4.94975 -21.50971,22.8567 -16.91351,37.52917" inkscape:path-effect="#path-effect4510" />
      <path d="m 456.7013,637.23853 c 92.16429,346.38862 400.67147,324.58405 328.74159,174.6415 -22.66082,65.81682 -106.40327,60.14136 -149.93427,8.7183 22.54527,10.36015 43.94442,17.43315 67.84905,23.24762 C 675.87999,815.8855 615.19206,797.85534 600.8364,782.67491 548.91074,727.766 657.93256,806.1604 710.63411,814.254 668.0588,773.83276 557.79318,736.0113 505.18631,696.91816 l 9.12315,-22.74954 C 587.321,697.4405 657.57599,735.98983 708.6034,769.12173 669.9598,715.99534 545.4843,662.91642 456.7013,637.23853 Z" style="filter:url(#filter4295);clip-path:url(#clipPath4549);fill:#be40c0;opacity:.35" />
    </g>
    <g>
      <path d="m 736,436 c 30.40559,3.53553 80.06928,30.22004 108,74.06066 0.15376,-9.52022 -0.30711,-19.04044 -2.14645,-28.56066 65.76093,42.42641 135.82662,30.02587 165.17155,115.93934 5.6569,-13.78858 8,-37.57412 6.7678,-54.45711 l 10.7249,15.07107 c -3.9528,-59.55152 -62.16498,-182.62258 -143.12871,-208.43198 -36.416,-29.69848 -119.68377,-31.31371 -154.47488,0.23223 z" fill="url(#linearGradient5274)" />
      <path d="m 734.44975,389.56066 c 103.24264,-45.85965 220.72487,6.5 279.58585,121.04594 -14.84931,-47.54416 -61.93583,-137.2972 -132.64651,-160.98528 -36.416,-29.69848 -119.68377,-31.31371 -154.47488,0.23223 z" fill="url(#linearGradient5276)" />
      <path d="m 732.79289,399.62132 c 114.58579,0.79289 230.03553,66.1538 281.00001,143.36091 1.2322,16.88299 -1.1109,40.66853 -6.7678,54.45711 C 977.68017,511.52587 907.61448,523.92641 841.85355,481.5 843.69289,491.02022 844.15376,500.54044 844,510.06066 816.06928,466.22004 766.40559,439.53553 736,436 Z" fill="url(#linearGradient5278)" />
      <path fill="#670592" inkscape:original-d="m 985.28125,515.15625 c 18.97375,14.28234 28.71145,26.36529 39.00355,43.4595 -3.9803,-69.28258 -90.42726,-247.90168 -200.3473,-204.772" inkscape:path-effect="#path-effect4579" />
      <path d="m 841.35934,481.82948 c 68.39674,40.28481 144.03041,34.42212 165.83046,117.91619 6.9748,-17.57755 6.8469,-41.36309 5.6147,-58.24608" fill="none" stroke="#670592" stroke-width="6" />
      <path clip-path="url(#clipPath4618)" fill="#670592" inkscape:original-d="M 828.21875,447.5625 C 840.49028,467.92917 844.51151,486.49371 844,510.06066 817.38719,466.22004 766.40559,439.53553 736,436 l -9.08579,-86.14645 c 37.81978,-31.77891 120.12012,-33.02118 168.3476,8.27236" inkscape:path-effect="#path-effect4577" />
      <g clip-path="url(#clipPath3982)">
        <path d="m 867.81878,414.64527 49.61864,38.20894 C 1028.4315,290.14257 1001.8886,272.81262 867.81878,414.64527 Z" fill="#f8c3e3" stroke="#f18ac5" stroke-width="6" />
        <path d="m 914.01734,367.05202 c -3.25144,22.03757 3.25145,50.21677 17.34104,65.39018 m 22.76011,-35.40463 c -11.92195,-13.36705 -17.7023,-33.95953 -14.81213,-52.38439 m 25.28901,-19.1474 c -3.25144,13.72833 1.08382,26.7341 9.39307,35.04336" fill="none" stroke="#f18ac5" stroke-width="3" />
        <path d="m 918.50175,412.34897 c -2.13675,-31.05837 16.61987,-48.18195 24.22466,-34.30394 -0.76963,-16.97314 18.74187,-34.9674 22.69189,-30.85592 0,-6.86415 23.43572,-31.04186 39.4025,-36.20236 -65.90812,-41.75605 -274.79651,38.52147 -114.8001,139.13987 -13.53798,-39.17578 19.17125,-64.8756 28.48105,-37.77765 z" style="filter:url(#filter4179);clip-path:url(#clipPath4143);fill:#be40c0;opacity:.35;fill-rule:evenodd" />
      </g>
      <path d="m 826.40214,373.58914 c 65.54159,4.01705 111.86415,31.73323 151.22029,82.17618 -45.99615,-48.72474 -87.48133,-70.41548 -151.22029,-82.17618 z m -81.17967,27.95865 c 41.61962,-10.7101 106.18188,4.07829 139.86763,23.00363 C 851.07431,401.34566 786.64463,387.2751 744.12799,398.1678 Z m -12.06123,-27.10301 c 20.94253,-29.01789 68.04829,-37.47534 105.53414,-32.84845 -39.89632,-8.34556 -90.46206,3.84348 -108.02177,30.55146 z m 12.76037,40.41218 c 17.59666,17.10686 49.02569,27.87245 73.28303,32.17118 -22.82622,0.13521 -57.40863,-12.59676 -75.27214,-29.4622 z m 187.26519,35.72301 c 26.77923,13.20898 49.39099,33.68941 62.58713,54.92339 C 981.8734,488.3567 956.34048,464.74878 933.1868,450.57997 Z m -62.5184,30.08014 c 37.10969,2.39915 82.53631,22.41275 102.30108,47.38739 -18.72262,-19.33743 -69.44084,-42.11072 -102.30108,-47.38739 z" fill="#670592" />
    </g>
    <g>
      <path d="m 680.94383,594.19621 c 53.033,-52.3259 -7.94885,-53.62485 0,-91.92388 l -14.8527,19.43346 z" fill="url(#linearGradient4582)" />
      <path fill="#670592" inkscape:original-d="m 680.94383,594.19621 c 53.033,-52.3259 -7.94885,-53.62485 0,-91.92388" inkscape:path-effect="#path-effect4639" />
    </g>
    <g>
      <path d="m 695.5,532.375 c -91.42934,-68.57643 20.98812,-229.7217 27.03825,-203.83737 12.86193,55.02724 56.67329,94.61687 25.89925,141.36862 z" fill="#f8c3e3" />
      <path fill="#f18ac5" inkscape:original-d="m 695.5,532.375 c -91.42934,-68.57643 20.98812,-229.7217 27.03825,-203.83737 12.86193,55.02724 56.67329,94.61687 25.89925,141.36862" inkscape:path-effect="#path-effect4508" />
      <path d="m 725.58138,497.39434 c 9.17792,-37.33866 -18.20143,-46.0364 -9.0901,-116.35775 -15.93678,57.61823 10.70281,81.54324 9.0901,116.35775 z" fill="#f18ac5" />
      <path clip-path="url(#clipPath10985)" d="m 725.58138,497.39434 c 31.41877,-14.90431 29.86195,-88.60608 -9.0901,-116.35775 -61.28099,24.10295 -56.82063,110.12981 9.0901,116.35775 z" fill="url(#linearGradient10719)" filter="url(#filter12311)" />
      <path d="m 671.12807,714.39696 c 126.01235,99.00451 49.06954,-69.01327 88.29187,-56.40609 12.95449,4.16394 68.3827,111.50428 68.3827,152.30722 0,45.665 -23.78929,99.85976 -13.95647,162.66455 204.61413,-53.93035 217.95383,-275.8351 148.60606,-411.19526 -70.03537,131.45155 -255.0578,57.3385 -255.0578,-7.22543 0,-65.43746 -52.57036,-71.73719 -19.50869,-218.20809 -109.43252,104.07971 -100.39999,312.34759 -16.75767,378.0631 z" style="filter:url(#filter4258);clip-path:url(#clipPath5172);fill:#be40c0;opacity:.3" />
    </g>
    <g>
      <path d="m 976.28906,290.56055 c -13.74727,-0.41445 -28.9979,6.42799 -35.73047,21.78711 -7.15188,16.31571 -13.89304,18.35573 -25.14062,23.38476 -11.24759,5.02904 -26.63352,12.72844 -37.65625,34.55664 -6.19409,12.2661 -6.1329,25.50389 -1.69531,36.52539 4.43758,11.02151 12.75926,20.01363 22.77734,26.46289 20.03617,12.89853 48.64134,16.21648 69.46094,-1.14843 18.56902,-15.48779 22.86025,-31.73545 25.33398,-44.28907 2.47373,-12.55361 3.41923,-21.37153 17.51563,-34.80859 6.8475,-6.52719 10.8272,-14.50685 11.1797,-22.49609 0.3524,-7.98925 -2.7597,-15.29447 -7.291,-21.04297 -9.0627,-11.49702 -23.63084,-18.47572 -38.75394,-18.93164 z" fill="url(#linearGradient5661)" mask="url(#mask5995)" sodipodi:type="inkscape:offset" inkscape:original="M 975.98828 300.55664 C 965.16849 300.23045 954.83951 304.67675 949.7168 316.36328 C 933.32411 353.76019 906.5394 335.48435 886.6875 374.79688 C 866.8356 414.10939 928.3199 452.45756 961.90039 424.44922 C 995.48088 396.44088 972.67561 375.89423 1004.2539 345.79297 C 1025.964 325.09835 999.79181 301.27426 975.98828 300.55664 z " inkscape:radius="10" />
      <path d="m 1004.2532,345.7932 c -31.5783,30.10126 -8.7715,50.64841 -42.35199,78.65675 -33.58049,28.00834 -95.06465,-10.34004 -75.21275,-49.65256 19.8519,-39.31252 46.63483,-21.03627 63.02752,-58.43318 16.39269,-37.39691 86.11552,-0.67227 54.53722,29.42899 z" style="fill-opacity:.25;stroke:#a2d0e7;stroke-width:20;fill:#a2d0e7;clip-path:url(#clipPath5221);filter:url(#filter5564)" />
      <g>
        <path fill="#fff" sodipodi:arg1="2.0005586" sodipodi:arg2="2.7859568" sodipodi:cx="1002.5" sodipodi:cy="336.25" sodipodi:r1="6.6001892" sodipodi:r2="0.82502365" sodipodi:sides="4" sodipodi:type="star" />
        <path fill="#fff" sodipodi:arg1="1.5063695" sodipodi:arg2="2.2917677" sodipodi:cx="980.75" sodipodi:cy="363.5" sodipodi:r1="7.7661123" sodipodi:r2="0.97076404" sodipodi:sides="4" sodipodi:type="star" />
        <path fill="#fff" sodipodi:arg1="2.167973" sodipodi:arg2="2.9533711" sodipodi:cx="977.25" sodipodi:cy="387" sodipodi:r1="7.5581083" sodipodi:r2="0.94476354" sodipodi:sides="4" sodipodi:type="star" />
        <path fill="#fff" transform="rotate(345 899.10765 362.66975)" sodipodi:arg1="1.4711277" sodipodi:arg2="2.2565258" sodipodi:cx="904.60907" sodipodi:cy="378.13126" sodipodi:r1="5.0249376" sodipodi:r2="0.6281172" sodipodi:sides="4" sodipodi:type="star" />
        <path fill="#fff" transform="rotate(345 899.10765 362.66975)" sodipodi:arg1="2.3217254" sodipodi:arg2="3.1071236" sodipodi:cx="879.60907" sodipodi:cy="388.88126" sodipodi:r1="5.129571" sodipodi:r2="0.64119637" sodipodi:sides="4" sodipodi:type="star" />
        <path fill="#fff" transform="rotate(345 878.21931 359.91975)" sodipodi:arg1="1.5707963" sodipodi:arg2="2.3561945" sodipodi:cx="916.85907" sodipodi:cy="365.13126" sodipodi:r1="2.75" sodipodi:r2="0.34375" sodipodi:sides="4" sodipodi:type="star" />
        <path fill="#fff" transform="rotate(345 899.10765 362.66975)" sodipodi:arg1="2.3561945" sodipodi:arg2="3.1415927" sodipodi:cx="975.60907" sodipodi:cy="344.63126" sodipodi:r1="3.1819806" sodipodi:r2="0.39774755" sodipodi:sides="4" sodipodi:type="star" />
        <path fill="#fff" transform="rotate(60-689.38645 1675.0916)" sodipodi:arg1="2.4468544" sodipodi:arg2="3.2322525" sodipodi:cx="-955.57074" sodipodi:cy="-379.09268" sodipodi:r1="2.2779894" sodipodi:r2="0.2847487" sodipodi:sides="4" sodipodi:type="star" />
        <path fill="#fff" transform="rotate(345 899.10765 362.66975)" sodipodi:arg1="1.3854484" sodipodi:arg2="2.1708465" sodipodi:cx="958.10907" sodipodi:cy="335.88126" sodipodi:r1="4.069705" sodipodi:r2="0.50871313" sodipodi:sides="4" sodipodi:type="star" />
        <path fill="#fff" transform="rotate(45-957.43801 2330.3433)" sodipodi:arg1="2.5127964" sodipodi:arg2="3.2981945" sodipodi:cx="-993.16272" sodipodi:cy="-393.57532" sodipodi:r1="4.808846" sodipodi:r2="0.60110575" sodipodi:sides="4" sodipodi:type="star" />
        <path fill="#fff" transform="rotate(345 899.10765 362.66975)" sodipodi:arg1="2.0647377" sodipodi:arg2="2.8501359" sodipodi:cx="990.1106" sodipodi:cy="324.46216" sodipodi:r1="3.011627" sodipodi:r2="0.37645337" sodipodi:sides="4" sodipodi:type="star" />
        <path fill="#fff" transform="rotate(60-689.38645 1675.0916)" sodipodi:arg1="1.1978086" sodipodi:arg2="1.9832068" sodipodi:cx="-953.82074" sodipodi:cy="-391.09268" sodipodi:r1="6.1745443" sodipodi:r2="0.77181804" sodipodi:sides="4" sodipodi:type="star" />
      </g>
    </g>
  </g>
</svg>