<svg xmlns="http://www.w3.org/2000/svg" xmlns:inkscape="http://www.inkscape.org/namespaces/inkscape" xmlns:xlink="http://www.w3.org/1999/xlink" height="1228" viewBox="0 0 1676 1228" width="1676">
  <defs>
    <inkscape:path-effect bendpath1="m -29.900248,-29.882447 c 18.3304,12.526716 43.463735,14.057998 61.964466,2.289953" bendpath2="M 30,-30 V 70" bendpath3="m -19.984658,62.92904 c 15.2774777,7.228999 34.133269,9.138261 49.870017,0.729144" bendpath4="M -30,-30 V 70" effect="envelope" id="path-effect4955" xx="false" />
    <inkscape:path-effect effect="powerstroke" id="path-effect934" interpolator_type="CubicBezierSmooth" offset_points="0.23,4 | 1,4" start_linecap_type="zerowidth" />
    <inkscape:path-effect effect="powerstroke" id="path-effect932" interpolator_type="CubicBezierSmooth" offset_points="0.2,4" start_linecap_type="zerowidth" />
    <inkscape:path-effect effect="powerstroke" id="path-effect878" interpolator_type="CubicBezierSmooth" offset_points="0.28,4" start_linecap_type="zerowidth" />
    <inkscape:path-effect effect="powerstroke" id="path-effect1114" interpolator_type="CubicBezierSmooth" offset_points="0.14,4" start_linecap_type="zerowidth" />
    <inkscape:path-effect effect="powerstroke" end_linecap_type="zerowidth" id="path-effect1110" interpolator_type="CubicBezierSmooth" offset_points="0.38,4 | 3.37,4" start_linecap_type="zerowidth" />
    <inkscape:path-effect effect="powerstroke" end_linecap_type="zerowidth" id="path-effect1102" interpolator_type="CubicBezierSmooth" offset_points="0.5,4 | 1.7,4" start_linecap_type="zerowidth" />
    <linearGradient id="linearGradient879">
      <stop offset="0" stop-color="#5bcb70" />
      <stop offset="1" stop-color="#89d999" />
    </linearGradient>
    <inkscape:path-effect effect="powerstroke" end_linecap_type="zerowidth" id="path-effect839" interpolator_type="CubicBezierSmooth" offset_points="0.2,4 | 1.63,4" start_linecap_type="zerowidth" />
    <linearGradient gradientUnits="userSpaceOnUse" id="linearGradient889" x1="-1275.5251" x2="-1279.6163" y1="-222.2272" y2="-146.72713" xlink:href="#linearGradient879" />
    <linearGradient gradientUnits="userSpaceOnUse" id="linearGradient1002" x1="989.95642" x2="986.32581" y1="500.93192" y2="583.21045" xlink:href="#linearGradient879" />
    <clipPath id="clipPath1023">
      <use xlink:href="#path853" />
    </clipPath>
    <clipPath id="clipPath1087">
      <use xlink:href="#path876" />
    </clipPath>
  </defs>
  <g inkscape:groupmode="layer" inkscape:label="Drawing">
    <path d="m 1391.7426,646.63484 c 98.5356,-178.7639 184.0711,-251.43138 220.9432,-224.02723 38.1578,28.35972 -51.0093,132.06404 -213.1199,230.97189 -4.0896,2.58538 -9.4273,-2.77984 -7.8233,-6.94466 z" fill="#de1834" opacity=".1" />
    <path d="m 995.02238,108.88876 c 34.15342,-44.620843 77.89832,-25.086391 61.52772,63.25252 -13.2767,71.64365 19.8387,130.74363 92.174,131.13509 -44.0075,-29.87739 -52.9062,-72.7213 -43.7299,-131.92256 C 1128.0224,22.786658 1002.5686,-0.94557703 972.81706,91.566734 Z" style="stroke-miterlimit:20;fill:#5b604b;stroke:#464739;stroke-width:8" />
    <path d="m 947.68324,141.21051 c -3.18811,90.79986 17.22638,186.40488 65.21626,265.12329 -1.0537,-24.80042 -0.7669,-44.40711 4.9221,-66.4419 15.0082,28.95529 35.1743,45.42283 64.1001,52.33333 -9.6267,-19.17013 -14.1983,-38.976 -14.4047,-59.83629 25.1445,25.37129 54.5663,31.98222 90.5144,26.25919 -78.2091,-39.85549 -122.8628,-112.49293 -141.252,-198.86444 z" style="stroke-miterlimit:20;fill:#5b604b;stroke:#464739;stroke-width:8" />
    <g transform="translate(23.215154 9.6333069)">
      <path d="m 1057.8605,439.77567 c 105.7213,-8.57413 185.8512,-77.1589 322.0178,-22.1358 65.996,26.6681 -25.0559,109.95736 -87.1968,81.23438 -91.5961,-42.33786 -160.8406,10.90931 -247.183,2.59738 z" fill="#f93952" stroke="#cf0d27" stroke-width="8" />
      <path d="m 1291.6374,394.2658 c -27.6114,17.65686 -48.5778,46.72027 -60.346,84.0194 -4.5241,14.33906 9.8923,20.1908 16.0869,1.33231 -6.1946,18.85848 10.7685,18.47982 15.6892,4.27198 12.3066,-35.53381 31.5166,-60.9981 65.3004,-81.86532 9.3621,-5.78265 -2.578,-13.41732 -16.7401,-4.84255 9.7786,-5.92068 -5.912,-11.91869 -19.9904,-2.91582 z" fill="#f4eb50" />
      <path d="m 1264.8672,417.06355 c 13.7836,-0.0313 26.1002,1.47705 37.4853,4.62061 l 12.5792,-10.93524 c -13.9962,-2.73275 -27.7328,-3.45181 -41.7829,-2.1279 z" fill="#fffda9" />
      <path d="m 1247.3783,479.61751 c -6.1946,18.85849 -20.611,13.00675 -16.0869,-1.33231 11.7682,-37.29913 32.7346,-66.36254 60.346,-84.0194 14.0784,-9.00287 29.769,-3.00486 19.9904,2.91582 m 0,0 c -32.2428,19.52212 -52.8409,47.7037 -64.2495,82.43589 -6.1946,18.85848 10.7685,18.47982 15.6892,4.27198 12.3066,-35.53381 31.5166,-60.9981 65.3004,-81.86532 9.3621,-5.78265 -2.578,-13.41732 -16.7401,-4.84255 z" fill="none" stroke="#d6c709" stroke-width="6" />
    </g>
    <path d="m 1049.5839,392.75378 c -0.8887,-1.24561 -1.8677,-2.47943 -2.9401,-3.6968 -34.637,-39.31895 -204.84663,-0.001 -188.05104,35.53617 0.47009,0.99466 1.09176,1.96702 1.85546,2.9163" fill="none" stroke="#c78e7c" stroke-width="3" />
    <path d="m 1392.6603,648.36114 c -42.584,46.49542 -26.5379,103.63294 71.5812,99.18949 141.6383,-6.41427 245.0848,-83.30642 397.6424,-104.1315 150.0146,-20.47795 112.0023,229.69945 -66.3439,193.4649 -133.7744,-27.1789 -238.4997,-27.05759 -348.0592,48.00983 C 1245.5752,1023.2345 1129.1026,850.72312 1148.5753,663.32052 1164.418,510.8522 1066.8827,400.10563 989.58803,356.35756 1072.4605,338.50898 1100.2493,281.07908 1099.944,245.12674 1099.8413,233.0279 1092.6603,231.98231 1083.1889,231.41046 1099.936,0.89278238 774.52156,1.6278182 797.67802,223.40576 c 14.99804,143.64172 135.68374,274.56179 135.9674,431.6808 0.55491,307.3638 263.49558,508.70694 544.45578,291.97186 91.6789,-70.72191 201.5494,-90.40752 314.9163,-58.86785 254.5738,70.82467 435.8347,-396.38412 58.6191,-319.50157 -153.4501,31.27558 -255.5897,127.42835 -386.4228,143.19191 -67.8537,8.17542 -89.5712,-19.70533 -66.3227,-59.9729 4.9626,-8.59554 124.2162,-76.51169 196.219,-162.35402 45.7649,-54.56118 10.1966,-94.03289 -42.4511,-50.56703 -89.3621,73.77721 -149.0241,197.39155 -159.9987,209.37418 z" fill="#fa4c63" />
    <path fill="#cf0d27" inkscape:original-d="M 933.64542,655.08656 C 933.36176,497.96755 812.67606,367.04748 797.67802,223.40576 774.52156,1.6278182 1100.063,0.76579005 1083.1793,231.06295" inkscape:path-effect="#path-effect932" />
    <g transform="rotate(342.93315 689.70881 693.96831)">
      <path d="m 1210.3678,335.60451 c 4.3276,2.33474 6.682,6.25536 6.0454,11.58582 -1.3289,-4.16542 -3.6212,-6.43908 -6.6419,-7.54046 z m 1.6751,-10.14239 c 4.3973,2.10457 7.3922,6.02131 7.6067,11.14946 -1.884,-3.64724 -4.4174,-5.55264 -8.0433,-6.56396 z m 0.3086,-9.74894 c 5.0486,1.84036 8.0692,5.05961 8.7848,10.2955 -2.1869,-3.4839 -5.1933,-5.1362 -8.6508,-5.69461 z m -0.8268,-39.77036 c 5.9611,0.79031 10.8499,-0.88223 13.1339,-5.89528 -3.665,2.36748 -7.7875,2.86913 -12.4233,1.30839 z m -0.5003,-11.40229 c 5.4857,-1.09629 9.7161,-4.43618 10.762,-9.8216 -3.0482,3.43574 -6.6832,5.09991 -11.6172,5.25952 z" />
      <g clip-path="url(#clipPath1087)">
        <path d="m 1201.3885,367.22549 c 17.7985,-43.18988 18.3955,-80.74499 7.0813,-117.756 -26.6607,9.73525 -43.858,44.5548 -32.0813,102.20103 4.6638,8.44265 14.851,11.80978 25,15.55497 z" fill="#fff" id="path876" />
        <g>
          <ellipse cx="-1269.6255" cy="-182.01472" fill="url(#linearGradient889)" rx="21.973835" ry="53.545803" transform="matrix(-.91917717-.39384431-.10347845.9946317 0 0)" />
          <ellipse cx="1197.338" cy="262.04421" rx="16.339109" ry="42.418888" transform="rotate(2.7787293)" />
          <ellipse cx="1223.4073" cy="107.50903" fill="#fff" rx="7.8376978" ry="20.699007" transform="rotate(9.2488092)" />
          <ellipse cx="1236.866" cy="106.71429" fill="#fff" rx="2.5326324" ry="7.0593472" transform="rotate(10.560908)" />
        </g>
      </g>
      <path d="m 1208.475,252.21616 c 5.235,-1.85953 9.7791,-6.48803 10.2648,-12.33672 -2.8033,3.88125 -6.2066,6.40971 -11.3656,8.24807 -23.3243,8.31145 -46.7549,39.92598 -30.9857,103.54301 -10.7474,-63.8429 11.2343,-92.04744 32.0865,-99.45436 z" />
    </g>
    <path fill="#cf0d27" inkscape:original-d="m 1054.497,223.90994 c 18.4397,15.69633 45.2464,-2.45313 45.447,21.2168 0.3745,44.10513 -41.5313,120.53308 -175.23255,116.85687" inkscape:path-effect="#path-effect1102" />
    <path d="m 1086.3094,292.19174 4.8658,-8.28807 c -22.561,4.42462 -38.5475,-0.58111 -51.7676,-13.46557 10.8289,17.94607 26.6581,25.24598 46.9018,21.75364 z m -15.2087,-45.42391 c 3.1996,4.79951 7.4255,5.32149 11.9305,1.03303 -3.5269,9.82105 -10.6057,8.87719 -11.9305,-1.03303 z" fill="#cf0d27" />
    <path fill="#cf0d27" inkscape:original-d="M 1148.5753,663.32052 C 1164.418,510.8522 1066.8827,400.10563 989.41791,356.19406" inkscape:path-effect="#path-effect934" />
    <path d="m 763.86011,105.86791 c -37.12551,114.68804 -27.01511,249.47427 25.72681,362.59781 0.41215,-24.65272 4.36323,-45.98481 12.26537,-65.48522 11.70192,30.44201 29.91567,49.04585 57.89598,59.12379 -7.43942,-20.12006 -10.00941,-40.59156 -7.67469,-61.0653 22.23,27.50033 50.81891,38.8782 87.04021,36.14213 C 865.25007,389.34079 818.79426,307.85185 808.12868,224.61495 Z" style="stroke-miterlimit:20;fill:#5b604b;stroke:#464739;stroke-width:8" />
    <path d="M 766.41777,106.81968 C 820.42188,-76.98931 1072.2316,-46.211135 985.17693,86.214933 902.97397,75.343712 804.45039,165.3525 766.41777,106.81968 Z" style="stroke-miterlimit:20;fill:#5b604b;stroke:#464739;stroke-width:8" />
    <g>
      <path d="M 820.2951,253.1133 C 718.02772,184.60467 756.63648,78.784859 769.77772,72.345755 c 13.90055,-6.811158 66.74654,21.80621 83.35889,69.554095" fill="#fa4c63" />
      <path d="m 783.76103,119.87548 c -4.39354,27.58574 5.65433,56.69012 25.71107,77.49689 -15.39819,-24.71582 -24.55429,-49.32484 -25.71107,-77.49689 z" fill="#cf0d27" />
      <path fill="#cf0d27" inkscape:original-d="M 820.2951,253.1133 C 718.02772,184.60467 756.63648,78.784859 769.77772,72.345755 c 13.90055,-6.811158 66.74654,21.80621 83.35889,69.554095" inkscape:path-effect="#path-effect839" />
      <path d="m 755.77518,141.34994 c 8.12203,-6.17965 9.057,-13.97781 9.63735,-29.16019 4.27373,14.61018 7.086,21.54513 16.07868,24.36866 -7.01788,5.02068 -8.88179,11.561 -8.48687,27.94721 -4.60028,-16.00937 -8.28854,-21.21176 -17.22916,-23.15568 z" style="stroke-miterlimit:20;fill:#f4eb50;stroke:#d6c709;stroke-width:3" />
      <path d="m 765.72909,165.91415 12.33304,-4.9083 1.63832,21.36363 14.12652,-5.64248 -3.62969,33.63018 -4.94018,-21.33503 -13.97029,5.1309 z" style="stroke-miterlimit:20;fill:#f4eb50;stroke:#d6c709;stroke-width:3" />
    </g>
    <g transform="rotate(342.93315 689.70881 693.96831)">
      <path d="m 1004.6124,284.74341 c -9.85818,6.93134 -21.751,8.75898 -32.90434,3.40728 11.67086,0.41108 23.2193,-2.20081 31.36664,-8.86291 z m -0.9581,-12.6328 c -10.83084,5.28438 -23.2859,5.06651 -33.45206,-1.98232 11.74428,2.3487 23.03412,1.46993 32.81926,-3.64607 z m 30.0623,74.58345 c -6.2833,6.22175 -8.4243,16.29131 -3.0867,26.66934 -1.4183,-10.7054 1.4802,-18.12494 6.9333,-23.33199 z m -7.827,-7.9686 c -7.5626,4.75622 -11.4985,13.61607 -9.2686,25.28092 1.1147,-10.74126 6.0597,-17.08229 12.5757,-20.87598 z m -6.4239,-9.16646 c -9.0399,3.07188 -14.4433,10.64272 -14.2722,22.93498 3.0148,-10.4447 8.4703,-15.74637 16.4498,-17.94031 z" />
      <g clip-path="url(#clipPath1023)">
        <path d="m 1003.4655,255.7934 c 81.7194,-26.66208 135.1643,28.94878 125.1509,103.88892 -67.3548,37.72857 -141.50133,-13.46904 -125.1509,-103.88892 z" fill="#fff" id="path853" />
        <g>
          <ellipse cx="1006.8864" cy="543.51239" fill="url(#linearGradient1002)" rx="46.461712" ry="60.368313" transform="rotate(348.07805)" />
          <ellipse cx="1012.4724" cy="545.58136" rx="36.489883" ry="47.411774" transform="rotate(348.07805)" />
          <ellipse cx="1115.7693" cy="-128.74107" fill="#fff" rx="17.062504" ry="23.872044" transform="rotate(22.172931)" />
          <ellipse cx="1140.4583" cy="-143.38118" fill="#fff" rx="6.1955853" ry="8.6682129" transform="rotate(24.045111)" />
        </g>
      </g>
      <path d="m 1003.2307,258.73279 c -9.59468,3.44391 -24.28142,1.83668 -32.63137,-5.43335 10.87295,3.41419 22.99945,3.06771 32.63137,-0.17127 66.4357,-22.34074 138.2779,10.86331 125.3857,106.55415 6.9518,-88.18138 -58.2103,-125.06142 -125.3857,-100.94953 z" />
    </g>
    <g>
      <path d="m 857.43549,419.24887 c -0.0542,1.78401 0.31817,3.56886 1.15727,5.34428 12.37789,26.18979 129.83749,36.92562 178.31784,17.6068 19.4364,-7.74517 27.6971,-32.75085 9.7332,-53.14297 -1.618,-1.83665 -3.5317,-3.50172 -5.7084,-5.0036" fill="none" stroke="#c78e7c" stroke-width="3" />
      <circle cx="1039.9926" cy="450.40192" fill="#4bade4" r="11.469589" stroke="#1082c4" stroke-width="3.00000095" />
      <ellipse cx="-1072.4362" cy="373.55112" fill="#fff" rx="2.8470683" ry="1.9657878" transform="rotate(222.29693)" />
      <path d="m 1026.9803,448.67921 c 9.1949,-1.6855 15.8886,-4.3965 21.512,-8.45666 -8.2588,-5.87094 -19.2814,-1.65995 -21.512,8.45666 z" fill="#f4eb50" stroke="#d6c709" stroke-width="3" />
    </g>
    <g transform="rotate(4.2358958 1085.9855 622.02458)">
      <path d="m 941.23971,598.88171 c 8.13141,-83.68085 119.47039,-72.15342 106.34599,13.45953 -17.6942,115.42355 -65.27967,167.29386 -86.83549,163.31304 -20.45912,-3.77829 -37.41104,-61.8695 -20.75787,-149.85966 z" fill="#fa4c63" />
      <path fill="#cf0d27" inkscape:original-d="m 941.23971,598.88171 c 8.13141,-83.68085 119.47039,-72.15342 106.34599,13.45953 -17.6942,115.42355 -65.27967,167.29386 -86.83549,163.31304 -20.45912,-3.77829 -37.41104,-61.8695 -20.75787,-149.85966 9.77112,31.34013 20.17093,33.35304 34.02219,2.19418 6.41172,39.80873 18.50714,41.30394 33.60897,6.81821 4.4031,35.28202 18.1008,39.15704 35.1369,4.30796" inkscape:path-effect="#path-effect878" />
      <path d="m 1015.6257,660.06191 -23.51921,98.19322 M 960.47967,648.76497 944.76225,761.4142 m 42.86344,-102.84432 -22.8241,117.97081" style="stroke-miterlimit:20;fill:#fff;stroke:#cf0d27;stroke-width:4" />
    </g>
    <g>
      <path d="m 1060.5989,478.39792 c 12.0219,13.3573 23.2586,21.63729 35.1908,27.54848 21.6266,-19.05732 29.0903,-48.04743 72.8018,-55.0336 47.6138,-7.60985 119.2224,15.91569 173.8043,74.40965 35.2657,37.79333 -70.4818,93.33907 -128.3348,27.31811 -6.8167,-7.77907 -16.2156,-15.31448 -27.0118,-21.53727 -47.6391,5.23347 -91.8631,141.25122 -174.2652,-12.26148 z" fill="#fa4c63" />
      <path fill="#cf0d27" inkscape:original-d="m 1073.8886,518.3762 c 42.1394,-14.2337 39.1926,-58.5915 94.7029,-67.4634 47.6138,-7.60986 119.2224,15.91569 173.8043,74.40965 35.2657,37.79333 -70.4818,93.33907 -128.3348,27.31811 -12.8742,-14.69184 -34.9591,-28.51459 -58.7058,-34.40167" inkscape:path-effect="#path-effect1110" />
      <path d="m 1099.2172,502.60992 c -13.237,-6.06968 -24.3285,-12.81533 -38.6183,-24.212 9.5219,13.7323 20.1336,23.26229 32.5879,30.14766" fill="#cf0d27" />
      <path fill="#cf0d27" inkscape:original-d="m 1012.784,518.84181 c 82.4021,153.5127 126.6261,17.49495 174.3296,12.28149" inkscape:path-effect="#path-effect1114" />
    </g>
    <g>
      <path d="M 1074.2144,50.125157 C 1040.1959,23.161351 990.19009,37.54536 972.81706,91.566734 l 22.20532,17.322026 c 17.53982,-22.915525 37.60942,-28.910418 50.76692,-17.354953 2.6461,-18.399724 12.0672,-32.990473 28.4251,-41.40865 z" fill="#5b604b" />
      <path d="M 1074.2144,50.125157 C 1040.1959,23.161351 990.19009,37.54536 972.81706,91.566734 l 22.20532,17.322026 c 17.53982,-22.915525 37.60942,-28.910418 50.76692,-17.354953" style="stroke-miterlimit:20;fill:none;stroke:#464739;stroke-width:8" />
    </g>
    <path d="m 882.80652,230.45704 c 27.01967,70.52091 3.90699,146.93885 -74.98028,174.77324 C 844.72915,356.50677 849.54331,303.9841 829.13132,242.79391 764.14636,47.984764 969.40632,3.4785836 1002.6541,117.40308 918.73069,79.016439 847.73205,138.91323 882.80652,230.45704 Z" fill="#5b604b" stroke="#464739" stroke-width="8" />
    <path d="m 1391.7426,646.63484 c 98.5356,-178.7639 184.0711,-251.43138 220.9432,-224.02723 38.1578,28.35972 -51.0093,132.06404 -213.1199,230.97189 0.4624,-3.61246 -4.6178,-8.63978 -7.8233,-6.94466 z" fill="#de1834" opacity=".1" />
    <g transform="rotate(227.99579 888.20532-112.25803)scale(.7862815)" inkscape:path-effect="#path-effect4955">
      <path fill="#d2e4f1" inkscape:original-d="M 9,13 22,42 2,41 15,70 -22,31 -2,32 -15,3 Z" />
      <path fill="#f4eb50" inkscape:original-d="M -14,6 -27,0 -14,-6 -30,-30 -6,-14 0,-27 6,-14 30,-30 14,-6 27,0 14,6 30,30 6,14 0,27 -6,14 -30,30 Z" />
    </g>
  </g>
</svg>
