<svg xmlns="http://www.w3.org/2000/svg" xmlns:inkscape="http://www.inkscape.org/namespaces/inkscape" xmlns:xlink="http://www.w3.org/1999/xlink" height="571" viewBox="0 0 438 571" width="438">
  <defs>
    <linearGradient id="linearGradient8853">
      <stop offset="0" stop-color="#e6dc7f" />
      <stop offset="1" stop-color="#ea616c" />
    </linearGradient>
    <linearGradient id="linearGradient8847">
      <stop offset="0" stop-color="#d5c167" />
      <stop offset="1" stop-color="#d01444" />
    </linearGradient>
    <inkscape:path-effect effect="powerstroke" end_linecap_type="zerowidth" id="path-effect3850" interpolator_type="CubicBezierSmooth" offset_points="0.24,2.5 | 1.9,2.5" start_linecap_type="zerowidth" />
    <inkscape:path-effect effect="powerstroke" id="path-effect3737" interpolator_type="CubicBezierSmooth" offset_points="0.3,2.5" start_linecap_type="zerowidth" />
    <inkscape:path-effect bendpath1="m -16.73694,-13.875 h 33.47388" bendpath2="m 17.393918,-17.431493 c -5.002529,11.5776673 -6.744287,25.6954626 -1.914636,38.083372" bendpath3="m -16.73694,18.6 h 33.47388" bendpath4="m -13.436507,-16.410949 c -4.678476,12.2707443 -5.236298,24.934402 -0.123676,36.099423" effect="envelope" id="path-effect2829" yy="false" />
    <inkscape:path-effect effect="powerstroke" end_linecap_type="zerowidth" id="path-effect2617" interpolator_type="CubicBezierSmooth" offset_points="0.2,1.25 | 4.59,1.25" start_linecap_type="zerowidth" />
    <linearGradient id="linearGradient2613">
      <stop offset="0" stop-color="#d9c574" />
      <stop offset="1" stop-color="#d01444" />
    </linearGradient>
    <linearGradient id="linearGradient2605">
      <stop offset="0" stop-color="#f3f49b" />
      <stop offset="1" stop-color="#ea616c" />
    </linearGradient>
    <inkscape:path-effect effect="powerstroke" end_linecap_type="zerowidth" id="path-effect2595" interpolator_type="CubicBezierSmooth" offset_points="0.21,2.5 | 9.56,2.5" start_linecap_type="zerowidth" />
    <inkscape:path-effect effect="powerstroke" end_linecap_type="zerowidth" id="path-effect2578" interpolator_type="CubicBezierSmooth" offset_points="0.36,2.5 | 2.73,2.5" start_linecap_type="zerowidth" />
    <inkscape:path-effect effect="powerstroke" end_linecap_type="zerowidth" id="path-effect1944" interpolator_type="CubicBezierSmooth" offset_points="0.24,2.5 | 4.79,2.5" start_linecap_type="zerowidth" />
    <inkscape:path-effect effect="powerstroke" id="path-effect1920" interpolator_type="CubicBezierSmooth" offset_points="0.22,2.5 | 4,2.5" start_linecap_type="zerowidth" />
    <inkscape:path-effect effect="powerstroke" end_linecap_type="zerowidth" id="path-effect1455" interpolator_type="CubicBezierSmooth" offset_points="0.44,2.5 | 1.71,2.5" start_linecap_type="zerowidth" />
    <linearGradient id="linearGradient850">
      <stop offset="0" stop-color="#ed585a" />
      <stop offset="1" stop-color="#fba93f" />
    </linearGradient>
    <inkscape:path-effect effect="powerstroke" end_linecap_type="zerowidth" id="path-effect831" interpolator_type="CubicBezierSmooth" offset_points="0.19,2.5 | 1.65,2.5" start_linecap_type="zerowidth" />
    <clipPath id="clipPath865">
      <use xlink:href="#ellipse60" />
    </clipPath>
    <clipPath id="clipPath946">
      <use xlink:href="#ellipse929" />
    </clipPath>
    <clipPath id="clipPath1427">
      <use xlink:href="#path952" />
    </clipPath>
    <linearGradient gradientUnits="userSpaceOnUse" id="linearGradient1675" x1="246.95665" x2="247.35622" y1="353.29025" y2="394.88425" xlink:href="#linearGradient850" />
    <clipPath id="clipPath1847">
      <use xlink:href="#path1445" />
    </clipPath>
    <linearGradient gradientUnits="userSpaceOnUse" id="linearGradient1866" x1="381.26419" x2="380.37366" y1="290.53381" y2="326.15778" xlink:href="#linearGradient850" />
    <linearGradient gradientUnits="userSpaceOnUse" id="linearGradient2607" x1="164.56516" x2="-33.668762" y1="278.67303" y2="187.34647" xlink:href="#linearGradient2605" />
    <linearGradient gradientUnits="userSpaceOnUse" id="linearGradient2615" x1="164.56516" x2="-33.668762" y1="278.67303" y2="187.34647" xlink:href="#linearGradient2613" />
    <linearGradient gradientUnits="userSpaceOnUse" id="linearGradient2625" x1="164.56516" x2="-33.668762" y1="278.67303" y2="187.34647" xlink:href="#linearGradient2613" />
    <linearGradient gradientTransform="matrix(-0.99573907,0.09221551,0.09221551,0.99573907,419.85676,-22.58453)" gradientUnits="userSpaceOnUse" id="linearGradient2841" x1="164.56517" x2="-33.668762" y1="278.67303" y2="187.34647" xlink:href="#linearGradient2613" />
    <linearGradient gradientTransform="translate(-7.0710679,-0.70710678)" gradientUnits="userSpaceOnUse" id="linearGradient2861" x1="288.76184" x2="477.72937" y1="270.78366" y2="161.56599" xlink:href="#linearGradient2605" />
    <linearGradient gradientTransform="translate(-58)" gradientUnits="userSpaceOnUse" id="linearGradient8744" x1="780.73938" x2="730.13885" y1="411.58563" y2="389.29388" xlink:href="#linearGradient2613" />
    <linearGradient gradientTransform="translate(-58)" gradientUnits="userSpaceOnUse" id="linearGradient8752" x1="780.73938" x2="730.13885" y1="411.58563" y2="389.29388" xlink:href="#linearGradient2613" />
    <linearGradient gradientTransform="translate(-58)" gradientUnits="userSpaceOnUse" id="linearGradient8754" x1="780.73938" x2="730.13885" y1="411.58563" y2="389.29388" xlink:href="#linearGradient2613" />
    <linearGradient gradientTransform="translate(-58)" gradientUnits="userSpaceOnUse" id="linearGradient8762" x1="780.73938" x2="730.13885" y1="411.58563" y2="389.29388" xlink:href="#linearGradient2605" />
    <linearGradient gradientTransform="translate(-27.646447,-2.1213204)" gradientUnits="userSpaceOnUse" id="linearGradient8829" x1="780.73938" x2="730.13885" y1="411.58563" y2="389.29388" xlink:href="#linearGradient8847" />
    <linearGradient gradientTransform="translate(-27.646447,-2.1213204)" gradientUnits="userSpaceOnUse" id="linearGradient8831" x1="780.73938" x2="730.13885" y1="411.58563" y2="389.29388" xlink:href="#linearGradient8847" />
    <linearGradient gradientTransform="translate(-27.646447,-2.1213204)" gradientUnits="userSpaceOnUse" id="linearGradient8833" x1="780.73938" x2="730.13885" y1="411.58563" y2="389.29388" xlink:href="#linearGradient8847" />
    <linearGradient gradientTransform="translate(-27.646447,-2.1213204)" gradientUnits="userSpaceOnUse" id="linearGradient8841" x1="780.73938" x2="730.13885" y1="411.58563" y2="389.29388" xlink:href="#linearGradient8853" />
  </defs>
  <use transform="translate(512)" xlink:href="#use8788" />
  <g>
    <path d="m 771.04896,397.45994 c 42.52457,27.07264 21.247,97.73219 -22.83889,67.61735 -48.9455,-33.43443 -95.86646,-138.95583 14.1159,-71.52959 z" fill="url(#linearGradient8841)" stroke="url(#linearGradient8829)" stroke-width="5" />
    <path d="m 755.00638,388.78934 c -5.06437,1.97864 -5.21951,9.02117 2.03143,15.67705 -14.63605,-1.57646 -16.1611,8.1505 -4.34606,17.75314 -12.59122,-0.48543 -13.55766,9.32326 -2.35775,20.06191 -15.40027,-1.80355 -19.76087,2.17916 -6.96232,19.37754" fill="none" stroke="url(#linearGradient8831)" stroke-width="3" />
    <path d="m 696.76707,396.79384 49.25713,45.01194 m -50.58035,-61.88694 53.52857,38.81372 m -43.58035,-47.06372 49.89285,31.18872" fill="none" stroke="url(#linearGradient8833)" stroke-width="2" />
  </g>
  <g id="use8788">
    <path d="m 222.19147,259.25806 c -32.27687,91.72895 -15.93129,147.46383 65.67983,177.31269 53.66911,19.62921 78.10186,-62.91479 10.84643,-82.96531 -36.80212,-10.97163 -59.82044,-32.08487 -71.30348,-75.34363 z" fill="#f5415f" stroke="#c52452" stroke-width="5" />
    <path d="m 207.05925,321.63025 c 11.75512,63.0227 61.22951,99.045 118.31303,110.30478 m -112.19315,-143.07696 c 16.94967,60.12092 68.02796,91.70642 124.80135,98.87773" fill="none" stroke="#c52452" stroke-width="2.5" />
  </g>
  <path d="m 228.36693,400.5348 c 58.3724,-68.2954 5.34827,-138.85674 49.72152,-203.13686 36.79929,-53.30827 96.72468,2.85069 190.71011,-63.99952 46.77263,-33.26857 57.98344,12.01025 -1.27186,39.67742 43.3531,2.84126 34.03986,28.45139 -18.59805,41.33657 34.74664,8.96222 23.05002,34.08511 -21.79883,38.09131 31.32543,14.42014 11.51042,36.837 -29.10422,41.62677 35.68593,14.80597 14.095,46.30029 -39.34688,33.66756 22.56094,22.66698 8.20837,39.92114 -29.7631,28.3395 20.31712,25.20585 -3.15181,44.65427 -35.61452,28.46048 16.61537,26.3713 -0.50362,39.75648 -42.36997,20.72737 z" style="stroke:url(#linearGradient2841);stroke-width:5;fill:url(#linearGradient2861);stroke-miterlimit:20" />
  <g id="g3836">
    <g>
      <path d="m 161.71885,222.84 c -0.56489,-72.58551 8.61199,-133.191902 44.65142,-179.014538 50.00473,17.529932 69.90203,103.161668 26.95603,182.391748 z" fill="#f35f91" />
      <path d="m 206.37027,43.825462 c 37.82651,17.688157 -8.89543,125.781058 -44.65142,179.014538 -0.56489,-72.58551 8.61199,-133.191902 44.65142,-179.014538 z" fill="#ec438c" />
      <path d="m 161.71885,222.84 c -0.56489,-72.58551 8.61199,-133.191902 44.65142,-179.014538 50.00473,17.529932 69.90203,103.161668 26.95603,182.391748" style="stroke:#c72965;stroke-width:5;fill:none;stroke-miterlimit:20" />
      <path d="m 161.71885,222.84 c 35.75599,-53.23348 82.47793,-161.326381 44.65142,-179.014538" style="stroke:#c72965;stroke-width:3;fill:none;stroke-miterlimit:20" />
      <path d="m 40.32077,129.0437 c 46.35179,-19.28454 113.83049,20.61903 154.4297,86.83877 -28.77585,19.83509 -152.205107,-30.0881 -154.4297,-86.83877 z" fill="#ec438c" />
      <path d="m 40.32077,129.0437 c -8.315513,48.62852 12.348698,106.70125 41.293015,148.87155 41.969375,25.03893 104.212635,13.16826 132.600355,-22.80005 -5.36607,-13.83906 -11.95519,-26.98595 -19.46367,-39.23273 -28.77585,19.83509 -152.205107,-30.0881 -154.4297,-86.83877 z" fill="#f35f91" />
      <path d="m 214.21414,255.1152 c -28.38772,35.96831 -90.63098,47.83898 -132.600355,22.80005 -28.944317,-42.1703 -49.608528,-100.24303 -41.293015,-148.87155 54.924167,-22.85105 139.51235,37.40313 173.89337,126.0715 z" style="stroke:#c72965;stroke-width:5;fill:none;stroke-miterlimit:20" />
      <path d="m 194.75047,215.88247 c -28.77585,19.83509 -152.205107,-30.0881 -154.4297,-86.83877" style="stroke:#c72965;stroke-width:3;fill:none;stroke-miterlimit:20" />
    </g>
    <path d="m 273.11635,475.09119 c -8.51249,37.6811 -13.77129,80.51132 -12.23669,121.11998 0.69873,18.48957 71.37612,14.83489 68.43743,0.25494 -5.57646,-27.66692 -25.09244,-52.54083 -16.63958,-121.10136 z m -15.31609,4.91948 c -14.40908,27.86259 -16.21521,61.14815 -6.67005,103.36858 3.9185,17.33241 -62.75587,14.58704 -61.94491,0.0369 2.09728,-37.62919 5.37609,-60.04636 12.13411,-87.27227 6.52645,-20.40586 34.37665,-23.49011 56.48085,-16.13321 z" style="fill:#e6dc7f;stroke-miterlimit:20;stroke:#d5c167;stroke-width:5" />
    <g>
      <path d="m 103.4503,516.8066 c 32.90769,116.68084 140.8496,92.57885 83.70813,-15.02934 17.2376,11.03496 29.53286,-1.42473 9.74544,-21.21215 -35.24,-35.24 -11.69999,-84.9835 3.80611,-69.08665 l 11.65194,-13.8607 c -12.46856,-48.56088 -55.98949,-43.0619 -76.57803,-28.17515 -19.56651,14.14776 -18.87845,31.44369 -6.24195,31.30721 -31.013981,27.23511 -38.534645,71.9376 -26.09164,116.05678 z" fill="#f5415f" />
      <path fill="#c52452" inkscape:original-d="m 149.67106,387.26991 c -47.56615,23.71331 -61.027061,77.03797 -46.22076,129.53669 32.90769,116.68084 140.8496,92.57885 83.70813,-15.02934 17.2376,11.03496 29.53286,-1.42473 9.74544,-21.21215 -35.24,-35.24 -11.69999,-84.9835 3.80611,-69.08665 l 11.65194,-13.8607 c -12.46856,-48.56088 -55.98949,-43.0619 -76.57803,-28.17515 -19.56651,14.14776 -18.87845,31.44369 -6.17729,31.29274" inkscape:path-effect="#path-effect3737" />
      <path d="m 187.82841,411.37484 c -54.37565,34.27921 -55.03359,136.48306 9.10897,169.31831 m 14.02215,-181.89002 c -74.78722,5.39029 -129.652438,101.36118 -49.53622,193.9005" fill="none" stroke="#c52452" stroke-width="2.5" />
    </g>
    <path d="m 218.37409,247.00033 c 2.21952,-79.49453 116.24232,-104.98075 170.45908,-38.86287 20.25049,24.69568 31.73046,81.14676 14.1018,117.27836 l -89.03776,55.45288 c 56.85966,123.37658 -48.38238,146.63958 -96.58174,115.1528 -14.42429,27.85176 -16.23042,61.13732 -6.68526,103.35775 3.9185,17.33241 -62.75587,14.58704 -61.94491,0.0369 2.09728,-37.62919 5.37609,-60.04636 12.13411,-87.27227 2.47402,-9.96703 11.90136,-11.72552 19.22904,-10.0311 -25.52073,-81.37055 -0.0953,-123.23504 56.04018,-110.42583 0.80746,-42.86152 -18.62601,-112.04125 -17.71454,-144.68662 z" fill="#f3f49b" />
    <g transform="matrix(.76397516.21252236-.25062064 1.5583372 188.82669 435.31226)" inkscape:path-effect="#path-effect2829">
      <path fill="#f6b8d2" inkscape:original-d="m 0,18.6 -5,-4.8 -0.7,-27.5 h 11.4 l -0.7,27.5 z" />
      <path fill="#bf5d93" inkscape:original-d="m -12.4,-12 c 2.2,3.7 0,4.7 -4.3,3.1 -0.2,12.3 0,14.2 11.7,22.7 v -27.4 z" />
      <path fill="#f5415f" inkscape:original-d="m 12.4,-12 c -2.2,3.7 0,4.7 4.3,3.1 0.2,12.3 0,14.2 -11.7,22.7 v -27.4 z" />
      <path style="stroke-width:1.0003897;fill:none;stroke-miterlimit:20;stroke:#ab3266" inkscape:original-d="m 0,18.6 c -3.7,-5.9 -16.7,-8.9 -16.7,-21.6 v -5.9 c 4.3,1.6 6.5,0.6 4.3,-3.1 7.4,-2.5 17.4,-2.5 24.8,0 -2.2,3.7 0,4.7 4.3,3.1 v 5.9 c 0,12.7 -13,15.7 -16.7,21.6 z" />
      <path fill="#a02699" inkscape:original-d="m 0.2,-5.5 c 3.2,-2.1 8.2,0.3 8.2,4.8 0,2.9 -3,5.8 -3.7,7.2 -0.7,1.4 -1.1,3.6 -3.1,1.6 -0.7,1 -2.2,1 -2.9,0 -1.9,2 -2.5,-0.5 -3.3,-1.6 -0.8,-1.1 -3.8,-5.2 -3.8,-8.5 0,-4.7 5.8,-6.6 8.6,-3.5 z m -0.2,-5.4 c 0.8,1.2 1,2.9 0.6,4.3 -0.4,-1.3 -1.4,-2.4 -2.4,-3.1 z" />
      <path fill="#fd41f8" inkscape:original-d="m 0,6.2 c -1.1,-3 -5.8,-4 -5.8,-7.8 0,-3.8 4.3,-4.6 5.8,-2.7 1.5,-1.9 5.8,-1.1 5.8,2.7 0,3.8 -4.7,4.8 -5.8,7.8 z" />
    </g>
    <path fill="#d9c574" inkscape:original-d="m 229.20137,422.12774 c 21.02335,-29.01663 -12.00929,-132.79243 -10.82728,-175.12741 2.21952,-79.49453 116.24232,-104.98075 170.45908,-38.86287 20.25049,24.69568 31.73046,81.14676 14.1018,117.27836 l -89.03776,55.45288 c 72.07081,156.3824 -116.29248,151.92139 -118.7909,79.01833" inkscape:path-effect="#path-effect1944" />
    <g transform="translate(.93887536-5.4425424)">
      <g clip-path="url(#clipPath1427)">
        <ellipse cx="402.85794" cy="-171.9418" fill="#fff" id="path952" rx="47.327583" ry="43.856625" transform="rotate(69.03)" />
        <g>
          <g clip-path="url(#clipPath865)" transform="translate(-92.387956-83.174681)scale(1.27184)">
            <ellipse cx="254.62723" cy="373.64801" fill="url(#linearGradient1675)" id="ellipse60" rx="22.987045" ry="27.797985" transform="rotate(347.54259)" />
            <path d="m 333.96508,313.85125 -17.22286,32.06064 -14.79765,-13.94552 z" fill="#fee27a" />
            <path d="m 333.96508,313.85125 -34.60262,8.63934 5.67747,13.97945 z" fill="#fcc657" />
            <ellipse cx="256.1474" cy="374.30435" rx="17.852095" ry="21.588348" transform="rotate(347.54259)" />
            <ellipse cx="407.6088" cy="161.91273" fill="#fff" rx="9.7020235" ry="14.682863" transform="rotate(21.719004)" />
            <ellipse cx="451.11679" cy="-55.886986" fill="#fff" rx="3.8270173" ry="3.0616138" transform="rotate(49.473685)" />
            <ellipse cx="451.73132" cy="-45.351547" fill="#fff" rx="2.0799649" ry="1.6639717" transform="rotate(49.473685)" />
          </g>
        </g>
      </g>
      <path d="m 279.12837,275.5216 c -6.05118,-2.87494 -10.19621,-7.55804 -12.07268,-14.71967 -1.30031,7.20819 1.47056,13.17202 7.81646,17.78547 z m -11.0378,9.53977 c -6.65871,-0.73721 -12.10768,-3.80666 -16.22371,-9.96038 1.12927,7.23696 5.69867,11.96619 13.20462,14.24984 z m -24.97905,14.22382 c 4.69438,4.06846 11.3661,4.77886 18.25119,3.37055 17.07355,-53.35608 93.42687,-38.32008 86.43635,25.33108 14.81549,-65.23539 -69.542,-84.77476 -89.12494,-29.34638 -4.65016,1.99362 -9.46033,2.33623 -15.5626,0.64475 z" />
    </g>
    <path d="m 217.30026,496.01067 c -14.40908,27.86259 -16.21521,61.14815 -6.67005,103.36858 3.9185,17.33241 -62.75587,14.58704 -61.94491,0.0369 2.09728,-37.62919 5.37609,-60.04636 12.13411,-87.27227 2.47402,-9.96703 11.90136,-11.72552 19.22904,-10.0311 -25.52073,-81.37055 -0.0953,-123.23504 55.92894,-110.82677" fill="none" stroke="#d9c574" stroke-width="5" />
    <g>
      <g clip-path="url(#clipPath1847)">
        <ellipse cx="402.98926" cy="278.59778" fill="#fff" id="path1445" rx="15.672997" ry="38.160522" transform="rotate(1.4165952)" />
        <g clip-path="url(#clipPath946)" transform="translate(-104.76203-82.174681)scale(1.27184)">
          <ellipse cx="378.97058" cy="307.69733" fill="url(#linearGradient1866)" id="ellipse929" rx="9.1698999" ry="22.927237" transform="rotate(358.11129)" />
          <path d="m 387.06807,299.63874 12.66155,25.99168 9.67024,-16.21245 z" fill="#fee27a" />
          <path d="m 387.06807,299.63874 23.87943,1.61174 -4.92326,14.40501 z" fill="#fcc657" />
          <ellipse cx="377.85513" cy="308.28683" rx="7.1238394" ry="17.811499" transform="rotate(358.11129)" />
          <ellipse cx="415.4621" cy="243.09378" fill="#fff" rx="4.9483485" ry="10.596002" transform="rotate(6.405749)" />
          <ellipse cx="360.3429" cy="334.66641" fill="#fff" rx="1.4439284" ry="2.659868" transform="rotate(354.2464)" />
          <ellipse cx="342.51999" cy="353.15829" fill="#fff" rx="0.84703547" ry="1.560328" transform="rotate(351.84426)" />
        </g>
      </g>
      <path d="m 404.27631,254.79086 c 6.05094,-2.37327 9.69657,-6.43844 8.9596,-13.10892 -2.06677,5.7638 -6.40479,9.42149 -12.21906,10.33674 z m 3.8027,7.64832 c 6.49351,0.28385 11.47425,-1.95414 13.50507,-8.35055 -4.22617,4.43086 -9.6746,6.01562 -15.36065,4.49491 z m 2.25213,8.86591 c 6.06032,2.34923 11.4955,1.82495 15.46853,-3.58374 -5.57409,2.9226 -11.40812,2.58304 -16.39889,-0.94291 z m -26.19521,43.61624 c -10.09386,-55.36708 16.42622,-86.44515 26.7087,-40.48208 -0.88688,-24.89168 -13.68373,-30.25903 -21.42842,-22.37791 -8.84091,8.99666 -14.90197,33.38881 -5.28028,62.85999 z" />
      <path d="m 384.13593,314.92133 c 7.27369,13.63995 28.21989,6.03061 26.88597,16.9457 -4.43593,36.29787 -55.91755,60.32334 -120.57657,44.1719 z" fill="#f3f49b" />
      <path fill="#d9c574" inkscape:original-d="m 384.13593,314.92133 c 7.27369,13.63995 28.21989,6.03061 26.88597,16.9457 -4.43593,36.29787 -55.91755,60.32334 -120.57657,44.1719" inkscape:path-effect="#path-effect1455" />
      <path d="m 363.54308,345.36954 c 5.09394,12.55577 13.87426,16.91378 28.535,18.00874 l 6.06472,-5.29393 c -15.79604,1.31837 -26.46064,-3.02062 -34.59972,-12.71481 z m 24.74442,-11.05797 c 2.04689,3.51597 4.53185,4.2549 7.92795,1.91372 -3.1249,6.02346 -7.96518,4.71516 -7.92795,-1.91372 z" fill="#d9c574" stroke="#fba93f" stroke-width="0" />
    </g>
    <g>
      <path d="m 396.13519,231.32629 c 4,-15.25 5.13141,-26.2681 -0.0557,-44.26155 10.18737,11.61931 17.39898,13.22457 21.50288,9.12066 21.40496,-21.40495 -95.45279,-142.28928 -209.07739,10.2937 52.49303,4.33861 91.61212,-58.76435 187.63021,24.84719 z" style="stroke:#c52452;stroke-width:5;fill:#f5415f;stroke-miterlimit:20" />
      <path d="m 268.96703,148.39062 c 51.98617,-7.05285 102.36215,9.44587 130.02906,51.16675" fill="none" stroke="#c52452" stroke-width="2.5" />
      <path d="m 323.87968,191.24977 c 107.46283,-154.619893 112.45636,-154.368584 40.11105,22.13697 z" fill="#f3f49b" stroke="#d9c574" stroke-width="5" />
      <path d="m 384.69965,105.58658 c 8.77921,-1.66706 17.00724,-4.30576 24.47547,-7.884236 m -41.48064,31.337686 c 11.46276,-0.53181 22.27499,-2.6367 32.02806,-6.27723 m -50.63736,32.12234 c 14.66755,0.39434 28.47071,-1.80098 40.57048,-6.55413 m -58.04711,30.77021 c 17.06456,2.06965 33.29428,0.63438 47.39802,-4.3259" style="stroke:#d9c574;stroke-width:2.5;fill:none;stroke-miterlimit:20" />
      <path d="m 309.67312,174.33926 c 72.74969,-18.73498 111.15343,62.41214 88.76316,75.33917 -28.53193,16.47292 -52.12836,-46.14991 -102.44955,-54.76638 15.41989,15.36863 15.58656,22.79138 10.85538,27.52256 -6.0707,6.0707 -40.70899,-13.19855 -82.94734,-10.58755 6.83596,-25.54074 33.98287,-39.50999 85.77835,-37.5078 z" fill="#f5415f" />
      <path d="m 238.07349,172.16245 c 56.2917,-4.09389 112.72248,20.49426 137.54185,76.25943" fill="none" stroke="#c52452" stroke-width="2.5" />
      <path fill="#c52452" inkscape:original-d="m 309.67312,174.33926 c 72.74969,-18.73498 111.15343,62.41214 88.76316,75.33917 -28.53193,16.47292 -52.12836,-46.14991 -102.44955,-54.76638 15.41989,15.36863 15.58656,22.79138 10.85538,27.52256 -6.0707,6.0707 -40.70899,-13.19855 -82.94734,-10.58755" inkscape:path-effect="#path-effect1920" />
    </g>
    <g>
      <path d="m 232.87888,290.6833 c -82.13395,-37.52478 -46.82007,-114.54427 -35.12592,-117.67771 8.10212,-2.17096 29.57542,17.53439 35.41054,45.26596 z" fill="#f3f49b" />
      <path fill="#d9c574" inkscape:original-d="m 232.87888,290.6833 c -82.13395,-37.52478 -46.82007,-114.54427 -35.12592,-117.67771 8.10212,-2.17096 29.57542,17.53439 35.41054,45.26596" inkscape:path-effect="#path-effect831" />
      <path d="m 199.30842,206.45022 c 0.18411,19.12428 5.5825,35.41069 17.82067,50.03967 -15.16177,-11.68324 -21.14876,-31.06503 -17.82067,-50.03967 z" fill="#d9c574" />
    </g>
    <g>
      <path d="m 236.64354,487.34119 c -8.10497,37.6811 -12.90056,80.51132 -10.92677,121.11998 0.89869,18.48957 71.53655,14.83489 68.44018,0.25494 -5.87568,-27.66692 -25.66067,-52.54083 -17.94929,-121.10136 z" fill="#f3f49b" />
      <path fill="#d9c574" inkscape:original-d="m 236.64354,487.34119 c -8.10497,37.6811 -12.90056,80.51132 -10.92677,121.11998 0.89869,18.48957 71.53655,14.83489 68.44018,0.25494 -5.87568,-27.66692 -25.66067,-52.54083 -17.94929,-121.10136" inkscape:path-effect="#path-effect2578" />
    </g>
  </g>
  <g>
    <path d="m 229.69207,403.65812 c -64.42157,-62.62156 -18.13023,-137.77189 -68.24203,-197.68621 -41.55834,-49.68767 -96.049659,11.75806 -195.79926,-46.1404 -49.641212,-28.81365 -56.628841,17.30605 4.925321,39.39108 -42.90637,6.82698 -31.271157,31.46916 22.3306789,39.44541 -33.7721369,12.12821 -19.8086279,36.06544 25.2185511,35.91881 -29.862187,17.24739 -8.06443,37.74148 32.818848,38.76554 -34.168541,18.03368 -9.765336,47.40279 42.283898,29.89571 -20.374569,24.65087 -4.492055,40.50798 32.249623,25.47413 -17.90618,26.97201 7.25619,44.17336 38.08726,25.055 -14.11273,27.79113 4.16764,39.54064 44.10082,16.73189 z" fill="url(#linearGradient2607)" />
    <path fill="url(#linearGradient2615)" inkscape:original-d="m 229.69207,403.65812 c -64.42157,-62.62156 -18.13023,-137.77189 -68.24203,-197.68621 -41.55834,-49.68767 -96.049659,11.75806 -195.79926,-46.1404 -49.641212,-28.81365 -56.628841,17.30605 4.925321,39.39108 -42.90637,6.82698 -31.271157,31.46916 22.3306789,39.44541 -33.7721369,12.12821 -19.8086279,36.06544 25.2185511,35.91881 -29.862187,17.24739 -8.06443,37.74148 32.818848,38.76554 -34.168541,18.03368 -9.765336,47.40279 42.283898,29.89571 -20.374569,24.65087 -4.492055,40.50798 32.249623,25.47413 -17.90618,26.97201 7.25619,44.17336 38.08726,25.055 -14.11273,27.79113 4.16764,39.54064 44.10082,16.73189" inkscape:path-effect="#path-effect2595" />
    <path fill="url(#linearGradient2625)" inkscape:original-d="m 191.31225,378.25122 c -51.99278,-33.93149 3.53863,-151.40049 -77.59243,-166.85401 -47.082872,-8.96816 -65.345841,16.77156 2.40673,40.1785 -34.872871,4.44163 -34.250453,26.16215 3.12363,33.73463 -21.630796,9.04012 -13.54048,28.17591 8.75165,26.43936 -10.58912,11.75822 -0.82832,24.22591 16.96017,22.83909" inkscape:path-effect="#path-effect2617" />
  </g>
  <use transform="translate(512)" xlink:href="#g3836" />
  <g>
    <path d="m 740.69541,399.58126 c 42.52457,27.07264 21.247,97.73219 -22.83889,67.61735 -48.9455,-33.43443 -95.86646,-138.95583 14.1159,-71.52959 z" fill="url(#linearGradient8762)" />
    <path fill="url(#linearGradient8744)" inkscape:original-d="m 740.69541,399.58126 c 42.52457,27.07264 21.247,97.73219 -22.83889,67.61735 -48.9455,-33.43443 -95.86646,-138.95583 14.1159,-71.52959" inkscape:path-effect="#path-effect3850" />
    <path d="m 724.65283,390.91066 c -5.06437,1.97864 -5.21951,9.02117 2.03143,15.67705 -14.63605,-1.57646 -16.1611,8.1505 -4.34606,17.75314 -12.59122,-0.48543 -13.55766,9.32326 -2.35775,20.06191 -15.40027,-1.80355 -19.76087,2.17916 -6.96232,19.37754" fill="none" stroke="url(#linearGradient8752)" stroke-width="3" />
    <path d="m 666.41352,398.91516 49.25713,45.01194 m -50.58035,-61.88694 53.52857,38.81372 m -43.58035,-47.06372 49.89285,31.18872" fill="none" stroke="url(#linearGradient8754)" stroke-width="2" />
  </g>
</svg>
