<?xml version="1.0" encoding="UTF-8" standalone="no"?>
<!-- Created with Inkscape (http://www.inkscape.org/) -->

<svg xmlns:dc="http://purl.org/dc/elements/1.1/" xmlns:cc="http://creativecommons.org/ns#" xmlns:rdf="http://www.w3.org/1999/02/22-rdf-syntax-ns#" xmlns:svg="http://www.w3.org/2000/svg" xmlns="http://www.w3.org/2000/svg" xmlns:sodipodi="http://sodipodi.sourceforge.net/DTD/sodipodi-0.dtd" xmlns:inkscape="http://www.inkscape.org/namespaces/inkscape" id="svg2" version="1.1" inkscape:version="0.48.5 r" width="1749.2936" height="1297.9153" sodipodi:docname="Parcly Self-Poking.svg" inkscape:export-filename="/home/parclytaxel/Pictures/Parcly Self-Poking.png" inkscape:export-xdpi="443.77936" inkscape:export-ydpi="443.77936">
  <sodipodi:namedview pagecolor="#ffffff" bordercolor="#666666" borderopacity="1" objecttolerance="10" gridtolerance="10" guidetolerance="10" inkscape:pageopacity="0" inkscape:pageshadow="2" inkscape:window-width="1364" inkscape:window-height="698" id="namedview4" showgrid="true" inkscape:zoom="0.41527271" inkscape:cx="874.66497" inkscape:cy="648.97113" inkscape:window-x="0" inkscape:window-y="0" inkscape:window-maximized="1" inkscape:current-layer="layer2" showguides="true" inkscape:guide-bbox="true" inkscape:object-nodes="false" inkscape:object-paths="false" fit-margin-top="0" fit-margin-left="0" fit-margin-right="0" fit-margin-bottom="0" />
  <metadata id="metadata8">
    <rdf:RDF>
      <cc:Work rdf:about="">
        <dc:format>image/svg+xml</dc:format>
        <dc:type rdf:resource="http://purl.org/dc/dcmitype/StillImage" />
        <dc:title></dc:title>
      </cc:Work>
    </rdf:RDF>
  </metadata>
  <defs id="defs6">
    <inkscape:path-effect effect="skeletal" id="path-effect5789" is_visible="true" pattern="m 959.44993,1063.4886 c -23.5541,0 -45.5,1.5 -68,7.5 23,6.5 46.1959,7.5 68,7.5 l 246.00007,0 c 25.8041,0 47.5,-2 68,-7.5 -20.3536,-5.4142 -42.1959,-7.5 -68,-7.5 z" copytype="single_stretched" prop_scale="1" scale_y_rel="false" spacing="0" normal_offset="0" tang_offset="0" prop_units="false" vertical_pattern="false" fuse_tolerance="0" pattern-nodetypes="scsscss" />
    <inkscape:path-effect effect="skeletal" id="path-effect5751" is_visible="true" pattern="m 431.21443,460.40202 c -23.5541,0 -45.5,1.5 -68,7.5 23,6.5 46.1959,7.5 68,7.5 l 775.99997,0 0,-15 z" copytype="single_stretched" prop_scale="1" scale_y_rel="false" spacing="0" normal_offset="0" tang_offset="0" prop_units="false" vertical_pattern="false" fuse_tolerance="0" pattern-nodetypes="scsccs" />
    <inkscape:path-effect effect="skeletal" id="path-effect5719" is_visible="true" pattern="m 599.84776,626.91587 c -23.5541,0 -45.5,1.5 -68,7.5 23,6.5 46.1959,7.5 68,7.5 l 1516.00004,0 0,-15 z" copytype="single_stretched" prop_scale="1" scale_y_rel="false" spacing="0" normal_offset="0" tang_offset="0" prop_units="false" vertical_pattern="false" fuse_tolerance="0" pattern-nodetypes="scsccs" />
    <inkscape:path-effect effect="skeletal" id="path-effect5639" is_visible="true" pattern="m 1036,312 c -23.5541,0 -45.5,1.5 -68,7.5 23,6.5 46.1959,7.5 68,7.5 l 603,0 0,-15 z" copytype="single_stretched" prop_scale="1" scale_y_rel="false" spacing="0" normal_offset="0" tang_offset="0" prop_units="false" vertical_pattern="false" fuse_tolerance="0" pattern-nodetypes="scsccs" />
    <inkscape:path-effect effect="skeletal" id="path-effect5599" is_visible="true" pattern="m 406.42049,746.35656 c -23.5541,0 -45.5,1.5 -68,7.5 23,6.5 46.1959,7.5 68,7.5 l 822.00001,0 c 25.8041,0 47.5,-2 68,-7.5 -20,-4 -42.1959,-7.5 -68,-7.5 z" copytype="single_stretched" prop_scale="1" scale_y_rel="false" spacing="0" normal_offset="0" tang_offset="0" prop_units="false" vertical_pattern="false" fuse_tolerance="0" pattern-nodetypes="scsscss" />
    <inkscape:path-effect effect="skeletal" id="path-effect5544" is_visible="true" pattern="m 803.39105,907.92511 c -23.5541,0 -45.5,1.5 -68,7.5 23,6.5 46.1959,7.5 68,7.5 l 413.00005,0 c 25.8041,0 47.5,-2 68,-7.5 -20,-4 -42.1959,-7.5 -68,-7.5 z" copytype="single_stretched" prop_scale="1" scale_y_rel="false" spacing="0" normal_offset="0" tang_offset="0" prop_units="false" vertical_pattern="false" fuse_tolerance="0" pattern-nodetypes="scsscss" />
    <inkscape:path-effect effect="skeletal" id="path-effect5512" is_visible="true" pattern="m 1167,839 c -23.5541,0 -45.5,1.5 -68,7.5 23,6.5 46.1959,7.5 68,7.5 l 452,0 c 25.8041,0 47.5,-2 68,-7.5 -20,-4 -42.1959,-7.5 -68,-7.5 z" copytype="single_stretched" prop_scale="1" scale_y_rel="false" spacing="0" normal_offset="0" tang_offset="0" prop_units="false" vertical_pattern="false" fuse_tolerance="0" pattern-nodetypes="scsscss" />
    <clipPath clipPathUnits="userSpaceOnUse" id="clipPath5657">
      <path id="path5659" style="fill:none;stroke:black;stroke-width:1;stroke-linecap:butt;stroke-linejoin:miter;stroke-miterlimit:4;stroke-opacity:1;stroke-dasharray:none;stroke-dashoffset:7.8" d="m 1052,211 c 72.0022,-103.85412 542,137 425,301 C 1344.1258,698.25103 934.5497,380.4072 1052,211 z m 349.3391,144.39702 c -16.7125,-8.35936 -30.5339,-9.26849 -39.0579,-5.49077 18.5616,28.63782 33.9616,26.29017 39.0579,5.49077 z" inkscape:connector-curvature="0" sodipodi:nodetypes="sssccc" />
    </clipPath>
    <clipPath clipPathUnits="userSpaceOnUse" id="clipPath5661">
      <path style="fill:none;stroke:black" d="m 1397.8644,357.29141 c -33.222,-28.3121 -68.958,-53.7414 -106.8664,-75.48643 L 1155,490 l 138,95 z" id="path5663" inkscape:connector-curvature="0" sodipodi:nodetypes="ccccc" />
    </clipPath>
  </defs>
  <g inkscape:label="Drawing" id="layer2" inkscape:groupmode="layer" style="display:inline" transform="translate(-45.647143,-65.915648)">
    <g id="g6221">
      <path style="fill:#11a2f9;fill-opacity:1;stroke:#1c92cd;stroke-width:15;stroke-miterlimit:4;stroke-opacity:1;stroke-dasharray:none;display:inline" d="M 1421.998,370.72823 C 1519.8338,472.577 1370.0012,639.06729 1251.042,507.93172 1135.6673,380.74723 1075.7251,245.3694 1103.2472,218.37703 c 25.6631,-25.16908 157.0328,17.34385 280.1391,137.19682 z" id="path5675" inkscape:connector-curvature="0" sodipodi:nodetypes="csscc" clip-path="none" />
      <path style="fill:#11a2f9;fill-opacity:1;stroke:#1c92cd;stroke-width:15;stroke-linecap:butt;stroke-linejoin:miter;stroke-miterlimit:4;stroke-opacity:1;stroke-dasharray:none;stroke-dashoffset:7.8" d="M 845.71614,615.76107 C 687.44378,772.25703 611.96466,938.444 580.29587,1171.3574 c -7.39883,54.4159 280.32372,54.6863 275.44439,0 C 810.30691,662.15194 1115.3289,726.51495 1215.1229,471.91135 z" id="path5234" inkscape:connector-curvature="0" sodipodi:nodetypes="csscc" />
      <path sodipodi:nodetypes="csscc" inkscape:connector-curvature="0" id="path5236" d="m 1359.009,543.05396 c -63.9707,205.32439 -67.8016,416.10572 -27.7131,640.13184 9.6734,54.0579 284.9286,49.6275 261.4444,0 C 1491.9759,970.24732 1451.0741,772.0921 1445.5371,537.20424 z" style="fill:#11a2f9;fill-opacity:1;stroke:#1c92cd;stroke-width:15;stroke-linecap:butt;stroke-linejoin:miter;stroke-miterlimit:4;stroke-opacity:1;stroke-dasharray:none;stroke-dashoffset:7.8" />
      <g id="g6214">
        <path inkscape:connector-curvature="0" id="path6212" d="M 983.22214,284.02964 C 916.2182,6.6070216 456.62147,-25.731713 352.4237,363.13966 321.06805,480.16053 363.83532,631.28617 313.96039,744.25827 380.93774,678.0206 413.46606,601.04625 433.46393,497.26161 448.40277,852.79063 274.39065,1012.9403 76.970089,845.39634 98.78795,941.69936 158.90626,1013.563 263.27188,1020.3041 197.50649,1041.9496 124.0508,1032.8295 53.147143,979.37143 238.87127,1334.1527 816.10935,1262.0972 737.4166,585.83018 697.96538,246.79565 860.17468,243.21372 919.70299,310.65473 z" style="fill:#f3a4d9;fill-opacity:1;stroke:none" sodipodi:nodetypes="cscccccscc" />
        <path inkscape:connector-curvature="0" id="path6052" d="M 564.99521,490.00678 C 519.05094,137.89942 894.43197,103.41466 952.0514,297.09537 l -32.34841,13.55936 C 860.17468,243.21372 697.96538,246.79565 737.4166,585.83018 816.10935,1262.0972 238.87127,1334.1527 53.147143,979.37143 124.0508,1032.8295 197.50649,1041.9496 263.27188,1020.3041 158.90626,1013.563 98.78795,941.69936 76.970089,845.39634 184.4632,1034.0931 647.37206,1121.3259 564.99521,490.00678 z" style="fill:#961370;fill-opacity:1;stroke:none" sodipodi:nodetypes="sccscccs" />
        <path sodipodi:nodetypes="cscccccscc" style="fill:none;stroke:#d91e9b;stroke-width:15;stroke-miterlimit:20;stroke-opacity:1;stroke-dasharray:none" d="M 983.22214,284.02964 C 916.2182,6.6070216 456.62147,-25.731713 352.4237,363.13966 321.06805,480.16053 363.83532,631.28617 313.96039,744.25827 380.93774,678.0206 413.46606,601.04625 433.46393,497.26161 448.40277,852.79063 274.39065,1012.9403 76.970089,845.39634 98.78795,941.69936 158.90626,1013.563 263.27188,1020.3041 197.50649,1041.9496 124.0508,1032.8295 53.147143,979.37143 238.87127,1334.1527 816.10935,1262.0972 737.4166,585.83018 697.96538,246.79565 860.17468,243.21372 919.70299,310.65473 z" id="path5896" inkscape:connector-curvature="0" />
      </g>
      <path style="fill:#6dc6fb;fill-opacity:1;stroke:none" d="m 957.42258,282.27172 c 193.49502,-91.37264 521.80202,191.33829 702.86412,27.28427 32.9395,-29.8453 148.5683,92.2528 123.664,121.45079 -187.5979,219.94111 -498.394,298.69553 -801.8663,172.01035 -139.04055,116.27314 -326.94845,178.80545 -302.34414,640.34027 2.92275,54.8257 -282.21942,54.4971 -275.44439,0 35.66879,-286.9134 161.14792,-467.10036 297.42027,-615.59633 8.37377,-9.1249 24.74505,-13.99057 42.94281,-5.2378 56.6687,-104.8722 30.04501,-253.96776 212.76363,-340.25155 z" id="path5761" inkscape:connector-curvature="0" sodipodi:nodetypes="ssscssscs" />
      <path inkscape:original-d="m 1083.1229,479.91135 c -115.35026,236.21882 -435.017,170.03958 -403.38264,763.44605 2.92275,54.8257 -282.21942,54.4971 -275.44439,0 35.66879,-286.9134 161.14792,-467.10036 297.42027,-615.59633 8.37377,-9.1249 24.74505,-13.99057 43.22575,-5.68822" inkscape:path-effect="#path-effect5751" sodipodi:nodetypes="csssc" inkscape:connector-curvature="0" id="path4862" d="m 988.85927,607.22316 c 17.30993,-14.58981 33.30373,-29.93457 47.38403,-46.65318 10.1938,-12.11174 19.3018,-24.93111 27.1749,-38.3982 7.8732,-13.46709 14.5126,-27.58437 19.7047,-42.26043 -8.471,13.0647 -17.4536,25.60464 -26.9178,37.59832 -9.4642,11.99367 -19.4099,23.43949 -29.7624,34.25864 -15.1092,15.80209 -31.08547,30.35297 -47.25505,43.97894 -5.54591,4.6735 -11.17785,9.26251 -16.86924,13.78613 -22.90542,18.19297 -46.81317,35.38835 -70.39764,53.30767 -24.43861,18.55754 -48.49914,37.94354 -70.8146,59.44928 -24.06563,23.19897 -45.89021,48.86104 -64.3181,76.90021 -2e-5,3e-5 -4e-5,5e-5 -5e-5,8e-5 -21.48935,32.73335 -38.22326,68.3925 -50.6921,105.35435 -15.8061,46.87232 -25.07091,95.62453 -30.29384,144.52543 0,0 0,10e-5 -1e-5,10e-5 -6.92319,64.7338 -7.01309,129.9307 -3.55118,194.6862 0.16544,1.5962 -0.47395,3.5071 -1.50536,5.1783 -1.32199,2.2255 -3.72978,4.2096 -6.51309,6.2077 -10e-6,10e-5 -2e-5,10e-5 -3e-5,10e-5 -3.59375,2.4872 -7.76927,4.4714 -12.21297,6.2882 -3e-5,10e-5 -5e-5,10e-5 -8e-5,10e-5 -5.40668,2.1885 -11.09148,3.9353 -16.92725,5.4617 -14.19482,3.7085 -28.89657,5.9182 -43.77724,7.467 -16.81929,1.74 -33.76617,2.5019 -50.73701,2.4937 -16.91286,-0.012 -33.79873,-0.7869 -50.55207,-2.5501 -14.70358,-1.5576 -29.22223,-3.7635 -43.21283,-7.4936 -3e-5,0 -5e-5,0 -8e-5,0 -5.6993,-1.5216 -11.24073,-3.2593 -16.48866,-5.4447 -4.27777,-1.8027 -8.2745,-3.7559 -11.65005,-6.2091 -2e-5,0 -4e-5,0 -7e-5,0 -2.58218,-1.9594 -4.79053,-3.8703 -5.86796,-5.9549 -0.47012,-0.8411 -0.8218,-1.6786 -0.97294,-2.458 -10e-6,-10e-5 -10e-6,-10e-5 -10e-6,-10e-5 -0.17069,-0.7631 -0.19566,-1.614 -0.0946,-2.4603 8.22458,-66.1248 21.92257,-131.5805 42.06205,-195.002 10e-6,-10e-5 2e-5,-10e-5 3e-5,-10e-5 17.7603,-55.94202 40.5611,-110.28507 68.1019,-162.10833 10e-6,-3e-5 2e-5,-5e-5 4e-5,-8e-5 25.30612,-47.62604 54.6158,-93.132 86.8819,-136.44372 2e-5,-2e-5 4e-5,-5e-5 5e-5,-7e-5 30.56166,-41.02539 63.78228,-80.10621 98.45745,-117.89634 3.24363,-3.67708 8.31229,-6.05925 13.60472,-7.06522 6.7332,-1.29907 14.19995,0.16599 21.02173,3.14735 l 6.14688,-13.68268 c -9.0243,-4.13741 -19.41188,-5.96497 -29.78422,-4.23486 -8.16393,1.37697 -16.04463,5.30187 -22.04083,11.69343 -34.93727,38.06654 -68.4835,77.54075 -99.43428,119.07652 -32.6787,43.85633 -62.39416,90.00322 -88.09922,138.36653 -27.96898,52.63127 -51.12012,107.80774 -69.15292,164.60857 -10e-6,0 -2e-5,0 -3e-5,10e-5 -20.4375,64.3898 -34.33169,130.7417 -42.65067,197.6903 -0.30836,2.447 -0.21155,4.958 0.31013,7.4404 10e-6,10e-5 2e-5,10e-5 3e-5,2e-4 0.54333,2.4758 1.45078,4.7631 2.64026,6.8073 2.78646,4.6331 6.41698,8.1155 10.13447,10.6695 2e-5,0 5e-5,0 8e-5,0 4.72198,3.3484 9.71454,5.8554 14.63752,7.8703 6.06918,2.5102 12.24278,4.462 18.38518,6.0869 3e-5,0 6e-5,0 9e-5,0 15.04337,3.9846 30.32319,6.3308 45.49636,7.9145 17.3388,1.8214 34.74458,2.6239 52.11178,2.6322 17.42742,0.012 34.89129,-0.7765 52.28799,-2.5731 15.35097,-1.5758 30.79884,-3.9203 46.01558,-7.8718 6.26965,-1.6264 12.56503,-3.575 18.75901,-6.0669 3e-5,0 6e-5,0 9e-5,0 5.06809,-2.0208 10.19526,-4.5146 15.06792,-7.8172 2e-5,0 5e-5,0 8e-5,0 3.84873,-2.5373 7.63981,-5.9445 10.66296,-10.4772 2.63592,-4.0327 4.06249,-8.9138 3.86694,-14.0891 -3.41325,-64.2108 -3.34469,-128.609 3.48713,-192.29 0,-1e-4 0,-1e-4 10e-6,-1e-4 5.16617,-48.0904 14.19676,-95.77587 29.59115,-141.32522 12.12166,-35.87978 28.29727,-70.39307 49.01719,-101.91679 10e-6,-2e-5 3e-5,-5e-5 4e-5,-7e-5 17.73271,-27.00972 38.84904,-51.8178 62.19337,-74.33823 2e-5,-2e-5 4e-5,-4e-5 7e-5,-6e-5 21.65808,-20.89979 45.27262,-39.90362 69.47661,-58.30277 23.37709,-17.76019 47.36935,-35.02122 70.65117,-53.50459 5.79292,-4.59583 11.53941,-9.27517 17.2129,-14.05711 z" style="fill:#1c92cd;fill-opacity:1;stroke:none" />
      <path inkscape:original-d="m 721.07735,657.28095 c 89.09545,-104.6518 32.69848,-278.84271 236.34523,-375.00923 193.49502,-91.37263 521.80202,191.33829 702.86412,27.28427 32.9395,-29.8453 148.5683,92.2528 123.664,121.45079 -187.5979,219.94111 -498.394,298.69553 -801.82963,171.8772" inkscape:path-effect="#path-effect5719" sodipodi:nodetypes="csssc" inkscape:connector-curvature="0" id="path4864" d="m 758.6577,569.32934 c -4.92134,14.97136 -10.01649,29.19872 -15.72444,43.00949 -3.15013,7.62372 -6.49534,15.13999 -10.10369,22.60715 -3.60835,7.46717 -7.47836,14.88552 -11.75222,22.33497 6.7274,-5.33369 12.87003,-11.47961 18.37479,-18.14541 5.50476,-6.6658 10.37283,-13.85109 14.62615,-21.29928 8.09209,-14.16928 14.02399,-29.1597 18.83413,-43.82664 0.40023,-1.22035 0.7954,-2.44143 1.18587,-3.66303 5.36463,-16.76297 9.90376,-33.64524 14.45462,-50.38569 4.68248,-17.2071 9.38215,-34.30107 14.86749,-51.03129 5.6318,-17.16782 12.0826,-33.99023 19.95447,-50.03496 0,-2e-5 10e-6,-3e-5 2e-5,-5e-5 8.25885,-16.8401 18.10081,-32.87505 29.63159,-47.54028 12.79061,-16.28623 27.69831,-30.93871 44.0661,-43.74291 10e-6,-10e-6 3e-5,-2e-5 4e-5,-3e-5 19.46875,-15.23977 41.01399,-27.90256 63.55251,-38.5578 11.53333,-5.45176 23.74245,-9.55451 36.25963,-12.41933 12.81104,-2.93371 25.97214,-4.56334 39.22594,-5.20392 28.5536,-1.39533 57.3974,1.82045 85.9577,7.00513 31.2615,5.69349 62.1605,13.87446 92.9514,22.77615 32.1291,9.29446 64.1095,19.45167 96.338,29.14023 31.7482,9.54841 63.7682,18.69463 96.3726,25.8966 30.5249,6.7537 61.7015,11.81362 93.3047,12.9011 14.8138,0.50552 29.7254,0.0909 44.5692,-1.56872 14.38,-1.60745 28.6853,-4.41926 42.6234,-8.67047 13.9126,-4.24653 27.4035,-9.9476 40.126,-17.0902 0,-2e-5 1e-4,-4e-5 1e-4,-6e-5 13.305,-7.4767 25.6982,-16.49102 36.9687,-26.70618 1.0864,-1.01041 2.536,-1.77536 4.0669,-2.20804 1.7136,-0.52381 3.7987,-0.58024 6.0464,-0.42537 2.6472,0.20656 5.4202,0.89754 8.2773,1.82057 0,1e-5 10e-5,2e-5 10e-5,3e-5 3.3108,1.085 6.5987,2.54425 9.8822,4.21342 10e-5,2e-5 10e-5,3e-5 10e-5,5e-5 7.7603,3.94613 15.109,9.00857 22.2427,14.56418 0,2e-5 0,4e-5 10e-5,6e-5 7.9587,6.21683 15.4815,13.05441 22.622,20.31769 7.1521,7.282 13.8755,14.95297 20.0264,23.02767 5.5122,7.25335 10.5612,14.7155 14.6274,22.5538 0,3e-5 0,6e-5 0,9e-5 3.1524,6.22965 5.8631,12.28922 6.5953,18.23348 0.2587,2.19799 0.3554,4.1807 -0.027,5.77855 -0.304,1.29008 -0.7723,2.45675 -1.4376,3.14957 -45.6026,53.46322 -99.7655,99.65473 -159.9244,135.92148 -59.7536,36.02898 -125.4055,62.26431 -193.4932,77.60237 -145.8297,32.91872 -301.5574,14.04217 -439.8137,-43.69947 l -5.78426,13.83988 c 140.85576,58.91087 299.61026,78.0519 448.89426,44.49291 69.6487,-15.68863 136.7835,-42.51977 197.9418,-79.38982 61.568,-37.12354 116.9535,-84.35227 163.5919,-139.03311 2.4812,-2.9961 4.0425,-6.39873 4.7168,-9.85747 0.7422,-3.86287 0.7009,-7.54136 0.1935,-10.86587 -1.2869,-8.61162 -4.5151,-16.29276 -8.1477,-23.09822 0,-4e-5 0,-7e-5 0,-1e-4 -4.6134,-8.83652 -10.1205,-17.02056 -16.0019,-24.71945 -6.5683,-8.61705 -13.7021,-16.76179 -21.2576,-24.44899 -7.5349,-7.67303 -15.5453,-14.94589 -24.0848,-21.62355 0,-10e-6 0,-2e-5 0,-4e-5 -7.6048,-5.96354 -15.7577,-11.53903 -24.6553,-16.10333 -3.7834,-1.9413 -7.7784,-3.69582 -12.0032,-5.09927 0,-1e-5 0,-1e-5 -10e-5,-2e-5 -3.6265,-1.21802 -7.5385,-2.14275 -11.6943,-2.52181 -3.5802,-0.34683 -7.4354,-0.12553 -11.357,0.91996 -3.7065,1.02587 -7.1719,2.90226 -10.1144,5.54233 -10.4767,9.48919 -21.9611,17.84935 -34.2427,24.74372 0,2e-5 -10e-5,3e-5 -10e-5,5e-5 -11.7389,6.59644 -24.2416,11.87496 -37.1614,15.82253 0,1e-5 -10e-5,2e-5 -10e-5,3e-5 -12.9512,3.96026 -26.3531,6.58517 -39.9133,8.10979 -14.0056,1.57434 -28.1911,1.96066 -42.3907,1.48394 -30.3269,-1.00913 -60.5949,-5.95439 -90.579,-12.5571 -32.0096,-7.06055 -63.6678,-16.11261 -95.2874,-25.61412 -32.0801,-9.64418 -64.1104,-19.81611 -96.4876,-29.18437 -10e-5,-1e-5 -10e-5,-2e-5 -10e-5,-3e-5 -31.0088,-8.97796 -62.4003,-17.27477 -94.429,-23.12366 -29.2469,-5.35774 -59.2272,-8.64893 -89.3669,-7.23132 -14.013,0.66622 -28.0486,2.41578 -41.84963,5.56371 -13.49665,3.0801 -26.72687,7.53594 -39.32294,13.47862 -23.37134,11.02441 -45.86156,24.26972 -66.38745,40.30536 -3e-5,2e-5 -6e-5,4e-5 -9e-5,7e-5 -17.26951,13.49983 -33.02869,29.0018 -46.62054,46.29139 -12.23577,15.58143 -22.63597,32.50509 -31.3063,50.20642 -1e-5,4e-5 -3e-5,7e-5 -4e-5,1e-4 -8.25156,16.85271 -14.96406,34.31878 -20.73955,51.9659 -5.62884,17.19011 -10.40179,34.52867 -15.08734,51.76507 -4.56311,16.76886 -9.03929,33.43845 -14.26579,49.74763 -0.38111,1.18777 -0.76608,2.37369 -1.15523,3.55754 z" style="fill:#1c92cd;fill-opacity:1;stroke:none" />
      <g transform="translate(-6,13)" id="g5669">
        <path clip-path="none" sodipodi:nodetypes="csscc" inkscape:connector-curvature="0" id="path5665" d="m 1411,356 c 108,91 -23.5009,272.31825 -155.5858,154.41421 C 1127.309,396.06257 1053.4678,267.73596 1078,238 c 22.8751,-27.72733 157.986,0.74046 293.0091,106.98846 z" style="fill:#6dc6fb;fill-opacity:1;stroke:none" />
        <path style="fill:#1c92cd;fill-opacity:1;stroke:none" d="m 1457.583,451.38976 c 0.6458,-5.51596 0.8629,-11.03471 0.6435,-16.50224 -0.6403,-15.65267 -4.9469,-30.72301 -12.3539,-43.76576 C 1437.4081,376.27642 1425.1375,364.32062 1411,356 c 10.4525,12.59907 18.9701,26.04358 24.5027,40.1245 5.0424,12.76128 7.6995,26.11537 7.9086,39.18462 0.082,4.82143 -0.1676,9.6133 -0.7228,14.33299 -0.9496,8.07234 -2.8746,16.05606 -5.6724,23.71722 -4.4379,12.13537 -11.0787,23.49223 -19.4773,33.31255 -8.3893,9.79897 -18.5464,18.09413 -29.8745,24.05884 0,10e-6 0,10e-6 0,10e-6 -11.5807,6.10921 -24.4726,9.79578 -37.5005,10.60874 0,0 0,0 0,0 -14.4727,0.9428 -29.2462,-1.71676 -43.0254,-6.97884 -17.0949,-6.51059 -32.7189,-17.08661 -46.7298,-29.54156 0,-1e-5 0,-1e-5 0,-2e-5 -30.0049,-26.78529 -58.3334,-55.43894 -84.5211,-85.9179 -21.8812,-25.47659 -42.336,-52.11806 -60.0651,-80.40895 -7.0823,-11.30257 -13.7051,-22.82513 -19.511,-34.68243 -4.648,-9.51345 -8.8013,-19.12771 -11.7793,-28.96327 0,-10e-6 0,-3e-5 0,-4e-5 -2.1579,-7.30375 -3.857,-14.42843 -3.7071,-21.20439 0.058,-2.4979 0.2813,-4.8134 0.9047,-6.79598 0.5245,-1.63432 1.181,-3.08278 2.0556,-4.07321 0,-10e-6 0,-2e-5 0,-2e-5 0.8123,-1.0656 2.1641,-2.01486 3.7511,-2.92791 1.9698,-1.10234 4.333,-1.88702 6.9063,-2.55108 6.9892,-1.79396 14.6889,-1.93192 22.6393,-1.61914 10.6894,0.47725 21.4384,2.17818 32.1773,4.45952 10e-5,0 10e-5,1e-5 10e-5,1e-5 13.36,2.84851 26.5647,6.67925 39.6135,11.1264 0,1e-5 0,1e-5 0,2e-5 32.8347,11.19049 64.4006,26.21025 94.6623,43.55606 37.0603,21.25303 72.041,46.1508 104.6004,73.89185 l 9.7288,-11.41718 c -33.222,-28.3121 -68.958,-53.7414 -106.8664,-75.48643 -30.9219,-17.74585 -63.3612,-33.16062 -97.2824,-44.74109 0,-10e-6 -10e-5,-10e-6 -10e-5,-2e-5 -13.4885,-4.60494 -27.2635,-8.59321 -41.3243,-11.59902 -11.2685,-2.41727 -22.833,-4.22318 -34.6236,-4.77444 -8.6589,-0.44714 -17.7919,-0.16707 -26.9394,2.04547 -3.44,0.82893 -6.9879,2.07423 -10.4604,3.9329 -2.8974,1.52665 -5.7165,3.68604 -8.1531,6.55829 0,2e-5 0,4e-5 0,5e-5 -2.347,2.91456 -3.9381,6.11645 -4.8598,9.33353 -1.0834,3.74242 -1.5151,7.42673 -1.5288,10.90241 -0.04,9.16269 1.8747,17.80198 4.3551,25.74824 3.3272,10.89482 7.7742,21.25416 12.6603,31.1985 0,2e-5 0,3e-5 0,5e-5 6.102,12.44529 12.9785,24.42385 20.2722,36.0504 18.2446,29.08531 39.1433,56.32934 61.3968,82.21663 26.6452,31.00774 55.4363,60.13289 85.9092,87.33244 0,10e-6 10e-5,2e-5 10e-5,3e-5 14.987,13.42967 32.1497,24.94384 51.3458,32.35603 15.5663,5.99603 32.4451,8.97745 49.3411,7.94442 0,0 10e-5,0 10e-5,0 15.2062,-0.96546 30.1171,-5.21995 43.5573,-12.31248 0,0 0,-10e-6 10e-5,-2e-5 13.0943,-6.92125 24.7182,-16.38911 34.2749,-27.57694 9.5684,-11.19123 17.1048,-24.07991 22.1641,-37.90802 3.2009,-8.73749 5.395,-17.85632 6.4798,-27.12258 z" id="path5242" inkscape:connector-curvature="0" sodipodi:nodetypes="cssc" inkscape:path-effect="#path-effect5639" inkscape:original-d="m 1411,356 c 108,91 -23.5009,272.31825 -155.5858,154.41421 C 1127.309,396.06257 1053.4678,267.73596 1078,238 c 24.118,-29.23391 173,4 315,125" clip-path="url(#clipPath5657)" />
        <path style="fill:none;stroke:#1c92cd;stroke-width:12;stroke-linecap:butt;stroke-linejoin:miter;stroke-miterlimit:20;stroke-opacity:1;stroke-dasharray:none;stroke-dashoffset:7.8" d="m 1277.5,528 c -47.158,-50.1564 -19.802,-89.64213 32.0551,-68.7782 -46.1832,-46.88049 -14.769,-87.90131 40.1403,-57.86613 -23.69,-58.07607 23.4668,-82.9045 82.025,-32.42353" id="path5244" inkscape:connector-curvature="0" sodipodi:nodetypes="cccc" clip-path="url(#clipPath5661)" />
        <path id="path5494" style="fill:none;stroke:#1c92cd;stroke-width:8;stroke-linecap:butt;stroke-linejoin:miter;stroke-miterlimit:20;stroke-opacity:1;stroke-dasharray:none;stroke-dashoffset:7.8" d="M 1344.881,383.94008 1116.8134,227.9148 M 1287.3198,416.34567 1077.3696,239.44811 M 1256.75,466.25 1080.1856,285.38397" inkscape:connector-curvature="0" sodipodi:nodetypes="cccccc" />
      </g>
      <g id="g5611">
        <path style="fill:#6dc6fb;fill-opacity:1;stroke:none" d="m 1410.009,580.05396 c -39.9291,219.46653 -34.2869,429.62044 14.2869,662.13184 11.2302,53.7561 284.544,49.8077 261.4444,0 -109.2497,-235.5659 -163.8672,-450.06426 -189.2032,-667.98156 z" id="path5609" inkscape:connector-curvature="0" sodipodi:nodetypes="csscc" />
        <path sodipodi:nodetypes="cssc" inkscape:connector-curvature="0" id="path5230" d="m 1400.5533,697.09689 c 2.1988,-20.13265 4.3191,-39.57507 6.0015,-58.88813 1.6824,-19.31307 2.9269,-38.49664 3.4542,-58.1548 -6.7537,18.96433 -11.8353,38.43158 -15.7251,57.84213 -3.8897,19.41054 -6.5881,38.76353 -8.6421,57.57232 -7.6452,70.00884 -10.7835,140.50974 -9.176,210.93095 2.5996,113.45424 17.3064,226.38404 40.4886,337.32014 1.1787,5.1413 3.666,9.5041 6.8002,12.8814 0,0 0,1e-4 0,1e-4 3.7118,4.0575 7.9437,7.1398 12.1797,9.5468 0,0 0,0 1e-4,0 11.3496,6.5119 23.5861,10.2436 35.4559,13.0154 0,0 0,0 10e-5,0 15.2112,3.6245 30.6168,5.8133 45.9525,7.2459 16.8375,1.5809 33.7362,2.2386 50.6042,2.1129 16.334,-0.1182 32.714,-0.9656 49.0318,-2.8223 13.7491,-1.5504 27.6551,-3.7954 41.3225,-7.7382 5.3389,-1.5353 10.7447,-3.407 16.0447,-5.8874 4.1132,-1.8813 8.3625,-4.356 12.278,-7.8155 10e-5,-10e-5 10e-5,-10e-5 10e-5,-10e-5 1.5905,-1.4123 3.1215,-3.1052 4.4862,-5.1056 0,0 0,0 10e-5,-10e-5 1.2289,-1.798 2.2192,-3.8888 2.8693,-6.2314 0,0 0,-10e-5 0,-10e-5 0.6106,-2.3082 0.7862,-4.6787 0.5305,-7.014 -0.305,-2.5403 -1.0001,-4.8503 -1.9661,-6.877 -50.8333,-109.6145 -93.4899,-223.06 -125.644,-339.45085 -19.1276,-69.22349 -34.5051,-139.47148 -46.446,-210.32093 -3.6921,-21.90613 -7.2628,-42.04039 -11.1253,-61.00949 -3.8625,-18.96911 -8.0152,-36.77337 -12.7918,-54.04479 0.01,17.39098 0.4409,35.73629 1.7908,55.26145 1.3499,19.52516 3.6168,40.23187 7.3342,62.28602 12.0229,71.3282 27.5116,142.07668 46.7798,211.82243 32.4011,117.25896 75.3411,231.47646 126.4945,341.76716 0.3641,0.8414 0.6246,1.5899 0.6624,2.1925 0.055,0.5149 0.02,1.052 -0.1101,1.5136 0,0 0,0 0,10e-5 -0.1109,0.504 -0.4234,1.101 -0.8358,1.7501 -0.481,0.7515 -1.2096,1.5178 -2.0789,2.3257 0,0 0,0 0,0 -2.2204,2.0784 -5.2485,3.7406 -8.6142,5.3782 -4.3063,2.0397 -8.9749,3.6332 -13.8332,5.0527 -12.4732,3.6321 -25.5536,5.7117 -38.8456,7.2419 -15.7018,1.7911 -31.5528,2.6066 -47.4446,2.7263 -16.4054,0.12 -32.7995,-0.516 -49.0905,-2.0475 -14.8658,-1.4049 -29.5775,-3.4787 -43.8708,-6.9013 -11.2846,-2.7587 -22.1712,-5.9507 -31.4063,-11.3962 0,-10e-5 0,-10e-5 -1e-4,-10e-5 -3.3672,-2.0097 -6.3892,-4.108 -8.5502,-6.5947 0,0 -10e-5,0 -10e-5,-10e-5 -1.6734,-1.9799 -2.9877,-4.0257 -3.281,-5.9304 -23.0128,-110.1886 -37.6153,-222.2101 -40.1755,-334.59535 -1.5949,-69.74715 1.5152,-139.59101 9.0914,-208.95986 z" style="fill:#1c92cd;fill-opacity:1;stroke:none" inkscape:path-effect="#path-effect5599" inkscape:original-d="m 1410.009,580.05396 c -39.9291,219.46653 -34.2869,429.62044 14.2869,662.13184 11.2302,53.7561 284.544,49.8077 261.4444,0 -109.2497,-235.5659 -163.8672,-450.06426 -189.2032,-667.98156" />
      </g>
      <path sodipodi:nodetypes="ccc" inkscape:connector-curvature="0" id="path5803" d="m 1668.3205,326.07521 c 18.1881,37.21983 58.6512,75.10776 96.0338,92.98343 -41.3128,-10.11818 -84.593,-50.14235 -96.0338,-92.98343 z" style="fill:#1c92cd;fill-opacity:1;fill-rule:nonzero;stroke:none" />
      <g style="display:inline" transform="matrix(0.23041086,0.1953146,-0.22882561,0.2627119,959.71662,201.0916)" id="g3018-8-2">
        <path inkscape:connector-curvature="0" d="m 428.86157,620.36218 c 55.42564,96.00002 166.27687,192.00001 332.55375,160.00001 l 83.13843,-112 c -221.7025,96 -332.55373,0 -387.97938,-64.00001 z m 193.98968,-48 c 55.42563,-96.00002 83.13844,-240 -27.71281,-368 l -138.56406,-16 c 193.98969,144 166.27687,287.99999 138.56406,368.00001 z m -138.56406,-144 c -110.85127,0 -249.41532,48 -304.84095,208 l 55.42563,128 c 27.71281,-240 166.27687,-288 249.41533,-304.00001 z" style="fill:#5a318e;fill-opacity:1;stroke:none" id="path3014-6-3" />
        <path inkscape:connector-curvature="0" d="m 401.14875,508.3622 c -55.42563,96.00001 -83.13844,239.99998 27.71281,367.99999 l 138.56406,15.99999 c -193.98969,-144 -166.27687,-287.99997 -138.56406,-368 z m 138.56406,143.99998 c 110.85127,0 249.41532,-47.99999 304.84095,-207.99999 l -55.42563,-128 c -27.71281,240 -166.27687,287.99999 -249.41533,304 z m 55.42563,-192 c -55.42564,-96.00002 -166.27688,-192 -332.55376,-160 l -83.13843,112 c 221.7025,-96 332.55374,-1e-5 387.97939,64 z" style="fill:#54a2e1;fill-opacity:1;stroke:none" id="path3016-3-4" />
        <path d="m 623.99998,650.56408 -176,27.71279 L 336,539.71279 l 64.00002,-166.27687 176,-27.71279 L 688,484.28721 z" inkscape:randomized="0" inkscape:rounded="0" inkscape:flatsided="true" sodipodi:arg2="1.4146197" sodipodi:arg1="0.8910208" sodipodi:r2="55.425625" sodipodi:r1="178.16846" sodipodi:cy="512" sodipodi:cx="512" sodipodi:sides="6" id="path4120-8-8" style="fill:none;stroke:#576ab7;stroke-width:15.99933243;stroke-linejoin:round;stroke-miterlimit:4;stroke-opacity:1;stroke-dasharray:none" sodipodi:type="star" transform="matrix(0.86602541,0.5,-0.5,0.86602541,324.59501,-159.04283)" />
      </g>
      <g id="g5876">
        <path style="fill:#6dc6fb;fill-opacity:1;stroke:#1c92cd;stroke-width:14.70041466;stroke-linecap:butt;stroke-linejoin:miter;stroke-miterlimit:4;stroke-opacity:1;stroke-dasharray:none;stroke-dashoffset:7.8" d="m 1345.5988,962.37512 c 0,101.73788 -95.0804,184.21278 -212.3681,184.21278 -117.2877,0 -212.36812,-82.4749 -212.36812,-184.21278 0,-101.73792 95.08042,-184.2128 212.36812,-184.2128 117.2877,0 212.3681,82.47488 212.3681,184.2128 z" id="path4067" inkscape:connector-curvature="0" sodipodi:cx="1133.2307" sodipodi:cy="962.37512" sodipodi:rx="212.36813" sodipodi:ry="184.2128" sodipodi:type="arc" transform="matrix(-0.00764622,-1.0203508,1.0203508,-0.00764622,156.93548,2113.4994)" />
        <path style="fill:#6dc6fb;fill-opacity:1;stroke:none" d="m 1035.0992,1034.7721 c 5.1564,55.7762 6.1976,104.5073 2.8446,157.9207 -2.7633,44.0188 176.6462,42.6493 175.2868,0.3054 -1.6498,-51.3915 -1.0262,-98.79 4.9491,-155.411 z" id="path5797" inkscape:connector-curvature="0" sodipodi:nodetypes="csscc" />
        <path sodipodi:nodetypes="cssc" inkscape:connector-curvature="0" id="path5763" d="m 1047.2466,1126.1566 c -0.1155,-15.9775 -0.9754,-31.4053 -2.8875,-46.5542 -1.912,-15.1489 -4.8778,-30.0191 -9.2599,-44.8303 -1.8104,15.7218 -2.5677,31.2902 -2.8539,46.5901 -0.2862,15.2999 -0.1024,30.3326 0,44.9032 0.1604,22.0071 -0.4106,44.0077 -1.7906,65.9575 -0.2355,3.9737 0.5468,7.9062 2.2642,11.4633 1.8571,3.6928 4.3388,6.692 7.0534,9.0187 0,0 0,0 0,0 3.1848,2.7743 6.6004,4.9367 10.004,6.66 4.0274,2.0614 8.1433,3.6878 12.2332,5.0248 9.7682,3.1964 19.736,5.1045 29.5845,6.3482 0,0 0,0 0,0 11.1404,1.4229 22.3368,2.0298 33.4854,1.9936 11.1753,-0.031 22.3878,-0.7087 33.537,-2.1799 9.9053,-1.2943 19.9133,-3.2388 29.7268,-6.415 0,0 0,0 0,0 4.1207,-1.3326 8.2653,-2.9401 12.3282,-4.9618 3.4287,-1.6889 6.8784,-3.7912 10.1223,-6.4823 2.7324,-2.2248 5.2898,-5.1095 7.2776,-8.7099 1.8157,-3.3906 2.7502,-7.2384 2.6516,-11.225 -0.6798,-21.2229 -0.8839,-42.4559 -0.5121,-63.6628 0.3028,-17.2632 0.4569,-33.1406 0.1941,-48.1974 -0.2628,-15.0568 -0.943,-29.293 -2.229,-43.3102 -4.1306,13.3465 -7.2034,27.421 -9.3344,42.5239 -2.1311,15.103 -3.3201,31.2356 -3.6282,48.7201 -0.3786,21.4787 -0.1727,42.96 0.5174,64.4076 0.067,1.1816 -0.2827,2.5182 -0.8982,3.6915 -0.6912,1.4287 -2.0503,2.8344 -3.6824,4.2729 0,0 0,10e-5 0,10e-5 -2.0087,1.7176 -4.4792,3.1771 -7.1846,4.554 0,0 0,0 0,0 -3.2029,1.6096 -6.6589,2.9349 -10.2624,4.115 0,0 0,0 -10e-5,0 -8.6217,2.8208 -17.7381,4.563 -27.0519,5.8086 -10.4414,1.382 -21.0138,2.0165 -31.6167,2.0506 -10.5785,0.029 -21.1253,-0.5375 -31.5365,-1.8723 0,0 -10e-5,0 -10e-5,0 -9.2442,-1.1993 -18.2837,-2.8973 -26.7994,-5.7178 -3.5471,-1.1762 -6.939,-2.4994 -10.0612,-4.1155 -2.6373,-1.3837 -5.0319,-2.849 -6.941,-4.569 0,0 0,0 0,0 -1.56,-1.4447 -2.8501,-2.875 -3.4788,-4.3121 -0.5975,-1.2195 -0.8891,-2.6582 -0.7921,-3.9821 1.3989,-22.3168 1.9789,-44.667 1.8175,-67.0061 z" style="fill:#1c92cd;fill-opacity:1;stroke:none" inkscape:path-effect="#path-effect5789" inkscape:original-d="m 1035.0992,1034.7721 c 5.1564,55.7762 6.1976,104.5073 2.8446,157.9207 -2.7633,44.0188 176.6462,42.6493 175.2868,0.3054 -1.6498,-51.3915 -1.0262,-98.79 4.9491,-155.411" />
        <g id="g5866">
          <g id="g5571">
            <path style="fill:#6dc6fb;fill-opacity:1;stroke:#1c92cd;stroke-width:15;stroke-linecap:butt;stroke-linejoin:miter;stroke-miterlimit:4;stroke-opacity:1;stroke-dasharray:none;stroke-dashoffset:7.8" d="m 1086.9266,789.48759 c 56.7184,-359.71082 51.1713,-354.84328 94.0049,-0.1263 z" id="path5228" inkscape:connector-curvature="0" sodipodi:nodetypes="ccc" />
            <path id="path5568" style="fill:none;stroke:#1c92cd;stroke-width:8;stroke-linecap:butt;stroke-linejoin:miter;stroke-miterlimit:20;stroke-opacity:1;stroke-dasharray:none;stroke-dashoffset:7.8" d="m 1155.0527,584.03014 c -12.643,12.0357 -26.4505,22.97031 -41.2015,32.74525 m 49.1428,31.50376 c -18.2926,15.07289 -38.5789,27.98358 -60.2983,38.62042 m 69.7898,25.29316 c -24.356,17.06982 -51.5774,30.49181 -80.542,40.13586" inkscape:connector-curvature="0" sodipodi:nodetypes="cccccc" />
          </g>
          <path style="fill:#f3a4d9;fill-opacity:1;stroke:none" d="m 995.21291,776.6693 c 41.11629,-30.48755 77.91479,-3.4168 95.60809,34.68116 38.6403,83.20204 -2.4663,262.98274 -126.18521,367.90524 44.54771,2.8285 80.43851,-3.5356 111.55131,-20.5061 -84.85283,101.8234 -38.3468,181.4752 96.7107,193.496 -31.8198,-33.9412 -40.1128,-64.468 -40.8198,-99.1163 48.7903,71.4178 143.0818,105.229 234.2985,103.1077 -212.132,-63.6396 -207.5498,-487.824 -173.6087,-557.12047 11.3778,-23.22971 42.6362,-27.73669 69.9133,-9.35217 l 32.556,-63.49024 C 1209.018,620.25293 1064.8842,624.86577 973.00837,719.87893 z" id="path5856" inkscape:connector-curvature="0" sodipodi:nodetypes="cscccccscccc" />
          <path style="fill:#961370;fill-opacity:1;stroke:none" d="m 1076.1871,1158.7496 c -31.1128,16.9705 -67.0036,23.3346 -111.55131,20.5061 C 1088.3547,1074.3332 1129.4613,894.5525 1090.821,811.35046 1073.1277,773.2525 1036.3292,746.18175 995.21291,776.6693 l -22.20454,-56.79037 c 35.75933,-36.98046 79.43513,-60.26639 124.53153,-68.6648 68.4225,99.79334 35.8316,210.10332 38.8301,448.27487 1.2807,101.7259 -113.0334,179.0432 36.5278,252.7566 -135.0876,-11.6774 -181.56353,-91.6726 -96.7107,-193.496 z" id="path5854" inkscape:connector-curvature="0" sodipodi:nodetypes="ccscccscc" />
          <path sodipodi:nodetypes="cscccccscccc" inkscape:connector-curvature="0" id="path5849" d="m 995.21291,776.6693 c 41.11629,-30.48755 77.91479,-3.4168 95.60809,34.68116 38.6403,83.20204 -2.4663,262.98274 -126.18521,367.90524 44.54771,2.8285 80.43851,-3.5356 111.55131,-20.5061 -84.85283,101.8234 -38.3468,181.4752 96.7107,193.496 -31.8198,-33.9412 -40.1128,-64.468 -40.8198,-99.1163 48.7903,71.4178 143.0818,105.229 234.2985,103.1077 -212.132,-63.6396 -207.5498,-487.824 -173.6087,-557.12047 11.3778,-23.22971 42.6362,-27.73669 69.9133,-9.35217 l 32.556,-63.49024 C 1209.018,620.25293 1064.8842,624.86577 973.00837,719.87893 z" style="fill:none;stroke:#d91e9b;stroke-width:15;stroke-linecap:butt;stroke-linejoin:miter;stroke-miterlimit:20;stroke-opacity:1;stroke-dasharray:none;stroke-dashoffset:7.8" />
        </g>
        <g id="g5560">
          <path style="fill:#6dc6fb;fill-opacity:1;stroke:none" d="M 959.5255,977.01481 C 851.0167,818.68062 943.1186,674.06745 955.0616,670.81027 c 12.1796,-3.32169 83.7556,72.97008 79.3267,160.44143 z" id="path5552" inkscape:connector-curvature="0" sodipodi:nodetypes="cscc" />
          <path inkscape:original-d="M 959.5255,977.01481 C 851.0167,818.68062 943.1186,674.06745 955.0616,670.81027 c 12.1796,-3.32169 83.7556,72.97008 79.3267,160.44143" inkscape:path-effect="#path-effect5512" sodipodi:nodetypes="csc" inkscape:connector-curvature="0" id="path4858" d="m 923.61922,927.97704 c 4.24952,9.69989 9.19759,18.70709 15.09737,26.93056 5.89978,8.22348 12.75575,15.66305 20.80891,22.10721 -3.02161,-10.1582 -6.67038,-19.6157 -10.52098,-28.70643 -3.85061,-9.09074 -7.89994,-17.81848 -11.64757,-26.3557 -8.51895,-19.40641 -14.89433,-39.6726 -18.6035,-60.44629 -5.58527,-31.10439 -5.30094,-63.28001 0.73285,-94.31654 4.48044,-22.97379 11.85349,-45.37673 22.62212,-65.95263 3.41882,-6.50911 7.0335,-12.74043 11.25413,-18.31364 10e-6,0 10e-6,-10e-6 2e-5,-10e-6 1.33166,-1.74056 2.56512,-3.29765 3.83566,-4.51797 0.42831,-0.39989 0.71442,-0.67896 0.88975,-0.78606 0,0 10e-6,0 10e-6,0 0.27699,-0.0663 -0.0842,0.0308 -1.05302,0.42646 -1.54991,0.0695 -1.96674,0.26922 -1.39984,0.17236 0.60758,0.15957 1.44088,0.66407 2.54929,1.31117 3.34569,2.04169 6.52295,4.90662 9.82821,8.04767 4.53743,4.36648 8.77243,9.15485 12.8288,14.18034 4.94293,6.1318 9.52862,12.57887 13.78733,19.25746 9.98544,15.67662 18.12374,32.51396 23.81024,50.10759 0.3701,1.14819 0.7298,2.29974 1.0786,3.45439 3.1513,10.4294 5.6676,20.10902 8.0235,29.38963 2.3559,9.28061 4.5554,18.16654 6.8472,27.28509 2.441,-8.65934 4.029,-18.20273 4.1483,-28.48304 0.1193,-10.2803 -1.2425,-21.30043 -4.657,-32.54284 -0.378,-1.24466 -0.7678,-2.48513 -1.1692,-3.72114 -6.1219,-18.89961 -14.8011,-36.88524 -25.4329,-53.55249 -4.5305,-7.10984 -9.43929,-14.00668 -14.75652,-20.60677 -4.34159,-5.39558 -8.99987,-10.64655 -14.09865,-15.56813 -3.55836,-3.47458 -7.56268,-6.984 -12.30935,-9.9811 -1.51428,-0.98595 -3.40834,-1.9891 -5.73157,-2.80712 -1.33161,-0.73012 -3.81246,-1.01059 -7.29318,-0.41453 -1.95404,0.66438 -3.19216,1.32866 -3.74487,1.85765 -10e-6,10e-6 -2e-5,10e-6 -3e-5,2e-5 -1.08736,0.79891 -1.95642,1.56758 -2.63861,2.25489 -2.09101,2.07065 -3.81907,4.19052 -5.31946,6.20629 -4.91019,6.53757 -8.96367,13.46288 -12.57052,20.3956 -11.50675,22.04244 -19.35669,45.80733 -24.05279,70.03848 -6.38666,32.85538 -6.68424,66.8683 -0.77264,99.82845 3.97028,22.01885 10.6878,43.40998 19.62991,63.82112 z" style="fill:#1c92cd;fill-opacity:1;stroke:none" />
        </g>
        <g id="g5556">
          <path sodipodi:nodetypes="cscc" inkscape:connector-curvature="0" id="path5554" d="m 1304.3454,977.90758 c 108.5088,-158.33419 22.0852,-302.94736 10.1422,-306.20454 -12.1796,-3.32169 -81.6833,67.43392 -85.005,160.44143 z" style="fill:#6dc6fb;fill-opacity:1;stroke:none" />
          <path inkscape:original-d="m 1304.3454,977.90758 c 108.5088,-158.33419 22.0852,-302.94736 10.1422,-306.20454 -12.1796,-3.32169 -81.6833,67.43392 -85.005,160.44143" inkscape:path-effect="#path-effect5544" style="fill:#1c92cd;fill-opacity:1;stroke:none" d="m 1328.4049,918.99103 c -4.27,9.93515 -8.578,19.45938 -12.6476,29.09632 -4.0695,9.63693 -7.9,19.38886 -11.4119,29.82023 8.8004,-7.09234 16.2431,-15.53839 22.4668,-24.60163 6.2237,-9.06323 11.2299,-18.7376 15.3738,-28.39769 8.2292,-19.18309 14.5516,-39.18983 18.5631,-59.75386 6.3771,-32.82691 6.8097,-66.77588 1.2317,-99.75422 0,-10e-6 0,-10e-6 0,-10e-6 -4.0653,-24.1209 -11.1974,-47.8903 -22.0465,-70.04651 -3.3783,-6.92495 -7.2056,-13.86424 -11.9165,-20.43471 -1.4349,-2.02162 -3.1046,-4.15798 -5.1509,-6.25337 -0.6682,-0.69696 -1.5298,-1.48 -2.6172,-2.29704 -0.5616,-0.54879 -1.8147,-1.22746 -3.7886,-1.9012 -10e-5,-1e-5 -10e-5,-2e-5 -10e-5,-3e-5 -3.3065,-0.59606 -5.7136,-0.37093 -7.0806,0.29274 0,0 0,10e-6 0,10e-6 -2.2939,0.73855 -4.1788,1.66772 -5.6947,2.59578 -4.7106,2.79939 -8.6958,6.11975 -12.2297,9.4166 -11.2931,10.42523 -20.745,22.41964 -29.0283,34.86057 -11.0689,16.56017 -20.1843,34.43509 -27.0202,53.16714 -0.2742,0.75067 -0.5447,1.50285 -0.8114,2.25649 -4.1846,11.82562 -6.6347,23.23005 -7.4676,34.10809 -0.8329,10.87803 -0.05,21.23912 2.3541,30.97974 2.3347,-9.3359 5.2307,-18.85137 8.4854,-28.76875 3.2547,-9.91739 6.8615,-20.24068 10.7725,-31.31973 0.2493,-0.70607 0.5021,-1.4109 0.7584,-2.11446 6.4142,-17.58324 14.9897,-34.39376 25.4002,-49.97393 7.8973,-11.7708 16.5776,-22.86404 26.7137,-32.15705 3.2635,-2.95784 6.3889,-5.64243 9.6503,-7.50928 1.0817,-0.59236 1.8954,-1.05293 2.4811,-1.18999 0,0 0,0 0,0 0.5283,0.0874 0.1653,-0.0977 -1.23,-0.17251 -0.9977,-0.40751 -1.384,-0.51925 -1.1294,-0.47004 0,0 0,0 0,0 0.1471,0.0874 0.4083,0.35271 0.8163,0.74392 1.2074,1.19499 2.3747,2.7372 3.6437,4.47092 4.023,5.55975 7.4187,11.77898 10.6217,18.27453 10.1438,20.65256 16.8353,43.05465 20.7245,65.9446 0,0 0,10e-6 0,10e-6 5.2781,31.18037 4.8672,63.3415 -1.1666,94.39074 -3.7623,19.44611 -9.7702,38.43409 -17.6195,56.69758 z" id="path4856" inkscape:connector-curvature="0" sodipodi:nodetypes="csc" />
        </g>
      </g>
      <path sodipodi:nodetypes="ccc" inkscape:connector-curvature="0" id="path6219" d="m 1108.4339,540.91885 c 23.7691,-56.09549 41.9299,-56.27754 59.0823,1.04875 -8.1031,-68.35034 -43.0919,-68.13312 -59.0823,-1.04875 z" style="fill:#1c92cd;fill-opacity:1;fill-rule:nonzero;stroke:none" />
    </g>
  </g>
</svg>
